\relax 
\citation{sutton1998introduction}
\citation{oudeyer2007intrinsic}
\citation{sutton2011horde}
\citation{puterman2009markov}
\@writefile{toc}{\contentsline {chapter}{\numberline {2}Background}{4}}
\@writefile{lof}{\addvspace {10\p@ }}
\@writefile{lot}{\addvspace {10\p@ }}
\newlabel{chap:background}{{2}{4}}
\@writefile{toc}{\contentsline {section}{\numberline {2.1}Markov Decision Processes (MDPs)}{4}}
\@writefile{toc}{\contentsline {section}{\numberline {2.2}Value Function}{5}}
\newlabel{eqn:qValue}{{2.1}{5}}
\citation{browne2012survey}
\newlabel{eqn:bellman}{{2.2}{6}}
\@writefile{toc}{\contentsline {section}{\numberline {2.3}Monte-Carlo Tree Search}{6}}
\newlabel{sec:MCTS}{{2.3}{6}}
\@writefile{loa}{\contentsline {algorithm}{\numberline {1}{\ignorespaces MCTS algorithm\relax }}{7}}
\providecommand*\caption@xref[2]{\@setref\relax\@undefined{#1}}
\newlabel{alg:mcts}{{1}{7}}
\citation{kocsis2006bandit}
\citation{auer2002finite}
\@writefile{toc}{\contentsline {section}{\numberline {2.4}UCT - UCB on Trees}{8}}
\newlabel{sec:UCT}{{2.4}{8}}
\@writefile{loa}{\contentsline {algorithm}{\numberline {2}{\ignorespaces UCT Tree Policy\relax }}{9}}
\newlabel{alg:UCT}{{2}{9}}
\newlabel{eqn:UCB}{{2.4}{9}}
\citation{childs2008transpositions}
\citation{mehat2010combining}
\@writefile{toc}{\contentsline {subsection}{\numberline {2.4.1}Convergence of UCT}{10}}
\@writefile{toc}{\contentsline {section}{\numberline {2.5}Enhancements to UCT}{10}}
\newlabel{sec:uct_enhance}{{2.5}{10}}
\@writefile{lof}{\contentsline {figure}{\numberline {2.1}{\ignorespaces DAG MDP State Diagram\relax }}{11}}
\newlabel{fig:dag_mdp}{{2.1}{11}}
\newlabel{fig:dag_uct}{{2.2(a)}{11}}
\newlabel{sub@fig:dag_uct}{{(a)}{11}}
\newlabel{fig:plain_uct}{{2.2(b)}{11}}
\newlabel{sub@fig:plain_uct}{{(b)}{11}}
\@writefile{lof}{\contentsline {figure}{\numberline {2.2}{\ignorespaces UCT Implementations\relax }}{11}}
\newlabel{fig:uct_tree}{{2.2}{11}}
\@setckpt{background}{
\setcounter{page}{13}
\setcounter{equation}{4}
\setcounter{enumi}{3}
\setcounter{enumii}{0}
\setcounter{enumiii}{0}
\setcounter{enumiv}{0}
\setcounter{footnote}{0}
\setcounter{mpfootnote}{0}
\setcounter{part}{0}
\setcounter{chapter}{2}
\setcounter{section}{5}
\setcounter{subsection}{0}
\setcounter{subsubsection}{0}
\setcounter{paragraph}{0}
\setcounter{subparagraph}{0}
\setcounter{figure}{2}
\setcounter{table}{0}
\setcounter{parentequation}{0}
\setcounter{ContinuedFloat}{0}
\setcounter{subfigure}{2}
\setcounter{subtable}{0}
\setcounter{NAT@ctr}{0}
\setcounter{thmt@dummyctr}{0}
\setcounter{float@type}{8}
\setcounter{algorithm}{2}
\setcounter{ALG@line}{24}
\setcounter{ALG@rem}{0}
\setcounter{ALG@nested}{0}
\setcounter{ALG@Lnr}{2}
\setcounter{ALG@blocknr}{10}
\setcounter{ALG@storecount}{0}
\setcounter{ALG@tmpcounter}{0}
\setcounter{lem}{0}
\setcounter{theorem}{0}
\setcounter{corollary}{0}
}
