\relax 
\citation{sutton1998introduction}
\@writefile{toc}{\contentsline {chapter}{\numberline {6}Conclusion}{35}}
\@writefile{lof}{\addvspace {10\p@ }}
\@writefile{lot}{\addvspace {10\p@ }}
\newlabel{chap:conclusion}{{6}{35}}
\@setckpt{conclusion}{
\setcounter{page}{37}
\setcounter{equation}{0}
\setcounter{enumi}{3}
\setcounter{enumii}{0}
\setcounter{enumiii}{0}
\setcounter{enumiv}{0}
\setcounter{footnote}{0}
\setcounter{mpfootnote}{0}
\setcounter{part}{0}
\setcounter{chapter}{6}
\setcounter{section}{0}
\setcounter{subsection}{0}
\setcounter{subsubsection}{0}
\setcounter{paragraph}{0}
\setcounter{subparagraph}{0}
\setcounter{figure}{0}
\setcounter{table}{0}
\setcounter{parentequation}{0}
\setcounter{ContinuedFloat}{0}
\setcounter{subfigure}{3}
\setcounter{subtable}{0}
\setcounter{NAT@ctr}{0}
\setcounter{thmt@dummyctr}{3}
\setcounter{float@type}{8}
\setcounter{algorithm}{3}
\setcounter{ALG@line}{15}
\setcounter{ALG@rem}{0}
\setcounter{ALG@nested}{0}
\setcounter{ALG@Lnr}{2}
\setcounter{ALG@blocknr}{10}
\setcounter{ALG@storecount}{0}
\setcounter{ALG@tmpcounter}{0}
\setcounter{lem}{2}
\setcounter{theorem}{1}
\setcounter{corollary}{0}
}
