\relax 
\select@language{english}
\@writefile{toc}{\select@language{english}}
\@writefile{lof}{\select@language{english}}
\@writefile{lot}{\select@language{english}}
\@writefile{toc}{\contentsline {section}{\numberline {1}Counter-Examples}{1}}
\@writefile{toc}{\contentsline {subsection}{\numberline {1.1}DAG with stochastic rewards}{1}}
\@writefile{loe}{\contentsline {theorem}{\numberline {1}Theorem}{1}}
\citation{*}
\bibstyle{plain}
\bibdata{empty}
\@writefile{toc}{\contentsline {section}{\numberline {2}Directed Loops with Guaranteed Termination}{2}}
