%!PS-Adobe-2.0 EPSF-2.0
%%Title: /home/sriram/ferl/Thesis/Research/Thesis/dag_uct.dia
%%Creator: Dia v0.97.2
%%CreationDate: Fri Oct 10 00:27:07 2014
%%For: sriram
%%Orientation: Portrait
%%Magnification: 1.0000
%%BoundingBox: 0 0 646 668
%%BeginSetup
%%EndSetup
%%EndComments
%%BeginProlog
[ /.notdef /.notdef /.notdef /.notdef /.notdef /.notdef /.notdef /.notdef /.notdef /.notdef
/.notdef /.notdef /.notdef /.notdef /.notdef /.notdef /.notdef /.notdef /.notdef /.notdef
/.notdef /.notdef /.notdef /.notdef /.notdef /.notdef /.notdef /.notdef /.notdef /.notdef
/.notdef /.notdef /space /exclam /quotedbl /numbersign /dollar /percent /ampersand /quoteright
/parenleft /parenright /asterisk /plus /comma /hyphen /period /slash /zero /one
/two /three /four /five /six /seven /eight /nine /colon /semicolon
/less /equal /greater /question /at /A /B /C /D /E
/F /G /H /I /J /K /L /M /N /O
/P /Q /R /S /T /U /V /W /X /Y
/Z /bracketleft /backslash /bracketright /asciicircum /underscore /quoteleft /a /b /c
/d /e /f /g /h /i /j /k /l /m
/n /o /p /q /r /s /t /u /v /w
/x /y /z /braceleft /bar /braceright /asciitilde /.notdef /.notdef /.notdef
/.notdef /.notdef /.notdef /.notdef /.notdef /.notdef /.notdef /.notdef /.notdef /.notdef
/.notdef /.notdef /.notdef /.notdef /.notdef /.notdef /.notdef /.notdef /.notdef /.notdef
/.notdef /.notdef /.notdef /.notdef /.notdef /.notdef /.notdef /.notdef /.notdef /.notdef
/space /exclamdown /cent /sterling /currency /yen /brokenbar /section /dieresis /copyright
/ordfeminine /guillemotleft /logicalnot /hyphen /registered /macron /degree /plusminus /twosuperior /threesuperior
/acute /mu /paragraph /periodcentered /cedilla /onesuperior /ordmasculine /guillemotright /onequarter /onehalf
/threequarters /questiondown /Agrave /Aacute /Acircumflex /Atilde /Adieresis /Aring /AE /Ccedilla
/Egrave /Eacute /Ecircumflex /Edieresis /Igrave /Iacute /Icircumflex /Idieresis /Eth /Ntilde
/Ograve /Oacute /Ocircumflex /Otilde /Odieresis /multiply /Oslash /Ugrave /Uacute /Ucircumflex
/Udieresis /Yacute /Thorn /germandbls /agrave /aacute /acircumflex /atilde /adieresis /aring
/ae /ccedilla /egrave /eacute /ecircumflex /edieresis /igrave /iacute /icircumflex /idieresis
/eth /ntilde /ograve /oacute /ocircumflex /otilde /odieresis /divide /oslash /ugrave
/uacute /ucircumflex /udieresis /yacute /thorn /ydieresis] /isolatin1encoding exch def
/cp {closepath} bind def
/c {curveto} bind def
/f {fill} bind def
/a {arc} bind def
/ef {eofill} bind def
/ex {exch} bind def
/gr {grestore} bind def
/gs {gsave} bind def
/sa {save} bind def
/rs {restore} bind def
/l {lineto} bind def
/m {moveto} bind def
/rm {rmoveto} bind def
/n {newpath} bind def
/s {stroke} bind def
/sh {show} bind def
/slc {setlinecap} bind def
/slj {setlinejoin} bind def
/slw {setlinewidth} bind def
/srgb {setrgbcolor} bind def
/rot {rotate} bind def
/sc {scale} bind def
/sd {setdash} bind def
/ff {findfont} bind def
/sf {setfont} bind def
/scf {scalefont} bind def
/sw {stringwidth pop} bind def
/tr {translate} bind def

/ellipsedict 8 dict def
ellipsedict /mtrx matrix put
/ellipse
{ ellipsedict begin
   /endangle exch def
   /startangle exch def
   /yrad exch def
   /xrad exch def
   /y exch def
   /x exch def   /savematrix mtrx currentmatrix def
   x y tr xrad yrad sc
   0 0 1 startangle endangle arc
   savematrix setmatrix
   end
} def

/mergeprocs {
dup length
3 -1 roll
dup
length
dup
5 1 roll
3 -1 roll
add
array cvx
dup
3 -1 roll
0 exch
putinterval
dup
4 2 roll
putinterval
} bind def
/dpi_x 300 def
/dpi_y 300 def
/conicto {
    /to_y exch def
    /to_x exch def
    /conic_cntrl_y exch def
    /conic_cntrl_x exch def
    currentpoint
    /p0_y exch def
    /p0_x exch def
    /p1_x p0_x conic_cntrl_x p0_x sub 2 3 div mul add def
    /p1_y p0_y conic_cntrl_y p0_y sub 2 3 div mul add def
    /p2_x p1_x to_x p0_x sub 1 3 div mul add def
    /p2_y p1_y to_y p0_y sub 1 3 div mul add def
    p1_x p1_y p2_x p2_y to_x to_y curveto
} bind def
/start_ol { gsave 1.1 dpi_x div dup scale} bind def
/end_ol { closepath fill grestore } bind def
28.346000 -28.346000 scale
-13.455000 -27.265000 translate
%%EndProlog


0.100000 slw
[] 0 sd
[] 0 sd
0 slc
0 slj
0.100000 slw
0 slc
0 slj
[] 0 sd
1.000000 1.000000 1.000000 srgb
n 25.050000 6.800000 3.050000 3.050000 0 360 ellipse f
0.000000 0.000000 0.000000 srgb
n 25.050000 6.800000 3.050000 3.050000 0 360 ellipse cp s
0 slc
0 slj
[] 0 sd
n 25.050000 6.800000 3.050000 3.050000 0 360 ellipse cp s
gsave 23.850000 6.000000 translate 0.035278 -0.035278 scale
start_ol
2816 3456 moveto
2816 2880 lineto
2579 3008 2323 3072 conicto
2068 3136 1794 3136 conicto
1377 3136 1168 3005 conicto
960 2874 960 2612 conicto
960 2412 1110 2298 conicto
1260 2184 1713 2081 conicto
1906 2038 lineto
2504 1906 2756 1666 conicto
3008 1426 3008 996 conicto
3008 507 2629 221 conicto
2251 -64 1589 -64 conicto
1313 -64 1014 0 conicto
715 64 384 192 conicto
384 768 lineto
697 608 1001 528 conicto
1305 448 1603 448 conicto
2002 448 2217 585 conicto
2432 722 2432 971 conicto
2432 1201 2277 1324 conicto
2123 1447 1600 1561 conicto
1404 1607 lineto
864 1721 624 1956 conicto
384 2192 384 2604 conicto
384 3104 729 3376 conicto
1075 3648 1711 3648 conicto
2026 3648 2303 3600 conicto
2581 3552 2816 3456 conicto
end_ol grestore 
gsave 24.289589 6.000000 translate 0.035278 -0.035278 scale
start_ol
832 512 moveto
1856 512 lineto
1856 4160 lineto
704 3904 lineto
704 4416 lineto
1848 4672 lineto
2496 4672 lineto
2496 512 lineto
3520 512 lineto
3520 0 lineto
832 0 lineto
832 512 lineto
end_ol grestore 
gsave 23.850000 7.058333 translate 0.035278 -0.035278 scale
start_ol
3520 2149 moveto
3520 0 lineto
2944 0 lineto
2944 2130 lineto
2944 2635 2748 2885 conicto
2553 3136 2163 3136 conicto
1694 3136 1423 2834 conicto
1152 2533 1152 2013 conicto
1152 0 lineto
576 0 lineto
576 3520 lineto
1152 3520 lineto
1152 3008 lineto
1360 3330 1641 3489 conicto
1922 3648 2290 3648 conicto
2897 3648 3208 3267 conicto
3520 2887 3520 2149 conicto
end_ol grestore 
gsave 24.386997 7.058333 translate 0.035278 -0.035278 scale
start_ol
end_ol grestore 
gsave 24.656739 7.058333 translate 0.035278 -0.035278 scale
start_ol
704 2880 moveto
4736 2880 lineto
4736 2368 lineto
704 2368 lineto
704 2880 lineto
704 1600 moveto
4736 1600 lineto
4736 1088 lineto
704 1088 lineto
704 1600 lineto
end_ol grestore 
gsave 25.366071 7.058333 translate 0.035278 -0.035278 scale
start_ol
end_ol grestore 
gsave 25.635813 7.058333 translate 0.035278 -0.035278 scale
start_ol
832 512 moveto
1856 512 lineto
1856 4160 lineto
704 3904 lineto
704 4416 lineto
1848 4672 lineto
2496 4672 lineto
2496 512 lineto
3520 512 lineto
3520 0 lineto
832 0 lineto
832 512 lineto
end_ol grestore 
gsave 26.172810 7.058333 translate 0.035278 -0.035278 scale
start_ol
2046 4288 moveto
1569 4288 1328 3808 conicto
1088 3329 1088 2366 conicto
1088 1407 1328 927 conicto
1569 448 2046 448 conicto
2527 448 2767 927 conicto
3008 1407 3008 2366 conicto
3008 3329 2767 3808 conicto
2527 4288 2046 4288 conicto
2048 4800 moveto
2826 4800 3237 4176 conicto
3648 3553 3648 2366 conicto
3648 1183 3237 559 conicto
2826 -64 2048 -64 conicto
1270 -64 859 559 conicto
448 1183 448 2366 conicto
448 3553 859 4176 conicto
1270 4800 2048 4800 conicto
end_ol grestore 
gsave 23.850000 8.116667 translate 0.035278 -0.035278 scale
start_ol
2809 2197 moveto
3006 2128 3192 1902 conicto
3378 1677 3566 1283 conicto
4224 0 lineto
3530 0 lineto
2956 1204 lineto
2723 1676 2504 1830 conicto
2286 1984 1908 1984 conicto
1216 1984 lineto
1216 0 lineto
576 0 lineto
576 4672 lineto
2015 4672 lineto
2806 4672 3195 4338 conicto
3584 4004 3584 3330 conicto
3584 2890 3385 2599 conicto
3187 2309 2809 2197 conicto
1216 4160 moveto
1216 2496 lineto
2015 2496 lineto
2475 2496 2709 2708 conicto
2944 2920 2944 3331 conicto
2944 3742 2709 3951 conicto
2475 4160 2015 4160 conicto
1216 4160 lineto
end_ol grestore 
gsave 24.436945 8.116667 translate 0.035278 -0.035278 scale
start_ol
end_ol grestore 
gsave 24.706688 8.116667 translate 0.035278 -0.035278 scale
start_ol
704 2880 moveto
4736 2880 lineto
4736 2368 lineto
704 2368 lineto
704 2880 lineto
704 1600 moveto
4736 1600 lineto
4736 1088 lineto
704 1088 lineto
704 1600 lineto
end_ol grestore 
gsave 25.416019 8.116667 translate 0.035278 -0.035278 scale
start_ol
end_ol grestore 
gsave 25.685762 8.116667 translate 0.035278 -0.035278 scale
start_ol
2112 2624 moveto
1699 2624 1457 2333 conicto
1216 2042 1216 1536 conicto
1216 1033 1457 740 conicto
1699 448 2112 448 conicto
2525 448 2766 740 conicto
3008 1033 3008 1536 conicto
3008 2042 2766 2333 conicto
2525 2624 2112 2624 conicto
3328 4608 moveto
3328 4032 lineto
3096 4157 2859 4222 conicto
2622 4288 2390 4288 conicto
1779 4288 1456 3858 conicto
1134 3429 1088 2561 conicto
1270 2839 1544 2987 conicto
1819 3136 2149 3136 conicto
2843 3136 3245 2706 conicto
3648 2276 3648 1536 conicto
3648 812 3226 374 conicto
2804 -64 2102 -64 conicto
1298 -64 873 559 conicto
448 1183 448 2366 conicto
448 3478 966 4139 conicto
1484 4800 2357 4800 conicto
2591 4800 2830 4752 conicto
3069 4704 3328 4608 conicto
end_ol grestore 
gsave 26.222759 8.116667 translate 0.035278 -0.035278 scale
start_ol
768 768 moveto
1408 768 lineto
1408 0 lineto
768 0 lineto
768 768 lineto
end_ol grestore 
gsave 26.492501 8.116667 translate 0.035278 -0.035278 scale
start_ol
2599 2518 moveto
3063 2422 3323 2118 conicto
3584 1815 3584 1369 conicto
3584 685 3109 310 conicto
2634 -64 1759 -64 conicto
1465 -64 1154 0 conicto
843 64 512 192 conicto
512 832 lineto
773 642 1084 545 conicto
1395 448 1734 448 conicto
2325 448 2634 682 conicto
2944 916 2944 1363 conicto
2944 1775 2659 2007 conicto
2375 2240 1868 2240 conicto
1344 2240 lineto
1344 2752 lineto
1892 2752 lineto
2340 2752 2578 2947 conicto
2816 3142 2816 3509 conicto
2816 3885 2570 4086 conicto
2325 4288 1868 4288 conicto
1605 4288 1303 4225 conicto
1002 4163 640 4032 conicto
640 4608 lineto
999 4704 1312 4752 conicto
1625 4800 1903 4800 conicto
2620 4800 3038 4466 conicto
3456 4133 3456 3565 conicto
3456 3169 3233 2896 conicto
3010 2623 2599 2518 conicto
end_ol grestore 
0.100000 slw
[] 0 sd
[] 0 sd
0 slc
0 slj
0.100000 slw
0 slc
0 slj
[] 0 sd
1.000000 1.000000 1.000000 srgb
n 16.555000 14.255000 3.050000 3.050000 0 360 ellipse f
0.000000 0.000000 0.000000 srgb
n 16.555000 14.255000 3.050000 3.050000 0 360 ellipse cp s
0 slc
0 slj
[] 0 sd
n 16.555000 14.255000 3.050000 3.050000 0 360 ellipse cp s
0.100000 slw
[] 0 sd
[] 0 sd
0 slc
0 slj
0.100000 slw
0 slc
0 slj
[] 0 sd
1.000000 1.000000 1.000000 srgb
n 33.060000 14.660000 3.050000 3.050000 0 360 ellipse f
0.000000 0.000000 0.000000 srgb
n 33.060000 14.660000 3.050000 3.050000 0 360 ellipse cp s
0 slc
0 slj
[] 0 sd
n 33.060000 14.660000 3.050000 3.050000 0 360 ellipse cp s
0.100000 slw
[] 0 sd
[] 0 sd
0 slc
0 slj
0.100000 slw
0 slc
0 slj
[] 0 sd
1.000000 1.000000 1.000000 srgb
n 33.115000 24.165000 3.050000 3.050000 0 360 ellipse f
0.000000 0.000000 0.000000 srgb
n 33.115000 24.165000 3.050000 3.050000 0 360 ellipse cp s
0 slc
0 slj
[] 0 sd
n 33.115000 24.165000 3.050000 3.050000 0 360 ellipse cp s
gsave 32.105000 13.800000 translate 0.035278 -0.035278 scale
start_ol
2816 3456 moveto
2816 2880 lineto
2579 3008 2323 3072 conicto
2068 3136 1794 3136 conicto
1377 3136 1168 3005 conicto
960 2874 960 2612 conicto
960 2412 1110 2298 conicto
1260 2184 1713 2081 conicto
1906 2038 lineto
2504 1906 2756 1666 conicto
3008 1426 3008 996 conicto
3008 507 2629 221 conicto
2251 -64 1589 -64 conicto
1313 -64 1014 0 conicto
715 64 384 192 conicto
384 768 lineto
697 608 1001 528 conicto
1305 448 1603 448 conicto
2002 448 2217 585 conicto
2432 722 2432 971 conicto
2432 1201 2277 1324 conicto
2123 1447 1600 1561 conicto
1404 1607 lineto
864 1721 624 1956 conicto
384 2192 384 2604 conicto
384 3104 729 3376 conicto
1075 3648 1711 3648 conicto
2026 3648 2303 3600 conicto
2581 3552 2816 3456 conicto
end_ol grestore 
gsave 32.544589 13.800000 translate 0.035278 -0.035278 scale
start_ol
1250 512 moveto
3481 512 lineto
3481 0 lineto
512 0 lineto
512 512 lineto
872 893 1492 1534 conicto
2113 2176 2272 2362 conicto
2575 2710 2695 2952 conicto
2816 3194 2816 3427 conicto
2816 3808 2551 4048 conicto
2287 4288 1862 4288 conicto
1561 4288 1226 4177 conicto
892 4066 512 3840 conicto
512 4480 lineto
898 4638 1233 4719 conicto
1569 4800 1848 4800 conicto
2582 4800 3019 4431 conicto
3456 4063 3456 3447 conicto
3456 3155 3347 2893 conicto
3238 2631 2950 2275 conicto
2870 2183 2446 1743 conicto
2022 1303 1250 512 conicto
end_ol grestore 
gsave 32.105000 14.858333 translate 0.035278 -0.035278 scale
start_ol
3520 2149 moveto
3520 0 lineto
2944 0 lineto
2944 2130 lineto
2944 2635 2748 2885 conicto
2553 3136 2163 3136 conicto
1694 3136 1423 2834 conicto
1152 2533 1152 2013 conicto
1152 0 lineto
576 0 lineto
576 3520 lineto
1152 3520 lineto
1152 3008 lineto
1360 3330 1641 3489 conicto
1922 3648 2290 3648 conicto
2897 3648 3208 3267 conicto
3520 2887 3520 2149 conicto
end_ol grestore 
gsave 32.641997 14.858333 translate 0.035278 -0.035278 scale
start_ol
end_ol grestore 
gsave 32.911739 14.858333 translate 0.035278 -0.035278 scale
start_ol
704 2880 moveto
4736 2880 lineto
4736 2368 lineto
704 2368 lineto
704 2880 lineto
704 1600 moveto
4736 1600 lineto
4736 1088 lineto
704 1088 lineto
704 1600 lineto
end_ol grestore 
gsave 33.621071 14.858333 translate 0.035278 -0.035278 scale
start_ol
end_ol grestore 
gsave 33.890813 14.858333 translate 0.035278 -0.035278 scale
start_ol
512 4672 moveto
3520 4672 lineto
3520 4403 lineto
1816 0 lineto
1152 0 lineto
2756 4160 lineto
512 4160 lineto
512 4672 lineto
end_ol grestore 
gsave 32.105000 15.916667 translate 0.035278 -0.035278 scale
start_ol
2809 2197 moveto
3006 2128 3192 1902 conicto
3378 1677 3566 1283 conicto
4224 0 lineto
3530 0 lineto
2956 1204 lineto
2723 1676 2504 1830 conicto
2286 1984 1908 1984 conicto
1216 1984 lineto
1216 0 lineto
576 0 lineto
576 4672 lineto
2015 4672 lineto
2806 4672 3195 4338 conicto
3584 4004 3584 3330 conicto
3584 2890 3385 2599 conicto
3187 2309 2809 2197 conicto
1216 4160 moveto
1216 2496 lineto
2015 2496 lineto
2475 2496 2709 2708 conicto
2944 2920 2944 3331 conicto
2944 3742 2709 3951 conicto
2475 4160 2015 4160 conicto
1216 4160 lineto
end_ol grestore 
gsave 32.691945 15.916667 translate 0.035278 -0.035278 scale
start_ol
end_ol grestore 
gsave 32.961688 15.916667 translate 0.035278 -0.035278 scale
start_ol
704 2880 moveto
4736 2880 lineto
4736 2368 lineto
704 2368 lineto
704 2880 lineto
704 1600 moveto
4736 1600 lineto
4736 1088 lineto
704 1088 lineto
704 1600 lineto
end_ol grestore 
gsave 33.671019 15.916667 translate 0.035278 -0.035278 scale
start_ol
end_ol grestore 
gsave 33.940762 15.916667 translate 0.035278 -0.035278 scale
start_ol
832 512 moveto
1856 512 lineto
1856 4160 lineto
704 3904 lineto
704 4416 lineto
1848 4672 lineto
2496 4672 lineto
2496 512 lineto
3520 512 lineto
3520 0 lineto
832 0 lineto
832 512 lineto
end_ol grestore 
gsave 34.477759 15.916667 translate 0.035278 -0.035278 scale
start_ol
768 768 moveto
1408 768 lineto
1408 0 lineto
768 0 lineto
768 768 lineto
end_ol grestore 
gsave 34.747501 15.916667 translate 0.035278 -0.035278 scale
start_ol
512 4672 moveto
3520 4672 lineto
3520 4403 lineto
1816 0 lineto
1152 0 lineto
2756 4160 lineto
512 4160 lineto
512 4672 lineto
end_ol grestore 
gsave 15.255000 13.342500 translate 0.035278 -0.035278 scale
start_ol
2816 3456 moveto
2816 2880 lineto
2579 3008 2323 3072 conicto
2068 3136 1794 3136 conicto
1377 3136 1168 3005 conicto
960 2874 960 2612 conicto
960 2412 1110 2298 conicto
1260 2184 1713 2081 conicto
1906 2038 lineto
2504 1906 2756 1666 conicto
3008 1426 3008 996 conicto
3008 507 2629 221 conicto
2251 -64 1589 -64 conicto
1313 -64 1014 0 conicto
715 64 384 192 conicto
384 768 lineto
697 608 1001 528 conicto
1305 448 1603 448 conicto
2002 448 2217 585 conicto
2432 722 2432 971 conicto
2432 1201 2277 1324 conicto
2123 1447 1600 1561 conicto
1404 1607 lineto
864 1721 624 1956 conicto
384 2192 384 2604 conicto
384 3104 729 3376 conicto
1075 3648 1711 3648 conicto
2026 3648 2303 3600 conicto
2581 3552 2816 3456 conicto
end_ol grestore 
gsave 15.694589 13.342500 translate 0.035278 -0.035278 scale
start_ol
2599 2518 moveto
3063 2422 3323 2118 conicto
3584 1815 3584 1369 conicto
3584 685 3109 310 conicto
2634 -64 1759 -64 conicto
1465 -64 1154 0 conicto
843 64 512 192 conicto
512 832 lineto
773 642 1084 545 conicto
1395 448 1734 448 conicto
2325 448 2634 682 conicto
2944 916 2944 1363 conicto
2944 1775 2659 2007 conicto
2375 2240 1868 2240 conicto
1344 2240 lineto
1344 2752 lineto
1892 2752 lineto
2340 2752 2578 2947 conicto
2816 3142 2816 3509 conicto
2816 3885 2570 4086 conicto
2325 4288 1868 4288 conicto
1605 4288 1303 4225 conicto
1002 4163 640 4032 conicto
640 4608 lineto
999 4704 1312 4752 conicto
1625 4800 1903 4800 conicto
2620 4800 3038 4466 conicto
3456 4133 3456 3565 conicto
3456 3169 3233 2896 conicto
3010 2623 2599 2518 conicto
end_ol grestore 
gsave 15.255000 14.400833 translate 0.035278 -0.035278 scale
start_ol
3520 2149 moveto
3520 0 lineto
2944 0 lineto
2944 2130 lineto
2944 2635 2748 2885 conicto
2553 3136 2163 3136 conicto
1694 3136 1423 2834 conicto
1152 2533 1152 2013 conicto
1152 0 lineto
576 0 lineto
576 3520 lineto
1152 3520 lineto
1152 3008 lineto
1360 3330 1641 3489 conicto
1922 3648 2290 3648 conicto
2897 3648 3208 3267 conicto
3520 2887 3520 2149 conicto
end_ol grestore 
gsave 15.791997 14.400833 translate 0.035278 -0.035278 scale
start_ol
end_ol grestore 
gsave 16.061739 14.400833 translate 0.035278 -0.035278 scale
start_ol
704 2880 moveto
4736 2880 lineto
4736 2368 lineto
704 2368 lineto
704 2880 lineto
704 1600 moveto
4736 1600 lineto
4736 1088 lineto
704 1088 lineto
704 1600 lineto
end_ol grestore 
gsave 16.771071 14.400833 translate 0.035278 -0.035278 scale
start_ol
end_ol grestore 
gsave 17.040813 14.400833 translate 0.035278 -0.035278 scale
start_ol
2046 2176 moveto
1600 2176 1344 1946 conicto
1088 1716 1088 1312 conicto
1088 908 1344 678 conicto
1600 448 2046 448 conicto
2493 448 2750 679 conicto
3008 911 3008 1312 conicto
3008 1716 2752 1946 conicto
2496 2176 2046 2176 conicto
1439 2453 moveto
1031 2557 803 2845 conicto
576 3133 576 3547 conicto
576 4127 969 4463 conicto
1363 4800 2048 4800 conicto
2736 4800 3128 4463 conicto
3520 4127 3520 3547 conicto
3520 3133 3291 2845 conicto
3063 2557 2657 2453 conicto
3125 2349 3386 2046 conicto
3648 1744 3648 1308 conicto
3648 645 3234 290 conicto
2820 -64 2048 -64 conicto
1276 -64 862 290 conicto
448 645 448 1308 conicto
448 1744 710 2046 conicto
972 2349 1439 2453 conicto
1216 3488 moveto
1216 3111 1434 2899 conicto
1652 2688 2046 2688 conicto
2438 2688 2659 2899 conicto
2880 3111 2880 3488 conicto
2880 3865 2659 4076 conicto
2438 4288 2046 4288 conicto
1652 4288 1434 4076 conicto
1216 3865 1216 3488 conicto
end_ol grestore 
gsave 15.255000 15.459167 translate 0.035278 -0.035278 scale
start_ol
2809 2197 moveto
3006 2128 3192 1902 conicto
3378 1677 3566 1283 conicto
4224 0 lineto
3530 0 lineto
2956 1204 lineto
2723 1676 2504 1830 conicto
2286 1984 1908 1984 conicto
1216 1984 lineto
1216 0 lineto
576 0 lineto
576 4672 lineto
2015 4672 lineto
2806 4672 3195 4338 conicto
3584 4004 3584 3330 conicto
3584 2890 3385 2599 conicto
3187 2309 2809 2197 conicto
1216 4160 moveto
1216 2496 lineto
2015 2496 lineto
2475 2496 2709 2708 conicto
2944 2920 2944 3331 conicto
2944 3742 2709 3951 conicto
2475 4160 2015 4160 conicto
1216 4160 lineto
end_ol grestore 
gsave 15.841945 15.459167 translate 0.035278 -0.035278 scale
start_ol
end_ol grestore 
gsave 16.111688 15.459167 translate 0.035278 -0.035278 scale
start_ol
704 2880 moveto
4736 2880 lineto
4736 2368 lineto
704 2368 lineto
704 2880 lineto
704 1600 moveto
4736 1600 lineto
4736 1088 lineto
704 1088 lineto
704 1600 lineto
end_ol grestore 
gsave 16.821019 15.459167 translate 0.035278 -0.035278 scale
start_ol
end_ol grestore 
gsave 17.090762 15.459167 translate 0.035278 -0.035278 scale
start_ol
2046 4288 moveto
1569 4288 1328 3808 conicto
1088 3329 1088 2366 conicto
1088 1407 1328 927 conicto
1569 448 2046 448 conicto
2527 448 2767 927 conicto
3008 1407 3008 2366 conicto
3008 3329 2767 3808 conicto
2527 4288 2046 4288 conicto
2048 4800 moveto
2826 4800 3237 4176 conicto
3648 3553 3648 2366 conicto
3648 1183 3237 559 conicto
2826 -64 2048 -64 conicto
1270 -64 859 559 conicto
448 1183 448 2366 conicto
448 3553 859 4176 conicto
1270 4800 2048 4800 conicto
end_ol grestore 
gsave 31.905000 23.292500 translate 0.035278 -0.035278 scale
start_ol
2816 3456 moveto
2816 2880 lineto
2579 3008 2323 3072 conicto
2068 3136 1794 3136 conicto
1377 3136 1168 3005 conicto
960 2874 960 2612 conicto
960 2412 1110 2298 conicto
1260 2184 1713 2081 conicto
1906 2038 lineto
2504 1906 2756 1666 conicto
3008 1426 3008 996 conicto
3008 507 2629 221 conicto
2251 -64 1589 -64 conicto
1313 -64 1014 0 conicto
715 64 384 192 conicto
384 768 lineto
697 608 1001 528 conicto
1305 448 1603 448 conicto
2002 448 2217 585 conicto
2432 722 2432 971 conicto
2432 1201 2277 1324 conicto
2123 1447 1600 1561 conicto
1404 1607 lineto
864 1721 624 1956 conicto
384 2192 384 2604 conicto
384 3104 729 3376 conicto
1075 3648 1711 3648 conicto
2026 3648 2303 3600 conicto
2581 3552 2816 3456 conicto
end_ol grestore 
gsave 32.344589 23.292500 translate 0.035278 -0.035278 scale
start_ol
2432 4116 moveto
834 1600 lineto
2432 1600 lineto
2432 4116 lineto
2273 4672 moveto
3072 4672 lineto
3072 1600 lineto
3712 1600 lineto
3712 1088 lineto
3072 1088 lineto
3072 0 lineto
2432 0 lineto
2432 1088 lineto
320 1088 lineto
320 1701 lineto
2273 4672 lineto
end_ol grestore 
gsave 31.905000 24.350833 translate 0.035278 -0.035278 scale
start_ol
3520 2149 moveto
3520 0 lineto
2944 0 lineto
2944 2130 lineto
2944 2635 2748 2885 conicto
2553 3136 2163 3136 conicto
1694 3136 1423 2834 conicto
1152 2533 1152 2013 conicto
1152 0 lineto
576 0 lineto
576 3520 lineto
1152 3520 lineto
1152 3008 lineto
1360 3330 1641 3489 conicto
1922 3648 2290 3648 conicto
2897 3648 3208 3267 conicto
3520 2887 3520 2149 conicto
end_ol grestore 
gsave 32.441997 24.350833 translate 0.035278 -0.035278 scale
start_ol
end_ol grestore 
gsave 32.711739 24.350833 translate 0.035278 -0.035278 scale
start_ol
704 2880 moveto
4736 2880 lineto
4736 2368 lineto
704 2368 lineto
704 2880 lineto
704 1600 moveto
4736 1600 lineto
4736 1088 lineto
704 1088 lineto
704 1600 lineto
end_ol grestore 
gsave 33.421071 24.350833 translate 0.035278 -0.035278 scale
start_ol
end_ol grestore 
gsave 33.690813 24.350833 translate 0.035278 -0.035278 scale
start_ol
1250 512 moveto
3481 512 lineto
3481 0 lineto
512 0 lineto
512 512 lineto
872 893 1492 1534 conicto
2113 2176 2272 2362 conicto
2575 2710 2695 2952 conicto
2816 3194 2816 3427 conicto
2816 3808 2551 4048 conicto
2287 4288 1862 4288 conicto
1561 4288 1226 4177 conicto
892 4066 512 3840 conicto
512 4480 lineto
898 4638 1233 4719 conicto
1569 4800 1848 4800 conicto
2582 4800 3019 4431 conicto
3456 4063 3456 3447 conicto
3456 3155 3347 2893 conicto
3238 2631 2950 2275 conicto
2870 2183 2446 1743 conicto
2022 1303 1250 512 conicto
end_ol grestore 
gsave 31.905000 25.409167 translate 0.035278 -0.035278 scale
start_ol
2809 2197 moveto
3006 2128 3192 1902 conicto
3378 1677 3566 1283 conicto
4224 0 lineto
3530 0 lineto
2956 1204 lineto
2723 1676 2504 1830 conicto
2286 1984 1908 1984 conicto
1216 1984 lineto
1216 0 lineto
576 0 lineto
576 4672 lineto
2015 4672 lineto
2806 4672 3195 4338 conicto
3584 4004 3584 3330 conicto
3584 2890 3385 2599 conicto
3187 2309 2809 2197 conicto
1216 4160 moveto
1216 2496 lineto
2015 2496 lineto
2475 2496 2709 2708 conicto
2944 2920 2944 3331 conicto
2944 3742 2709 3951 conicto
2475 4160 2015 4160 conicto
1216 4160 lineto
end_ol grestore 
gsave 32.491945 25.409167 translate 0.035278 -0.035278 scale
start_ol
end_ol grestore 
gsave 32.761688 25.409167 translate 0.035278 -0.035278 scale
start_ol
704 2880 moveto
4736 2880 lineto
4736 2368 lineto
704 2368 lineto
704 2880 lineto
704 1600 moveto
4736 1600 lineto
4736 1088 lineto
704 1088 lineto
704 1600 lineto
end_ol grestore 
gsave 33.471019 25.409167 translate 0.035278 -0.035278 scale
start_ol
end_ol grestore 
gsave 33.740762 25.409167 translate 0.035278 -0.035278 scale
start_ol
2046 4288 moveto
1569 4288 1328 3808 conicto
1088 3329 1088 2366 conicto
1088 1407 1328 927 conicto
1569 448 2046 448 conicto
2527 448 2767 927 conicto
3008 1407 3008 2366 conicto
3008 3329 2767 3808 conicto
2527 4288 2046 4288 conicto
2048 4800 moveto
2826 4800 3237 4176 conicto
3648 3553 3648 2366 conicto
3648 1183 3237 559 conicto
2826 -64 2048 -64 conicto
1270 -64 859 559 conicto
448 1183 448 2366 conicto
448 3553 859 4176 conicto
1270 4800 2048 4800 conicto
end_ol grestore 
0.100000 slw
[] 0 sd
[] 0 sd
0 slc
n 22.510934 8.579199 m 18.598668 11.320641 l s
[] 0 sd
0 slj
0 slc
n 18.291562 11.535840 m 18.557571 11.044171 l 18.598668 11.320641 l 18.844503 11.453646 l ef
n 18.291562 11.535840 m 18.557571 11.044171 l 18.598668 11.320641 l 18.844503 11.453646 l cp s
0.100000 slw
[] 0 sd
[] 0 sd
0 slc
n 27.344678 8.884332 m 30.689659 11.922690 l s
[] 0 sd
0 slj
0 slc
n 30.967241 12.174827 m 30.429040 12.023699 l 30.689659 11.922690 l 30.765223 11.653590 l ef
n 30.967241 12.174827 m 30.429040 12.023699 l 30.689659 11.922690 l 30.765223 11.653590 l cp s
0.100000 slw
[] 0 sd
[] 0 sd
0 slc
n 33.060000 17.710000 m 33.051502 20.463199 l s
[] 0 sd
0 slj
0 slc
n 33.050345 20.838197 m 32.801889 20.337428 l 33.051502 20.463199 l 33.301887 20.338971 l ef
n 33.050345 20.838197 m 32.801889 20.337428 l 33.051502 20.463199 l 33.301887 20.338971 l cp s
0.100000 slw
[] 0 sd
[] 0 sd
0 slc
n 30.010000 14.660000 m 20.186800 14.698111 l s
[] 0 sd
0 slj
0 slc
n 19.811803 14.699566 m 20.310829 14.447628 l 20.186800 14.698111 l 20.312769 14.947625 l ef
n 19.811803 14.699566 m 20.310829 14.447628 l 20.186800 14.698111 l 20.312769 14.947625 l cp s
showpage
