\relax 
\@writefile{toc}{\contentsline {chapter}{\numberline {5}Experiments}{27}}
\@writefile{lof}{\addvspace {10\p@ }}
\@writefile{lot}{\addvspace {10\p@ }}
\newlabel{chap:expt}{{5}{27}}
\@writefile{toc}{\contentsline {section}{\numberline {5.1}Experiment Setup}{27}}
\@writefile{toc}{\contentsline {section}{\numberline {5.2}Grid World Domains}{27}}
\newlabel{fig:grid_bar}{{5.1(a)}{28}}
\newlabel{sub@fig:grid_bar}{{(a)}{28}}
\newlabel{fig:grid_wall_bar}{{5.1(b)}{28}}
\newlabel{sub@fig:grid_wall_bar}{{(b)}{28}}
\@writefile{lof}{\contentsline {figure}{\numberline {5.1}{\ignorespaces Performance on Grid World Domains\relax }}{28}}
\newlabel{fig:grid_bar_charts}{{5.1}{28}}
\@writefile{lof}{\contentsline {figure}{\numberline {5.2}{\ignorespaces Games Domains\relax }}{29}}
\newlabel{fig:games}{{5.2}{29}}
\@writefile{toc}{\contentsline {section}{\numberline {5.3}Game Domains}{29}}
\@writefile{toc}{\contentsline {subsection}{\numberline {5.3.1}Performance Comparison.}{30}}
\@writefile{lof}{\contentsline {figure}{\numberline {5.3}{\ignorespaces Performance comparison between mNN-UCT and UCT on Game Domains\relax }}{31}}
\newlabel{fig:perfcomp}{{5.3}{31}}
\@writefile{lof}{\contentsline {figure}{\numberline {5.4}{\ignorespaces Parameter sensitivity of mNN-UCT algorithm on Game Domains\relax }}{32}}
\newlabel{fig:paramsens}{{5.4}{32}}
\@writefile{toc}{\contentsline {subsection}{\numberline {5.3.2}Parameter Sensitivity.}{33}}
\@writefile{toc}{\contentsline {section}{\numberline {5.4}Summary}{33}}
\@setckpt{experiments}{
\setcounter{page}{35}
\setcounter{equation}{0}
\setcounter{enumi}{3}
\setcounter{enumii}{0}
\setcounter{enumiii}{0}
\setcounter{enumiv}{0}
\setcounter{footnote}{0}
\setcounter{mpfootnote}{0}
\setcounter{part}{0}
\setcounter{chapter}{5}
\setcounter{section}{4}
\setcounter{subsection}{0}
\setcounter{subsubsection}{0}
\setcounter{paragraph}{0}
\setcounter{subparagraph}{0}
\setcounter{figure}{4}
\setcounter{table}{0}
\setcounter{parentequation}{0}
\setcounter{ContinuedFloat}{0}
\setcounter{subfigure}{3}
\setcounter{subtable}{0}
\setcounter{NAT@ctr}{0}
\setcounter{thmt@dummyctr}{3}
\setcounter{float@type}{8}
\setcounter{algorithm}{3}
\setcounter{ALG@line}{15}
\setcounter{ALG@rem}{0}
\setcounter{ALG@nested}{0}
\setcounter{ALG@Lnr}{2}
\setcounter{ALG@blocknr}{10}
\setcounter{ALG@storecount}{0}
\setcounter{ALG@tmpcounter}{0}
\setcounter{lem}{2}
\setcounter{theorem}{1}
\setcounter{corollary}{0}
}
