%!PS-Adobe-3.0 EPSF-3.0
%%Creator: MATLAB, The Mathworks, Inc. Version 7.9.0.529 (R2009b). Operating System: Linux 3.13.0-34-generic #60-Ubuntu SMP Wed Aug 13 15:49:09 UTC 2014 i686.
%%Title: /home/sriram/ferl/Thesis/Research/AAAI_2015/freeway_scatter.eps
%%CreationDate: 09/14/2014  18:08:35
%%DocumentNeededFonts: Helvetica
%%DocumentProcessColors: Cyan Magenta Yellow Black
%%LanguageLevel: 2
%%Pages: 1
%%BoundingBox:  -239   147   853   644
%%EndComments

%%BeginProlog
% MathWorks dictionary
/MathWorks 160 dict begin
% definition operators
/bdef {bind def} bind def
/ldef {load def} bind def
/xdef {exch def} bdef
/xstore {exch store} bdef
% operator abbreviations
/c  /clip ldef
/cc /concat ldef
/cp /closepath ldef
/gr /grestore ldef
/gs /gsave ldef
/mt /moveto ldef
/np /newpath ldef
/cm /currentmatrix ldef
/sm /setmatrix ldef
/rm /rmoveto ldef
/rl /rlineto ldef
/s {show newpath} bdef
/sc {setcmykcolor} bdef
/sr /setrgbcolor ldef
/sg /setgray ldef
/w /setlinewidth ldef
/j /setlinejoin ldef
/cap /setlinecap ldef
/rc {rectclip} bdef
/rf {rectfill} bdef
% page state control
/pgsv () def
/bpage {/pgsv save def} bdef
/epage {pgsv restore} bdef
/bplot /gsave ldef
/eplot {stroke grestore} bdef
% orientation switch
/portraitMode 0 def /landscapeMode 1 def /rotateMode 2 def
% coordinate system mappings
/dpi2point 0 def
% font control
/FontSize 0 def
/FMS {/FontSize xstore findfont [FontSize 0 0 FontSize neg 0 0]
  makefont setfont} bdef
/reencode {exch dup where {pop load} {pop StandardEncoding} ifelse
  exch dup 3 1 roll findfont dup length dict begin
  { 1 index /FID ne {def}{pop pop} ifelse } forall
  /Encoding exch def currentdict end definefont pop} bdef
/isroman {findfont /CharStrings get /Agrave known} bdef
/FMSR {3 1 roll 1 index dup isroman {reencode} {pop pop} ifelse
  exch FMS} bdef
/csm {1 dpi2point div -1 dpi2point div scale neg translate
 dup landscapeMode eq {pop -90 rotate}
  {rotateMode eq {90 rotate} if} ifelse} bdef
% line types: solid, dotted, dashed, dotdash
/SO { [] 0 setdash } bdef
/DO { [.5 dpi2point mul 4 dpi2point mul] 0 setdash } bdef
/DA { [6 dpi2point mul] 0 setdash } bdef
/DD { [.5 dpi2point mul 4 dpi2point mul 6 dpi2point mul 4
  dpi2point mul] 0 setdash } bdef
% macros for lines and objects
/L {lineto stroke} bdef
/MP {3 1 roll moveto 1 sub {rlineto} repeat} bdef
/AP {{rlineto} repeat} bdef
/PDlw -1 def
/W {/PDlw currentlinewidth def setlinewidth} def
/PP {closepath eofill} bdef
/DP {closepath stroke} bdef
/MR {4 -2 roll moveto dup  0 exch rlineto exch 0 rlineto
  neg 0 exch rlineto closepath} bdef
/FR {MR stroke} bdef
/PR {MR fill} bdef
/L1i {{currentfile picstr readhexstring pop} image} bdef
/tMatrix matrix def
/MakeOval {newpath tMatrix currentmatrix pop translate scale
0 0 1 0 360 arc tMatrix setmatrix} bdef
/FO {MakeOval stroke} bdef
/PO {MakeOval fill} bdef
/PD {currentlinewidth 2 div 0 360 arc fill
   PDlw -1 eq not {PDlw w /PDlw -1 def} if} def
/FA {newpath tMatrix currentmatrix pop translate scale
  0 0 1 5 -2 roll arc tMatrix setmatrix stroke} bdef
/PA {newpath tMatrix currentmatrix pop	translate 0 0 moveto scale
  0 0 1 5 -2 roll arc closepath tMatrix setmatrix fill} bdef
/FAn {newpath tMatrix currentmatrix pop translate scale
  0 0 1 5 -2 roll arcn tMatrix setmatrix stroke} bdef
/PAn {newpath tMatrix currentmatrix pop translate 0 0 moveto scale
  0 0 1 5 -2 roll arcn closepath tMatrix setmatrix fill} bdef
/vradius 0 def /hradius 0 def /lry 0 def
/lrx 0 def /uly 0 def /ulx 0 def /rad 0 def
/MRR {/vradius xdef /hradius xdef /lry xdef /lrx xdef /uly xdef
  /ulx xdef newpath tMatrix currentmatrix pop ulx hradius add uly
  vradius add translate hradius vradius scale 0 0 1 180 270 arc 
  tMatrix setmatrix lrx hradius sub uly vradius add translate
  hradius vradius scale 0 0 1 270 360 arc tMatrix setmatrix
  lrx hradius sub lry vradius sub translate hradius vradius scale
  0 0 1 0 90 arc tMatrix setmatrix ulx hradius add lry vradius sub
  translate hradius vradius scale 0 0 1 90 180 arc tMatrix setmatrix
  closepath} bdef
/FRR {MRR stroke } bdef
/PRR {MRR fill } bdef
/MlrRR {/lry xdef /lrx xdef /uly xdef /ulx xdef /rad lry uly sub 2 div def
  newpath tMatrix currentmatrix pop ulx rad add uly rad add translate
  rad rad scale 0 0 1 90 270 arc tMatrix setmatrix lrx rad sub lry rad
  sub translate rad rad scale 0 0 1 270 90 arc tMatrix setmatrix
  closepath} bdef
/FlrRR {MlrRR stroke } bdef
/PlrRR {MlrRR fill } bdef
/MtbRR {/lry xdef /lrx xdef /uly xdef /ulx xdef /rad lrx ulx sub 2 div def
  newpath tMatrix currentmatrix pop ulx rad add uly rad add translate
  rad rad scale 0 0 1 180 360 arc tMatrix setmatrix lrx rad sub lry rad
  sub translate rad rad scale 0 0 1 0 180 arc tMatrix setmatrix
  closepath} bdef
/FtbRR {MtbRR stroke } bdef
/PtbRR {MtbRR fill } bdef
/stri 6 array def /dtri 6 array def
/smat 6 array def /dmat 6 array def
/tmat1 6 array def /tmat2 6 array def /dif 3 array def
/asub {/ind2 exch def /ind1 exch def dup dup
  ind1 get exch ind2 get sub exch } bdef
/tri_to_matrix {
  2 0 asub 3 1 asub 4 0 asub 5 1 asub
  dup 0 get exch 1 get 7 -1 roll astore } bdef
/compute_transform {
  dmat dtri tri_to_matrix tmat1 invertmatrix 
  smat stri tri_to_matrix tmat2 concatmatrix } bdef
/ds {stri astore pop} bdef
/dt {dtri astore pop} bdef
/db {2 copy /cols xdef /rows xdef mul dup 3 mul string
  currentfile 
  3 index 0 eq {/ASCIIHexDecode filter}
  {/ASCII85Decode filter 3 index 2 eq {/RunLengthDecode filter} if }
  ifelse exch readstring pop
  dup 0 3 index getinterval /rbmap xdef
  dup 2 index dup getinterval /gbmap xdef
  1 index dup 2 mul exch getinterval /bbmap xdef pop pop}bdef
/it {gs np dtri aload pop moveto lineto lineto cp c
  cols rows 8 compute_transform 
  rbmap gbmap bbmap true 3 colorimage gr}bdef
/il {newpath moveto lineto stroke}bdef
currentdict end def
%%EndProlog

%%BeginSetup
MathWorks begin

0 cap

end
%%EndSetup

%%Page: 1 1
%%BeginPageSetup
%%PageBoundingBox:  -239   147   853   644
MathWorks begin
bpage
%%EndPageSetup

%%BeginObject: obj1
bplot

/dpi2point 12 def
portraitMode -2868 7728 csm

    0     0 13112  5953 rc
85 dict begin %Colortable dictionary
/c0 { 0.000000 0.000000 0.000000 sr} bdef
/c1 { 1.000000 1.000000 1.000000 sr} bdef
/c2 { 0.900000 0.000000 0.000000 sr} bdef
/c3 { 0.000000 0.820000 0.000000 sr} bdef
/c4 { 0.000000 0.000000 0.800000 sr} bdef
/c5 { 0.910000 0.820000 0.320000 sr} bdef
/c6 { 1.000000 0.260000 0.820000 sr} bdef
/c7 { 0.000000 0.820000 0.820000 sr} bdef
c0
1 j
1 sg
   0    0 13113 5954 rf
6 w
0 4393 10161 0 0 -4393 1705 4839 4 MP
PP
-10161 0 0 4393 10161 0 0 -4393 1705 4839 5 MP stroke
4 w
DO
SO
6 w
0 sg
1705 4839 mt 11866 4839 L
1705 4839 mt 1705  446 L
1705 4839 mt 1705 4737 L
%%IncludeResource: font Helvetica
/Helvetica /ISOLatin1Encoding 480 FMSR

1292 5319 mt 
(-6) s
3737 4839 mt 3737 4737 L
3324 5319 mt 
(-4) s
5769 4839 mt 5769 4737 L
5356 5319 mt 
(-2) s
7801 4839 mt 7801 4737 L
7668 5319 mt 
(0) s
9833 4839 mt 9833 4737 L
9700 5319 mt 
(2) s
11866 4839 mt 11866 4737 L
11733 5319 mt 
(4) s
1705 4839 mt 1806 4839 L
1404 5017 mt 
(0) s
1705 3374 mt 1806 3374 L
1404 3552 mt 
(5) s
1705 1910 mt 1806 1910 L
1137 2088 mt 
(10) s
1705  446 mt 1806  446 L
1137  624 mt 
(15) s
gs 1705 446 10162 4394 rc
0 j
gs 2441 3422 560 561 rc
0 -218 -218 0 0 218 218 0 2612 3593 5 MP
/c8 { 1.000000 0.000000 0.000000 sr} bdef
c8
gs
PP
gr
DP
gr

c8
gs 3457 3484 561 561 rc
0 -218 -218 0 0 218 218 0 3628 3655 5 MP
gs
PP
gr
DP
gr

gs 4473 3443 561 561 rc
0 -218 -218 0 0 218 218 0 4644 3614 5 MP
gs
PP
gr
DP
gr

gs 5489 3569 561 561 rc
0 -218 -218 0 0 218 218 0 5660 3740 5 MP
gs
PP
gr
DP
gr

gs 6505 3746 561 560 rc
0 -218 -218 0 0 218 218 0 6676 3917 5 MP
gs
PP
gr
DP
gr

gs 7521 3882 561 561 rc
0 -218 -218 0 0 218 218 0 7692 4053 5 MP
gs
PP
gr
DP
gr

gs 8537 3927 561 561 rc
0 -218 -218 0 0 218 218 0 8708 4098 5 MP
gs
PP
gr
DP
gr

gs 9553 3969 561 561 rc
0 -218 -218 0 0 218 218 0 9724 4140 5 MP
gs
PP
gr
DP
gr

gs 10570 3971 560 561 rc
0 -218 -218 0 0 218 218 0 10740 4142 5 MP
gs
PP
gr
DP
gr

gr

c8
gs 11586 3925 560 561 rc
0 j
0 -218 -218 0 0 218 218 0 11757 4096 5 MP
gs
PP
gr
DP
gr

gs 1705 446 10162 4394 rc
0 j
gr

gs 2441 828 9705 3625 rc
/c9 { 0.000000 0.000000 1.000000 sr} bdef
c9
11768 2496 mt 11964 2692 L
11964 2496 mt 11768 2692 L
gr

c9
gs 1705 446 10162 4394 rc
gr

gs 2441 828 9705 3625 rc
11768 1507 mt 11964 1703 L
11964 1507 mt 11768 1703 L
gr

gs 1705 446 10162 4394 rc
gr

gs 2441 828 9705 3625 rc
11768 1903 mt 11964 2099 L
11964 1903 mt 11768 2099 L
gr

gs 1705 446 10162 4394 rc
gr

gs 2441 828 9705 3625 rc
11768 2168 mt 11964 2364 L
11964 2168 mt 11768 2364 L
gr

gs 1705 446 10162 4394 rc
gr

gs 2441 828 9705 3625 rc
11768 2761 mt 11964 2957 L
11964 2761 mt 11768 2957 L
gr

gs 1705 446 10162 4394 rc
gr

gs 2441 828 9705 3625 rc
11768 1433 mt 11964 1629 L
11964 1433 mt 11768 1629 L
gr

gs 1705 446 10162 4394 rc
gr

gs 2441 828 9705 3625 rc
11768 2034 mt 11964 2230 L
11964 2034 mt 11768 2230 L
gr

gs 1705 446 10162 4394 rc
gr

gs 2441 828 9705 3625 rc
11768 2162 mt 11964 2358 L
11964 2162 mt 11768 2358 L
gr

gs 1705 446 10162 4394 rc
gr

gs 2441 828 9705 3625 rc
11768 2975 mt 11964 3171 L
11964 2975 mt 11768 3171 L
gr

gs 1705 446 10162 4394 rc
gr

gs 2441 828 9705 3625 rc
11768 1300 mt 11964 1496 L
11964 1300 mt 11768 1496 L
gr

gs 1705 446 10162 4394 rc
gr

gs 2441 828 9705 3625 rc
11768 2136 mt 11964 2332 L
11964 2136 mt 11768 2332 L
gr

gs 1705 446 10162 4394 rc
gr

gs 2441 828 9705 3625 rc
11768 2170 mt 11964 2366 L
11964 2170 mt 11768 2366 L
gr

gs 1705 446 10162 4394 rc
gr

gs 2441 828 9705 3625 rc
11768 1736 mt 11964 1932 L
11964 1736 mt 11768 1932 L
gr

gs 1705 446 10162 4394 rc
gr

gs 2441 828 9705 3625 rc
11768 1432 mt 11964 1628 L
11964 1432 mt 11768 1628 L
gr

gs 1705 446 10162 4394 rc
gr

gs 2441 828 9705 3625 rc
11768 2170 mt 11964 2366 L
11964 2170 mt 11768 2366 L
gr

gs 1705 446 10162 4394 rc
gr

gs 2441 828 9705 3625 rc
11768 2125 mt 11964 2321 L
11964 2125 mt 11768 2321 L
gr

gs 1705 446 10162 4394 rc
gr

gs 2441 828 9705 3625 rc
10751 2435 mt 10947 2631 L
10947 2435 mt 10751 2631 L
gr

gs 1705 446 10162 4394 rc
gr

gs 2441 828 9705 3625 rc
10751 1556 mt 10947 1752 L
10947 1556 mt 10751 1752 L
gr

gs 1705 446 10162 4394 rc
gr

gs 2441 828 9705 3625 rc
10751 1895 mt 10947 2091 L
10947 1895 mt 10751 2091 L
gr

gs 1705 446 10162 4394 rc
gr

gs 2441 828 9705 3625 rc
10751 2175 mt 10947 2371 L
10947 2175 mt 10751 2371 L
gr

gs 1705 446 10162 4394 rc
gr

gs 2441 828 9705 3625 rc
10751 2566 mt 10947 2762 L
10947 2566 mt 10751 2762 L
gr

gs 1705 446 10162 4394 rc
gr

gs 2441 828 9705 3625 rc
10751 1499 mt 10947 1695 L
10947 1499 mt 10751 1695 L
gr

gs 1705 446 10162 4394 rc
gr

gs 2441 828 9705 3625 rc
10751 1993 mt 10947 2189 L
10947 1993 mt 10751 2189 L
gr

gs 1705 446 10162 4394 rc
gr

gs 2441 828 9705 3625 rc
10751 2148 mt 10947 2344 L
10947 2148 mt 10751 2344 L
gr

gs 1705 446 10162 4394 rc
gr

gs 2441 828 9705 3625 rc
10751 2615 mt 10947 2811 L
10947 2615 mt 10751 2811 L
gr

gs 1705 446 10162 4394 rc
gr

gs 2441 828 9705 3625 rc
10751 1291 mt 10947 1487 L
10947 1291 mt 10751 1487 L
gr

gs 1705 446 10162 4394 rc
gr

gs 2441 828 9705 3625 rc
10751 2109 mt 10947 2305 L
10947 2109 mt 10751 2305 L
gr

gs 1705 446 10162 4394 rc
gr

gs 2441 828 9705 3625 rc
10751 2134 mt 10947 2330 L
10947 2134 mt 10751 2330 L
gr

gs 1705 446 10162 4394 rc
gr

gs 2441 828 9705 3625 rc
10751 1637 mt 10947 1833 L
10947 1637 mt 10751 1833 L
gr

gs 1705 446 10162 4394 rc
gr

gs 2441 828 9705 3625 rc
10751 1419 mt 10947 1615 L
10947 1419 mt 10751 1615 L
gr

gs 1705 446 10162 4394 rc
gr

gs 2441 828 9705 3625 rc
10751 2192 mt 10947 2388 L
10947 2192 mt 10751 2388 L
gr

gs 1705 446 10162 4394 rc
gr

gs 2441 828 9705 3625 rc
10751 2120 mt 10947 2316 L
10947 2120 mt 10751 2316 L
gr

gs 1705 446 10162 4394 rc
gr

gs 2441 828 9705 3625 rc
9735 2394 mt 9931 2590 L
9931 2394 mt 9735 2590 L
gr

gs 1705 446 10162 4394 rc
gr

gs 2441 828 9705 3625 rc
9735 1517 mt 9931 1713 L
9931 1517 mt 9735 1713 L
gr

gs 1705 446 10162 4394 rc
gr

gs 2441 828 9705 3625 rc
9735 1902 mt 9931 2098 L
9931 1902 mt 9735 2098 L
gr

gs 1705 446 10162 4394 rc
gr

gs 2441 828 9705 3625 rc
9735 2140 mt 9931 2336 L
9931 2140 mt 9735 2336 L
gr

gs 1705 446 10162 4394 rc
gr

gs 2441 828 9705 3625 rc
9735 2676 mt 9931 2872 L
9931 2676 mt 9735 2872 L
gr

gs 1705 446 10162 4394 rc
gr

gs 2441 828 9705 3625 rc
9735 1497 mt 9931 1693 L
9931 1497 mt 9735 1693 L
gr

gs 1705 446 10162 4394 rc
gr

gs 2441 828 9705 3625 rc
9735 1995 mt 9931 2191 L
9931 1995 mt 9735 2191 L
gr

gs 1705 446 10162 4394 rc
gr

gs 2441 828 9705 3625 rc
9735 2183 mt 9931 2379 L
9931 2183 mt 9735 2379 L
gr

gs 1705 446 10162 4394 rc
gr

gs 2441 828 9705 3625 rc
9735 2599 mt 9931 2795 L
9931 2599 mt 9735 2795 L
gr

gs 1705 446 10162 4394 rc
gr

gs 2441 828 9705 3625 rc
9735 1278 mt 9931 1474 L
9931 1278 mt 9735 1474 L
gr

gs 1705 446 10162 4394 rc
gr

gs 2441 828 9705 3625 rc
9735 2112 mt 9931 2308 L
9931 2112 mt 9735 2308 L
gr

gs 1705 446 10162 4394 rc
gr

gs 2441 828 9705 3625 rc
9735 2155 mt 9931 2351 L
9931 2155 mt 9735 2351 L
gr

gs 1705 446 10162 4394 rc
gr

gs 2441 828 9705 3625 rc
9735 1277 mt 9931 1473 L
9931 1277 mt 9735 1473 L
gr

gs 1705 446 10162 4394 rc
gr

gs 2441 828 9705 3625 rc
9735 1401 mt 9931 1597 L
9931 1401 mt 9735 1597 L
gr

gs 1705 446 10162 4394 rc
gr

gs 2441 828 9705 3625 rc
9735 2176 mt 9931 2372 L
9931 2176 mt 9735 2372 L
gr

gs 1705 446 10162 4394 rc
gr

gs 2441 828 9705 3625 rc
9735 2162 mt 9931 2358 L
9931 2162 mt 9735 2358 L
gr

gs 1705 446 10162 4394 rc
gr

gs 2441 828 9705 3625 rc
8719 2026 mt 8915 2222 L
8915 2026 mt 8719 2222 L
gr

gs 1705 446 10162 4394 rc
gr

gs 2441 828 9705 3625 rc
8719 1397 mt 8915 1593 L
8915 1397 mt 8719 1593 L
gr

gs 1705 446 10162 4394 rc
gr

gs 2441 828 9705 3625 rc
8719 1911 mt 8915 2107 L
8915 1911 mt 8719 2107 L
gr

gs 1705 446 10162 4394 rc
gr

gs 2441 828 9705 3625 rc
8719 2182 mt 8915 2378 L
8915 2182 mt 8719 2378 L
gr

gs 1705 446 10162 4394 rc
gr

gs 2441 828 9705 3625 rc
8719 2265 mt 8915 2461 L
8915 2265 mt 8719 2461 L
gr

gs 1705 446 10162 4394 rc
gr

gs 2441 828 9705 3625 rc
8719 1395 mt 8915 1591 L
8915 1395 mt 8719 1591 L
gr

gs 1705 446 10162 4394 rc
gr

gs 2441 828 9705 3625 rc
8719 2014 mt 8915 2210 L
8915 2014 mt 8719 2210 L
gr

gs 1705 446 10162 4394 rc
gr

gs 2441 828 9705 3625 rc
8719 2161 mt 8915 2357 L
8915 2161 mt 8719 2357 L
gr

gs 1705 446 10162 4394 rc
gr

gs 2441 828 9705 3625 rc
8719 2299 mt 8915 2495 L
8915 2299 mt 8719 2495 L
gr

gs 1705 446 10162 4394 rc
gr

gs 2441 828 9705 3625 rc
8719 1296 mt 8915 1492 L
8915 1296 mt 8719 1492 L
gr

gs 1705 446 10162 4394 rc
gr

gs 2441 828 9705 3625 rc
8719 2111 mt 8915 2307 L
8915 2111 mt 8719 2307 L
gr

gs 1705 446 10162 4394 rc
gr

gs 2441 828 9705 3625 rc
8719 2160 mt 8915 2356 L
8915 2160 mt 8719 2356 L
gr

gs 1705 446 10162 4394 rc
gr

gs 2441 828 9705 3625 rc
8719 1009 mt 8915 1205 L
8915 1009 mt 8719 1205 L
gr

gs 1705 446 10162 4394 rc
gr

gs 2441 828 9705 3625 rc
8719 1442 mt 8915 1638 L
8915 1442 mt 8719 1638 L
gr

gs 1705 446 10162 4394 rc
gr

gs 2441 828 9705 3625 rc
8719 2186 mt 8915 2382 L
8915 2186 mt 8719 2382 L
gr

gs 1705 446 10162 4394 rc
gr

gs 2441 828 9705 3625 rc
8719 2130 mt 8915 2326 L
8915 2130 mt 8719 2326 L
gr

gs 1705 446 10162 4394 rc
gr

gs 2441 828 9705 3625 rc
7703 3464 mt 7899 3660 L
7899 3464 mt 7703 3660 L
gr

gs 1705 446 10162 4394 rc
gr

gs 2441 828 9705 3625 rc
7703 2478 mt 7899 2674 L
7899 2478 mt 7703 2674 L
gr

gs 1705 446 10162 4394 rc
gr

gs 2441 828 9705 3625 rc
7703 1779 mt 7899 1975 L
7899 1779 mt 7703 1975 L
gr

gs 1705 446 10162 4394 rc
gr

gs 2441 828 9705 3625 rc
7703 1846 mt 7899 2042 L
7899 1846 mt 7703 2042 L
gr

gs 1705 446 10162 4394 rc
gr

gs 2441 828 9705 3625 rc
7703 1986 mt 7899 2182 L
7899 1986 mt 7703 2182 L
gr

gs 1705 446 10162 4394 rc
gr

gs 2441 828 9705 3625 rc
7703 1852 mt 7899 2048 L
7899 1852 mt 7703 2048 L
gr

gs 1705 446 10162 4394 rc
gr

gs 2441 828 9705 3625 rc
7703 1767 mt 7899 1963 L
7899 1767 mt 7703 1963 L
gr

gs 1705 446 10162 4394 rc
gr

gs 2441 828 9705 3625 rc
7703 1869 mt 7899 2065 L
7899 1869 mt 7703 2065 L
gr

gs 1705 446 10162 4394 rc
gr

gs 2441 828 9705 3625 rc
7703 1737 mt 7899 1933 L
7899 1737 mt 7703 1933 L
gr

gs 1705 446 10162 4394 rc
gr

gs 2441 828 9705 3625 rc
7703 1587 mt 7899 1783 L
7899 1587 mt 7703 1783 L
gr

gs 1705 446 10162 4394 rc
gr

gs 2441 828 9705 3625 rc
7703 1845 mt 7899 2041 L
7899 1845 mt 7703 2041 L
gr

gs 1705 446 10162 4394 rc
gr

gs 2441 828 9705 3625 rc
7703 1832 mt 7899 2028 L
7899 1832 mt 7703 2028 L
gr

gs 1705 446 10162 4394 rc
gr

gs 2441 828 9705 3625 rc
7703 1285 mt 7899 1481 L
7899 1285 mt 7703 1481 L
gr

gs 1705 446 10162 4394 rc
gr

gs 2441 828 9705 3625 rc
7703 1464 mt 7899 1660 L
7899 1464 mt 7703 1660 L
gr

gs 1705 446 10162 4394 rc
gr

gs 2441 828 9705 3625 rc
7703 1849 mt 7899 2045 L
7899 1849 mt 7703 2045 L
gr

gs 1705 446 10162 4394 rc
gr

gs 2441 828 9705 3625 rc
7703 1806 mt 7899 2002 L
7899 1806 mt 7703 2002 L
gr

gs 1705 446 10162 4394 rc
gr

gs 2441 828 9705 3625 rc
6687 4074 mt 6883 4270 L
6883 4074 mt 6687 4270 L
gr

gs 1705 446 10162 4394 rc
gr

gs 2441 828 9705 3625 rc
6687 2840 mt 6883 3036 L
6883 2840 mt 6687 3036 L
gr

gs 1705 446 10162 4394 rc
gr

gs 2441 828 9705 3625 rc
6687 2092 mt 6883 2288 L
6883 2092 mt 6687 2288 L
gr

gs 1705 446 10162 4394 rc
gr

gs 2441 828 9705 3625 rc
6687 1948 mt 6883 2144 L
6883 1948 mt 6687 2144 L
gr

gs 1705 446 10162 4394 rc
gr

gs 2441 828 9705 3625 rc
6687 3380 mt 6883 3576 L
6883 3380 mt 6687 3576 L
gr

gs 1705 446 10162 4394 rc
gr

gs 2441 828 9705 3625 rc
6687 2205 mt 6883 2401 L
6883 2205 mt 6687 2401 L
gr

gs 1705 446 10162 4394 rc
gr

gs 2441 828 9705 3625 rc
6687 1829 mt 6883 2025 L
6883 1829 mt 6687 2025 L
gr

gs 1705 446 10162 4394 rc
gr

gs 2441 828 9705 3625 rc
6687 1904 mt 6883 2100 L
6883 1904 mt 6687 2100 L
gr

gs 1705 446 10162 4394 rc
gr

gs 2441 828 9705 3625 rc
6687 2617 mt 6883 2813 L
6883 2617 mt 6687 2813 L
gr

gs 1705 446 10162 4394 rc
gr

gs 2441 828 9705 3625 rc
6687 1675 mt 6883 1871 L
6883 1675 mt 6687 1871 L
gr

gs 1705 446 10162 4394 rc
gr

gs 2441 828 9705 3625 rc
6687 1846 mt 6883 2042 L
6883 1846 mt 6687 2042 L
gr

gs 1705 446 10162 4394 rc
gr

gs 2441 828 9705 3625 rc
6687 1896 mt 6883 2092 L
6883 1896 mt 6687 2092 L
gr

gs 1705 446 10162 4394 rc
gr

gs 2441 828 9705 3625 rc
6687 2030 mt 6883 2226 L
6883 2030 mt 6687 2226 L
gr

gs 1705 446 10162 4394 rc
gr

gs 2441 828 9705 3625 rc
6687 1572 mt 6883 1768 L
6883 1572 mt 6687 1768 L
gr

gs 1705 446 10162 4394 rc
gr

gs 2441 828 9705 3625 rc
6687 1900 mt 6883 2096 L
6883 1900 mt 6687 2096 L
gr

gs 1705 446 10162 4394 rc
gr

gs 2441 828 9705 3625 rc
6687 1892 mt 6883 2088 L
6883 1892 mt 6687 2088 L
gr

gs 1705 446 10162 4394 rc
gr

gs 2441 828 9705 3625 rc
5671 3835 mt 5867 4031 L
5867 3835 mt 5671 4031 L
gr

gs 1705 446 10162 4394 rc
gr

gs 2441 828 9705 3625 rc
5671 2996 mt 5867 3192 L
5867 2996 mt 5671 3192 L
gr

gs 1705 446 10162 4394 rc
gr

gs 2441 828 9705 3625 rc
5671 2297 mt 5867 2493 L
5867 2297 mt 5671 2493 L
gr

gs 1705 446 10162 4394 rc
gr

gs 2441 828 9705 3625 rc
5671 2217 mt 5867 2413 L
5867 2217 mt 5671 2413 L
gr

gs 1705 446 10162 4394 rc
gr

gs 2441 828 9705 3625 rc
5671 4058 mt 5867 4254 L
5867 4058 mt 5671 4254 L
gr

gs 1705 446 10162 4394 rc
gr

gs 2441 828 9705 3625 rc
5671 2532 mt 5867 2728 L
5867 2532 mt 5671 2728 L
gr

gs 1705 446 10162 4394 rc
gr

gs 2441 828 9705 3625 rc
5671 2157 mt 5867 2353 L
5867 2157 mt 5671 2353 L
gr

gs 1705 446 10162 4394 rc
gr

gs 2441 828 9705 3625 rc
5671 2201 mt 5867 2397 L
5867 2201 mt 5671 2397 L
gr

gs 1705 446 10162 4394 rc
gr

gs 2441 828 9705 3625 rc
5671 3504 mt 5867 3700 L
5867 3504 mt 5671 3700 L
gr

gs 1705 446 10162 4394 rc
gr

gs 2441 828 9705 3625 rc
5671 1964 mt 5867 2160 L
5867 1964 mt 5671 2160 L
gr

gs 1705 446 10162 4394 rc
gr

gs 2441 828 9705 3625 rc
5671 2116 mt 5867 2312 L
5867 2116 mt 5671 2312 L
gr

gs 1705 446 10162 4394 rc
gr

gs 2441 828 9705 3625 rc
5671 2188 mt 5867 2384 L
5867 2188 mt 5671 2384 L
gr

gs 1705 446 10162 4394 rc
gr

gs 2441 828 9705 3625 rc
5671 2309 mt 5867 2505 L
5867 2309 mt 5671 2505 L
gr

gs 1705 446 10162 4394 rc
gr

gs 2441 828 9705 3625 rc
5671 1708 mt 5867 1904 L
5867 1708 mt 5671 1904 L
gr

gs 1705 446 10162 4394 rc
gr

gs 2441 828 9705 3625 rc
5671 2183 mt 5867 2379 L
5867 2183 mt 5671 2379 L
gr

gs 1705 446 10162 4394 rc
gr

gs 2441 828 9705 3625 rc
5671 2156 mt 5867 2352 L
5867 2156 mt 5671 2352 L
gr

gs 1705 446 10162 4394 rc
gr

gs 2441 828 9705 3625 rc
4655 3867 mt 4851 4063 L
4851 3867 mt 4655 4063 L
gr

gs 1705 446 10162 4394 rc
gr

gs 2441 828 9705 3625 rc
4655 3191 mt 4851 3387 L
4851 3191 mt 4655 3387 L
gr

gs 1705 446 10162 4394 rc
gr

gs 2441 828 9705 3625 rc
4655 2525 mt 4851 2721 L
4851 2525 mt 4655 2721 L
gr

gs 1705 446 10162 4394 rc
gr

gs 2441 828 9705 3625 rc
4655 2502 mt 4851 2698 L
4851 2502 mt 4655 2698 L
gr

gs 1705 446 10162 4394 rc
gr

gs 2441 828 9705 3625 rc
4655 3906 mt 4851 4102 L
4851 3906 mt 4655 4102 L
gr

gs 1705 446 10162 4394 rc
gr

gs 2441 828 9705 3625 rc
4655 2830 mt 4851 3026 L
4851 2830 mt 4655 3026 L
gr

gs 1705 446 10162 4394 rc
gr

gs 2441 828 9705 3625 rc
4655 2522 mt 4851 2718 L
4851 2522 mt 4655 2718 L
gr

gs 1705 446 10162 4394 rc
gr

gs 2441 828 9705 3625 rc
4655 2511 mt 4851 2707 L
4851 2511 mt 4655 2707 L
gr

gs 1705 446 10162 4394 rc
gr

gs 2441 828 9705 3625 rc
4655 3940 mt 4851 4136 L
4851 3940 mt 4655 4136 L
gr

gs 1705 446 10162 4394 rc
gr

gs 2441 828 9705 3625 rc
4655 2679 mt 4851 2875 L
4851 2679 mt 4655 2875 L
gr

gs 1705 446 10162 4394 rc
gr

gs 2441 828 9705 3625 rc
4655 2550 mt 4851 2746 L
4851 2550 mt 4655 2746 L
gr

gs 1705 446 10162 4394 rc
gr

gs 2441 828 9705 3625 rc
4655 2555 mt 4851 2751 L
4851 2555 mt 4655 2751 L
gr

gs 1705 446 10162 4394 rc
gr

gs 2441 828 9705 3625 rc
4655 3335 mt 4851 3531 L
4851 3335 mt 4655 3531 L
gr

gs 1705 446 10162 4394 rc
gr

gs 2441 828 9705 3625 rc
4655 2331 mt 4851 2527 L
4851 2331 mt 4655 2527 L
gr

gs 1705 446 10162 4394 rc
gr

gs 2441 828 9705 3625 rc
4655 2556 mt 4851 2752 L
4851 2556 mt 4655 2752 L
gr

gs 1705 446 10162 4394 rc
gr

gs 2441 828 9705 3625 rc
4655 2552 mt 4851 2748 L
4851 2552 mt 4655 2748 L
gr

gs 1705 446 10162 4394 rc
gr

gs 2441 828 9705 3625 rc
3639 3872 mt 3835 4068 L
3835 3872 mt 3639 4068 L
gr

gs 1705 446 10162 4394 rc
gr

gs 2441 828 9705 3625 rc
3639 3230 mt 3835 3426 L
3835 3230 mt 3639 3426 L
gr

gs 1705 446 10162 4394 rc
gr

gs 2441 828 9705 3625 rc
3639 2607 mt 3835 2803 L
3835 2607 mt 3639 2803 L
gr

gs 1705 446 10162 4394 rc
gr

gs 2441 828 9705 3625 rc
3639 2588 mt 3835 2784 L
3835 2588 mt 3639 2784 L
gr

gs 1705 446 10162 4394 rc
gr

gs 2441 828 9705 3625 rc
3639 3929 mt 3835 4125 L
3835 3929 mt 3639 4125 L
gr

gs 1705 446 10162 4394 rc
gr

gs 2441 828 9705 3625 rc
3639 3007 mt 3835 3203 L
3835 3007 mt 3639 3203 L
gr

gs 1705 446 10162 4394 rc
gr

gs 2441 828 9705 3625 rc
3639 2622 mt 3835 2818 L
3835 2622 mt 3639 2818 L
gr

gs 1705 446 10162 4394 rc
gr

gs 2441 828 9705 3625 rc
3639 2603 mt 3835 2799 L
3835 2603 mt 3639 2799 L
gr

gs 1705 446 10162 4394 rc
gr

gs 2441 828 9705 3625 rc
3639 3861 mt 3835 4057 L
3835 3861 mt 3639 4057 L
gr

gs 1705 446 10162 4394 rc
gr

gs 2441 828 9705 3625 rc
3639 2945 mt 3835 3141 L
3835 2945 mt 3639 3141 L
gr

gs 1705 446 10162 4394 rc
gr

gs 2441 828 9705 3625 rc
3639 2655 mt 3835 2851 L
3835 2655 mt 3639 2851 L
gr

gs 1705 446 10162 4394 rc
gr

gs 2441 828 9705 3625 rc
3639 2597 mt 3835 2793 L
3835 2597 mt 3639 2793 L
gr

gs 1705 446 10162 4394 rc
gr

gs 2441 828 9705 3625 rc
3639 3610 mt 3835 3806 L
3835 3610 mt 3639 3806 L
gr

gs 1705 446 10162 4394 rc
gr

gs 2441 828 9705 3625 rc
3639 2803 mt 3835 2999 L
3835 2803 mt 3639 2999 L
gr

gs 1705 446 10162 4394 rc
gr

gs 2441 828 9705 3625 rc
3639 2676 mt 3835 2872 L
3835 2676 mt 3639 2872 L
gr

gs 1705 446 10162 4394 rc
gr

gs 2441 828 9705 3625 rc
3639 2603 mt 3835 2799 L
3835 2603 mt 3639 2799 L
gr

gs 1705 446 10162 4394 rc
gr

gs 2441 828 9705 3625 rc
2623 3854 mt 2819 4050 L
2819 3854 mt 2623 4050 L
gr

gs 1705 446 10162 4394 rc
gr

gs 2441 828 9705 3625 rc
2623 3393 mt 2819 3589 L
2819 3393 mt 2623 3589 L
gr

gs 1705 446 10162 4394 rc
gr

gs 2441 828 9705 3625 rc
2623 2955 mt 2819 3151 L
2819 2955 mt 2623 3151 L
gr

gs 1705 446 10162 4394 rc
gr

gs 2441 828 9705 3625 rc
2623 2840 mt 2819 3036 L
2819 2840 mt 2623 3036 L
gr

gs 1705 446 10162 4394 rc
gr

gs 2441 828 9705 3625 rc
2623 3940 mt 2819 4136 L
2819 3940 mt 2623 4136 L
gr

gs 1705 446 10162 4394 rc
gr

gs 2441 828 9705 3625 rc
2623 3176 mt 2819 3372 L
2819 3176 mt 2623 3372 L
gr

gs 1705 446 10162 4394 rc
gr

gs 2441 828 9705 3625 rc
2623 2944 mt 2819 3140 L
2819 2944 mt 2623 3140 L
gr

gs 1705 446 10162 4394 rc
gr

gs 2441 828 9705 3625 rc
2623 2845 mt 2819 3041 L
2819 2845 mt 2623 3041 L
gr

gs 1705 446 10162 4394 rc
gr

gs 2441 828 9705 3625 rc
2623 3819 mt 2819 4015 L
2819 3819 mt 2623 4015 L
gr

gs 1705 446 10162 4394 rc
gr

gs 2441 828 9705 3625 rc
2623 3103 mt 2819 3299 L
2819 3103 mt 2623 3299 L
gr

gs 1705 446 10162 4394 rc
gr

gs 2441 828 9705 3625 rc
2623 2972 mt 2819 3168 L
2819 2972 mt 2623 3168 L
gr

gs 1705 446 10162 4394 rc
gr

gs 2441 828 9705 3625 rc
2623 2873 mt 2819 3069 L
2819 2873 mt 2623 3069 L
gr

gs 1705 446 10162 4394 rc
gr

gs 2441 828 9705 3625 rc
2623 3465 mt 2819 3661 L
2819 3465 mt 2623 3661 L
gr

gs 1705 446 10162 4394 rc
gr

gs 2441 828 9705 3625 rc
2623 3099 mt 2819 3295 L
2819 3099 mt 2623 3295 L
gr

gs 1705 446 10162 4394 rc
gr

gs 2441 828 9705 3625 rc
2623 2927 mt 2819 3123 L
2819 2927 mt 2623 3123 L
gr

gs 1705 446 10162 4394 rc
gr

gs 2441 828 9705 3625 rc
2623 2870 mt 2819 3066 L
2819 2870 mt 2623 3066 L
gr

gs 1705 446 10162 4394 rc
gr

0 sg
%%IncludeResource: font Helvetica
/Helvetica /ISOLatin1Encoding 600 FMSR

3949 5816 mt 
(Log10 UCB Constant) s
 947 4260 mt  -90 rotate
(Mean Score) s
90 rotate
%%IncludeResource: font Helvetica
/Helvetica /ISOLatin1Encoding 120 FMSR

1688 4882 mt 
( ) s
11850  488 mt 
( ) s
1 sg
0 1436 2865 0 0 -1436 1874 2034 4 MP
PP
-2865 0 0 1436 2865 0 0 -1436 1874 2034 5 MP stroke
4 w
DO
SO
6 w
0 sg
1874 2034 mt 4739 2034 L
1874  598 mt 4739  598 L
1874 2034 mt 1874  598 L
4739 2034 mt 4739  598 L
1874 2034 mt 4739 2034 L
1874 2034 mt 1874  598 L
1874 2034 mt 4739 2034 L
1874  598 mt 4739  598 L
1874 2034 mt 1874  598 L
4739 2034 mt 4739  598 L
%%IncludeResource: font Helvetica
/Helvetica /ISOLatin1Encoding 480 FMSR

2358 1137 mt 
(UCT) s
gs 1874 598 2866 1437 rc
0 j
gs 2061 894 147 147 rc
0 -58 -58 0 0 58 58 0 2105 938 5 MP
c8
gs
PP
gr
DP
gr

c8
gr

c8
0 sg
2358 1834 mt 
(mNN-UCT) s
gs 1874 598 2866 1437 rc
0 j
gs 2061 1591 147 147 rc
c9
2109 1639 mt 2159 1689 L
2159 1639 mt 2109 1689 L
gr

c9
gr

c9

end %%Color Dict

eplot
%%EndObject

epage
end

showpage

%%Trailer
%%EOF
