%!PS-Adobe-2.0 EPSF-2.0
%%Title: /home/sriram/ferl/Thesis/Research/AAAI_2015/freeway_game.dia
%%Creator: Dia v0.97.2
%%CreationDate: Wed Sep  3 12:37:27 2014
%%For: sriram
%%Orientation: Portrait
%%Magnification: 1.0000
%%BoundingBox: 0 0 465 463
%%BeginSetup
%%EndSetup
%%EndComments
%%BeginProlog
[ /.notdef /.notdef /.notdef /.notdef /.notdef /.notdef /.notdef /.notdef /.notdef /.notdef
/.notdef /.notdef /.notdef /.notdef /.notdef /.notdef /.notdef /.notdef /.notdef /.notdef
/.notdef /.notdef /.notdef /.notdef /.notdef /.notdef /.notdef /.notdef /.notdef /.notdef
/.notdef /.notdef /space /exclam /quotedbl /numbersign /dollar /percent /ampersand /quoteright
/parenleft /parenright /asterisk /plus /comma /hyphen /period /slash /zero /one
/two /three /four /five /six /seven /eight /nine /colon /semicolon
/less /equal /greater /question /at /A /B /C /D /E
/F /G /H /I /J /K /L /M /N /O
/P /Q /R /S /T /U /V /W /X /Y
/Z /bracketleft /backslash /bracketright /asciicircum /underscore /quoteleft /a /b /c
/d /e /f /g /h /i /j /k /l /m
/n /o /p /q /r /s /t /u /v /w
/x /y /z /braceleft /bar /braceright /asciitilde /.notdef /.notdef /.notdef
/.notdef /.notdef /.notdef /.notdef /.notdef /.notdef /.notdef /.notdef /.notdef /.notdef
/.notdef /.notdef /.notdef /.notdef /.notdef /.notdef /.notdef /.notdef /.notdef /.notdef
/.notdef /.notdef /.notdef /.notdef /.notdef /.notdef /.notdef /.notdef /.notdef /.notdef
/space /exclamdown /cent /sterling /currency /yen /brokenbar /section /dieresis /copyright
/ordfeminine /guillemotleft /logicalnot /hyphen /registered /macron /degree /plusminus /twosuperior /threesuperior
/acute /mu /paragraph /periodcentered /cedilla /onesuperior /ordmasculine /guillemotright /onequarter /onehalf
/threequarters /questiondown /Agrave /Aacute /Acircumflex /Atilde /Adieresis /Aring /AE /Ccedilla
/Egrave /Eacute /Ecircumflex /Edieresis /Igrave /Iacute /Icircumflex /Idieresis /Eth /Ntilde
/Ograve /Oacute /Ocircumflex /Otilde /Odieresis /multiply /Oslash /Ugrave /Uacute /Ucircumflex
/Udieresis /Yacute /Thorn /germandbls /agrave /aacute /acircumflex /atilde /adieresis /aring
/ae /ccedilla /egrave /eacute /ecircumflex /edieresis /igrave /iacute /icircumflex /idieresis
/eth /ntilde /ograve /oacute /ocircumflex /otilde /odieresis /divide /oslash /ugrave
/uacute /ucircumflex /udieresis /yacute /thorn /ydieresis] /isolatin1encoding exch def
/cp {closepath} bind def
/c {curveto} bind def
/f {fill} bind def
/a {arc} bind def
/ef {eofill} bind def
/ex {exch} bind def
/gr {grestore} bind def
/gs {gsave} bind def
/sa {save} bind def
/rs {restore} bind def
/l {lineto} bind def
/m {moveto} bind def
/rm {rmoveto} bind def
/n {newpath} bind def
/s {stroke} bind def
/sh {show} bind def
/slc {setlinecap} bind def
/slj {setlinejoin} bind def
/slw {setlinewidth} bind def
/srgb {setrgbcolor} bind def
/rot {rotate} bind def
/sc {scale} bind def
/sd {setdash} bind def
/ff {findfont} bind def
/sf {setfont} bind def
/scf {scalefont} bind def
/sw {stringwidth pop} bind def
/tr {translate} bind def

/ellipsedict 8 dict def
ellipsedict /mtrx matrix put
/ellipse
{ ellipsedict begin
   /endangle exch def
   /startangle exch def
   /yrad exch def
   /xrad exch def
   /y exch def
   /x exch def   /savematrix mtrx currentmatrix def
   x y tr xrad yrad sc
   0 0 1 startangle endangle arc
   savematrix setmatrix
   end
} def

/mergeprocs {
dup length
3 -1 roll
dup
length
dup
5 1 roll
3 -1 roll
add
array cvx
dup
3 -1 roll
0 exch
putinterval
dup
4 2 roll
putinterval
} bind def
/dpi_x 300 def
/dpi_y 300 def
/conicto {
    /to_y exch def
    /to_x exch def
    /conic_cntrl_y exch def
    /conic_cntrl_x exch def
    currentpoint
    /p0_y exch def
    /p0_x exch def
    /p1_x p0_x conic_cntrl_x p0_x sub 2 3 div mul add def
    /p1_y p0_y conic_cntrl_y p0_y sub 2 3 div mul add def
    /p2_x p1_x to_x p0_x sub 1 3 div mul add def
    /p2_y p1_y to_y p0_y sub 1 3 div mul add def
    p1_x p1_y p2_x p2_y to_x to_y curveto
} bind def
/start_ol { gsave 1.1 dpi_x div dup scale} bind def
/end_ol { closepath fill grestore } bind def
28.346000 -28.346000 scale
-19.825000 -21.265000 translate
%%EndProlog


0.100000 slw
[] 0 sd
[] 0 sd
0 slc
0 slj
0.100000 slw
0 slc
0 slj
[] 0 sd
1.000000 0.000000 0.000000 srgb
n 23.671500 19.075000 m 24.271500 19.075000 l 24.571500 19.500000 l 24.271500 19.925000 l 23.671500 19.925000 l 23.971500 19.500000 l ef
0.000000 0.000000 0.000000 srgb
n 23.671500 19.075000 m 24.271500 19.075000 l 24.571500 19.500000 l 24.271500 19.925000 l 23.671500 19.925000 l 23.971500 19.500000 l cp s
0 slc
0 slj
[] 0 sd
n 23.671500 19.075000 m 24.271500 19.075000 l 24.571500 19.500000 l 24.271500 19.925000 l 23.671500 19.925000 l 23.971500 19.500000 l cp s
0.100000 slw
[] 0 sd
[] 0 sd
0 slj
1.000000 1.000000 1.000000 srgb
n 20.050000 5.100000 m 20.050000 21.100000 l 36.050000 21.100000 l 36.050000 5.100000 l f
0.000000 0.000000 0.000000 srgb
n 20.050000 5.100000 m 20.050000 21.100000 l 36.050000 21.100000 l 36.050000 5.100000 l cp s
0.100000 slw
[] 0 sd
[] 0 sd
0 slc
0.658824 0.650980 0.650980 srgb
n 30.000000 5.100000 m 30.000000 21.200000 l s
0.100000 slw
[] 0 sd
[] 0 sd
0 slc
n 22.065000 5.055000 m 22.065000 21.155000 l s
0.100000 slw
[] 0 sd
[] 0 sd
0 slc
n 21.080000 5.110000 m 21.080000 21.210000 l s
0.100000 slw
[] 0 sd
[] 0 sd
0 slc
n 24.995000 5.065000 m 24.995000 21.165000 l s
0.100000 slw
[] 0 sd
[] 0 sd
0 slc
n 26.015000 5.055000 m 26.015000 21.155000 l s
0.100000 slw
[] 0 sd
[] 0 sd
0 slc
n 26.980000 5.110000 m 26.980000 21.210000 l s
0.100000 slw
[] 0 sd
[] 0 sd
0 slc
n 23.995000 5.115000 m 23.995000 21.215000 l s
0.100000 slw
[] 0 sd
[] 0 sd
0 slc
n 23.010000 5.070000 m 23.010000 21.170000 l s
0.100000 slw
[] 0 sd
[] 0 sd
0 slc
n 28.000000 5.100000 m 28.000000 21.100000 l s
0.100000 slw
[] 0 sd
[] 0 sd
0 slc
n 28.990000 5.080000 m 28.990000 21.180000 l s
0.100000 slw
[] 0 sd
[] 0 sd
0 slc
n 31.005000 5.085000 m 31.005000 21.185000 l s
0.100000 slw
[] 0 sd
[] 0 sd
0 slc
n 32.070000 5.040000 m 32.070000 21.140000 l s
0.100000 slw
[] 0 sd
[] 0 sd
0 slc
n 34.980000 5.060000 m 34.980000 21.160000 l s
0.100000 slw
[] 0 sd
[] 0 sd
0 slc
n 33.945000 5.015000 m 33.945000 21.115000 l s
0.100000 slw
[] 0 sd
[] 0 sd
0 slc
n 33.060000 5.070000 m 33.060000 21.170000 l s
0.100000 slw
[] 0 sd
[] 0 sd
0 slc
n 20.050000 10.000000 m 36.150000 9.950000 l s
0.100000 slw
[] 0 sd
[] 0 sd
0 slc
n 19.965155 18.055155 m 36.065155 18.005155 l s
0.100000 slw
[] 0 sd
[] 0 sd
0 slc
n 19.980155 19.060155 m 36.080155 19.010155 l s
0.100000 slw
[] 0 sd
[] 0 sd
0 slc
n 19.945155 20.065155 m 36.045155 20.015155 l s
0.100000 slw
[] 0 sd
[] 0 sd
0 slc
n 20.060155 14.970155 m 36.160155 14.920155 l s
0.100000 slw
[] 0 sd
[] 0 sd
0 slc
n 19.965155 12.005155 m 36.065155 11.955155 l s
0.100000 slw
[] 0 sd
[] 0 sd
0 slc
n 20.050000 13.100000 m 36.050000 13.100000 l s
0.100000 slw
[] 0 sd
[] 0 sd
0 slc
n 19.945155 14.065155 m 36.045155 14.015155 l s
0.100000 slw
[] 0 sd
[] 0 sd
0 slc
n 20.010155 16.070155 m 36.110155 16.020155 l s
0.100000 slw
[] 0 sd
[] 0 sd
0 slc
n 19.875155 17.075155 m 35.975155 17.025155 l s
0.100000 slw
[] 0 sd
[] 0 sd
0 slc
n 20.015155 8.055155 m 36.115155 8.005155 l s
0.100000 slw
[] 0 sd
[] 0 sd
0 slc
n 20.030155 6.010155 m 36.130155 5.960155 l s
0.100000 slw
[] 0 sd
[] 0 sd
0 slc
n 19.995155 7.065155 m 36.095155 7.015155 l s
0.100000 slw
[] 0 sd
[] 0 sd
0 slc
n 20.060155 9.070155 m 36.160155 9.020155 l s
0.100000 slw
[] 0 sd
[] 0 sd
0 slc
n 19.975155 10.975155 m 36.075155 10.925155 l s
0.100000 slw
[] 0 sd
[] 0 sd
0 slj
0.000000 0.000000 1.000000 srgb
n 23.000000 20.100000 m 23.000000 21.000000 l 23.900000 21.000000 l 23.900000 20.100000 l f
0.000000 0.000000 0.000000 srgb
n 23.000000 20.100000 m 23.000000 21.000000 l 23.900000 21.000000 l 23.900000 20.100000 l cp s
0.100000 slw
[] 0 sd
[] 0 sd
0 slc
0 slj
0.100000 slw
0 slc
0 slj
[] 0 sd
1.000000 0.000000 0.000000 srgb
n 25.000000 19.050000 m 25.600000 19.050000 l 25.900000 19.550000 l 25.600000 20.050000 l 25.000000 20.050000 l 25.300000 19.550000 l ef
0.000000 0.000000 0.000000 srgb
n 25.000000 19.050000 m 25.600000 19.050000 l 25.900000 19.550000 l 25.600000 20.050000 l 25.000000 20.050000 l 25.300000 19.550000 l cp s
0 slc
0 slj
[] 0 sd
n 25.000000 19.050000 m 25.600000 19.050000 l 25.900000 19.550000 l 25.600000 20.050000 l 25.000000 20.050000 l 25.300000 19.550000 l cp s
0.100000 slw
[] 0 sd
[] 0 sd
0 slc
0 slj
0.100000 slw
0 slc
0 slj
[] 0 sd
1.000000 0.000000 0.000000 srgb
n 24.003310 17.155000 m 23.403310 17.155000 l 23.103310 17.655000 l 23.403310 18.155000 l 24.003310 18.155000 l 23.703310 17.655000 l ef
0.000000 0.000000 0.000000 srgb
n 24.003310 17.155000 m 23.403310 17.155000 l 23.103310 17.655000 l 23.403310 18.155000 l 24.003310 18.155000 l 23.703310 17.655000 l cp s
0 slc
0 slj
[] 0 sd
n 24.003310 17.155000 m 23.403310 17.155000 l 23.103310 17.655000 l 23.403310 18.155000 l 24.003310 18.155000 l 23.703310 17.655000 l cp s
0.100000 slw
[] 0 sd
[] 0 sd
0 slc
0 slj
0.100000 slw
0 slc
0 slj
[] 0 sd
1.000000 0.000000 0.000000 srgb
n 29.053310 18.055000 m 29.653310 18.055000 l 29.953310 18.555000 l 29.653310 19.055000 l 29.053310 19.055000 l 29.353310 18.555000 l ef
0.000000 0.000000 0.000000 srgb
n 29.053310 18.055000 m 29.653310 18.055000 l 29.953310 18.555000 l 29.653310 19.055000 l 29.053310 19.055000 l 29.353310 18.555000 l cp s
0 slc
0 slj
[] 0 sd
n 29.053310 18.055000 m 29.653310 18.055000 l 29.953310 18.555000 l 29.653310 19.055000 l 29.053310 19.055000 l 29.353310 18.555000 l cp s
0.100000 slw
[] 0 sd
[] 0 sd
0 slc
0 slj
0.100000 slw
0 slc
0 slj
[] 0 sd
1.000000 0.000000 0.000000 srgb
n 24.073310 9.055000 m 23.473310 9.055000 l 23.173310 9.555000 l 23.473310 10.055000 l 24.073310 10.055000 l 23.773310 9.555000 l ef
0.000000 0.000000 0.000000 srgb
n 24.073310 9.055000 m 23.473310 9.055000 l 23.173310 9.555000 l 23.473310 10.055000 l 24.073310 10.055000 l 23.773310 9.555000 l cp s
0 slc
0 slj
[] 0 sd
n 24.073310 9.055000 m 23.473310 9.055000 l 23.173310 9.555000 l 23.473310 10.055000 l 24.073310 10.055000 l 23.773310 9.555000 l cp s
0.100000 slw
[] 0 sd
[] 0 sd
0 slc
0 slj
0.100000 slw
0 slc
0 slj
[] 0 sd
1.000000 0.000000 0.000000 srgb
n 30.938310 14.010000 m 30.338310 14.010000 l 30.038310 14.510000 l 30.338310 15.010000 l 30.938310 15.010000 l 30.638310 14.510000 l ef
0.000000 0.000000 0.000000 srgb
n 30.938310 14.010000 m 30.338310 14.010000 l 30.038310 14.510000 l 30.338310 15.010000 l 30.938310 15.010000 l 30.638310 14.510000 l cp s
0 slc
0 slj
[] 0 sd
n 30.938310 14.010000 m 30.338310 14.010000 l 30.038310 14.510000 l 30.338310 15.010000 l 30.938310 15.010000 l 30.638310 14.510000 l cp s
0.100000 slw
[] 0 sd
[] 0 sd
0 slc
0 slj
0.100000 slw
0 slc
0 slj
[] 0 sd
1.000000 0.000000 0.000000 srgb
n 34.903310 11.015000 m 34.303310 11.015000 l 34.003310 11.515000 l 34.303310 12.015000 l 34.903310 12.015000 l 34.603310 11.515000 l ef
0.000000 0.000000 0.000000 srgb
n 34.903310 11.015000 m 34.303310 11.015000 l 34.003310 11.515000 l 34.303310 12.015000 l 34.903310 12.015000 l 34.603310 11.515000 l cp s
0 slc
0 slj
[] 0 sd
n 34.903310 11.015000 m 34.303310 11.015000 l 34.003310 11.515000 l 34.303310 12.015000 l 34.903310 12.015000 l 34.603310 11.515000 l cp s
0.100000 slw
[] 0 sd
[] 0 sd
0 slc
0 slj
0.100000 slw
0 slc
0 slj
[] 0 sd
1.000000 0.000000 0.000000 srgb
n 30.968310 6.020000 m 30.368310 6.020000 l 30.068310 6.520000 l 30.368310 7.020000 l 30.968310 7.020000 l 30.668310 6.520000 l ef
0.000000 0.000000 0.000000 srgb
n 30.968310 6.020000 m 30.368310 6.020000 l 30.068310 6.520000 l 30.368310 7.020000 l 30.968310 7.020000 l 30.668310 6.520000 l cp s
0 slc
0 slj
[] 0 sd
n 30.968310 6.020000 m 30.368310 6.020000 l 30.068310 6.520000 l 30.368310 7.020000 l 30.968310 7.020000 l 30.668310 6.520000 l cp s
0.100000 slw
[] 0 sd
[] 0 sd
0 slc
0 slj
0.100000 slw
0 slc
0 slj
[] 0 sd
1.000000 0.000000 0.000000 srgb
n 26.973310 8.055000 m 26.373310 8.055000 l 26.073310 8.555000 l 26.373310 9.055000 l 26.973310 9.055000 l 26.673310 8.555000 l ef
0.000000 0.000000 0.000000 srgb
n 26.973310 8.055000 m 26.373310 8.055000 l 26.073310 8.555000 l 26.373310 9.055000 l 26.973310 9.055000 l 26.673310 8.555000 l cp s
0 slc
0 slj
[] 0 sd
n 26.973310 8.055000 m 26.373310 8.055000 l 26.073310 8.555000 l 26.373310 9.055000 l 26.973310 9.055000 l 26.673310 8.555000 l cp s
0.100000 slw
[] 0 sd
[] 0 sd
0 slc
0 slj
0.100000 slw
0 slc
0 slj
[] 0 sd
1.000000 0.000000 0.000000 srgb
n 28.923310 16.105000 m 28.323310 16.105000 l 28.023310 16.605000 l 28.323310 17.105000 l 28.923310 17.105000 l 28.623310 16.605000 l ef
0.000000 0.000000 0.000000 srgb
n 28.923310 16.105000 m 28.323310 16.105000 l 28.023310 16.605000 l 28.323310 17.105000 l 28.923310 17.105000 l 28.623310 16.605000 l cp s
0 slc
0 slj
[] 0 sd
n 28.923310 16.105000 m 28.323310 16.105000 l 28.023310 16.605000 l 28.323310 17.105000 l 28.923310 17.105000 l 28.623310 16.605000 l cp s
0.100000 slw
[] 0 sd
[] 0 sd
0 slc
0 slj
0.100000 slw
0 slc
0 slj
[] 0 sd
1.000000 0.000000 0.000000 srgb
n 27.053310 12.055000 m 27.653310 12.055000 l 27.953310 12.555000 l 27.653310 13.055000 l 27.053310 13.055000 l 27.353310 12.555000 l ef
0.000000 0.000000 0.000000 srgb
n 27.053310 12.055000 m 27.653310 12.055000 l 27.953310 12.555000 l 27.653310 13.055000 l 27.053310 13.055000 l 27.353310 12.555000 l cp s
0 slc
0 slj
[] 0 sd
n 27.053310 12.055000 m 27.653310 12.055000 l 27.953310 12.555000 l 27.653310 13.055000 l 27.053310 13.055000 l 27.353310 12.555000 l cp s
0.100000 slw
[] 0 sd
[] 0 sd
0 slc
0 slj
0.100000 slw
0 slc
0 slj
[] 0 sd
1.000000 0.000000 0.000000 srgb
n 35.068310 15.060000 m 35.668310 15.060000 l 35.968310 15.560000 l 35.668310 16.060000 l 35.068310 16.060000 l 35.368310 15.560000 l ef
0.000000 0.000000 0.000000 srgb
n 35.068310 15.060000 m 35.668310 15.060000 l 35.968310 15.560000 l 35.668310 16.060000 l 35.068310 16.060000 l 35.368310 15.560000 l cp s
0 slc
0 slj
[] 0 sd
n 35.068310 15.060000 m 35.668310 15.060000 l 35.968310 15.560000 l 35.668310 16.060000 l 35.068310 16.060000 l 35.368310 15.560000 l cp s
0.100000 slw
[] 0 sd
[] 0 sd
0 slc
0 slj
0.100000 slw
0 slc
0 slj
[] 0 sd
1.000000 0.000000 0.000000 srgb
n 29.033310 9.965000 m 29.633310 9.965000 l 29.933310 10.465000 l 29.633310 10.965000 l 29.033310 10.965000 l 29.333310 10.465000 l ef
0.000000 0.000000 0.000000 srgb
n 29.033310 9.965000 m 29.633310 9.965000 l 29.933310 10.465000 l 29.633310 10.965000 l 29.033310 10.965000 l 29.333310 10.465000 l cp s
0 slc
0 slj
[] 0 sd
n 29.033310 9.965000 m 29.633310 9.965000 l 29.933310 10.465000 l 29.633310 10.965000 l 29.033310 10.965000 l 29.333310 10.465000 l cp s
0.100000 slw
[] 0 sd
[] 0 sd
0 slc
0 slj
0.100000 slw
0 slc
0 slj
[] 0 sd
1.000000 0.000000 0.000000 srgb
n 20.148310 7.120000 m 20.748310 7.120000 l 21.048310 7.620000 l 20.748310 8.120000 l 20.148310 8.120000 l 20.448310 7.620000 l ef
0.000000 0.000000 0.000000 srgb
n 20.148310 7.120000 m 20.748310 7.120000 l 21.048310 7.620000 l 20.748310 8.120000 l 20.148310 8.120000 l 20.448310 7.620000 l cp s
0 slc
0 slj
[] 0 sd
n 20.148310 7.120000 m 20.748310 7.120000 l 21.048310 7.620000 l 20.748310 8.120000 l 20.148310 8.120000 l 20.448310 7.620000 l cp s
0.100000 slw
[] 0 sd
[] 0 sd
0 slc
0 slj
0.100000 slw
0 slc
0 slj
[] 0 sd
1.000000 0.000000 0.000000 srgb
n 22.023310 13.155000 m 21.423310 13.155000 l 21.123310 13.655000 l 21.423310 14.155000 l 22.023310 14.155000 l 21.723310 13.655000 l ef
0.000000 0.000000 0.000000 srgb
n 22.023310 13.155000 m 21.423310 13.155000 l 21.123310 13.655000 l 21.423310 14.155000 l 22.023310 14.155000 l 21.723310 13.655000 l cp s
0 slc
0 slj
[] 0 sd
n 22.023310 13.155000 m 21.423310 13.155000 l 21.123310 13.655000 l 21.423310 14.155000 l 22.023310 14.155000 l 21.723310 13.655000 l cp s
showpage
