%!PS-Adobe-2.0 EPSF-2.0
%%Title: /home/sriram/ferl/Thesis/Research/AAAI_2015/Grid_wall.dia
%%Creator: Dia v0.97.2
%%CreationDate: Thu Sep 11 12:13:47 2014
%%For: sriram
%%Orientation: Portrait
%%Magnification: 1.0000
%%BoundingBox: 0 0 1140 1141
%%BeginSetup
%%EndSetup
%%EndComments
%%BeginProlog
[ /.notdef /.notdef /.notdef /.notdef /.notdef /.notdef /.notdef /.notdef /.notdef /.notdef
/.notdef /.notdef /.notdef /.notdef /.notdef /.notdef /.notdef /.notdef /.notdef /.notdef
/.notdef /.notdef /.notdef /.notdef /.notdef /.notdef /.notdef /.notdef /.notdef /.notdef
/.notdef /.notdef /space /exclam /quotedbl /numbersign /dollar /percent /ampersand /quoteright
/parenleft /parenright /asterisk /plus /comma /hyphen /period /slash /zero /one
/two /three /four /five /six /seven /eight /nine /colon /semicolon
/less /equal /greater /question /at /A /B /C /D /E
/F /G /H /I /J /K /L /M /N /O
/P /Q /R /S /T /U /V /W /X /Y
/Z /bracketleft /backslash /bracketright /asciicircum /underscore /quoteleft /a /b /c
/d /e /f /g /h /i /j /k /l /m
/n /o /p /q /r /s /t /u /v /w
/x /y /z /braceleft /bar /braceright /asciitilde /.notdef /.notdef /.notdef
/.notdef /.notdef /.notdef /.notdef /.notdef /.notdef /.notdef /.notdef /.notdef /.notdef
/.notdef /.notdef /.notdef /.notdef /.notdef /.notdef /.notdef /.notdef /.notdef /.notdef
/.notdef /.notdef /.notdef /.notdef /.notdef /.notdef /.notdef /.notdef /.notdef /.notdef
/space /exclamdown /cent /sterling /currency /yen /brokenbar /section /dieresis /copyright
/ordfeminine /guillemotleft /logicalnot /hyphen /registered /macron /degree /plusminus /twosuperior /threesuperior
/acute /mu /paragraph /periodcentered /cedilla /onesuperior /ordmasculine /guillemotright /onequarter /onehalf
/threequarters /questiondown /Agrave /Aacute /Acircumflex /Atilde /Adieresis /Aring /AE /Ccedilla
/Egrave /Eacute /Ecircumflex /Edieresis /Igrave /Iacute /Icircumflex /Idieresis /Eth /Ntilde
/Ograve /Oacute /Ocircumflex /Otilde /Odieresis /multiply /Oslash /Ugrave /Uacute /Ucircumflex
/Udieresis /Yacute /Thorn /germandbls /agrave /aacute /acircumflex /atilde /adieresis /aring
/ae /ccedilla /egrave /eacute /ecircumflex /edieresis /igrave /iacute /icircumflex /idieresis
/eth /ntilde /ograve /oacute /ocircumflex /otilde /odieresis /divide /oslash /ugrave
/uacute /ucircumflex /udieresis /yacute /thorn /ydieresis] /isolatin1encoding exch def
/cp {closepath} bind def
/c {curveto} bind def
/f {fill} bind def
/a {arc} bind def
/ef {eofill} bind def
/ex {exch} bind def
/gr {grestore} bind def
/gs {gsave} bind def
/sa {save} bind def
/rs {restore} bind def
/l {lineto} bind def
/m {moveto} bind def
/rm {rmoveto} bind def
/n {newpath} bind def
/s {stroke} bind def
/sh {show} bind def
/slc {setlinecap} bind def
/slj {setlinejoin} bind def
/slw {setlinewidth} bind def
/srgb {setrgbcolor} bind def
/rot {rotate} bind def
/sc {scale} bind def
/sd {setdash} bind def
/ff {findfont} bind def
/sf {setfont} bind def
/scf {scalefont} bind def
/sw {stringwidth pop} bind def
/tr {translate} bind def

/ellipsedict 8 dict def
ellipsedict /mtrx matrix put
/ellipse
{ ellipsedict begin
   /endangle exch def
   /startangle exch def
   /yrad exch def
   /xrad exch def
   /y exch def
   /x exch def   /savematrix mtrx currentmatrix def
   x y tr xrad yrad sc
   0 0 1 startangle endangle arc
   savematrix setmatrix
   end
} def

/mergeprocs {
dup length
3 -1 roll
dup
length
dup
5 1 roll
3 -1 roll
add
array cvx
dup
3 -1 roll
0 exch
putinterval
dup
4 2 roll
putinterval
} bind def
/dpi_x 300 def
/dpi_y 300 def
/conicto {
    /to_y exch def
    /to_x exch def
    /conic_cntrl_y exch def
    /conic_cntrl_x exch def
    currentpoint
    /p0_y exch def
    /p0_x exch def
    /p1_x p0_x conic_cntrl_x p0_x sub 2 3 div mul add def
    /p1_y p0_y conic_cntrl_y p0_y sub 2 3 div mul add def
    /p2_x p1_x to_x p0_x sub 1 3 div mul add def
    /p2_y p1_y to_y p0_y sub 1 3 div mul add def
    p1_x p1_y p2_x p2_y to_x to_y curveto
} bind def
/start_ol { gsave 1.1 dpi_x div dup scale} bind def
/end_ol { closepath fill grestore } bind def
28.346000 -28.346000 scale
-20.065012 -63.050100 translate
%%EndProlog


0.100000 slw
[] 0 sd
[] 0 sd
0 slj
1.000000 1.000000 1.000000 srgb
n 20.134900 22.937500 m 20.134900 63.000099 l 60.197499 63.000099 l 60.197499 22.937500 l f
0.000000 0.000000 0.000000 srgb
n 20.134900 22.937500 m 20.134900 63.000099 l 60.197499 63.000099 l 60.197499 22.937500 l cp s
0.100000 slw
[] 0 sd
[] 0 sd
0 slc
0.658824 0.650980 0.650980 srgb
n 20.235000 57.762500 m 60.085000 57.912500 l s
0.100000 slw
[] 0 sd
[] 0 sd
0 slc
n 20.250200 52.917700 m 60.100200 53.067700 l s
0.100000 slw
[] 0 sd
[] 0 sd
0 slc
n 20.265200 32.972700 m 60.115200 33.122700 l s
0.100000 slw
[] 0 sd
[] 0 sd
0 slc
n 20.280200 27.827700 m 60.130200 27.977700 l s
0.100000 slw
[] 0 sd
[] 0 sd
0 slc
n 20.300200 37.817700 m 60.150200 37.967700 l s
0.100000 slw
[] 0 sd
[] 0 sd
0 slc
n 20.134900 42.968800 m 60.050200 43.117700 l s
0.100000 slw
[] 0 sd
[] 0 sd
0 slc
n 20.300200 47.917700 m 60.150200 48.067700 l s
0.100000 slw
[] 0 sd
[] 0 sd
0 slc
n 25.150100 62.755100 m 25.185000 22.862500 l s
0.100000 slw
[] 0 sd
[] 0 sd
0 slc
n 30.100000 62.947600 m 30.135000 23.055000 l s
0.100000 slw
[] 0 sd
[] 0 sd
0 slc
n 35.165000 62.852600 m 35.200000 22.960000 l s
0.100000 slw
[] 0 sd
[] 0 sd
0 slc
n 45.080000 62.857600 m 45.115000 22.965000 l s
0.100000 slw
[] 0 sd
[] 0 sd
0 slc
n 40.166200 63.000100 m 40.166200 22.937500 l s
0.100000 slw
[] 0 sd
[] 0 sd
0 slc
n 50.110000 62.867600 m 50.145000 22.975000 l s
0.100000 slw
[] 0 sd
[] 0 sd
0 slc
n 55.125000 62.872600 m 55.160000 22.980000 l s
0.100000 slw
[] 0 sd
[] 0 sd
0 slc
n 20.300200 26.742700 m 60.150200 26.892700 l s
0.100000 slw
[] 0 sd
[] 0 sd
0 slc
n 20.115200 25.797700 m 59.965200 25.947700 l s
0.100000 slw
[] 0 sd
[] 0 sd
0 slc
n 20.230200 24.852700 m 60.080200 25.002700 l s
0.100000 slw
[] 0 sd
[] 0 sd
0 slc
n 20.245200 23.757700 m 60.095200 23.907700 l s
0.100000 slw
[] 0 sd
[] 0 sd
0 slc
n 20.260200 29.662700 m 60.110200 29.812700 l s
0.100000 slw
[] 0 sd
[] 0 sd
0 slc
n 20.275200 28.717700 m 60.125200 28.867700 l s
0.100000 slw
[] 0 sd
[] 0 sd
0 slc
n 20.250200 38.792700 m 60.100200 38.942700 l s
0.100000 slw
[] 0 sd
[] 0 sd
0 slc
n 20.165200 31.797700 m 60.015200 31.947700 l s
0.100000 slw
[] 0 sd
[] 0 sd
0 slc
n 20.330200 30.752700 m 60.180200 30.902700 l s
0.100000 slw
[] 0 sd
[] 0 sd
0 slc
n 20.250200 46.780200 m 60.100200 46.930200 l s
0.100000 slw
[] 0 sd
[] 0 sd
0 slc
n 20.215200 40.935200 m 60.065200 41.085200 l s
0.100000 slw
[] 0 sd
[] 0 sd
0 slc
n 20.280200 39.890200 m 60.130200 40.040200 l s
0.100000 slw
[] 0 sd
[] 0 sd
0 slc
n 20.195200 36.845200 m 60.045200 36.995200 l s
0.100000 slw
[] 0 sd
[] 0 sd
0 slc
n 20.210200 35.850200 m 60.060200 36.000200 l s
0.100000 slw
[] 0 sd
[] 0 sd
0 slc
n 20.175200 34.805200 m 60.025200 34.955200 l s
0.100000 slw
[] 0 sd
[] 0 sd
0 slc
n 20.240200 33.810200 m 60.090200 33.960200 l s
0.100000 slw
[] 0 sd
[] 0 sd
0 slc
n 20.250200 55.867700 m 60.100200 56.017700 l s
0.100000 slw
[] 0 sd
[] 0 sd
0 slc
n 20.215200 58.872700 m 60.065200 59.022700 l s
0.100000 slw
[] 0 sd
[] 0 sd
0 slc
n 20.180200 61.877700 m 60.030200 62.027700 l s
0.100000 slw
[] 0 sd
[] 0 sd
0 slc
n 20.345200 45.682700 m 60.195200 45.832700 l s
0.100000 slw
[] 0 sd
[] 0 sd
0 slc
n 20.160200 44.887700 m 60.010200 45.037700 l s
0.100000 slw
[] 0 sd
[] 0 sd
0 slc
n 20.175200 43.842700 m 60.025200 43.992700 l s
0.100000 slw
[] 0 sd
[] 0 sd
0 slc
n 20.140200 41.947700 m 59.990200 42.097700 l s
0.100000 slw
[] 0 sd
[] 0 sd
0 slc
n 20.265200 53.910200 m 60.115200 54.060200 l s
0.100000 slw
[] 0 sd
[] 0 sd
0 slc
n 20.230200 54.815200 m 60.080200 54.965200 l s
0.100000 slw
[] 0 sd
[] 0 sd
0 slc
n 20.195200 56.770200 m 60.045200 56.920200 l s
0.100000 slw
[] 0 sd
[] 0 sd
0 slc
n 20.210200 59.775200 m 60.060200 59.925200 l s
0.100000 slw
[] 0 sd
[] 0 sd
0 slc
n 20.225200 60.880200 m 60.075200 61.030200 l s
0.100000 slw
[] 0 sd
[] 0 sd
0 slc
n 20.165200 48.872700 m 60.015200 49.022700 l s
0.100000 slw
[] 0 sd
[] 0 sd
0 slc
n 20.180200 49.877700 m 60.030200 50.027700 l s
0.100000 slw
[] 0 sd
[] 0 sd
0 slc
n 20.295200 50.882700 m 60.145200 51.032700 l s
0.100000 slw
[] 0 sd
[] 0 sd
0 slc
n 20.210200 51.837700 m 60.060200 51.987700 l s
0.100000 slw
[] 0 sd
[] 0 sd
0 slc
n 39.099900 62.960100 m 39.134800 23.067500 l s
0.100000 slw
[] 0 sd
[] 0 sd
0 slc
n 24.114900 62.965100 m 24.149800 23.072500 l s
0.100000 slw
[] 0 sd
[] 0 sd
0 slc
n 23.029900 62.970100 m 23.064800 23.077500 l s
0.100000 slw
[] 0 sd
[] 0 sd
0 slc
n 22.044900 62.925100 m 22.079800 23.032500 l s
0.100000 slw
[] 0 sd
[] 0 sd
0 slc
n 26.109900 62.880100 m 26.144800 22.987500 l s
0.100000 slw
[] 0 sd
[] 0 sd
0 slc
n 21.174900 62.885100 m 21.209800 22.992500 l s
0.100000 slw
[] 0 sd
[] 0 sd
0 slc
n 38.099900 62.935100 m 38.134800 23.042500 l s
0.100000 slw
[] 0 sd
[] 0 sd
0 slc
n 32.164900 62.890100 m 32.199800 22.997500 l s
0.100000 slw
[] 0 sd
[] 0 sd
0 slc
n 29.079900 62.895100 m 29.114800 23.002500 l s
0.100000 slw
[] 0 sd
[] 0 sd
0 slc
n 31.094900 62.900100 m 31.129800 23.007500 l s
0.100000 slw
[] 0 sd
[] 0 sd
0 slc
n 27.109900 62.905100 m 27.144800 23.012500 l s
0.100000 slw
[] 0 sd
[] 0 sd
0 slc
n 28.174900 62.960100 m 28.209800 23.067500 l s
0.100000 slw
[] 0 sd
[] 0 sd
0 slc
n 37.114900 62.890100 m 37.149800 22.997500 l s
0.100000 slw
[] 0 sd
[] 0 sd
0 slc
n 36.079900 62.945100 m 36.114800 23.052500 l s
0.100000 slw
[] 0 sd
[] 0 sd
0 slc
n 34.094900 62.900100 m 34.129800 23.007500 l s
0.100000 slw
[] 0 sd
[] 0 sd
0 slc
n 33.159900 62.905100 m 33.194800 23.012500 l s
0.100000 slw
[] 0 sd
[] 0 sd
0 slc
n 44.049900 62.947600 m 44.084800 23.055000 l s
0.100000 slw
[] 0 sd
[] 0 sd
0 slc
n 43.029900 62.857600 m 43.064800 22.965000 l s
0.100000 slw
[] 0 sd
[] 0 sd
0 slc
n 42.094900 62.812600 m 42.129800 22.920000 l s
0.100000 slw
[] 0 sd
[] 0 sd
0 slc
n 41.159900 62.867600 m 41.194800 22.975000 l s
0.100000 slw
[] 0 sd
[] 0 sd
0 slc
n 57.149900 62.910100 m 57.184800 23.017500 l s
0.100000 slw
[] 0 sd
[] 0 sd
0 slc
n 49.114900 62.865100 m 49.149800 22.972500 l s
0.100000 slw
[] 0 sd
[] 0 sd
0 slc
n 48.129900 62.870100 m 48.164800 22.977500 l s
0.100000 slw
[] 0 sd
[] 0 sd
0 slc
n 47.094900 62.875100 m 47.129800 22.982500 l s
0.100000 slw
[] 0 sd
[] 0 sd
0 slc
n 46.159900 62.830100 m 46.194800 22.937500 l s
0.100000 slw
[] 0 sd
[] 0 sd
0 slc
n 54.149900 62.860100 m 54.184800 22.967500 l s
0.100000 slw
[] 0 sd
[] 0 sd
0 slc
n 53.114900 62.815100 m 53.149800 22.922500 l s
0.100000 slw
[] 0 sd
[] 0 sd
0 slc
n 52.029900 62.870100 m 52.064800 22.977500 l s
0.100000 slw
[] 0 sd
[] 0 sd
0 slc
n 56.094900 62.875100 m 56.129800 22.982500 l s
0.100000 slw
[] 0 sd
[] 0 sd
0 slc
n 51.159900 62.930100 m 51.194800 23.037500 l s
0.100000 slw
[] 0 sd
[] 0 sd
0 slc
n 58.187700 62.872600 m 58.222600 22.980000 l s
0.100000 slw
[] 0 sd
[] 0 sd
0 slc
n 59.137700 62.872600 m 59.172600 22.980000 l s
0.100000 slw
[] 0 sd
[] 0 sd
0 slj
0.000000 0.000000 1.000000 srgb
n 39.235200 62.075000 m 39.235200 62.925000 l 40.085200 62.925000 l 40.085200 62.075000 l f
0.000000 0.000000 0.000000 srgb
n 39.235200 62.075000 m 39.235200 62.925000 l 40.085200 62.925000 l 40.085200 62.075000 l cp s
0.300000 slw
[] 0 sd
[] 0 sd
0 slc
1.000000 0.000000 0.000000 srgb
n 39.185200 36.937500 m 40.135200 37.887500 l s
0.300000 slw
[] 0 sd
[] 0 sd
0 slc
n 40.085200 36.987500 m 39.235200 37.837500 l s
0.100000 slw
[] 0 sd
[] 0 sd
0 slj
0.000000 0.000000 0.000000 srgb
n 30.162500 37.962500 m 30.162500 38.962500 l 49.150000 38.962500 l 49.150000 37.962500 l f
n 30.162500 37.962500 m 30.162500 38.962500 l 49.150000 38.962500 l 49.150000 37.962500 l cp s
showpage
