%!PS-Adobe-2.0 EPSF-2.0
%%Title: /home/sriram/ferl/Thesis/Research/AAAI_2015/invaders_game.dia
%%Creator: Dia v0.97.2
%%CreationDate: Wed Sep  3 12:47:34 2014
%%For: sriram
%%Orientation: Portrait
%%Magnification: 1.0000
%%BoundingBox: 0 0 465 463
%%BeginSetup
%%EndSetup
%%EndComments
%%BeginProlog
[ /.notdef /.notdef /.notdef /.notdef /.notdef /.notdef /.notdef /.notdef /.notdef /.notdef
/.notdef /.notdef /.notdef /.notdef /.notdef /.notdef /.notdef /.notdef /.notdef /.notdef
/.notdef /.notdef /.notdef /.notdef /.notdef /.notdef /.notdef /.notdef /.notdef /.notdef
/.notdef /.notdef /space /exclam /quotedbl /numbersign /dollar /percent /ampersand /quoteright
/parenleft /parenright /asterisk /plus /comma /hyphen /period /slash /zero /one
/two /three /four /five /six /seven /eight /nine /colon /semicolon
/less /equal /greater /question /at /A /B /C /D /E
/F /G /H /I /J /K /L /M /N /O
/P /Q /R /S /T /U /V /W /X /Y
/Z /bracketleft /backslash /bracketright /asciicircum /underscore /quoteleft /a /b /c
/d /e /f /g /h /i /j /k /l /m
/n /o /p /q /r /s /t /u /v /w
/x /y /z /braceleft /bar /braceright /asciitilde /.notdef /.notdef /.notdef
/.notdef /.notdef /.notdef /.notdef /.notdef /.notdef /.notdef /.notdef /.notdef /.notdef
/.notdef /.notdef /.notdef /.notdef /.notdef /.notdef /.notdef /.notdef /.notdef /.notdef
/.notdef /.notdef /.notdef /.notdef /.notdef /.notdef /.notdef /.notdef /.notdef /.notdef
/space /exclamdown /cent /sterling /currency /yen /brokenbar /section /dieresis /copyright
/ordfeminine /guillemotleft /logicalnot /hyphen /registered /macron /degree /plusminus /twosuperior /threesuperior
/acute /mu /paragraph /periodcentered /cedilla /onesuperior /ordmasculine /guillemotright /onequarter /onehalf
/threequarters /questiondown /Agrave /Aacute /Acircumflex /Atilde /Adieresis /Aring /AE /Ccedilla
/Egrave /Eacute /Ecircumflex /Edieresis /Igrave /Iacute /Icircumflex /Idieresis /Eth /Ntilde
/Ograve /Oacute /Ocircumflex /Otilde /Odieresis /multiply /Oslash /Ugrave /Uacute /Ucircumflex
/Udieresis /Yacute /Thorn /germandbls /agrave /aacute /acircumflex /atilde /adieresis /aring
/ae /ccedilla /egrave /eacute /ecircumflex /edieresis /igrave /iacute /icircumflex /idieresis
/eth /ntilde /ograve /oacute /ocircumflex /otilde /odieresis /divide /oslash /ugrave
/uacute /ucircumflex /udieresis /yacute /thorn /ydieresis] /isolatin1encoding exch def
/cp {closepath} bind def
/c {curveto} bind def
/f {fill} bind def
/a {arc} bind def
/ef {eofill} bind def
/ex {exch} bind def
/gr {grestore} bind def
/gs {gsave} bind def
/sa {save} bind def
/rs {restore} bind def
/l {lineto} bind def
/m {moveto} bind def
/rm {rmoveto} bind def
/n {newpath} bind def
/s {stroke} bind def
/sh {show} bind def
/slc {setlinecap} bind def
/slj {setlinejoin} bind def
/slw {setlinewidth} bind def
/srgb {setrgbcolor} bind def
/rot {rotate} bind def
/sc {scale} bind def
/sd {setdash} bind def
/ff {findfont} bind def
/sf {setfont} bind def
/scf {scalefont} bind def
/sw {stringwidth pop} bind def
/tr {translate} bind def

/ellipsedict 8 dict def
ellipsedict /mtrx matrix put
/ellipse
{ ellipsedict begin
   /endangle exch def
   /startangle exch def
   /yrad exch def
   /xrad exch def
   /y exch def
   /x exch def   /savematrix mtrx currentmatrix def
   x y tr xrad yrad sc
   0 0 1 startangle endangle arc
   savematrix setmatrix
   end
} def

/mergeprocs {
dup length
3 -1 roll
dup
length
dup
5 1 roll
3 -1 roll
add
array cvx
dup
3 -1 roll
0 exch
putinterval
dup
4 2 roll
putinterval
} bind def
/dpi_x 300 def
/dpi_y 300 def
/conicto {
    /to_y exch def
    /to_x exch def
    /conic_cntrl_y exch def
    /conic_cntrl_x exch def
    currentpoint
    /p0_y exch def
    /p0_x exch def
    /p1_x p0_x conic_cntrl_x p0_x sub 2 3 div mul add def
    /p1_y p0_y conic_cntrl_y p0_y sub 2 3 div mul add def
    /p2_x p1_x to_x p0_x sub 1 3 div mul add def
    /p2_y p1_y to_y p0_y sub 1 3 div mul add def
    p1_x p1_y p2_x p2_y to_x to_y curveto
} bind def
/start_ol { gsave 1.1 dpi_x div dup scale} bind def
/end_ol { closepath fill grestore } bind def
28.346000 -28.346000 scale
-19.865000 -21.305000 translate
%%EndProlog


0.100000 slw
[] 0 sd
[] 0 sd
0 slc
0 slj
0.100000 slw
0 slc
0 slj
[] 0 sd
1.000000 0.000000 0.000000 srgb
n 23.711500 19.115000 m 24.311500 19.115000 l 24.611500 19.540000 l 24.311500 19.965000 l 23.711500 19.965000 l 24.011500 19.540000 l ef
0.000000 0.000000 0.000000 srgb
n 23.711500 19.115000 m 24.311500 19.115000 l 24.611500 19.540000 l 24.311500 19.965000 l 23.711500 19.965000 l 24.011500 19.540000 l cp s
0 slc
0 slj
[] 0 sd
n 23.711500 19.115000 m 24.311500 19.115000 l 24.611500 19.540000 l 24.311500 19.965000 l 23.711500 19.965000 l 24.011500 19.540000 l cp s
0.100000 slw
[] 0 sd
[] 0 sd
0 slj
1.000000 1.000000 1.000000 srgb
n 20.090000 5.140000 m 20.090000 21.140000 l 36.090000 21.140000 l 36.090000 5.140000 l f
0.000000 0.000000 0.000000 srgb
n 20.090000 5.140000 m 20.090000 21.140000 l 36.090000 21.140000 l 36.090000 5.140000 l cp s
0.100000 slw
[] 0 sd
[] 0 sd
0 slc
0.658824 0.650980 0.650980 srgb
n 30.040000 5.140000 m 30.040000 21.240000 l s
0.100000 slw
[] 0 sd
[] 0 sd
0 slc
n 22.105000 5.095000 m 22.105000 21.195000 l s
0.100000 slw
[] 0 sd
[] 0 sd
0 slc
n 21.120000 5.150000 m 21.120000 21.250000 l s
0.100000 slw
[] 0 sd
[] 0 sd
0 slc
n 25.035000 5.105000 m 25.035000 21.205000 l s
0.100000 slw
[] 0 sd
[] 0 sd
0 slc
n 26.055000 5.095000 m 26.055000 21.195000 l s
0.100000 slw
[] 0 sd
[] 0 sd
0 slc
n 27.020000 5.150000 m 27.020000 21.250000 l s
0.100000 slw
[] 0 sd
[] 0 sd
0 slc
n 24.035000 5.155000 m 24.035000 21.255000 l s
0.100000 slw
[] 0 sd
[] 0 sd
0 slc
n 23.050000 5.110000 m 23.040000 21.040000 l s
0.100000 slw
[] 0 sd
[] 0 sd
0 slc
n 28.090000 5.140000 m 28.090000 21.140000 l s
0.100000 slw
[] 0 sd
[] 0 sd
0 slc
n 29.030000 5.120000 m 29.030000 21.220000 l s
0.100000 slw
[] 0 sd
[] 0 sd
0 slc
n 31.045000 5.125000 m 31.045000 21.225000 l s
0.100000 slw
[] 0 sd
[] 0 sd
0 slc
n 32.110000 5.080000 m 32.110000 21.180000 l s
0.100000 slw
[] 0 sd
[] 0 sd
0 slc
n 35.020000 5.100000 m 35.020000 21.200000 l s
0.100000 slw
[] 0 sd
[] 0 sd
0 slc
n 33.985000 5.055000 m 33.985000 21.155000 l s
0.100000 slw
[] 0 sd
[] 0 sd
0 slc
n 33.100000 5.110000 m 33.100000 21.210000 l s
0.100000 slw
[] 0 sd
[] 0 sd
0 slc
n 20.090000 10.040000 m 36.190000 9.990000 l s
0.100000 slw
[] 0 sd
[] 0 sd
0 slc
n 20.005155 18.095155 m 36.105155 18.045155 l s
0.100000 slw
[] 0 sd
[] 0 sd
0 slc
n 20.020155 19.100155 m 36.120155 19.050155 l s
0.100000 slw
[] 0 sd
[] 0 sd
0 slc
n 19.985155 20.105155 m 36.085155 20.055155 l s
0.100000 slw
[] 0 sd
[] 0 sd
0 slc
n 20.100155 15.010155 m 36.200155 14.960155 l s
0.100000 slw
[] 0 sd
[] 0 sd
0 slc
n 20.005155 12.045155 m 36.105155 11.995155 l s
0.100000 slw
[] 0 sd
[] 0 sd
0 slc
n 20.090000 13.140000 m 36.090000 13.140000 l s
0.100000 slw
[] 0 sd
[] 0 sd
0 slc
n 19.985155 14.105155 m 36.085155 14.055155 l s
0.100000 slw
[] 0 sd
[] 0 sd
0 slc
n 20.050155 16.110155 m 36.150155 16.060155 l s
0.100000 slw
[] 0 sd
[] 0 sd
0 slc
n 19.915155 17.115155 m 36.015155 17.065155 l s
0.100000 slw
[] 0 sd
[] 0 sd
0 slc
n 20.188310 8.160000 m 36.155155 8.045155 l s
0.100000 slw
[] 0 sd
[] 0 sd
0 slc
n 20.070155 6.050155 m 36.170155 6.000155 l s
0.100000 slw
[] 0 sd
[] 0 sd
0 slc
n 20.188310 7.160000 m 36.135155 7.055155 l s
0.100000 slw
[] 0 sd
[] 0 sd
0 slc
n 20.100155 9.110155 m 36.200155 9.060155 l s
0.100000 slw
[] 0 sd
[] 0 sd
0 slc
n 20.015155 11.015155 m 36.115155 10.965155 l s
0.100000 slw
[] 0 sd
[] 0 sd
0 slj
0.000000 0.000000 1.000000 srgb
n 27.115000 20.205000 m 27.115000 21.105000 l 28.015000 21.105000 l 28.015000 20.205000 l f
0.000000 0.000000 0.000000 srgb
n 27.115000 20.205000 m 27.115000 21.105000 l 28.015000 21.105000 l 28.015000 20.205000 l cp s
0.100000 slw
[] 0 sd
[] 0 sd
0 slc
0 slj
0.100000 slw
0 slc
0 slj
[] 0 sd
1.000000 0.000000 0.000000 srgb
n 27.491451 15.905000 m 27.841451 15.105000 l 27.141451 15.105000 l ef
0.000000 0.000000 0.000000 srgb
n 27.491451 15.905000 m 27.841451 15.105000 l 27.141451 15.105000 l cp s
0.100000 slw
[] 0 sd
[] 0 sd
0 slc
0 slj
0.100000 slw
0 slc
0 slj
[] 0 sd
1.000000 0.000000 0.000000 srgb
n 23.491451 15.905000 m 23.841451 15.105000 l 23.141451 15.105000 l ef
0.000000 0.000000 0.000000 srgb
n 23.491451 15.905000 m 23.841451 15.105000 l 23.141451 15.105000 l cp s
0.100000 slw
[] 0 sd
[] 0 sd
0 slc
0 slj
0.100000 slw
0 slc
0 slj
[] 0 sd
1.000000 0.000000 0.000000 srgb
n 29.541451 15.905000 m 29.891451 15.105000 l 29.191451 15.105000 l ef
0.000000 0.000000 0.000000 srgb
n 29.541451 15.905000 m 29.891451 15.105000 l 29.191451 15.105000 l cp s
0.100000 slw
[] 0 sd
[] 0 sd
0 slc
0 slj
0.100000 slw
0 slc
0 slj
[] 0 sd
1.000000 0.000000 0.000000 srgb
n 25.556451 9.960000 m 25.906451 9.160000 l 25.206451 9.160000 l ef
0.000000 0.000000 0.000000 srgb
n 25.556451 9.960000 m 25.906451 9.160000 l 25.206451 9.160000 l cp s
0.100000 slw
[] 0 sd
[] 0 sd
0 slc
0 slj
0.100000 slw
0 slc
0 slj
[] 0 sd
1.000000 0.000000 0.000000 srgb
n 23.571451 9.915000 m 23.921451 9.115000 l 23.221451 9.115000 l ef
0.000000 0.000000 0.000000 srgb
n 23.571451 9.915000 m 23.921451 9.115000 l 23.221451 9.115000 l cp s
0.100000 slw
[] 0 sd
[] 0 sd
0 slc
0 slj
0.100000 slw
0 slc
0 slj
[] 0 sd
1.000000 0.000000 0.000000 srgb
n 23.536451 13.970000 m 23.886451 13.170000 l 23.186451 13.170000 l ef
0.000000 0.000000 0.000000 srgb
n 23.536451 13.970000 m 23.886451 13.170000 l 23.186451 13.170000 l cp s
0.100000 slw
[] 0 sd
[] 0 sd
0 slc
0 slj
0.100000 slw
0 slc
0 slj
[] 0 sd
1.000000 0.000000 0.000000 srgb
n 23.551451 11.875000 m 23.901451 11.075000 l 23.201451 11.075000 l ef
0.000000 0.000000 0.000000 srgb
n 23.551451 11.875000 m 23.901451 11.075000 l 23.201451 11.075000 l cp s
0.100000 slw
[] 0 sd
[] 0 sd
0 slc
0 slj
0.100000 slw
0 slc
0 slj
[] 0 sd
1.000000 0.000000 0.000000 srgb
n 27.491451 13.955000 m 27.841451 13.155000 l 27.141451 13.155000 l ef
0.000000 0.000000 0.000000 srgb
n 27.491451 13.955000 m 27.841451 13.155000 l 27.141451 13.155000 l cp s
0.100000 slw
[] 0 sd
[] 0 sd
0 slc
0 slj
0.100000 slw
0 slc
0 slj
[] 0 sd
1.000000 0.000000 0.000000 srgb
n 25.506451 11.860000 m 25.856451 11.060000 l 25.156451 11.060000 l ef
0.000000 0.000000 0.000000 srgb
n 25.506451 11.860000 m 25.856451 11.060000 l 25.156451 11.060000 l cp s
0.100000 slw
[] 0 sd
[] 0 sd
0 slc
0 slj
0.100000 slw
0 slc
0 slj
[] 0 sd
1.000000 0.000000 0.000000 srgb
n 25.521451 14.015000 m 25.871451 13.215000 l 25.171451 13.215000 l ef
0.000000 0.000000 0.000000 srgb
n 25.521451 14.015000 m 25.871451 13.215000 l 25.171451 13.215000 l cp s
0.100000 slw
[] 0 sd
[] 0 sd
0 slc
0 slj
0.100000 slw
0 slc
0 slj
[] 0 sd
1.000000 0.000000 0.000000 srgb
n 25.536451 15.870000 m 25.886451 15.070000 l 25.186451 15.070000 l ef
0.000000 0.000000 0.000000 srgb
n 25.536451 15.870000 m 25.886451 15.070000 l 25.186451 15.070000 l cp s
0.100000 slw
[] 0 sd
[] 0 sd
0 slc
0 slj
0.100000 slw
0 slc
0 slj
[] 0 sd
1.000000 0.000000 0.000000 srgb
n 29.491451 11.905000 m 29.841451 11.105000 l 29.141451 11.105000 l ef
0.000000 0.000000 0.000000 srgb
n 29.491451 11.905000 m 29.841451 11.105000 l 29.141451 11.105000 l cp s
0.100000 slw
[] 0 sd
[] 0 sd
0 slc
0 slj
0.100000 slw
0 slc
0 slj
[] 0 sd
1.000000 0.000000 0.000000 srgb
n 27.556451 9.960000 m 27.906451 9.160000 l 27.206451 9.160000 l ef
0.000000 0.000000 0.000000 srgb
n 27.556451 9.960000 m 27.906451 9.160000 l 27.206451 9.160000 l cp s
0.100000 slw
[] 0 sd
[] 0 sd
0 slc
0 slj
0.100000 slw
0 slc
0 slj
[] 0 sd
1.000000 0.000000 0.000000 srgb
n 27.521451 11.915000 m 27.871451 11.115000 l 27.171451 11.115000 l ef
0.000000 0.000000 0.000000 srgb
n 27.521451 11.915000 m 27.871451 11.115000 l 27.171451 11.115000 l cp s
0.100000 slw
[] 0 sd
[] 0 sd
0 slc
0 slj
0.100000 slw
0 slc
0 slj
[] 0 sd
1.000000 0.000000 0.000000 srgb
n 29.541451 10.005000 m 29.891451 9.205000 l 29.191451 9.205000 l ef
0.000000 0.000000 0.000000 srgb
n 29.541451 10.005000 m 29.891451 9.205000 l 29.191451 9.205000 l cp s
0.100000 slw
[] 0 sd
[] 0 sd
0 slc
0 slj
0.100000 slw
0 slc
0 slj
[] 0 sd
1.000000 0.000000 0.000000 srgb
n 29.556451 14.010000 m 29.906451 13.210000 l 29.206451 13.210000 l ef
0.000000 0.000000 0.000000 srgb
n 29.556451 14.010000 m 29.906451 13.210000 l 29.206451 13.210000 l cp s
showpage
