%!PS-Adobe-3.0 EPSF-3.0
%%Creator: MATLAB, The Mathworks, Inc. Version 7.9.0.529 (R2009b). Operating System: Linux 3.13.0-34-generic #60-Ubuntu SMP Wed Aug 13 15:49:09 UTC 2014 i686.
%%Title: /home/sriram/ferl/Thesis/Research/AAAI_2015/invaders_scatter.eps
%%CreationDate: 09/15/2014  15:41:49
%%DocumentNeededFonts: Helvetica
%%DocumentProcessColors: Cyan Magenta Yellow Black
%%LanguageLevel: 2
%%Pages: 1
%%BoundingBox:  -239   147   853   644
%%EndComments

%%BeginProlog
% MathWorks dictionary
/MathWorks 160 dict begin
% definition operators
/bdef {bind def} bind def
/ldef {load def} bind def
/xdef {exch def} bdef
/xstore {exch store} bdef
% operator abbreviations
/c  /clip ldef
/cc /concat ldef
/cp /closepath ldef
/gr /grestore ldef
/gs /gsave ldef
/mt /moveto ldef
/np /newpath ldef
/cm /currentmatrix ldef
/sm /setmatrix ldef
/rm /rmoveto ldef
/rl /rlineto ldef
/s {show newpath} bdef
/sc {setcmykcolor} bdef
/sr /setrgbcolor ldef
/sg /setgray ldef
/w /setlinewidth ldef
/j /setlinejoin ldef
/cap /setlinecap ldef
/rc {rectclip} bdef
/rf {rectfill} bdef
% page state control
/pgsv () def
/bpage {/pgsv save def} bdef
/epage {pgsv restore} bdef
/bplot /gsave ldef
/eplot {stroke grestore} bdef
% orientation switch
/portraitMode 0 def /landscapeMode 1 def /rotateMode 2 def
% coordinate system mappings
/dpi2point 0 def
% font control
/FontSize 0 def
/FMS {/FontSize xstore findfont [FontSize 0 0 FontSize neg 0 0]
  makefont setfont} bdef
/reencode {exch dup where {pop load} {pop StandardEncoding} ifelse
  exch dup 3 1 roll findfont dup length dict begin
  { 1 index /FID ne {def}{pop pop} ifelse } forall
  /Encoding exch def currentdict end definefont pop} bdef
/isroman {findfont /CharStrings get /Agrave known} bdef
/FMSR {3 1 roll 1 index dup isroman {reencode} {pop pop} ifelse
  exch FMS} bdef
/csm {1 dpi2point div -1 dpi2point div scale neg translate
 dup landscapeMode eq {pop -90 rotate}
  {rotateMode eq {90 rotate} if} ifelse} bdef
% line types: solid, dotted, dashed, dotdash
/SO { [] 0 setdash } bdef
/DO { [.5 dpi2point mul 4 dpi2point mul] 0 setdash } bdef
/DA { [6 dpi2point mul] 0 setdash } bdef
/DD { [.5 dpi2point mul 4 dpi2point mul 6 dpi2point mul 4
  dpi2point mul] 0 setdash } bdef
% macros for lines and objects
/L {lineto stroke} bdef
/MP {3 1 roll moveto 1 sub {rlineto} repeat} bdef
/AP {{rlineto} repeat} bdef
/PDlw -1 def
/W {/PDlw currentlinewidth def setlinewidth} def
/PP {closepath eofill} bdef
/DP {closepath stroke} bdef
/MR {4 -2 roll moveto dup  0 exch rlineto exch 0 rlineto
  neg 0 exch rlineto closepath} bdef
/FR {MR stroke} bdef
/PR {MR fill} bdef
/L1i {{currentfile picstr readhexstring pop} image} bdef
/tMatrix matrix def
/MakeOval {newpath tMatrix currentmatrix pop translate scale
0 0 1 0 360 arc tMatrix setmatrix} bdef
/FO {MakeOval stroke} bdef
/PO {MakeOval fill} bdef
/PD {currentlinewidth 2 div 0 360 arc fill
   PDlw -1 eq not {PDlw w /PDlw -1 def} if} def
/FA {newpath tMatrix currentmatrix pop translate scale
  0 0 1 5 -2 roll arc tMatrix setmatrix stroke} bdef
/PA {newpath tMatrix currentmatrix pop	translate 0 0 moveto scale
  0 0 1 5 -2 roll arc closepath tMatrix setmatrix fill} bdef
/FAn {newpath tMatrix currentmatrix pop translate scale
  0 0 1 5 -2 roll arcn tMatrix setmatrix stroke} bdef
/PAn {newpath tMatrix currentmatrix pop translate 0 0 moveto scale
  0 0 1 5 -2 roll arcn closepath tMatrix setmatrix fill} bdef
/vradius 0 def /hradius 0 def /lry 0 def
/lrx 0 def /uly 0 def /ulx 0 def /rad 0 def
/MRR {/vradius xdef /hradius xdef /lry xdef /lrx xdef /uly xdef
  /ulx xdef newpath tMatrix currentmatrix pop ulx hradius add uly
  vradius add translate hradius vradius scale 0 0 1 180 270 arc 
  tMatrix setmatrix lrx hradius sub uly vradius add translate
  hradius vradius scale 0 0 1 270 360 arc tMatrix setmatrix
  lrx hradius sub lry vradius sub translate hradius vradius scale
  0 0 1 0 90 arc tMatrix setmatrix ulx hradius add lry vradius sub
  translate hradius vradius scale 0 0 1 90 180 arc tMatrix setmatrix
  closepath} bdef
/FRR {MRR stroke } bdef
/PRR {MRR fill } bdef
/MlrRR {/lry xdef /lrx xdef /uly xdef /ulx xdef /rad lry uly sub 2 div def
  newpath tMatrix currentmatrix pop ulx rad add uly rad add translate
  rad rad scale 0 0 1 90 270 arc tMatrix setmatrix lrx rad sub lry rad
  sub translate rad rad scale 0 0 1 270 90 arc tMatrix setmatrix
  closepath} bdef
/FlrRR {MlrRR stroke } bdef
/PlrRR {MlrRR fill } bdef
/MtbRR {/lry xdef /lrx xdef /uly xdef /ulx xdef /rad lrx ulx sub 2 div def
  newpath tMatrix currentmatrix pop ulx rad add uly rad add translate
  rad rad scale 0 0 1 180 360 arc tMatrix setmatrix lrx rad sub lry rad
  sub translate rad rad scale 0 0 1 0 180 arc tMatrix setmatrix
  closepath} bdef
/FtbRR {MtbRR stroke } bdef
/PtbRR {MtbRR fill } bdef
/stri 6 array def /dtri 6 array def
/smat 6 array def /dmat 6 array def
/tmat1 6 array def /tmat2 6 array def /dif 3 array def
/asub {/ind2 exch def /ind1 exch def dup dup
  ind1 get exch ind2 get sub exch } bdef
/tri_to_matrix {
  2 0 asub 3 1 asub 4 0 asub 5 1 asub
  dup 0 get exch 1 get 7 -1 roll astore } bdef
/compute_transform {
  dmat dtri tri_to_matrix tmat1 invertmatrix 
  smat stri tri_to_matrix tmat2 concatmatrix } bdef
/ds {stri astore pop} bdef
/dt {dtri astore pop} bdef
/db {2 copy /cols xdef /rows xdef mul dup 3 mul string
  currentfile 
  3 index 0 eq {/ASCIIHexDecode filter}
  {/ASCII85Decode filter 3 index 2 eq {/RunLengthDecode filter} if }
  ifelse exch readstring pop
  dup 0 3 index getinterval /rbmap xdef
  dup 2 index dup getinterval /gbmap xdef
  1 index dup 2 mul exch getinterval /bbmap xdef pop pop}bdef
/it {gs np dtri aload pop moveto lineto lineto cp c
  cols rows 8 compute_transform 
  rbmap gbmap bbmap true 3 colorimage gr}bdef
/il {newpath moveto lineto stroke}bdef
currentdict end def
%%EndProlog

%%BeginSetup
MathWorks begin

0 cap

end
%%EndSetup

%%Page: 1 1
%%BeginPageSetup
%%PageBoundingBox:  -239   147   853   644
MathWorks begin
bpage
%%EndPageSetup

%%BeginObject: obj1
bplot

/dpi2point 12 def
portraitMode -2868 7728 csm

    0     0 13112  5953 rc
85 dict begin %Colortable dictionary
/c0 { 0.000000 0.000000 0.000000 sr} bdef
/c1 { 1.000000 1.000000 1.000000 sr} bdef
/c2 { 0.900000 0.000000 0.000000 sr} bdef
/c3 { 0.000000 0.820000 0.000000 sr} bdef
/c4 { 0.000000 0.000000 0.800000 sr} bdef
/c5 { 0.910000 0.820000 0.320000 sr} bdef
/c6 { 1.000000 0.260000 0.820000 sr} bdef
/c7 { 0.000000 0.820000 0.820000 sr} bdef
c0
1 j
1 sg
   0    0 13113 5954 rf
6 w
0 4393 10161 0 0 -4393 1705 4839 4 MP
PP
-10161 0 0 4393 10161 0 0 -4393 1705 4839 5 MP stroke
4 w
DO
SO
6 w
0 sg
1705 4839 mt 11866 4839 L
1705 4839 mt 1705  446 L
1705 4839 mt 1705 4737 L
%%IncludeResource: font Helvetica
/Helvetica /ISOLatin1Encoding 480 FMSR

1292 5319 mt 
(-6) s
3737 4839 mt 3737 4737 L
3324 5319 mt 
(-4) s
5769 4839 mt 5769 4737 L
5356 5319 mt 
(-2) s
7801 4839 mt 7801 4737 L
7668 5319 mt 
(0) s
9833 4839 mt 9833 4737 L
9700 5319 mt 
(2) s
11866 4839 mt 11866 4737 L
11733 5319 mt 
(4) s
1705 4839 mt 1806 4839 L
1404 5017 mt 
(0) s
1705 3374 mt 1806 3374 L
1137 3552 mt 
(10) s
1705 1910 mt 1806 1910 L
1137 2088 mt 
(20) s
1705  446 mt 1806  446 L
1137  624 mt 
(30) s
gs 1705 446 10162 4394 rc
0 j
gr

0 j
0 -218 -218 0 0 218 218 0 2612 1675 5 MP
/c8 { 1.000000 0.000000 0.000000 sr} bdef
c8
gs
PP
gr
DP
gs 1705 446 10162 4394 rc
gr

0 -218 -218 0 0 218 218 0 3628 1718 5 MP
gs
PP
gr
DP
gs 1705 446 10162 4394 rc
gr

0 -218 -218 0 0 218 218 0 4644 1662 5 MP
gs
PP
gr
DP
gs 1705 446 10162 4394 rc
gr

0 -218 -218 0 0 218 218 0 5660 1466 5 MP
gs
PP
gr
DP
gs 1705 446 10162 4394 rc
gr

0 -218 -218 0 0 218 218 0 6676 805 5 MP
gs
PP
gr
DP
gs 1705 446 10162 4394 rc
gr

0 -218 -218 0 0 218 218 0 7692 1303 5 MP
gs
PP
gr
DP
gs 1705 446 10162 4394 rc
gr

0 -218 -218 0 0 218 218 0 8708 1298 5 MP
gs
PP
gr
DP
gs 1705 446 10162 4394 rc
gr

0 -218 -218 0 0 218 218 0 9724 1251 5 MP
gs
PP
gr
DP
gs 1705 446 10162 4394 rc
gr

0 -218 -218 0 0 218 218 0 10740 1200 5 MP
gs
PP
gr
DP
gs 1705 446 10162 4394 rc
gr

0 -218 -218 0 0 218 218 0 11757 1266 5 MP
gs
PP
gr
DP
gs 1705 446 10162 4394 rc
gr

/c9 { 0.000000 0.000000 1.000000 sr} bdef
c9
11768  681 mt 11964  877 L
11964  681 mt 11768  877 L
gs 1705 446 10162 4394 rc
gr

11768  762 mt 11964  958 L
11964  762 mt 11768  958 L
gs 1705 446 10162 4394 rc
gr

11768  907 mt 11964 1103 L
11964  907 mt 11768 1103 L
gs 1705 446 10162 4394 rc
gr

11768 1100 mt 11964 1296 L
11964 1100 mt 11768 1296 L
gs 1705 446 10162 4394 rc
gr

11768  617 mt 11964  813 L
11964  617 mt 11768  813 L
gs 1705 446 10162 4394 rc
gr

11768  831 mt 11964 1027 L
11964  831 mt 11768 1027 L
gs 1705 446 10162 4394 rc
gr

11768  964 mt 11964 1160 L
11964  964 mt 11768 1160 L
gs 1705 446 10162 4394 rc
gr

11768 1059 mt 11964 1255 L
11964 1059 mt 11768 1255 L
gs 1705 446 10162 4394 rc
gr

11768  700 mt 11964  896 L
11964  700 mt 11768  896 L
gs 1705 446 10162 4394 rc
gr

11768  806 mt 11964 1002 L
11964  806 mt 11768 1002 L
gs 1705 446 10162 4394 rc
gr

11768 1051 mt 11964 1247 L
11964 1051 mt 11768 1247 L
gs 1705 446 10162 4394 rc
gr

11768 1090 mt 11964 1286 L
11964 1090 mt 11768 1286 L
gs 1705 446 10162 4394 rc
gr

11768  672 mt 11964  868 L
11964  672 mt 11768  868 L
gs 1705 446 10162 4394 rc
gr

11768  839 mt 11964 1035 L
11964  839 mt 11768 1035 L
gs 1705 446 10162 4394 rc
gr

11768 1105 mt 11964 1301 L
11964 1105 mt 11768 1301 L
gs 1705 446 10162 4394 rc
gr

11768 1117 mt 11964 1313 L
11964 1117 mt 11768 1313 L
gs 1705 446 10162 4394 rc
gr

10751  641 mt 10947  837 L
10947  641 mt 10751  837 L
gs 1705 446 10162 4394 rc
gr

10751  783 mt 10947  979 L
10947  783 mt 10751  979 L
gs 1705 446 10162 4394 rc
gr

10751  870 mt 10947 1066 L
10947  870 mt 10751 1066 L
gs 1705 446 10162 4394 rc
gr

10751 1071 mt 10947 1267 L
10947 1071 mt 10751 1267 L
gs 1705 446 10162 4394 rc
gr

10751  697 mt 10947  893 L
10947  697 mt 10751  893 L
gs 1705 446 10162 4394 rc
gr

10751  832 mt 10947 1028 L
10947  832 mt 10751 1028 L
gs 1705 446 10162 4394 rc
gr

10751  980 mt 10947 1176 L
10947  980 mt 10751 1176 L
gs 1705 446 10162 4394 rc
gr

10751 1098 mt 10947 1294 L
10947 1098 mt 10751 1294 L
gs 1705 446 10162 4394 rc
gr

10751  670 mt 10947  866 L
10947  670 mt 10751  866 L
gs 1705 446 10162 4394 rc
gr

10751  827 mt 10947 1023 L
10947  827 mt 10751 1023 L
gs 1705 446 10162 4394 rc
gr

10751 1063 mt 10947 1259 L
10947 1063 mt 10751 1259 L
gs 1705 446 10162 4394 rc
gr

10751 1123 mt 10947 1319 L
10947 1123 mt 10751 1319 L
gs 1705 446 10162 4394 rc
gr

10751  675 mt 10947  871 L
10947  675 mt 10751  871 L
gs 1705 446 10162 4394 rc
gr

10751  846 mt 10947 1042 L
10947  846 mt 10751 1042 L
gs 1705 446 10162 4394 rc
gr

10751 1106 mt 10947 1302 L
10947 1106 mt 10751 1302 L
gs 1705 446 10162 4394 rc
gr

10751 1131 mt 10947 1327 L
10947 1131 mt 10751 1327 L
gs 1705 446 10162 4394 rc
gr

9735  680 mt 9931  876 L
9931  680 mt 9735  876 L
gs 1705 446 10162 4394 rc
gr

9735  746 mt 9931  942 L
9931  746 mt 9735  942 L
gs 1705 446 10162 4394 rc
gr

9735  877 mt 9931 1073 L
9931  877 mt 9735 1073 L
gs 1705 446 10162 4394 rc
gr

9735 1128 mt 9931 1324 L
9931 1128 mt 9735 1324 L
gs 1705 446 10162 4394 rc
gr

9735  688 mt 9931  884 L
9931  688 mt 9735  884 L
gs 1705 446 10162 4394 rc
gr

9735  831 mt 9931 1027 L
9931  831 mt 9735 1027 L
gs 1705 446 10162 4394 rc
gr

9735  948 mt 9931 1144 L
9931  948 mt 9735 1144 L
gs 1705 446 10162 4394 rc
gr

9735 1078 mt 9931 1274 L
9931 1078 mt 9735 1274 L
gs 1705 446 10162 4394 rc
gr

9735  656 mt 9931  852 L
9931  656 mt 9735  852 L
gs 1705 446 10162 4394 rc
gr

9735  810 mt 9931 1006 L
9931  810 mt 9735 1006 L
gs 1705 446 10162 4394 rc
gr

9735 1087 mt 9931 1283 L
9931 1087 mt 9735 1283 L
gs 1705 446 10162 4394 rc
gr

9735 1117 mt 9931 1313 L
9931 1117 mt 9735 1313 L
gs 1705 446 10162 4394 rc
gr

9735  662 mt 9931  858 L
9931  662 mt 9735  858 L
gs 1705 446 10162 4394 rc
gr

9735  829 mt 9931 1025 L
9931  829 mt 9735 1025 L
gs 1705 446 10162 4394 rc
gr

9735 1112 mt 9931 1308 L
9931 1112 mt 9735 1308 L
gs 1705 446 10162 4394 rc
gr

9735 1119 mt 9931 1315 L
9931 1119 mt 9735 1315 L
gs 1705 446 10162 4394 rc
gr

8719  656 mt 8915  852 L
8915  656 mt 8719  852 L
gs 1705 446 10162 4394 rc
gr

8719  762 mt 8915  958 L
8915  762 mt 8719  958 L
gs 1705 446 10162 4394 rc
gr

8719  921 mt 8915 1117 L
8915  921 mt 8719 1117 L
gs 1705 446 10162 4394 rc
gr

8719 1104 mt 8915 1300 L
8915 1104 mt 8719 1300 L
gs 1705 446 10162 4394 rc
gr

8719  655 mt 8915  851 L
8915  655 mt 8719  851 L
gs 1705 446 10162 4394 rc
gr

8719  853 mt 8915 1049 L
8915  853 mt 8719 1049 L
gs 1705 446 10162 4394 rc
gr

8719  971 mt 8915 1167 L
8915  971 mt 8719 1167 L
gs 1705 446 10162 4394 rc
gr

8719 1100 mt 8915 1296 L
8915 1100 mt 8719 1296 L
gs 1705 446 10162 4394 rc
gr

8719  624 mt 8915  820 L
8915  624 mt 8719  820 L
gs 1705 446 10162 4394 rc
gr

8719  815 mt 8915 1011 L
8915  815 mt 8719 1011 L
gs 1705 446 10162 4394 rc
gr

8719 1070 mt 8915 1266 L
8915 1070 mt 8719 1266 L
gs 1705 446 10162 4394 rc
gr

8719 1098 mt 8915 1294 L
8915 1098 mt 8719 1294 L
gs 1705 446 10162 4394 rc
gr

8719  697 mt 8915  893 L
8915  697 mt 8719  893 L
gs 1705 446 10162 4394 rc
gr

8719  860 mt 8915 1056 L
8915  860 mt 8719 1056 L
gs 1705 446 10162 4394 rc
gr

8719 1151 mt 8915 1347 L
8915 1151 mt 8719 1347 L
gs 1705 446 10162 4394 rc
gr

8719 1069 mt 8915 1265 L
8915 1069 mt 8719 1265 L
gs 1705 446 10162 4394 rc
gr

7703 1057 mt 7899 1253 L
7899 1057 mt 7703 1253 L
gs 1705 446 10162 4394 rc
gr

7703  924 mt 7899 1120 L
7899  924 mt 7703 1120 L
gs 1705 446 10162 4394 rc
gr

7703 1045 mt 7899 1241 L
7899 1045 mt 7703 1241 L
gs 1705 446 10162 4394 rc
gr

7703 1091 mt 7899 1287 L
7899 1091 mt 7703 1287 L
gs 1705 446 10162 4394 rc
gr

7703  998 mt 7899 1194 L
7899  998 mt 7703 1194 L
gs 1705 446 10162 4394 rc
gr

7703  936 mt 7899 1132 L
7899  936 mt 7703 1132 L
gs 1705 446 10162 4394 rc
gr

7703 1121 mt 7899 1317 L
7899 1121 mt 7703 1317 L
gs 1705 446 10162 4394 rc
gr

7703 1059 mt 7899 1255 L
7899 1059 mt 7703 1255 L
gs 1705 446 10162 4394 rc
gr

7703  941 mt 7899 1137 L
7899  941 mt 7703 1137 L
gs 1705 446 10162 4394 rc
gr

7703  934 mt 7899 1130 L
7899  934 mt 7703 1130 L
gs 1705 446 10162 4394 rc
gr

7703 1089 mt 7899 1285 L
7899 1089 mt 7703 1285 L
gs 1705 446 10162 4394 rc
gr

7703  998 mt 7899 1194 L
7899  998 mt 7703 1194 L
gs 1705 446 10162 4394 rc
gr

7703  983 mt 7899 1179 L
7899  983 mt 7703 1179 L
gs 1705 446 10162 4394 rc
gr

7703  961 mt 7899 1157 L
7899  961 mt 7703 1157 L
gs 1705 446 10162 4394 rc
gr

7703 1081 mt 7899 1277 L
7899 1081 mt 7703 1277 L
gs 1705 446 10162 4394 rc
gr

7703 1027 mt 7899 1223 L
7899 1027 mt 7703 1223 L
gs 1705 446 10162 4394 rc
gr

6687 1624 mt 6883 1820 L
6883 1624 mt 6687 1820 L
gs 1705 446 10162 4394 rc
gr

6687 1382 mt 6883 1578 L
6883 1382 mt 6687 1578 L
gs 1705 446 10162 4394 rc
gr

6687 1188 mt 6883 1384 L
6883 1188 mt 6687 1384 L
gs 1705 446 10162 4394 rc
gr

6687 1032 mt 6883 1228 L
6883 1032 mt 6687 1228 L
gs 1705 446 10162 4394 rc
gr

6687 1389 mt 6883 1585 L
6883 1389 mt 6687 1585 L
gs 1705 446 10162 4394 rc
gr

6687 1269 mt 6883 1465 L
6883 1269 mt 6687 1465 L
gs 1705 446 10162 4394 rc
gr

6687 1093 mt 6883 1289 L
6883 1093 mt 6687 1289 L
gs 1705 446 10162 4394 rc
gr

6687 1052 mt 6883 1248 L
6883 1052 mt 6687 1248 L
gs 1705 446 10162 4394 rc
gr

6687 1362 mt 6883 1558 L
6883 1362 mt 6687 1558 L
gs 1705 446 10162 4394 rc
gr

6687 1209 mt 6883 1405 L
6883 1209 mt 6687 1405 L
gs 1705 446 10162 4394 rc
gr

6687 1083 mt 6883 1279 L
6883 1083 mt 6687 1279 L
gs 1705 446 10162 4394 rc
gr

6687 1069 mt 6883 1265 L
6883 1069 mt 6687 1265 L
gs 1705 446 10162 4394 rc
gr

6687 1357 mt 6883 1553 L
6883 1357 mt 6687 1553 L
gs 1705 446 10162 4394 rc
gr

6687 1142 mt 6883 1338 L
6883 1142 mt 6687 1338 L
gs 1705 446 10162 4394 rc
gr

6687 1014 mt 6883 1210 L
6883 1014 mt 6687 1210 L
gs 1705 446 10162 4394 rc
gr

6687 1009 mt 6883 1205 L
6883 1009 mt 6687 1205 L
gs 1705 446 10162 4394 rc
gr

5671 1890 mt 5867 2086 L
5867 1890 mt 5671 2086 L
gs 1705 446 10162 4394 rc
gr

5671 1637 mt 5867 1833 L
5867 1637 mt 5671 1833 L
gs 1705 446 10162 4394 rc
gr

5671 1387 mt 5867 1583 L
5867 1387 mt 5671 1583 L
gs 1705 446 10162 4394 rc
gr

5671 1329 mt 5867 1525 L
5867 1329 mt 5671 1525 L
gs 1705 446 10162 4394 rc
gr

5671 1711 mt 5867 1907 L
5867 1711 mt 5671 1907 L
gs 1705 446 10162 4394 rc
gr

5671 1447 mt 5867 1643 L
5867 1447 mt 5671 1643 L
gs 1705 446 10162 4394 rc
gr

5671 1314 mt 5867 1510 L
5867 1314 mt 5671 1510 L
gs 1705 446 10162 4394 rc
gr

5671 1298 mt 5867 1494 L
5867 1298 mt 5671 1494 L
gs 1705 446 10162 4394 rc
gr

5671 1553 mt 5867 1749 L
5867 1553 mt 5671 1749 L
gs 1705 446 10162 4394 rc
gr

5671 1359 mt 5867 1555 L
5867 1359 mt 5671 1555 L
gs 1705 446 10162 4394 rc
gr

5671 1300 mt 5867 1496 L
5867 1300 mt 5671 1496 L
gs 1705 446 10162 4394 rc
gr

5671 1343 mt 5867 1539 L
5867 1343 mt 5671 1539 L
gs 1705 446 10162 4394 rc
gr

5671 1538 mt 5867 1734 L
5867 1538 mt 5671 1734 L
gs 1705 446 10162 4394 rc
gr

5671 1298 mt 5867 1494 L
5867 1298 mt 5671 1494 L
gs 1705 446 10162 4394 rc
gr

5671 1304 mt 5867 1500 L
5867 1304 mt 5671 1500 L
gs 1705 446 10162 4394 rc
gr

5671 1291 mt 5867 1487 L
5867 1291 mt 5671 1487 L
gs 1705 446 10162 4394 rc
gr

4655 1864 mt 4851 2060 L
4851 1864 mt 4655 2060 L
gs 1705 446 10162 4394 rc
gr

4655 1687 mt 4851 1883 L
4851 1687 mt 4655 1883 L
gs 1705 446 10162 4394 rc
gr

4655 1402 mt 4851 1598 L
4851 1402 mt 4655 1598 L
gs 1705 446 10162 4394 rc
gr

4655 1409 mt 4851 1605 L
4851 1409 mt 4655 1605 L
gs 1705 446 10162 4394 rc
gr

4655 1769 mt 4851 1965 L
4851 1769 mt 4655 1965 L
gs 1705 446 10162 4394 rc
gr

4655 1526 mt 4851 1722 L
4851 1526 mt 4655 1722 L
gs 1705 446 10162 4394 rc
gr

4655 1395 mt 4851 1591 L
4851 1395 mt 4655 1591 L
gs 1705 446 10162 4394 rc
gr

4655 1385 mt 4851 1581 L
4851 1385 mt 4655 1581 L
gs 1705 446 10162 4394 rc
gr

4655 1697 mt 4851 1893 L
4851 1697 mt 4655 1893 L
gs 1705 446 10162 4394 rc
gr

4655 1406 mt 4851 1602 L
4851 1406 mt 4655 1602 L
gs 1705 446 10162 4394 rc
gr

4655 1328 mt 4851 1524 L
4851 1328 mt 4655 1524 L
gs 1705 446 10162 4394 rc
gr

4655 1333 mt 4851 1529 L
4851 1333 mt 4655 1529 L
gs 1705 446 10162 4394 rc
gr

4655 1648 mt 4851 1844 L
4851 1648 mt 4655 1844 L
gs 1705 446 10162 4394 rc
gr

4655 1328 mt 4851 1524 L
4851 1328 mt 4655 1524 L
gs 1705 446 10162 4394 rc
gr

4655 1402 mt 4851 1598 L
4851 1402 mt 4655 1598 L
gs 1705 446 10162 4394 rc
gr

4655 1411 mt 4851 1607 L
4851 1411 mt 4655 1607 L
gs 1705 446 10162 4394 rc
gr

3639 1856 mt 3835 2052 L
3835 1856 mt 3639 2052 L
gs 1705 446 10162 4394 rc
gr

3639 1686 mt 3835 1882 L
3835 1686 mt 3639 1882 L
gs 1705 446 10162 4394 rc
gr

3639 1332 mt 3835 1528 L
3835 1332 mt 3639 1528 L
gs 1705 446 10162 4394 rc
gr

3639 1350 mt 3835 1546 L
3835 1350 mt 3639 1546 L
gs 1705 446 10162 4394 rc
gr

3639 1771 mt 3835 1967 L
3835 1771 mt 3639 1967 L
gs 1705 446 10162 4394 rc
gr

3639 1634 mt 3835 1830 L
3835 1634 mt 3639 1830 L
gs 1705 446 10162 4394 rc
gr

3639 1400 mt 3835 1596 L
3835 1400 mt 3639 1596 L
gs 1705 446 10162 4394 rc
gr

3639 1338 mt 3835 1534 L
3835 1338 mt 3639 1534 L
gs 1705 446 10162 4394 rc
gr

3639 1851 mt 3835 2047 L
3835 1851 mt 3639 2047 L
gs 1705 446 10162 4394 rc
gr

3639 1570 mt 3835 1766 L
3835 1570 mt 3639 1766 L
gs 1705 446 10162 4394 rc
gr

3639 1400 mt 3835 1596 L
3835 1400 mt 3639 1596 L
gs 1705 446 10162 4394 rc
gr

3639 1353 mt 3835 1549 L
3835 1353 mt 3639 1549 L
gs 1705 446 10162 4394 rc
gr

3639 1624 mt 3835 1820 L
3835 1624 mt 3639 1820 L
gs 1705 446 10162 4394 rc
gr

3639 1383 mt 3835 1579 L
3835 1383 mt 3639 1579 L
gs 1705 446 10162 4394 rc
gr

3639 1393 mt 3835 1589 L
3835 1393 mt 3639 1589 L
gs 1705 446 10162 4394 rc
gr

3639 1404 mt 3835 1600 L
3835 1404 mt 3639 1600 L
gs 1705 446 10162 4394 rc
gr

2623 1870 mt 2819 2066 L
2819 1870 mt 2623 2066 L
gs 1705 446 10162 4394 rc
gr

2623 1698 mt 2819 1894 L
2819 1698 mt 2623 1894 L
gs 1705 446 10162 4394 rc
gr

2623 1373 mt 2819 1569 L
2819 1373 mt 2623 1569 L
gs 1705 446 10162 4394 rc
gr

2623 1390 mt 2819 1586 L
2819 1390 mt 2623 1586 L
gs 1705 446 10162 4394 rc
gr

2623 1868 mt 2819 2064 L
2819 1868 mt 2623 2064 L
gs 1705 446 10162 4394 rc
gr

2623 1623 mt 2819 1819 L
2819 1623 mt 2623 1819 L
gs 1705 446 10162 4394 rc
gr

2623 1319 mt 2819 1515 L
2819 1319 mt 2623 1515 L
gs 1705 446 10162 4394 rc
gr

2623 1369 mt 2819 1565 L
2819 1369 mt 2623 1565 L
gs 1705 446 10162 4394 rc
gr

2623 1703 mt 2819 1899 L
2819 1703 mt 2623 1899 L
gs 1705 446 10162 4394 rc
gr

2623 1484 mt 2819 1680 L
2819 1484 mt 2623 1680 L
gs 1705 446 10162 4394 rc
gr

2623 1379 mt 2819 1575 L
2819 1379 mt 2623 1575 L
gs 1705 446 10162 4394 rc
gr

2623 1389 mt 2819 1585 L
2819 1389 mt 2623 1585 L
gs 1705 446 10162 4394 rc
gr

2623 1752 mt 2819 1948 L
2819 1752 mt 2623 1948 L
gs 1705 446 10162 4394 rc
gr

2623 1361 mt 2819 1557 L
2819 1361 mt 2623 1557 L
gs 1705 446 10162 4394 rc
gr

2623 1354 mt 2819 1550 L
2819 1354 mt 2623 1550 L
gs 1705 446 10162 4394 rc
gr

2623 1351 mt 2819 1547 L
2819 1351 mt 2623 1547 L
gs 1705 446 10162 4394 rc
gr

0 sg
%%IncludeResource: font Helvetica
/Helvetica /ISOLatin1Encoding 600 FMSR

3949 5816 mt 
(Log10 UCB Constant) s
 947 4260 mt  -90 rotate
(Mean Score) s
90 rotate
%%IncludeResource: font Helvetica
/Helvetica /ISOLatin1Encoding 120 FMSR

1688 4882 mt 
( ) s
11850  488 mt 
( ) s
1 sg
0 1436 2865 0 0 -1436 2201 3733 4 MP
PP
-2865 0 0 1436 2865 0 0 -1436 2201 3733 5 MP stroke
4 w
DO
SO
6 w
0 sg
2201 3733 mt 5066 3733 L
2201 2297 mt 5066 2297 L
2201 3733 mt 2201 2297 L
5066 3733 mt 5066 2297 L
2201 3733 mt 5066 3733 L
2201 3733 mt 2201 2297 L
2201 3733 mt 5066 3733 L
2201 2297 mt 5066 2297 L
2201 3733 mt 2201 2297 L
5066 3733 mt 5066 2297 L
%%IncludeResource: font Helvetica
/Helvetica /ISOLatin1Encoding 480 FMSR

2685 2836 mt 
(UCT) s
gs 2201 2297 2866 1437 rc
gs 2388 2593 147 147 rc
0 -58 -58 0 0 58 58 0 2432 2637 5 MP
c8
gs
PP
gr
DP
gr

c8
gr

c8
0 sg
2685 3533 mt 
(mNN-UCT) s
gs 2201 2297 2866 1437 rc
gs 2388 3290 147 147 rc
c9
2436 3338 mt 2486 3388 L
2486 3338 mt 2436 3388 L
gr

c9
gr

c9

end %%Color Dict

eplot
%%EndObject

epage
end

showpage

%%Trailer
%%EOF
