%!PS-Adobe-2.0 EPSF-2.0
%%Title: /home/sriram/ferl/Thesis/Research/AAAI_2015/Manifold_Grid.dia
%%Creator: Dia v0.97.2
%%CreationDate: Wed Sep  3 17:01:36 2014
%%For: sriram
%%Orientation: Portrait
%%Magnification: 1.0000
%%BoundingBox: 0 0 571 572
%%BeginSetup
%%EndSetup
%%EndComments
%%BeginProlog
[ /.notdef /.notdef /.notdef /.notdef /.notdef /.notdef /.notdef /.notdef /.notdef /.notdef
/.notdef /.notdef /.notdef /.notdef /.notdef /.notdef /.notdef /.notdef /.notdef /.notdef
/.notdef /.notdef /.notdef /.notdef /.notdef /.notdef /.notdef /.notdef /.notdef /.notdef
/.notdef /.notdef /space /exclam /quotedbl /numbersign /dollar /percent /ampersand /quoteright
/parenleft /parenright /asterisk /plus /comma /hyphen /period /slash /zero /one
/two /three /four /five /six /seven /eight /nine /colon /semicolon
/less /equal /greater /question /at /A /B /C /D /E
/F /G /H /I /J /K /L /M /N /O
/P /Q /R /S /T /U /V /W /X /Y
/Z /bracketleft /backslash /bracketright /asciicircum /underscore /quoteleft /a /b /c
/d /e /f /g /h /i /j /k /l /m
/n /o /p /q /r /s /t /u /v /w
/x /y /z /braceleft /bar /braceright /asciitilde /.notdef /.notdef /.notdef
/.notdef /.notdef /.notdef /.notdef /.notdef /.notdef /.notdef /.notdef /.notdef /.notdef
/.notdef /.notdef /.notdef /.notdef /.notdef /.notdef /.notdef /.notdef /.notdef /.notdef
/.notdef /.notdef /.notdef /.notdef /.notdef /.notdef /.notdef /.notdef /.notdef /.notdef
/space /exclamdown /cent /sterling /currency /yen /brokenbar /section /dieresis /copyright
/ordfeminine /guillemotleft /logicalnot /hyphen /registered /macron /degree /plusminus /twosuperior /threesuperior
/acute /mu /paragraph /periodcentered /cedilla /onesuperior /ordmasculine /guillemotright /onequarter /onehalf
/threequarters /questiondown /Agrave /Aacute /Acircumflex /Atilde /Adieresis /Aring /AE /Ccedilla
/Egrave /Eacute /Ecircumflex /Edieresis /Igrave /Iacute /Icircumflex /Idieresis /Eth /Ntilde
/Ograve /Oacute /Ocircumflex /Otilde /Odieresis /multiply /Oslash /Ugrave /Uacute /Ucircumflex
/Udieresis /Yacute /Thorn /germandbls /agrave /aacute /acircumflex /atilde /adieresis /aring
/ae /ccedilla /egrave /eacute /ecircumflex /edieresis /igrave /iacute /icircumflex /idieresis
/eth /ntilde /ograve /oacute /ocircumflex /otilde /odieresis /divide /oslash /ugrave
/uacute /ucircumflex /udieresis /yacute /thorn /ydieresis] /isolatin1encoding exch def
/cp {closepath} bind def
/c {curveto} bind def
/f {fill} bind def
/a {arc} bind def
/ef {eofill} bind def
/ex {exch} bind def
/gr {grestore} bind def
/gs {gsave} bind def
/sa {save} bind def
/rs {restore} bind def
/l {lineto} bind def
/m {moveto} bind def
/rm {rmoveto} bind def
/n {newpath} bind def
/s {stroke} bind def
/sh {show} bind def
/slc {setlinecap} bind def
/slj {setlinejoin} bind def
/slw {setlinewidth} bind def
/srgb {setrgbcolor} bind def
/rot {rotate} bind def
/sc {scale} bind def
/sd {setdash} bind def
/ff {findfont} bind def
/sf {setfont} bind def
/scf {scalefont} bind def
/sw {stringwidth pop} bind def
/tr {translate} bind def

/ellipsedict 8 dict def
ellipsedict /mtrx matrix put
/ellipse
{ ellipsedict begin
   /endangle exch def
   /startangle exch def
   /yrad exch def
   /xrad exch def
   /y exch def
   /x exch def   /savematrix mtrx currentmatrix def
   x y tr xrad yrad sc
   0 0 1 startangle endangle arc
   savematrix setmatrix
   end
} def

/mergeprocs {
dup length
3 -1 roll
dup
length
dup
5 1 roll
3 -1 roll
add
array cvx
dup
3 -1 roll
0 exch
putinterval
dup
4 2 roll
putinterval
} bind def
/dpi_x 300 def
/dpi_y 300 def
/conicto {
    /to_y exch def
    /to_x exch def
    /conic_cntrl_y exch def
    /conic_cntrl_x exch def
    currentpoint
    /p0_y exch def
    /p0_x exch def
    /p1_x p0_x conic_cntrl_x p0_x sub 2 3 div mul add def
    /p1_y p0_y conic_cntrl_y p0_y sub 2 3 div mul add def
    /p2_x p1_x to_x p0_x sub 1 3 div mul add def
    /p2_y p1_y to_y p0_y sub 1 3 div mul add def
    p1_x p1_y p2_x p2_y to_x to_y curveto
} bind def
/start_ol { gsave 1.1 dpi_x div dup scale} bind def
/end_ol { closepath fill grestore } bind def
28.346000 -28.346000 scale
-19.930000 -23.000000 translate
%%EndProlog


0.100000 slw
[] 0 sd
[] 0 sd
0 slj
1.000000 1.000000 1.000000 srgb
n 20.050000 3.050000 m 20.050000 22.950000 l 39.950000 22.950000 l 39.950000 3.050000 l f
0.000000 0.000000 0.000000 srgb
n 20.050000 3.050000 m 20.050000 22.950000 l 39.950000 22.950000 l 39.950000 3.050000 l cp s
0.100000 slw
[] 0 sd
[] 0 sd
0 slc
0.658824 0.650980 0.650980 srgb
n 24.950000 2.900000 m 25.000000 22.750000 l s
0.100000 slw
[] 0 sd
[] 0 sd
0 slc
n 27.965126 2.955126 m 28.015126 22.805126 l s
0.100000 slw
[] 0 sd
[] 0 sd
0 slc
n 34.930126 2.960126 m 34.980126 22.810126 l s
0.100000 slw
[] 0 sd
[] 0 sd
0 slc
n 30.000000 3.050000 m 30.000000 22.950000 l s
0.100000 slw
[] 0 sd
[] 0 sd
0 slc
n 33.015126 2.955126 m 33.065126 22.805126 l s
0.100000 slw
[] 0 sd
[] 0 sd
0 slc
n 33.980126 2.960126 m 34.030126 22.810126 l s
0.100000 slw
[] 0 sd
[] 0 sd
0 slc
n 35.895126 3.015126 m 35.945126 22.865126 l s
0.100000 slw
[] 0 sd
[] 0 sd
0 slc
n 36.960126 2.920126 m 37.010126 22.770126 l s
0.100000 slw
[] 0 sd
[] 0 sd
0 slc
n 37.975126 2.925126 m 38.025126 22.775126 l s
0.100000 slw
[] 0 sd
[] 0 sd
0 slc
n 38.940126 2.930126 m 38.990126 22.780126 l s
0.100000 slw
[] 0 sd
[] 0 sd
0 slc
n 26.015126 3.005126 m 26.065126 22.855126 l s
0.100000 slw
[] 0 sd
[] 0 sd
0 slc
n 26.980126 2.960126 m 27.030126 22.810126 l s
0.100000 slw
[] 0 sd
[] 0 sd
0 slc
n 28.945126 2.965126 m 28.995126 22.815126 l s
0.100000 slw
[] 0 sd
[] 0 sd
0 slc
n 30.960126 2.970126 m 31.010126 22.820126 l s
0.100000 slw
[] 0 sd
[] 0 sd
0 slc
n 31.925126 2.925126 m 31.975126 22.775126 l s
0.100000 slw
[] 0 sd
[] 0 sd
0 slc
n 23.940126 2.980126 m 23.990126 22.830126 l s
0.100000 slw
[] 0 sd
[] 0 sd
0 slc
n 23.005126 2.935126 m 23.055126 22.785126 l s
0.100000 slw
[] 0 sd
[] 0 sd
0 slc
n 21.970126 2.990126 m 22.020126 22.840126 l s
0.100000 slw
[] 0 sd
[] 0 sd
0 slc
n 21.015126 3.005126 m 21.065126 22.855126 l s
0.100000 slw
[] 0 sd
[] 0 sd
0 slc
n 20.100000 9.925000 m 40.000000 9.975000 l s
0.100000 slw
[] 0 sd
[] 0 sd
0 slc
n 20.015125 4.005125 m 39.915125 4.055125 l s
0.100000 slw
[] 0 sd
[] 0 sd
0 slc
n 20.030125 5.010125 m 39.930125 5.060125 l s
0.100000 slw
[] 0 sd
[] 0 sd
0 slc
n 20.045125 5.915125 m 39.945125 5.965125 l s
0.100000 slw
[] 0 sd
[] 0 sd
0 slc
n 20.060125 19.970125 m 39.960125 20.020125 l s
0.100000 slw
[] 0 sd
[] 0 sd
0 slc
n 20.075125 14.925125 m 39.975125 14.975125 l s
0.100000 slw
[] 0 sd
[] 0 sd
0 slc
n 20.065125 13.955125 m 39.965125 14.005125 l s
0.100000 slw
[] 0 sd
[] 0 sd
0 slc
n 19.980125 16.010125 m 39.880125 16.060125 l s
0.100000 slw
[] 0 sd
[] 0 sd
0 slc
n 20.045125 17.065125 m 39.945125 17.115125 l s
0.100000 slw
[] 0 sd
[] 0 sd
0 slc
n 20.060125 18.070125 m 39.960125 18.120125 l s
0.100000 slw
[] 0 sd
[] 0 sd
0 slc
n 20.025125 18.975125 m 39.925125 19.025125 l s
0.100000 slw
[] 0 sd
[] 0 sd
0 slc
n 19.990125 20.980125 m 39.890125 21.030125 l s
0.100000 slw
[] 0 sd
[] 0 sd
0 slc
n 20.005125 21.935125 m 39.905125 21.985125 l s
0.100000 slw
[] 0 sd
[] 0 sd
0 slc
n 20.015125 7.005125 m 39.915125 7.055125 l s
0.100000 slw
[] 0 sd
[] 0 sd
0 slc
n 20.030125 8.960125 m 39.930125 9.010125 l s
0.100000 slw
[] 0 sd
[] 0 sd
0 slc
n 20.095125 10.965125 m 39.995125 11.015125 l s
0.100000 slw
[] 0 sd
[] 0 sd
0 slc
n 20.060125 12.020125 m 39.960125 12.070125 l s
0.100000 slw
[] 0 sd
[] 0 sd
0 slc
n 20.050000 13.000000 m 39.950000 13.000000 l s
0.100000 slw
[] 0 sd
[] 0 sd
0 slc
n 20.015125 8.055125 m 39.915125 8.105125 l s
0.100000 slw
[] 0 sd
[] 0 sd
0 slj
0.000000 0.000000 0.000000 srgb
n 25.050000 8.150000 m 25.050000 8.900000 l 34.950000 8.900000 l 34.950000 8.150000 l f
n 25.050000 8.150000 m 25.050000 8.900000 l 34.950000 8.900000 l 34.950000 8.150000 l cp s
showpage
