%!PS-Adobe-3.0 EPSF-3.0
%%Creator: MATLAB, The Mathworks, Inc. Version 7.9.0.529 (R2009b). Operating System: Linux 3.13.0-34-generic #60-Ubuntu SMP Wed Aug 13 15:49:09 UTC 2014 i686.
%%Title: /home/sriram/ferl/Thesis/Research/AAAI_2015/manifold.eps
%%CreationDate: 09/13/2014  15:10:59
%%DocumentNeededFonts: Helvetica
%%DocumentProcessColors: Cyan Magenta Yellow Black
%%LanguageLevel: 2
%%Pages: 1
%%BoundingBox:  -239   130   853   660
%%EndComments

%%BeginProlog
% MathWorks dictionary
/MathWorks 160 dict begin
% definition operators
/bdef {bind def} bind def
/ldef {load def} bind def
/xdef {exch def} bdef
/xstore {exch store} bdef
% operator abbreviations
/c  /clip ldef
/cc /concat ldef
/cp /closepath ldef
/gr /grestore ldef
/gs /gsave ldef
/mt /moveto ldef
/np /newpath ldef
/cm /currentmatrix ldef
/sm /setmatrix ldef
/rm /rmoveto ldef
/rl /rlineto ldef
/s {show newpath} bdef
/sc {setcmykcolor} bdef
/sr /setrgbcolor ldef
/sg /setgray ldef
/w /setlinewidth ldef
/j /setlinejoin ldef
/cap /setlinecap ldef
/rc {rectclip} bdef
/rf {rectfill} bdef
% page state control
/pgsv () def
/bpage {/pgsv save def} bdef
/epage {pgsv restore} bdef
/bplot /gsave ldef
/eplot {stroke grestore} bdef
% orientation switch
/portraitMode 0 def /landscapeMode 1 def /rotateMode 2 def
% coordinate system mappings
/dpi2point 0 def
% font control
/FontSize 0 def
/FMS {/FontSize xstore findfont [FontSize 0 0 FontSize neg 0 0]
  makefont setfont} bdef
/reencode {exch dup where {pop load} {pop StandardEncoding} ifelse
  exch dup 3 1 roll findfont dup length dict begin
  { 1 index /FID ne {def}{pop pop} ifelse } forall
  /Encoding exch def currentdict end definefont pop} bdef
/isroman {findfont /CharStrings get /Agrave known} bdef
/FMSR {3 1 roll 1 index dup isroman {reencode} {pop pop} ifelse
  exch FMS} bdef
/csm {1 dpi2point div -1 dpi2point div scale neg translate
 dup landscapeMode eq {pop -90 rotate}
  {rotateMode eq {90 rotate} if} ifelse} bdef
% line types: solid, dotted, dashed, dotdash
/SO { [] 0 setdash } bdef
/DO { [.5 dpi2point mul 4 dpi2point mul] 0 setdash } bdef
/DA { [6 dpi2point mul] 0 setdash } bdef
/DD { [.5 dpi2point mul 4 dpi2point mul 6 dpi2point mul 4
  dpi2point mul] 0 setdash } bdef
% macros for lines and objects
/L {lineto stroke} bdef
/MP {3 1 roll moveto 1 sub {rlineto} repeat} bdef
/AP {{rlineto} repeat} bdef
/PDlw -1 def
/W {/PDlw currentlinewidth def setlinewidth} def
/PP {closepath eofill} bdef
/DP {closepath stroke} bdef
/MR {4 -2 roll moveto dup  0 exch rlineto exch 0 rlineto
  neg 0 exch rlineto closepath} bdef
/FR {MR stroke} bdef
/PR {MR fill} bdef
/L1i {{currentfile picstr readhexstring pop} image} bdef
/tMatrix matrix def
/MakeOval {newpath tMatrix currentmatrix pop translate scale
0 0 1 0 360 arc tMatrix setmatrix} bdef
/FO {MakeOval stroke} bdef
/PO {MakeOval fill} bdef
/PD {currentlinewidth 2 div 0 360 arc fill
   PDlw -1 eq not {PDlw w /PDlw -1 def} if} def
/FA {newpath tMatrix currentmatrix pop translate scale
  0 0 1 5 -2 roll arc tMatrix setmatrix stroke} bdef
/PA {newpath tMatrix currentmatrix pop	translate 0 0 moveto scale
  0 0 1 5 -2 roll arc closepath tMatrix setmatrix fill} bdef
/FAn {newpath tMatrix currentmatrix pop translate scale
  0 0 1 5 -2 roll arcn tMatrix setmatrix stroke} bdef
/PAn {newpath tMatrix currentmatrix pop translate 0 0 moveto scale
  0 0 1 5 -2 roll arcn closepath tMatrix setmatrix fill} bdef
/vradius 0 def /hradius 0 def /lry 0 def
/lrx 0 def /uly 0 def /ulx 0 def /rad 0 def
/MRR {/vradius xdef /hradius xdef /lry xdef /lrx xdef /uly xdef
  /ulx xdef newpath tMatrix currentmatrix pop ulx hradius add uly
  vradius add translate hradius vradius scale 0 0 1 180 270 arc 
  tMatrix setmatrix lrx hradius sub uly vradius add translate
  hradius vradius scale 0 0 1 270 360 arc tMatrix setmatrix
  lrx hradius sub lry vradius sub translate hradius vradius scale
  0 0 1 0 90 arc tMatrix setmatrix ulx hradius add lry vradius sub
  translate hradius vradius scale 0 0 1 90 180 arc tMatrix setmatrix
  closepath} bdef
/FRR {MRR stroke } bdef
/PRR {MRR fill } bdef
/MlrRR {/lry xdef /lrx xdef /uly xdef /ulx xdef /rad lry uly sub 2 div def
  newpath tMatrix currentmatrix pop ulx rad add uly rad add translate
  rad rad scale 0 0 1 90 270 arc tMatrix setmatrix lrx rad sub lry rad
  sub translate rad rad scale 0 0 1 270 90 arc tMatrix setmatrix
  closepath} bdef
/FlrRR {MlrRR stroke } bdef
/PlrRR {MlrRR fill } bdef
/MtbRR {/lry xdef /lrx xdef /uly xdef /ulx xdef /rad lrx ulx sub 2 div def
  newpath tMatrix currentmatrix pop ulx rad add uly rad add translate
  rad rad scale 0 0 1 180 360 arc tMatrix setmatrix lrx rad sub lry rad
  sub translate rad rad scale 0 0 1 0 180 arc tMatrix setmatrix
  closepath} bdef
/FtbRR {MtbRR stroke } bdef
/PtbRR {MtbRR fill } bdef
/stri 6 array def /dtri 6 array def
/smat 6 array def /dmat 6 array def
/tmat1 6 array def /tmat2 6 array def /dif 3 array def
/asub {/ind2 exch def /ind1 exch def dup dup
  ind1 get exch ind2 get sub exch } bdef
/tri_to_matrix {
  2 0 asub 3 1 asub 4 0 asub 5 1 asub
  dup 0 get exch 1 get 7 -1 roll astore } bdef
/compute_transform {
  dmat dtri tri_to_matrix tmat1 invertmatrix 
  smat stri tri_to_matrix tmat2 concatmatrix } bdef
/ds {stri astore pop} bdef
/dt {dtri astore pop} bdef
/db {2 copy /cols xdef /rows xdef mul dup 3 mul string
  currentfile 
  3 index 0 eq {/ASCIIHexDecode filter}
  {/ASCII85Decode filter 3 index 2 eq {/RunLengthDecode filter} if }
  ifelse exch readstring pop
  dup 0 3 index getinterval /rbmap xdef
  dup 2 index dup getinterval /gbmap xdef
  1 index dup 2 mul exch getinterval /bbmap xdef pop pop}bdef
/it {gs np dtri aload pop moveto lineto lineto cp c
  cols rows 8 compute_transform 
  rbmap gbmap bbmap true 3 colorimage gr}bdef
/il {newpath moveto lineto stroke}bdef
currentdict end def
%%EndProlog

%%BeginSetup
MathWorks begin

0 cap

end
%%EndSetup

%%Page: 1 1
%%BeginPageSetup
%%PageBoundingBox:  -239   130   853   660
MathWorks begin
bpage
%%EndPageSetup

%%BeginObject: obj1
bplot

/dpi2point 12 def
portraitMode -2868 7920 csm

    0     0 13112  6355 rc
86 dict begin %Colortable dictionary
/c0 { 0.000000 0.000000 0.000000 sr} bdef
/c1 { 1.000000 1.000000 1.000000 sr} bdef
/c2 { 0.900000 0.000000 0.000000 sr} bdef
/c3 { 0.000000 0.820000 0.000000 sr} bdef
/c4 { 0.000000 0.000000 0.800000 sr} bdef
/c5 { 0.910000 0.820000 0.320000 sr} bdef
/c6 { 1.000000 0.260000 0.820000 sr} bdef
/c7 { 0.000000 0.820000 0.820000 sr} bdef
c0
1 j
1 sg
   0    0 13113 6356 rf
6 w
-5180 0 0 5180 5180 0 4195 476 4 MP
PP
0 -5180 -5180 0 0 5180 5180 0 4195 476 5 MP stroke
4 w
DO
SO
6 w
0 sg
4195  476 mt 4195 5656 L
4195 5656 mt 9375 5656 L
4195 1757 mt 4247 1757 L
%%IncludeResource: font Helvetica
/Helvetica /ISOLatin1Encoding 480 FMSR

3347 1935 mt 
(-10) s
4195 3145 mt 4247 3145 L
3895 3323 mt 
(0) s
4195 4533 mt 4247 4533 L
3628 4711 mt 
(10) s
4935 5656 mt 4935 5604 L
4388 6136 mt 
(-10) s
6785 5656 mt 6785 5604 L
6652 6136 mt 
(0) s
8635 5656 mt 8635 5604 L
8369 6136 mt 
(10) s
gs 4195 476 5181 5181 rc
gr

/c8 { 1.000000 0.000000 0.000000 sr} bdef
c8
  36   36 4201 4936 FO
  36   36 4321 4813 FO
  36   36 4373 4850 FO
  36   36 4426 4667 FO
  36   36 4489 4729 FO
  36   36 4576 4775 FO
  36   36 4516 4500 FO
  36   36 4591 4587 FO
  36   36 4687 4656 FO
  36   36 4809 4711 FO
  36   36 4592 4315 FO
  36   36 4679 4426 FO
  36   36 4783 4518 FO
  36   36 4911 4593 FO
  36   36 5068 4657 FO
  36   36 4655 4113 FO
  36   36 4753 4249 FO
  36   36 4866 4363 FO
  36   36 4999 4458 FO
  36   36 5158 4541 FO
  36   36 5342 4734 FO
  36   36 4704 3898 FO
  36   36 4813 4057 FO
  36   36 4936 4192 FO
  36   36 5075 4308 FO
  36   36 5237 4408 FO
  36   36 5418 4613 FO
  36   36 5638 4797 FO
  36   36 4741 3673 FO
  36   36 4861 3853 FO
  36   36 4993 4009 FO
  36   36 5139 4144 FO
  36   36 5304 4262 FO
  36   36 5485 4478 FO
  36   36 5700 4673 FO
  36   36 5953 4846 FO
  36   36 4765 3440 FO
  36   36 4897 3640 FO
  36   36 5039 3814 FO
  36   36 5192 3967 FO
  36   36 5361 4103 FO
  36   36 5543 4329 FO
  36   36 5753 4535 FO
  36   36 5997 4718 FO
  36   36 6280 4878 FO
  36   36 4776 3202 FO
  36   36 4920 3419 FO
  36   36 5072 3611 FO
  36   36 5234 3781 FO
  36   36 5408 3932 FO
  36   36 5591 4169 FO
  36   36 5799 4384 FO
  36   36 6036 4578 FO
  36   36 6307 4749 FO
  36   36 6616 4895 FO
  36   36 4776 2962 FO
  36   36 4932 3194 FO
  36   36 5094 3401 FO
  36   36 5265 3586 FO
  36   36 5445 3753 FO
  36   36 5631 3998 FO
  36   36 5838 4223 FO
  36   36 6070 4426 FO
  36   36 6331 4608 FO
  36   36 6625 4765 FO
  36   36 6954 4895 FO
  36   36 4763 2723 FO
  36   36 4931 2967 FO
  36   36 5105 3188 FO
  36   36 5285 3386 FO
  36   36 5472 3566 FO
  36   36 5662 3819 FO
  36   36 5869 4052 FO
  36   36 6098 4264 FO
  36   36 6352 4455 FO
  36   36 6633 4623 FO
  36   36 6945 4765 FO
  36   36 7290 4878 FO
  36   36 4738 2489 FO
  36   36 4919 2742 FO
  36   36 5104 2973 FO
  36   36 5295 3183 FO
  36   36 5490 3374 FO
  36   36 5685 3634 FO
  36   36 5894 3873 FO
  36   36 6121 4093 FO
  36   36 6369 4292 FO
  36   36 6640 4469 FO
  36   36 6937 4623 FO
  36   36 7263 4749 FO
  36   36 7617 4846 FO
  36   36 4700 2262 FO
  36   36 4894 2520 FO
  36   36 5093 2759 FO
  36   36 5294 2978 FO
  36   36 5499 3179 FO
  36   36 5700 3443 FO
  36   36 5913 3689 FO
  36   36 6140 3915 FO
  36   36 6383 4121 FO
  36   36 6646 4306 FO
  36   36 6930 4469 FO
  36   36 7239 4608 FO
  36   36 7573 4718 FO
  36   36 7932 4797 FO
  36   36 4649 2045 FO
  36   36 4857 2306 FO
  36   36 5069 2548 FO
  36   36 5283 2774 FO
  36   36 5498 2983 FO
  36   36 5707 3250 FO
  36   36 5925 3499 FO
  36   36 6153 3731 FO
  36   36 6394 3943 FO
  36   36 6650 4135 FO
  36   36 6924 4306 FO
  36   36 7218 4455 FO
  36   36 7534 4578 FO
  36   36 7870 4673 FO
  36   36 8228 4734 FO
  36   36 4571 1850 FO
  36   36 4808 2100 FO
  36   36 5034 2344 FO
  36   36 5262 2573 FO
  36   36 5488 2787 FO
  36   36 5707 3055 FO
  36   36 5931 3307 FO
  36   36 6162 3542 FO
  36   36 6402 3759 FO
  36   36 6654 3957 FO
  36   36 6920 4135 FO
  36   36 7201 4292 FO
  36   36 7500 4426 FO
  36   36 7817 4535 FO
  36   36 8152 4613 FO
  36   36 8502 4657 FO
  36   36 4510 1647 FO
  36   36 4733 1914 FO
  36   36 4988 2148 FO
  36   36 5229 2378 FO
  36   36 5469 2595 FO
  36   36 5698 2862 FO
  36   36 5930 3115 FO
  36   36 6166 3351 FO
  36   36 6407 3571 FO
  36   36 6657 3773 FO
  36   36 6916 3957 FO
  36   36 7187 4121 FO
  36   36 7472 4264 FO
  36   36 7771 4384 FO
  36   36 8085 4478 FO
  36   36 8412 4541 FO
  36   36 8761 4711 FO
  36   36 4420 1473 FO
  36   36 4672 1720 FO
  36   36 4916 1971 FO
  36   36 5186 2191 FO
  36   36 5440 2408 FO
  36   36 5682 2672 FO
  36   36 5923 2923 FO
  36   36 6165 3160 FO
  36   36 6410 3381 FO
  36   36 6659 3586 FO
  36   36 6913 3773 FO
  36   36 7176 3943 FO
  36   36 7449 4093 FO
  36   36 7732 4223 FO
  36   36 8027 4329 FO
  36   36 8333 4408 FO
  36   36 8659 4593 FO
  36   36 8994 4775 FO
  36   36 4315 1322 FO
  36   36 4585 1553 FO
  36   36 4859 1786 FO
  36   36 5121 2021 FO
  36   36 5402 2228 FO
  36   36 5657 2486 FO
  36   36 5910 2734 FO
  36   36 6160 2969 FO
  36   36 6410 3190 FO
  36   36 6659 3396 FO
  36   36 6911 3586 FO
  36   36 7168 3759 FO
  36   36 7430 3915 FO
  36   36 7701 4052 FO
  36   36 7979 4169 FO
  36   36 8266 4262 FO
  36   36 8571 4458 FO
  36   36 8883 4656 FO
  36   36 9197 4850 FO
  36   36 4195 1196 FO
  36   36 4483 1407 FO
  36   36 4776 1625 FO
  36   36 5068 1843 FO
  36   36 5343 2064 FO
  36   36 5624 2308 FO
  36   36 5890 2550 FO
  36   36 6151 2782 FO
  36   36 6407 3001 FO
  36   36 6659 3206 FO
  36   36 6911 3396 FO
  36   36 7163 3571 FO
  36   36 7417 3731 FO
  36   36 7676 3873 FO
  36   36 7939 3998 FO
  36   36 8209 4103 FO
  36   36 8495 4308 FO
  36   36 8787 4518 FO
  36   36 9081 4729 FO
  36   36 9369 4936 FO
  36   36 4367 1284 FO
  36   36 4680 1484 FO
  36   36 4992 1689 FO
  36   36 5297 1894 FO
  36   36 5864 2372 FO
  36   36 6136 2598 FO
  36   36 6401 2814 FO
  36   36 6658 3016 FO
  36   36 6911 3206 FO
  36   36 7160 3381 FO
  36   36 7408 3542 FO
  36   36 7657 3689 FO
  36   36 7908 3819 FO
  36   36 8162 3932 FO
  36   36 8431 4144 FO
  36   36 8704 4363 FO
  36   36 8979 4587 FO
  36   36 9249 4813 FO
  36   36 4570 1364 FO
  36   36 4904 1552 FO
  36   36 5230 1745 FO
  36   36 5516 1808 FO
  36   36 6117 2421 FO
  36   36 6392 2631 FO
  36   36 6656 2830 FO
  36   36 6912 3016 FO
  36   36 7160 3190 FO
  36   36 7404 3351 FO
  36   36 7645 3499 FO
  36   36 7885 3634 FO
  36   36 8125 3753 FO
  36   36 8378 3967 FO
  36   36 8634 4192 FO
  36   36 8891 4426 FO
  36   36 9144 4667 FO
  36   36 4803 1434 FO
  36   36 5152 1611 FO
  36   36 5459 1657 FO
  36   36 5766 1737 FO
  36   36 6380 2455 FO
  36   36 6653 2648 FO
  36   36 6914 2830 FO
  36   36 7163 3001 FO
  36   36 7405 3160 FO
  36   36 7639 3307 FO
  36   36 7870 3443 FO
  36   36 8098 3566 FO
  36   36 8336 3781 FO
  36   36 8577 4009 FO
  36   36 8817 4249 FO
  36   36 9054 4500 FO
  36   36 5062 1495 FO
  36   36 5393 1520 FO
  36   36 5720 1584 FO
  36   36 6040 1682 FO
  36   36 6649 2471 FO
  36   36 6917 2648 FO
  36   36 7169 2814 FO
  36   36 7410 2969 FO
  36   36 7640 3115 FO
  36   36 7863 3250 FO
  36   36 8080 3374 FO
  36   36 8305 3586 FO
  36   36 8531 3814 FO
  36   36 8757 4057 FO
  36   36 8978 4315 FO
  36   36 5316 1400 FO
  36   36 5667 1445 FO
  36   36 6006 1528 FO
  36   36 6331 1645 FO
  36   36 6921 2471 FO
  36   36 7178 2631 FO
  36   36 7419 2782 FO
  36   36 7647 2923 FO
  36   36 7863 3055 FO
  36   36 8071 3179 FO
  36   36 8285 3386 FO
  36   36 8498 3611 FO
  36   36 8709 3853 FO
  36   36 8915 4113 FO
  36   36 5606 1322 FO
  36   36 5967 1388 FO
  36   36 6310 1491 FO
  36   36 6632 1626 FO
  36   36 7190 2455 FO
  36   36 7434 2598 FO
  36   36 7660 2734 FO
  36   36 7872 2862 FO
  36   36 8072 2983 FO
  36   36 8275 3183 FO
  36   36 8476 3401 FO
  36   36 8673 3640 FO
  36   36 8866 3898 FO
  36   36 5923 1261 FO
  36   36 6287 1349 FO
  36   36 6626 1472 FO
  36   36 6938 1626 FO
  36   36 7453 2421 FO
  36   36 7680 2550 FO
  36   36 7888 2672 FO
  36   36 8082 2787 FO
  36   36 8276 2978 FO
  36   36 8465 3188 FO
  36   36 8650 3419 FO
  36   36 8829 3673 FO
  36   36 6259 1220 FO
  36   36 6618 1329 FO
  36   36 6944 1472 FO
  36   36 7239 1645 FO
  36   36 7706 2372 FO
  36   36 7913 2486 FO
  36   36 8101 2595 FO
  36   36 8287 2774 FO
  36   36 8466 2973 FO
  36   36 8638 3194 FO
  36   36 8805 3440 FO
  36   36 6608 1200 FO
  36   36 6952 1329 FO
  36   36 7260 1491 FO
  36   36 7530 1682 FO
  36   36 7946 2308 FO
  36   36 8130 2408 FO
  36   36 8308 2573 FO
  36   36 8477 2759 FO
  36   36 8639 2967 FO
  36   36 8794 3202 FO
  36   36 6962 1200 FO
  36   36 7283 1349 FO
  36   36 7564 1528 FO
  36   36 7804 1737 FO
  36   36 8168 2228 FO
  36   36 8341 2378 FO
  36   36 8501 2548 FO
  36   36 8651 2742 FO
  36   36 8794 2962 FO
  36   36 7311 1220 FO
  36   36 7603 1388 FO
  36   36 7850 1584 FO
  36   36 8054 1808 FO
  36   36 8227 2064 FO
  36   36 8384 2191 FO
  36   36 8536 2344 FO
  36   36 8676 2520 FO
  36   36 8807 2723 FO
  36   36 7647 1261 FO
  36   36 7903 1445 FO
  36   36 8111 1657 FO
  36   36 8273 1894 FO
  36   36 8449 2021 FO
  36   36 8582 2148 FO
  36   36 8713 2306 FO
  36   36 8832 2489 FO
  36   36 7964 1322 FO
  36   36 8177 1520 FO
  36   36 8340 1745 FO
  36   36 8502 1843 FO
  36   36 8654 1971 FO
  36   36 8762 2100 FO
  36   36 8870 2262 FO
  36   36 8254 1400 FO
  36   36 8418 1611 FO
  36   36 8578 1689 FO
  36   36 8711 1786 FO
  36   36 8837 1914 FO
  36   36 8921 2045 FO
  36   36 8508 1495 FO
  36   36 8666 1552 FO
  36   36 8794 1625 FO
  36   36 8898 1720 FO
  36   36 8999 1850 FO
  36   36 8767 1434 FO
  36   36 8890 1484 FO
  36   36 8985 1553 FO
  36   36 9060 1647 FO
  36   36 9000 1364 FO
  36   36 9087 1407 FO
  36   36 9150 1473 FO
  36   36 9203 1284 FO
  36   36 9255 1322 FO
  36   36 9375 1196 FO
gs 4195 476 5181 5181 rc
gr

/c9 { 0.000000 1.000000 0.000000 sr} bdef
c9
4176 4911 mt 4226 4961 L
4226 4911 mt 4176 4961 L
gs 4195 476 5181 5181 rc
/c10 { 0.000000 0.000000 1.000000 sr} bdef
c10
-120 123 4321 4813 2 MP stroke
120 -123 4201 4936 2 MP stroke
-172 86 4373 4850 2 MP stroke
-52 -37 4373 4850 2 MP stroke
172 -86 4201 4936 2 MP stroke
52 37 4321 4813 2 MP stroke
-225 269 4426 4667 2 MP stroke
-105 146 4426 4667 2 MP stroke
225 -269 4201 4936 2 MP stroke
105 -146 4321 4813 2 MP stroke
-288 207 4489 4729 2 MP stroke
-168 84 4489 4729 2 MP stroke
-116 121 4489 4729 2 MP stroke
288 -207 4201 4936 2 MP stroke
168 -84 4321 4813 2 MP stroke
116 -121 4373 4850 2 MP stroke
-375 161 4576 4775 2 MP stroke
-203 75 4576 4775 2 MP stroke
375 -161 4201 4936 2 MP stroke
203 -75 4373 4850 2 MP stroke
-195 313 4516 4500 2 MP stroke
-90 167 4516 4500 2 MP stroke
195 -313 4321 4813 2 MP stroke
90 -167 4426 4667 2 MP stroke
-165 80 4591 4587 2 MP stroke
-102 142 4591 4587 2 MP stroke
165 -80 4426 4667 2 MP stroke
102 -142 4489 4729 2 MP stroke
-198 73 4687 4656 2 MP stroke
-111 119 4687 4656 2 MP stroke
198 -73 4489 4729 2 MP stroke
111 -119 4576 4775 2 MP stroke
-436 139 4809 4711 2 MP stroke
-233 64 4809 4711 2 MP stroke
436 -139 4373 4850 2 MP stroke
233 -64 4576 4775 2 MP stroke
-166 352 4592 4315 2 MP stroke
-76 185 4592 4315 2 MP stroke
166 -352 4426 4667 2 MP stroke
76 -185 4516 4500 2 MP stroke
-163 74 4679 4426 2 MP stroke
-88 161 4679 4426 2 MP stroke
163 -74 4516 4500 2 MP stroke
88 -161 4591 4587 2 MP stroke
-192 69 4783 4518 2 MP stroke
-96 138 4783 4518 2 MP stroke
192 -69 4591 4587 2 MP stroke
96 -138 4687 4656 2 MP stroke
-224 63 4911 4593 2 MP stroke
-102 118 4911 4593 2 MP stroke
224 -63 4687 4656 2 MP stroke
102 -118 4809 4711 2 MP stroke
-492 118 5068 4657 2 MP stroke
-259 54 5068 4657 2 MP stroke
492 -118 4576 4775 2 MP stroke
259 -54 4809 4711 2 MP stroke
-139 387 4655 4113 2 MP stroke
-63 202 4655 4113 2 MP stroke
139 -387 4516 4500 2 MP stroke
63 -202 4592 4315 2 MP stroke
-161 66 4753 4249 2 MP stroke
-74 177 4753 4249 2 MP stroke
161 -66 4592 4315 2 MP stroke
74 -177 4679 4426 2 MP stroke
-187 63 4866 4363 2 MP stroke
-83 155 4866 4363 2 MP stroke
187 -63 4679 4426 2 MP stroke
83 -155 4783 4518 2 MP stroke
-216 60 4999 4458 2 MP stroke
-88 135 4999 4458 2 MP stroke
216 -60 4783 4518 2 MP stroke
88 -135 4911 4593 2 MP stroke
-247 52 5158 4541 2 MP stroke
-90 116 5158 4541 2 MP stroke
247 -52 4911 4593 2 MP stroke
90 -116 5068 4657 2 MP stroke
-533 -23 5342 4734 2 MP stroke
-274 -77 5342 4734 2 MP stroke
533 23 4809 4711 2 MP stroke
274 77 5068 4657 2 MP stroke
-112 417 4704 3898 2 MP stroke
-49 215 4704 3898 2 MP stroke
112 -417 4592 4315 2 MP stroke
49 -215 4655 4113 2 MP stroke
-158 56 4813 4057 2 MP stroke
-60 192 4813 4057 2 MP stroke
158 -56 4655 4113 2 MP stroke
60 -192 4753 4249 2 MP stroke
-183 57 4936 4192 2 MP stroke
-70 171 4936 4192 2 MP stroke
183 -57 4753 4249 2 MP stroke
70 -171 4866 4363 2 MP stroke
-209 55 5075 4308 2 MP stroke
-76 150 5075 4308 2 MP stroke
209 -55 4866 4363 2 MP stroke
76 -150 4999 4458 2 MP stroke
-238 50 5237 4408 2 MP stroke
-79 133 5237 4408 2 MP stroke
238 -50 4999 4458 2 MP stroke
79 -133 5158 4541 2 MP stroke
-260 -72 5418 4613 2 MP stroke
-76 121 5418 4613 2 MP stroke
260 72 5158 4541 2 MP stroke
76 -121 5342 4734 2 MP stroke
-570 -140 5638 4797 2 MP stroke
-296 -63 5638 4797 2 MP stroke
570 140 5068 4657 2 MP stroke
296 63 5342 4734 2 MP stroke
-86 440 4741 3673 2 MP stroke
-37 225 4741 3673 2 MP stroke
86 -440 4655 4113 2 MP stroke
37 -225 4704 3898 2 MP stroke
-157 45 4861 3853 2 MP stroke
-48 204 4861 3853 2 MP stroke
157 -45 4704 3898 2 MP stroke
48 -204 4813 4057 2 MP stroke
-180 48 4993 4009 2 MP stroke
-57 183 4993 4009 2 MP stroke
180 -48 4813 4057 2 MP stroke
57 -183 4936 4192 2 MP stroke
-203 48 5139 4144 2 MP stroke
-64 164 5139 4144 2 MP stroke
203 -48 4936 4192 2 MP stroke
64 -164 5075 4308 2 MP stroke
-229 46 5304 4262 2 MP stroke
-67 146 5304 4262 2 MP stroke
229 -46 5075 4308 2 MP stroke
67 -146 5237 4408 2 MP stroke
-248 -70 5485 4478 2 MP stroke
-67 135 5485 4478 2 MP stroke
248 70 5237 4408 2 MP stroke
67 -135 5418 4613 2 MP stroke
-282 -60 5700 4673 2 MP stroke
-62 124 5700 4673 2 MP stroke
282 60 5418 4613 2 MP stroke
62 -124 5638 4797 2 MP stroke
-611 -112 5953 4846 2 MP stroke
-315 -49 5953 4846 2 MP stroke
611 112 5342 4734 2 MP stroke
315 49 5638 4797 2 MP stroke
-61 458 4765 3440 2 MP stroke
-24 233 4765 3440 2 MP stroke
61 -458 4704 3898 2 MP stroke
24 -233 4741 3673 2 MP stroke
-156 33 4897 3640 2 MP stroke
-36 213 4897 3640 2 MP stroke
156 -33 4741 3673 2 MP stroke
36 -213 4861 3853 2 MP stroke
-178 39 5039 3814 2 MP stroke
-46 195 5039 3814 2 MP stroke
178 -39 4861 3853 2 MP stroke
46 -195 4993 4009 2 MP stroke
-199 42 5192 3967 2 MP stroke
-53 177 5192 3967 2 MP stroke
199 -42 4993 4009 2 MP stroke
53 -177 5139 4144 2 MP stroke
-222 41 5361 4103 2 MP stroke
-57 159 5361 4103 2 MP stroke
222 -41 5139 4144 2 MP stroke
57 -159 5304 4262 2 MP stroke
-239 -67 5543 4329 2 MP stroke
-58 149 5543 4329 2 MP stroke
239 67 5304 4262 2 MP stroke
58 -149 5485 4478 2 MP stroke
-268 -57 5753 4535 2 MP stroke
-53 138 5753 4535 2 MP stroke
268 57 5485 4478 2 MP stroke
53 -138 5700 4673 2 MP stroke
-297 -45 5997 4718 2 MP stroke
-44 128 5997 4718 2 MP stroke
297 45 5700 4673 2 MP stroke
44 -128 5953 4846 2 MP stroke
-642 -81 6280 4878 2 MP stroke
-327 -32 6280 4878 2 MP stroke
642 81 5638 4797 2 MP stroke
327 32 5953 4846 2 MP stroke
-35 471 4776 3202 2 MP stroke
-11 238 4776 3202 2 MP stroke
35 -471 4741 3673 2 MP stroke
11 -238 4765 3440 2 MP stroke
-155 21 4920 3419 2 MP stroke
-23 221 4920 3419 2 MP stroke
155 -21 4765 3440 2 MP stroke
23 -221 4897 3640 2 MP stroke
-175 29 5072 3611 2 MP stroke
-33 203 5072 3611 2 MP stroke
175 -29 4897 3640 2 MP stroke
33 -203 5039 3814 2 MP stroke
-195 33 5234 3781 2 MP stroke
-42 186 5234 3781 2 MP stroke
195 -33 5039 3814 2 MP stroke
42 -186 5192 3967 2 MP stroke
-216 35 5408 3932 2 MP stroke
-47 171 5408 3932 2 MP stroke
216 -35 5192 3967 2 MP stroke
47 -171 5361 4103 2 MP stroke
-230 -66 5591 4169 2 MP stroke
-48 160 5591 4169 2 MP stroke
230 66 5361 4103 2 MP stroke
48 -160 5543 4329 2 MP stroke
-256 -55 5799 4384 2 MP stroke
-46 151 5799 4384 2 MP stroke
256 55 5543 4329 2 MP stroke
46 -151 5753 4535 2 MP stroke
-283 -43 6036 4578 2 MP stroke
-39 140 6036 4578 2 MP stroke
283 43 5753 4535 2 MP stroke
39 -140 5997 4718 2 MP stroke
-310 -31 6307 4749 2 MP stroke
-27 129 6307 4749 2 MP stroke
310 31 5997 4718 2 MP stroke
27 -129 6280 4878 2 MP stroke
-663 -49 6616 4895 2 MP stroke
-336 -17 6616 4895 2 MP stroke
663 49 5953 4846 2 MP stroke
336 17 6280 4878 2 MP stroke
-11 478 4776 2962 2 MP stroke
0 240 4776 2962 2 MP stroke
11 -478 4765 3440 2 MP stroke
0 -240 4776 3202 2 MP stroke
-156 8 4932 3194 2 MP stroke
-12 225 4932 3194 2 MP stroke
156 -8 4776 3202 2 MP stroke
12 -225 4920 3419 2 MP stroke
-174 18 5094 3401 2 MP stroke
-22 210 5094 3401 2 MP stroke
174 -18 4920 3419 2 MP stroke
22 -210 5072 3611 2 MP stroke
-193 25 5265 3586 2 MP stroke
-31 195 5265 3586 2 MP stroke
193 -25 5072 3611 2 MP stroke
31 -195 5234 3781 2 MP stroke
-211 28 5445 3753 2 MP stroke
-37 179 5445 3753 2 MP stroke
211 -28 5234 3781 2 MP stroke
37 -179 5408 3932 2 MP stroke
-223 -66 5631 3998 2 MP stroke
-40 171 5631 3998 2 MP stroke
223 66 5408 3932 2 MP stroke
40 -171 5591 4169 2 MP stroke
-247 -54 5838 4223 2 MP stroke
-39 161 5838 4223 2 MP stroke
247 54 5591 4169 2 MP stroke
39 -161 5799 4384 2 MP stroke
-271 -42 6070 4426 2 MP stroke
-34 152 6070 4426 2 MP stroke
271 42 5799 4384 2 MP stroke
34 -152 6036 4578 2 MP stroke
-295 -30 6331 4608 2 MP stroke
-24 141 6331 4608 2 MP stroke
295 30 6036 4578 2 MP stroke
24 -141 6307 4749 2 MP stroke
-318 -16 6625 4765 2 MP stroke
-9 130 6625 4765 2 MP stroke
318 16 6307 4749 2 MP stroke
9 -130 6616 4895 2 MP stroke
-674 -17 6954 4895 2 MP stroke
-338 0 6954 4895 2 MP stroke
674 17 6280 4878 2 MP stroke
338 0 6616 4895 2 MP stroke
13 479 4763 2723 2 MP stroke
13 239 4763 2723 2 MP stroke
-13 -479 4776 3202 2 MP stroke
-13 -239 4776 2962 2 MP stroke
-155 -5 4931 2967 2 MP stroke
1 227 4931 2967 2 MP stroke
155 5 4776 2962 2 MP stroke
-1 -227 4932 3194 2 MP stroke
-173 6 5105 3188 2 MP stroke
-11 213 5105 3188 2 MP stroke
173 -6 4932 3194 2 MP stroke
11 -213 5094 3401 2 MP stroke
-191 15 5285 3386 2 MP stroke
-20 200 5285 3386 2 MP stroke
191 -15 5094 3401 2 MP stroke
20 -200 5265 3586 2 MP stroke
-207 20 5472 3566 2 MP stroke
-27 187 5472 3566 2 MP stroke
207 -20 5265 3586 2 MP stroke
27 -187 5445 3753 2 MP stroke
-217 -66 5662 3819 2 MP stroke
-31 179 5662 3819 2 MP stroke
217 66 5445 3753 2 MP stroke
31 -179 5631 3998 2 MP stroke
-238 -54 5869 4052 2 MP stroke
-31 171 5869 4052 2 MP stroke
238 54 5631 3998 2 MP stroke
31 -171 5838 4223 2 MP stroke
-260 -41 6098 4264 2 MP stroke
-28 162 6098 4264 2 MP stroke
260 41 5838 4223 2 MP stroke
28 -162 6070 4426 2 MP stroke
-282 -29 6352 4455 2 MP stroke
-21 153 6352 4455 2 MP stroke
282 29 6070 4426 2 MP stroke
21 -153 6331 4608 2 MP stroke
-302 -15 6633 4623 2 MP stroke
-8 142 6633 4623 2 MP stroke
302 15 6331 4608 2 MP stroke
8 -142 6625 4765 2 MP stroke
-320 0 6945 4765 2 MP stroke
9 130 6945 4765 2 MP stroke
320 0 6625 4765 2 MP stroke
-9 -130 6954 4895 2 MP stroke
-674 17 7290 4878 2 MP stroke
-336 17 7290 4878 2 MP stroke
674 -17 6616 4895 2 MP stroke
336 -17 6954 4895 2 MP stroke
38 473 4738 2489 2 MP stroke
25 234 4738 2489 2 MP stroke
-38 -473 4776 2962 2 MP stroke
-25 -234 4763 2723 2 MP stroke
-156 -19 4919 2742 2 MP stroke
12 225 4919 2742 2 MP stroke
156 19 4763 2723 2 MP stroke
-12 -225 4931 2967 2 MP stroke
-173 -6 5104 2973 2 MP stroke
1 215 5104 2973 2 MP stroke
173 6 4931 2967 2 MP stroke
-1 -215 5105 3188 2 MP stroke
-190 5 5295 3183 2 MP stroke
-10 203 5295 3183 2 MP stroke
190 -5 5105 3188 2 MP stroke
10 -203 5285 3386 2 MP stroke
-205 12 5490 3374 2 MP stroke
-18 192 5490 3374 2 MP stroke
205 -12 5285 3386 2 MP stroke
18 -192 5472 3566 2 MP stroke
-213 -68 5685 3634 2 MP stroke
-23 185 5685 3634 2 MP stroke
213 68 5472 3566 2 MP stroke
23 -185 5662 3819 2 MP stroke
-232 -54 5894 3873 2 MP stroke
-25 179 5894 3873 2 MP stroke
232 54 5662 3819 2 MP stroke
25 -179 5869 4052 2 MP stroke
-252 -41 6121 4093 2 MP stroke
-23 171 6121 4093 2 MP stroke
252 41 5869 4052 2 MP stroke
23 -171 6098 4264 2 MP stroke
-271 -28 6369 4292 2 MP stroke
-17 163 6369 4292 2 MP stroke
271 28 6098 4264 2 MP stroke
17 -163 6352 4455 2 MP stroke
-288 -14 6640 4469 2 MP stroke
-7 154 6640 4469 2 MP stroke
288 14 6352 4455 2 MP stroke
7 -154 6633 4623 2 MP stroke
-304 0 6937 4623 2 MP stroke
8 142 6937 4623 2 MP stroke
304 0 6633 4623 2 MP stroke
-8 -142 6945 4765 2 MP stroke
-318 16 7263 4749 2 MP stroke
27 129 7263 4749 2 MP stroke
318 -16 6945 4765 2 MP stroke
-27 -129 7290 4878 2 MP stroke
-663 49 7617 4846 2 MP stroke
-327 32 7617 4846 2 MP stroke
663 -49 6954 4895 2 MP stroke
327 -32 7290 4878 2 MP stroke
63 461 4700 2262 2 MP stroke
38 227 4700 2262 2 MP stroke
-63 -461 4763 2723 2 MP stroke
-38 -227 4738 2489 2 MP stroke
-156 -31 4894 2520 2 MP stroke
25 222 4894 2520 2 MP stroke
156 31 4738 2489 2 MP stroke
-25 -222 4919 2742 2 MP stroke
-174 -17 5093 2759 2 MP stroke
11 214 5093 2759 2 MP stroke
174 17 4919 2742 2 MP stroke
-11 -214 5104 2973 2 MP stroke
-190 -5 5294 2978 2 MP stroke
1 205 5294 2978 2 MP stroke
190 5 5104 2973 2 MP stroke
-1 -205 5295 3183 2 MP stroke
-204 4 5499 3179 2 MP stroke
-9 195 5499 3179 2 MP stroke
204 -4 5295 3183 2 MP stroke
9 -195 5490 3374 2 MP stroke
-210 -69 5700 3443 2 MP stroke
-15 191 5700 3443 2 MP stroke
210 69 5490 3374 2 MP stroke
15 -191 5685 3634 2 MP stroke
-228 -55 5913 3689 2 MP stroke
-19 184 5913 3689 2 MP stroke
228 55 5685 3634 2 MP stroke
19 -184 5894 3873 2 MP stroke
-246 -42 6140 3915 2 MP stroke
-19 178 6140 3915 2 MP stroke
246 42 5894 3873 2 MP stroke
19 -178 6121 4093 2 MP stroke
-262 -28 6383 4121 2 MP stroke
-14 171 6383 4121 2 MP stroke
262 28 6121 4093 2 MP stroke
14 -171 6369 4292 2 MP stroke
-277 -14 6646 4306 2 MP stroke
-6 163 6646 4306 2 MP stroke
277 14 6369 4292 2 MP stroke
6 -163 6640 4469 2 MP stroke
-290 0 6930 4469 2 MP stroke
7 154 6930 4469 2 MP stroke
290 0 6640 4469 2 MP stroke
-7 -154 6937 4623 2 MP stroke
-302 15 7239 4608 2 MP stroke
24 141 7239 4608 2 MP stroke
302 -15 6937 4623 2 MP stroke
-24 -141 7263 4749 2 MP stroke
-310 31 7573 4718 2 MP stroke
44 128 7573 4718 2 MP stroke
310 -31 7263 4749 2 MP stroke
-44 -128 7617 4846 2 MP stroke
-642 81 7932 4797 2 MP stroke
-315 49 7932 4797 2 MP stroke
642 -81 7290 4878 2 MP stroke
315 -49 7617 4846 2 MP stroke
89 444 4649 2045 2 MP stroke
51 217 4649 2045 2 MP stroke
-89 -444 4738 2489 2 MP stroke
-51 -217 4700 2262 2 MP stroke
-157 -44 4857 2306 2 MP stroke
37 214 4857 2306 2 MP stroke
157 44 4700 2262 2 MP stroke
-37 -214 4894 2520 2 MP stroke
-175 -28 5069 2548 2 MP stroke
24 211 5069 2548 2 MP stroke
175 28 4894 2520 2 MP stroke
-24 -211 5093 2759 2 MP stroke
-190 -15 5283 2774 2 MP stroke
11 204 5283 2774 2 MP stroke
190 15 5093 2759 2 MP stroke
-11 -204 5294 2978 2 MP stroke
-204 -5 5498 2983 2 MP stroke
1 196 5498 2983 2 MP stroke
204 5 5294 2978 2 MP stroke
-1 -196 5499 3179 2 MP stroke
-208 -71 5707 3250 2 MP stroke
-7 193 5707 3250 2 MP stroke
208 71 5499 3179 2 MP stroke
7 -193 5700 3443 2 MP stroke
-225 -56 5925 3499 2 MP stroke
-12 190 5925 3499 2 MP stroke
225 56 5700 3443 2 MP stroke
12 -190 5913 3689 2 MP stroke
-240 -42 6153 3731 2 MP stroke
-13 184 6153 3731 2 MP stroke
240 42 5913 3689 2 MP stroke
13 -184 6140 3915 2 MP stroke
-254 -28 6394 3943 2 MP stroke
-11 178 6394 3943 2 MP stroke
254 28 6140 3915 2 MP stroke
11 -178 6383 4121 2 MP stroke
-267 -14 6650 4135 2 MP stroke
-4 171 6650 4135 2 MP stroke
267 14 6383 4121 2 MP stroke
4 -171 6646 4306 2 MP stroke
-278 0 6924 4306 2 MP stroke
6 163 6924 4306 2 MP stroke
278 0 6646 4306 2 MP stroke
-6 -163 6930 4469 2 MP stroke
-288 14 7218 4455 2 MP stroke
21 153 7218 4455 2 MP stroke
288 -14 6930 4469 2 MP stroke
-21 -153 7239 4608 2 MP stroke
-295 30 7534 4578 2 MP stroke
39 140 7534 4578 2 MP stroke
295 -30 7239 4608 2 MP stroke
-39 -140 7573 4718 2 MP stroke
-297 45 7870 4673 2 MP stroke
62 124 7870 4673 2 MP stroke
297 -45 7573 4718 2 MP stroke
-62 -124 7932 4797 2 MP stroke
-611 112 8228 4734 2 MP stroke
-296 63 8228 4734 2 MP stroke
611 -112 7617 4846 2 MP stroke
296 -63 7932 4797 2 MP stroke
129 412 4571 1850 2 MP stroke
78 195 4571 1850 2 MP stroke
-129 -412 4700 2262 2 MP stroke
-78 -195 4649 2045 2 MP stroke
-159 -55 4808 2100 2 MP stroke
49 206 4808 2100 2 MP stroke
159 55 4649 2045 2 MP stroke
-49 -206 4857 2306 2 MP stroke
-177 -38 5034 2344 2 MP stroke
35 204 5034 2344 2 MP stroke
177 38 4857 2306 2 MP stroke
-35 -204 5069 2548 2 MP stroke
-193 -25 5262 2573 2 MP stroke
21 201 5262 2573 2 MP stroke
193 25 5069 2548 2 MP stroke
-21 -201 5283 2774 2 MP stroke
-205 -13 5488 2787 2 MP stroke
10 196 5488 2787 2 MP stroke
205 13 5283 2774 2 MP stroke
-10 -196 5498 2983 2 MP stroke
-209 -72 5707 3055 2 MP stroke
0 195 5707 3055 2 MP stroke
209 72 5498 2983 2 MP stroke
0 -195 5707 3250 2 MP stroke
-224 -57 5931 3307 2 MP stroke
-6 192 5931 3307 2 MP stroke
224 57 5707 3250 2 MP stroke
6 -192 5925 3499 2 MP stroke
-237 -43 6162 3542 2 MP stroke
-9 189 6162 3542 2 MP stroke
237 43 5925 3499 2 MP stroke
9 -189 6153 3731 2 MP stroke
-249 -28 6402 3759 2 MP stroke
-8 184 6402 3759 2 MP stroke
249 28 6153 3731 2 MP stroke
8 -184 6394 3943 2 MP stroke
-260 -14 6654 3957 2 MP stroke
-4 178 6654 3957 2 MP stroke
260 14 6394 3943 2 MP stroke
4 -178 6650 4135 2 MP stroke
-270 0 6920 4135 2 MP stroke
4 171 6920 4135 2 MP stroke
270 0 6650 4135 2 MP stroke
-4 -171 6924 4306 2 MP stroke
-277 14 7201 4292 2 MP stroke
17 163 7201 4292 2 MP stroke
277 -14 6924 4306 2 MP stroke
-17 -163 7218 4455 2 MP stroke
-282 29 7500 4426 2 MP stroke
34 152 7500 4426 2 MP stroke
282 -29 7218 4455 2 MP stroke
-34 -152 7534 4578 2 MP stroke
-283 43 7817 4535 2 MP stroke
53 138 7817 4535 2 MP stroke
283 -43 7534 4578 2 MP stroke
-53 -138 7870 4673 2 MP stroke
-282 60 8152 4613 2 MP stroke
76 121 8152 4613 2 MP stroke
282 -60 7870 4673 2 MP stroke
-76 -121 8228 4734 2 MP stroke
-570 140 8502 4657 2 MP stroke
-274 77 8502 4657 2 MP stroke
570 -140 7932 4797 2 MP stroke
274 -77 8228 4734 2 MP stroke
139 398 4510 1647 2 MP stroke
61 203 4510 1647 2 MP stroke
-139 -398 4649 2045 2 MP stroke
-61 -203 4571 1850 2 MP stroke
-162 -64 4733 1914 2 MP stroke
75 186 4733 1914 2 MP stroke
162 64 4571 1850 2 MP stroke
-75 -186 4808 2100 2 MP stroke
-180 -48 4988 2148 2 MP stroke
46 196 4988 2148 2 MP stroke
180 48 4808 2100 2 MP stroke
-46 -196 5034 2344 2 MP stroke
-195 -34 5229 2378 2 MP stroke
33 195 5229 2378 2 MP stroke
195 34 5034 2344 2 MP stroke
-33 -195 5262 2573 2 MP stroke
-207 -22 5469 2595 2 MP stroke
19 192 5469 2595 2 MP stroke
207 22 5262 2573 2 MP stroke
-19 -192 5488 2787 2 MP stroke
-210 -75 5698 2862 2 MP stroke
9 193 5698 2862 2 MP stroke
210 75 5488 2787 2 MP stroke
-9 -193 5707 3055 2 MP stroke
-223 -60 5930 3115 2 MP stroke
1 192 5930 3115 2 MP stroke
223 60 5707 3055 2 MP stroke
-1 -192 5931 3307 2 MP stroke
-235 -44 6166 3351 2 MP stroke
-4 191 6166 3351 2 MP stroke
235 44 5931 3307 2 MP stroke
4 -191 6162 3542 2 MP stroke
-245 -29 6407 3571 2 MP stroke
-5 188 6407 3571 2 MP stroke
245 29 6162 3542 2 MP stroke
5 -188 6402 3759 2 MP stroke
-255 -14 6657 3773 2 MP stroke
-3 184 6657 3773 2 MP stroke
255 14 6402 3759 2 MP stroke
3 -184 6654 3957 2 MP stroke
-262 0 6916 3957 2 MP stroke
4 178 6916 3957 2 MP stroke
262 0 6654 3957 2 MP stroke
-4 -178 6920 4135 2 MP stroke
-267 14 7187 4121 2 MP stroke
14 171 7187 4121 2 MP stroke
267 -14 6920 4135 2 MP stroke
-14 -171 7201 4292 2 MP stroke
-271 28 7472 4264 2 MP stroke
28 162 7472 4264 2 MP stroke
271 -28 7201 4292 2 MP stroke
-28 -162 7500 4426 2 MP stroke
-271 42 7771 4384 2 MP stroke
46 151 7771 4384 2 MP stroke
271 -42 7500 4426 2 MP stroke
-46 -151 7817 4535 2 MP stroke
-268 57 8085 4478 2 MP stroke
67 135 8085 4478 2 MP stroke
268 -57 7817 4535 2 MP stroke
-67 -135 8152 4613 2 MP stroke
-260 72 8412 4541 2 MP stroke
90 116 8412 4541 2 MP stroke
260 -72 8152 4613 2 MP stroke
-90 -116 8502 4657 2 MP stroke
-533 23 8761 4711 2 MP stroke
-259 -54 8761 4711 2 MP stroke
533 -23 8228 4734 2 MP stroke
259 54 8502 4657 2 MP stroke
151 377 4420 1473 2 MP stroke
90 174 4420 1473 2 MP stroke
-151 -377 4571 1850 2 MP stroke
-90 -174 4510 1647 2 MP stroke
-162 -73 4672 1720 2 MP stroke
61 194 4672 1720 2 MP stroke
162 73 4510 1647 2 MP stroke
-61 -194 4733 1914 2 MP stroke
-183 -57 4916 1971 2 MP stroke
72 177 4916 1971 2 MP stroke
183 57 4733 1914 2 MP stroke
-72 -177 4988 2148 2 MP stroke
-198 -43 5186 2191 2 MP stroke
43 187 5186 2191 2 MP stroke
198 43 4988 2148 2 MP stroke
-43 -187 5229 2378 2 MP stroke
-211 -30 5440 2408 2 MP stroke
29 187 5440 2408 2 MP stroke
211 30 5229 2378 2 MP stroke
-29 -187 5469 2595 2 MP stroke
-213 -77 5682 2672 2 MP stroke
16 190 5682 2672 2 MP stroke
213 77 5469 2595 2 MP stroke
-16 -190 5698 2862 2 MP stroke
-225 -61 5923 2923 2 MP stroke
7 192 5923 2923 2 MP stroke
225 61 5698 2862 2 MP stroke
-7 -192 5930 3115 2 MP stroke
-235 -45 6165 3160 2 MP stroke
1 191 6165 3160 2 MP stroke
235 45 5930 3115 2 MP stroke
-1 -191 6166 3351 2 MP stroke
-244 -30 6410 3381 2 MP stroke
-3 190 6410 3381 2 MP stroke
244 30 6166 3351 2 MP stroke
3 -190 6407 3571 2 MP stroke
-252 -15 6659 3586 2 MP stroke
-2 187 6659 3586 2 MP stroke
252 15 6407 3571 2 MP stroke
2 -187 6657 3773 2 MP stroke
-256 0 6913 3773 2 MP stroke
3 184 6913 3773 2 MP stroke
256 0 6657 3773 2 MP stroke
-3 -184 6916 3957 2 MP stroke
-260 14 7176 3943 2 MP stroke
11 178 7176 3943 2 MP stroke
260 -14 6916 3957 2 MP stroke
-11 -178 7187 4121 2 MP stroke
-262 28 7449 4093 2 MP stroke
23 171 7449 4093 2 MP stroke
262 -28 7187 4121 2 MP stroke
-23 -171 7472 4264 2 MP stroke
-260 41 7732 4223 2 MP stroke
39 161 7732 4223 2 MP stroke
260 -41 7472 4264 2 MP stroke
-39 -161 7771 4384 2 MP stroke
-256 55 8027 4329 2 MP stroke
58 149 8027 4329 2 MP stroke
256 -55 7771 4384 2 MP stroke
-58 -149 8085 4478 2 MP stroke
-248 70 8333 4408 2 MP stroke
79 133 8333 4408 2 MP stroke
248 -70 8085 4478 2 MP stroke
-79 -133 8412 4541 2 MP stroke
-247 -52 8659 4593 2 MP stroke
102 118 8659 4593 2 MP stroke
247 52 8412 4541 2 MP stroke
-102 -118 8761 4711 2 MP stroke
-492 -118 8994 4775 2 MP stroke
-233 -64 8994 4775 2 MP stroke
492 118 8502 4657 2 MP stroke
233 64 8761 4711 2 MP stroke
195 325 4315 1322 2 MP stroke
105 151 4315 1322 2 MP stroke
-195 -325 4510 1647 2 MP stroke
-105 -151 4420 1473 2 MP stroke
-165 -80 4585 1553 2 MP stroke
87 167 4585 1553 2 MP stroke
165 80 4420 1473 2 MP stroke
-87 -167 4672 1720 2 MP stroke
-187 -66 4859 1786 2 MP stroke
57 185 4859 1786 2 MP stroke
187 66 4672 1720 2 MP stroke
-57 -185 4916 1971 2 MP stroke
-205 -50 5121 2021 2 MP stroke
65 170 5121 2021 2 MP stroke
205 50 4916 1971 2 MP stroke
-65 -170 5186 2191 2 MP stroke
-216 -37 5402 2228 2 MP stroke
38 180 5402 2228 2 MP stroke
216 37 5186 2191 2 MP stroke
-38 -180 5440 2408 2 MP stroke
-217 -78 5657 2486 2 MP stroke
25 186 5657 2486 2 MP stroke
217 78 5440 2408 2 MP stroke
-25 -186 5682 2672 2 MP stroke
-228 -62 5910 2734 2 MP stroke
13 189 5910 2734 2 MP stroke
228 62 5682 2672 2 MP stroke
-13 -189 5923 2923 2 MP stroke
-237 -46 6160 2969 2 MP stroke
5 191 6160 2969 2 MP stroke
237 46 5923 2923 2 MP stroke
-5 -191 6165 3160 2 MP stroke
-245 -30 6410 3190 2 MP stroke
0 191 6410 3190 2 MP stroke
245 30 6165 3160 2 MP stroke
0 -191 6410 3381 2 MP stroke
-249 -15 6659 3396 2 MP stroke
0 190 6659 3396 2 MP stroke
249 15 6410 3381 2 MP stroke
0 -190 6659 3586 2 MP stroke
-252 0 6911 3586 2 MP stroke
2 187 6911 3586 2 MP stroke
252 0 6659 3586 2 MP stroke
-2 -187 6913 3773 2 MP stroke
-255 14 7168 3759 2 MP stroke
8 184 7168 3759 2 MP stroke
255 -14 6913 3773 2 MP stroke
-8 -184 7176 3943 2 MP stroke
-254 28 7430 3915 2 MP stroke
19 178 7430 3915 2 MP stroke
254 -28 7176 3943 2 MP stroke
-19 -178 7449 4093 2 MP stroke
-252 41 7701 4052 2 MP stroke
31 171 7701 4052 2 MP stroke
252 -41 7449 4093 2 MP stroke
-31 -171 7732 4223 2 MP stroke
-247 54 7979 4169 2 MP stroke
48 160 7979 4169 2 MP stroke
247 -54 7732 4223 2 MP stroke
-48 -160 8027 4329 2 MP stroke
-239 67 8266 4262 2 MP stroke
67 146 8266 4262 2 MP stroke
239 -67 8027 4329 2 MP stroke
-67 -146 8333 4408 2 MP stroke
-238 -50 8571 4458 2 MP stroke
88 135 8571 4458 2 MP stroke
238 50 8333 4408 2 MP stroke
-88 -135 8659 4593 2 MP stroke
-224 -63 8883 4656 2 MP stroke
111 119 8883 4656 2 MP stroke
224 63 8659 4593 2 MP stroke
-111 -119 8994 4775 2 MP stroke
-436 -139 9197 4850 2 MP stroke
-203 -75 9197 4850 2 MP stroke
436 139 8761 4711 2 MP stroke
203 75 8994 4775 2 MP stroke
225 277 4195 1196 2 MP stroke
120 126 4195 1196 2 MP stroke
-225 -277 4420 1473 2 MP stroke
-120 -126 4315 1322 2 MP stroke
-168 -85 4483 1407 2 MP stroke
102 146 4483 1407 2 MP stroke
-288 -211 4483 1407 2 MP stroke
168 85 4315 1322 2 MP stroke
-102 -146 4585 1553 2 MP stroke
288 211 4195 1196 2 MP stroke
-191 -72 4776 1625 2 MP stroke
83 161 4776 1625 2 MP stroke
191 72 4585 1553 2 MP stroke
-83 -161 4859 1786 2 MP stroke
-209 -57 5068 1843 2 MP stroke
53 178 5068 1843 2 MP stroke
209 57 4859 1786 2 MP stroke
-53 -178 5121 2021 2 MP stroke
-427 -93 5343 2064 2 MP stroke
-222 -43 5343 2064 2 MP stroke
59 164 5343 2064 2 MP stroke
427 93 4916 1971 2 MP stroke
222 43 5121 2021 2 MP stroke
-59 -164 5402 2228 2 MP stroke
-438 -117 5624 2308 2 MP stroke
-222 -80 5624 2308 2 MP stroke
33 178 5624 2308 2 MP stroke
438 117 5186 2191 2 MP stroke
222 80 5402 2228 2 MP stroke
-33 -178 5657 2486 2 MP stroke
-233 -64 5890 2550 2 MP stroke
20 184 5890 2550 2 MP stroke
233 64 5657 2486 2 MP stroke
-20 -184 5910 2734 2 MP stroke
-241 -48 6151 2782 2 MP stroke
9 187 6151 2782 2 MP stroke
241 48 5910 2734 2 MP stroke
-9 -187 6160 2969 2 MP stroke
-247 -32 6407 3001 2 MP stroke
3 189 6407 3001 2 MP stroke
247 32 6160 2969 2 MP stroke
-3 -189 6410 3190 2 MP stroke
-249 -16 6659 3206 2 MP stroke
0 190 6659 3206 2 MP stroke
249 16 6410 3190 2 MP stroke
0 -190 6659 3396 2 MP stroke
-252 0 6911 3396 2 MP stroke
0 190 6911 3396 2 MP stroke
252 0 6659 3396 2 MP stroke
0 -190 6911 3586 2 MP stroke
-252 15 7163 3571 2 MP stroke
5 188 7163 3571 2 MP stroke
252 -15 6911 3586 2 MP stroke
-5 -188 7168 3759 2 MP stroke
-249 28 7417 3731 2 MP stroke
13 184 7417 3731 2 MP stroke
249 -28 7168 3759 2 MP stroke
-13 -184 7430 3915 2 MP stroke
-246 42 7676 3873 2 MP stroke
25 179 7676 3873 2 MP stroke
246 -42 7430 3915 2 MP stroke
-25 -179 7701 4052 2 MP stroke
-238 54 7939 3998 2 MP stroke
40 171 7939 3998 2 MP stroke
238 -54 7701 4052 2 MP stroke
-40 -171 7979 4169 2 MP stroke
-230 66 8209 4103 2 MP stroke
57 159 8209 4103 2 MP stroke
230 -66 7979 4169 2 MP stroke
-57 -159 8266 4262 2 MP stroke
-229 -46 8495 4308 2 MP stroke
76 150 8495 4308 2 MP stroke
229 46 8266 4262 2 MP stroke
-76 -150 8571 4458 2 MP stroke
-216 -60 8787 4518 2 MP stroke
96 138 8787 4518 2 MP stroke
216 60 8571 4458 2 MP stroke
-96 -138 8883 4656 2 MP stroke
-198 -73 9081 4729 2 MP stroke
116 121 9081 4729 2 MP stroke
198 73 8883 4656 2 MP stroke
-116 -121 9197 4850 2 MP stroke
-375 -161 9369 4936 2 MP stroke
-172 -86 9369 4936 2 MP stroke
-288 -207 9369 4936 2 MP stroke
375 161 8994 4775 2 MP stroke
172 86 9197 4850 2 MP stroke
288 207 9081 4729 2 MP stroke
-52 38 4367 1284 2 MP stroke
-172 -88 4367 1284 2 MP stroke
116 123 4367 1284 2 MP stroke
52 -38 4315 1322 2 MP stroke
172 88 4195 1196 2 MP stroke
-116 -123 4483 1407 2 MP stroke
-197 -77 4680 1484 2 MP stroke
96 141 4680 1484 2 MP stroke
197 77 4483 1407 2 MP stroke
-96 -141 4776 1625 2 MP stroke
-216 -64 4992 1689 2 MP stroke
76 154 4992 1689 2 MP stroke
216 64 4776 1625 2 MP stroke
-76 -154 5068 1843 2 MP stroke
-229 -51 5297 1894 2 MP stroke
46 170 5297 1894 2 MP stroke
229 51 5068 1843 2 MP stroke
-46 -170 5343 2064 2 MP stroke
-462 -144 5864 2372 2 MP stroke
-240 -64 5864 2372 2 MP stroke
26 178 5864 2372 2 MP stroke
462 144 5402 2228 2 MP stroke
240 64 5624 2308 2 MP stroke
-26 -178 5890 2550 2 MP stroke
-246 -48 6136 2598 2 MP stroke
15 184 6136 2598 2 MP stroke
246 48 5890 2550 2 MP stroke
-15 -184 6151 2782 2 MP stroke
-250 -32 6401 2814 2 MP stroke
6 187 6401 2814 2 MP stroke
250 32 6151 2782 2 MP stroke
-6 -187 6407 3001 2 MP stroke
-251 -15 6658 3016 2 MP stroke
1 190 6658 3016 2 MP stroke
251 15 6407 3001 2 MP stroke
-1 -190 6659 3206 2 MP stroke
-252 0 6911 3206 2 MP stroke
0 190 6911 3206 2 MP stroke
252 0 6659 3206 2 MP stroke
0 -190 6911 3396 2 MP stroke
-249 15 7160 3381 2 MP stroke
3 190 7160 3381 2 MP stroke
249 -15 6911 3396 2 MP stroke
-3 -190 7163 3571 2 MP stroke
-245 29 7408 3542 2 MP stroke
9 189 7408 3542 2 MP stroke
245 -29 7163 3571 2 MP stroke
-9 -189 7417 3731 2 MP stroke
-240 42 7657 3689 2 MP stroke
19 184 7657 3689 2 MP stroke
240 -42 7417 3731 2 MP stroke
-19 -184 7676 3873 2 MP stroke
-232 54 7908 3819 2 MP stroke
31 179 7908 3819 2 MP stroke
232 -54 7676 3873 2 MP stroke
-31 -179 7939 3998 2 MP stroke
-223 66 8162 3932 2 MP stroke
47 171 8162 3932 2 MP stroke
223 -66 7939 3998 2 MP stroke
-47 -171 8209 4103 2 MP stroke
-222 -41 8431 4144 2 MP stroke
64 164 8431 4144 2 MP stroke
222 41 8209 4103 2 MP stroke
-64 -164 8495 4308 2 MP stroke
-209 -55 8704 4363 2 MP stroke
83 155 8704 4363 2 MP stroke
209 55 8495 4308 2 MP stroke
-83 -155 8787 4518 2 MP stroke
-192 -69 8979 4587 2 MP stroke
102 142 8979 4587 2 MP stroke
192 69 8787 4518 2 MP stroke
-102 -142 9081 4729 2 MP stroke
-366 -157 9249 4813 2 MP stroke
-168 -84 9249 4813 2 MP stroke
120 123 9249 4813 2 MP stroke
366 157 8883 4656 2 MP stroke
168 84 9081 4729 2 MP stroke
-120 -123 9369 4936 2 MP stroke
-375 -168 4570 1364 2 MP stroke
-203 -80 4570 1364 2 MP stroke
110 120 4570 1364 2 MP stroke
375 168 4195 1196 2 MP stroke
203 80 4367 1284 2 MP stroke
-110 -120 4680 1484 2 MP stroke
-224 -68 4904 1552 2 MP stroke
88 137 4904 1552 2 MP stroke
224 68 4680 1484 2 MP stroke
-88 -137 4992 1689 2 MP stroke
-238 -56 5230 1745 2 MP stroke
67 149 5230 1745 2 MP stroke
238 56 4992 1689 2 MP stroke
-67 -149 5297 1894 2 MP stroke
-448 35 5516 1808 2 MP stroke
-219 86 5516 1808 2 MP stroke
448 -35 5068 1843 2 MP stroke
219 -86 5297 1894 2 MP stroke
-493 -113 6117 2421 2 MP stroke
-253 -49 6117 2421 2 MP stroke
19 177 6117 2421 2 MP stroke
493 113 5624 2308 2 MP stroke
253 49 5864 2372 2 MP stroke
-19 -177 6136 2598 2 MP stroke
-256 -33 6392 2631 2 MP stroke
9 183 6392 2631 2 MP stroke
256 33 6136 2598 2 MP stroke
-9 -183 6401 2814 2 MP stroke
-255 -16 6656 2830 2 MP stroke
2 186 6656 2830 2 MP stroke
255 16 6401 2814 2 MP stroke
-2 -186 6658 3016 2 MP stroke
-254 0 6912 3016 2 MP stroke
-1 190 6912 3016 2 MP stroke
254 0 6658 3016 2 MP stroke
1 -190 6911 3206 2 MP stroke
-249 16 7160 3190 2 MP stroke
0 191 7160 3190 2 MP stroke
249 -16 6911 3206 2 MP stroke
0 -191 7160 3381 2 MP stroke
-244 30 7404 3351 2 MP stroke
4 191 7404 3351 2 MP stroke
244 -30 7160 3381 2 MP stroke
-4 -191 7408 3542 2 MP stroke
-237 43 7645 3499 2 MP stroke
12 190 7645 3499 2 MP stroke
237 -43 7408 3542 2 MP stroke
-12 -190 7657 3689 2 MP stroke
-228 55 7885 3634 2 MP stroke
23 185 7885 3634 2 MP stroke
228 -55 7657 3689 2 MP stroke
-23 -185 7908 3819 2 MP stroke
-217 66 8125 3753 2 MP stroke
37 179 8125 3753 2 MP stroke
217 -66 7908 3819 2 MP stroke
-37 -179 8162 3932 2 MP stroke
-216 -35 8378 3967 2 MP stroke
53 177 8378 3967 2 MP stroke
216 35 8162 3932 2 MP stroke
-53 -177 8431 4144 2 MP stroke
-203 -48 8634 4192 2 MP stroke
70 171 8634 4192 2 MP stroke
203 48 8431 4144 2 MP stroke
-70 -171 8704 4363 2 MP stroke
-187 -63 8891 4426 2 MP stroke
88 161 8891 4426 2 MP stroke
187 63 8704 4363 2 MP stroke
-88 -161 8979 4587 2 MP stroke
-357 -149 9144 4667 2 MP stroke
-165 -80 9144 4667 2 MP stroke
105 146 9144 4667 2 MP stroke
357 149 8787 4518 2 MP stroke
165 80 8979 4587 2 MP stroke
-105 -146 9249 4813 2 MP stroke
-436 -150 4803 1434 2 MP stroke
-233 -70 4803 1434 2 MP stroke
101 118 4803 1434 2 MP stroke
436 150 4367 1284 2 MP stroke
233 70 4570 1364 2 MP stroke
-101 -118 4904 1552 2 MP stroke
-248 -59 5152 1611 2 MP stroke
78 134 5152 1611 2 MP stroke
248 59 4904 1552 2 MP stroke
-78 -134 5230 1745 2 MP stroke
-229 88 5459 1657 2 MP stroke
57 151 5459 1657 2 MP stroke
229 -88 5230 1745 2 MP stroke
-57 -151 5516 1808 2 MP stroke
-469 157 5766 1737 2 MP stroke
-250 71 5766 1737 2 MP stroke
469 -157 5297 1894 2 MP stroke
250 -71 5516 1808 2 MP stroke
-516 -83 6380 2455 2 MP stroke
-263 -34 6380 2455 2 MP stroke
12 176 6380 2455 2 MP stroke
516 83 5864 2372 2 MP stroke
263 34 6117 2421 2 MP stroke
-12 -176 6392 2631 2 MP stroke
-261 -17 6653 2648 2 MP stroke
3 182 6653 2648 2 MP stroke
261 17 6392 2631 2 MP stroke
-3 -182 6656 2830 2 MP stroke
-258 0 6914 2830 2 MP stroke
-2 186 6914 2830 2 MP stroke
258 0 6656 2830 2 MP stroke
2 -186 6912 3016 2 MP stroke
-251 15 7163 3001 2 MP stroke
-3 189 7163 3001 2 MP stroke
251 -15 6912 3016 2 MP stroke
3 -189 7160 3190 2 MP stroke
-245 30 7405 3160 2 MP stroke
-1 191 7405 3160 2 MP stroke
245 -30 7160 3190 2 MP stroke
1 -191 7404 3351 2 MP stroke
-235 44 7639 3307 2 MP stroke
6 192 7639 3307 2 MP stroke
235 -44 7404 3351 2 MP stroke
-6 -192 7645 3499 2 MP stroke
-225 56 7870 3443 2 MP stroke
15 191 7870 3443 2 MP stroke
225 -56 7645 3499 2 MP stroke
-15 -191 7885 3634 2 MP stroke
-213 68 8098 3566 2 MP stroke
27 187 8098 3566 2 MP stroke
213 -68 7885 3634 2 MP stroke
-27 -187 8125 3753 2 MP stroke
-211 -28 8336 3781 2 MP stroke
42 186 8336 3781 2 MP stroke
211 28 8125 3753 2 MP stroke
-42 -186 8378 3967 2 MP stroke
-199 -42 8577 4009 2 MP stroke
57 183 8577 4009 2 MP stroke
199 42 8378 3967 2 MP stroke
-57 -183 8634 4192 2 MP stroke
-183 -57 8817 4249 2 MP stroke
74 177 8817 4249 2 MP stroke
183 57 8634 4192 2 MP stroke
-74 -177 8891 4426 2 MP stroke
-350 -137 9054 4500 2 MP stroke
-163 -74 9054 4500 2 MP stroke
90 167 9054 4500 2 MP stroke
350 137 8704 4363 2 MP stroke
163 74 8891 4426 2 MP stroke
-90 -167 9144 4667 2 MP stroke
-492 -131 5062 1495 2 MP stroke
-259 -61 5062 1495 2 MP stroke
90 116 5062 1495 2 MP stroke
492 131 4570 1364 2 MP stroke
259 61 4803 1434 2 MP stroke
-90 -116 5152 1611 2 MP stroke
-241 91 5393 1520 2 MP stroke
66 137 5393 1520 2 MP stroke
241 -91 5152 1611 2 MP stroke
-66 -137 5459 1657 2 MP stroke
-261 73 5720 1584 2 MP stroke
46 153 5720 1584 2 MP stroke
261 -73 5459 1657 2 MP stroke
-46 -153 5766 1737 2 MP stroke
-524 126 6040 1682 2 MP stroke
-274 55 6040 1682 2 MP stroke
524 -126 5516 1808 2 MP stroke
274 -55 5766 1737 2 MP stroke
-532 -50 6649 2471 2 MP stroke
-269 -16 6649 2471 2 MP stroke
4 177 6649 2471 2 MP stroke
532 50 6117 2421 2 MP stroke
269 16 6380 2455 2 MP stroke
-4 -177 6653 2648 2 MP stroke
-264 0 6917 2648 2 MP stroke
-3 182 6917 2648 2 MP stroke
264 0 6653 2648 2 MP stroke
3 -182 6914 2830 2 MP stroke
-255 16 7169 2814 2 MP stroke
-6 187 7169 2814 2 MP stroke
255 -16 6914 2830 2 MP stroke
6 -187 7163 3001 2 MP stroke
-247 32 7410 2969 2 MP stroke
-5 191 7410 2969 2 MP stroke
247 -32 7163 3001 2 MP stroke
5 -191 7405 3160 2 MP stroke
-235 45 7640 3115 2 MP stroke
-1 192 7640 3115 2 MP stroke
235 -45 7405 3160 2 MP stroke
1 -192 7639 3307 2 MP stroke
-224 57 7863 3250 2 MP stroke
7 193 7863 3250 2 MP stroke
224 -57 7639 3307 2 MP stroke
-7 -193 7870 3443 2 MP stroke
-210 69 8080 3374 2 MP stroke
18 192 8080 3374 2 MP stroke
210 -69 7870 3443 2 MP stroke
-18 -192 8098 3566 2 MP stroke
-207 -20 8305 3586 2 MP stroke
31 195 8305 3586 2 MP stroke
207 20 8098 3566 2 MP stroke
-31 -195 8336 3781 2 MP stroke
-195 -33 8531 3814 2 MP stroke
46 195 8531 3814 2 MP stroke
195 33 8336 3781 2 MP stroke
-46 -195 8577 4009 2 MP stroke
-180 -48 8757 4057 2 MP stroke
60 192 8757 4057 2 MP stroke
180 48 8577 4009 2 MP stroke
-60 -192 8817 4249 2 MP stroke
-344 -123 8978 4315 2 MP stroke
-161 -66 8978 4315 2 MP stroke
76 185 8978 4315 2 MP stroke
344 123 8634 4192 2 MP stroke
161 66 8817 4249 2 MP stroke
-76 -185 9054 4500 2 MP stroke
-513 34 5316 1400 2 MP stroke
-254 95 5316 1400 2 MP stroke
77 120 5316 1400 2 MP stroke
513 -34 4803 1434 2 MP stroke
254 -95 5062 1495 2 MP stroke
-77 -120 5393 1520 2 MP stroke
-274 75 5667 1445 2 MP stroke
53 139 5667 1445 2 MP stroke
274 -75 5393 1520 2 MP stroke
-53 -139 5720 1584 2 MP stroke
-286 56 6006 1528 2 MP stroke
34 154 6006 1528 2 MP stroke
286 -56 5720 1584 2 MP stroke
-34 -154 6040 1682 2 MP stroke
-565 92 6331 1645 2 MP stroke
-291 37 6331 1645 2 MP stroke
565 -92 5766 1737 2 MP stroke
291 -37 6040 1682 2 MP stroke
-541 -16 6921 2471 2 MP stroke
-272 0 6921 2471 2 MP stroke
-4 177 6921 2471 2 MP stroke
541 16 6380 2455 2 MP stroke
272 0 6649 2471 2 MP stroke
4 -177 6917 2648 2 MP stroke
-261 17 7178 2631 2 MP stroke
-9 183 7178 2631 2 MP stroke
261 -17 6917 2648 2 MP stroke
9 -183 7169 2814 2 MP stroke
-250 32 7419 2782 2 MP stroke
-9 187 7419 2782 2 MP stroke
250 -32 7169 2814 2 MP stroke
9 -187 7410 2969 2 MP stroke
-237 46 7647 2923 2 MP stroke
-7 192 7647 2923 2 MP stroke
237 -46 7410 2969 2 MP stroke
7 -192 7640 3115 2 MP stroke
-223 60 7863 3055 2 MP stroke
0 195 7863 3055 2 MP stroke
223 -60 7640 3115 2 MP stroke
0 -195 7863 3250 2 MP stroke
-208 71 8071 3179 2 MP stroke
9 195 8071 3179 2 MP stroke
208 -71 7863 3250 2 MP stroke
-9 -195 8080 3374 2 MP stroke
-205 -12 8285 3386 2 MP stroke
20 200 8285 3386 2 MP stroke
205 12 8080 3374 2 MP stroke
-20 -200 8305 3586 2 MP stroke
-193 -25 8498 3611 2 MP stroke
33 203 8498 3611 2 MP stroke
193 25 8305 3586 2 MP stroke
-33 -203 8531 3814 2 MP stroke
-178 -39 8709 3853 2 MP stroke
48 204 8709 3853 2 MP stroke
178 39 8531 3814 2 MP stroke
-48 -204 8757 4057 2 MP stroke
-338 -104 8915 4113 2 MP stroke
-158 -56 8915 4113 2 MP stroke
63 202 8915 4113 2 MP stroke
338 104 8577 4009 2 MP stroke
158 56 8757 4057 2 MP stroke
-63 -202 8978 4315 2 MP stroke
-544 173 5606 1322 2 MP stroke
-290 78 5606 1322 2 MP stroke
61 123 5606 1322 2 MP stroke
544 -173 5062 1495 2 MP stroke
290 -78 5316 1400 2 MP stroke
-61 -123 5667 1445 2 MP stroke
-300 57 5967 1388 2 MP stroke
39 140 5967 1388 2 MP stroke
300 -57 5667 1445 2 MP stroke
-39 -140 6006 1528 2 MP stroke
-304 37 6310 1491 2 MP stroke
21 154 6310 1491 2 MP stroke
304 -37 6006 1528 2 MP stroke
-21 -154 6331 1645 2 MP stroke
-592 56 6632 1626 2 MP stroke
-301 19 6632 1626 2 MP stroke
592 -56 6040 1682 2 MP stroke
301 -19 6331 1645 2 MP stroke
-541 16 7190 2455 2 MP stroke
-269 16 7190 2455 2 MP stroke
-12 176 7190 2455 2 MP stroke
541 -16 6649 2471 2 MP stroke
269 -16 6921 2471 2 MP stroke
12 -176 7178 2631 2 MP stroke
-256 33 7434 2598 2 MP stroke
-15 184 7434 2598 2 MP stroke
256 -33 7178 2631 2 MP stroke
15 -184 7419 2782 2 MP stroke
-241 48 7660 2734 2 MP stroke
-13 189 7660 2734 2 MP stroke
241 -48 7419 2782 2 MP stroke
13 -189 7647 2923 2 MP stroke
-225 61 7872 2862 2 MP stroke
-9 193 7872 2862 2 MP stroke
225 -61 7647 2923 2 MP stroke
9 -193 7863 3055 2 MP stroke
-209 72 8072 2983 2 MP stroke
-1 196 8072 2983 2 MP stroke
209 -72 7863 3055 2 MP stroke
1 -196 8071 3179 2 MP stroke
-204 -4 8275 3183 2 MP stroke
10 203 8275 3183 2 MP stroke
204 4 8071 3179 2 MP stroke
-10 -203 8285 3386 2 MP stroke
-191 -15 8476 3401 2 MP stroke
22 210 8476 3401 2 MP stroke
191 15 8285 3386 2 MP stroke
-22 -210 8498 3611 2 MP stroke
-175 -29 8673 3640 2 MP stroke
36 213 8673 3640 2 MP stroke
175 29 8498 3611 2 MP stroke
-36 -213 8709 3853 2 MP stroke
-335 -84 8866 3898 2 MP stroke
-157 -45 8866 3898 2 MP stroke
49 215 8866 3898 2 MP stroke
335 84 8531 3814 2 MP stroke
157 45 8709 3853 2 MP stroke
-49 -215 8915 4113 2 MP stroke
-607 139 5923 1261 2 MP stroke
-317 61 5923 1261 2 MP stroke
44 127 5923 1261 2 MP stroke
607 -139 5316 1400 2 MP stroke
317 -61 5606 1322 2 MP stroke
-44 -127 5967 1388 2 MP stroke
-320 39 6287 1349 2 MP stroke
23 142 6287 1349 2 MP stroke
320 -39 5967 1388 2 MP stroke
-23 -142 6310 1491 2 MP stroke
-316 19 6626 1472 2 MP stroke
6 154 6626 1472 2 MP stroke
316 -19 6310 1491 2 MP stroke
-6 -154 6632 1626 2 MP stroke
-607 19 6938 1626 2 MP stroke
-306 0 6938 1626 2 MP stroke
607 -19 6331 1645 2 MP stroke
306 0 6632 1626 2 MP stroke
-532 50 7453 2421 2 MP stroke
-263 34 7453 2421 2 MP stroke
-19 177 7453 2421 2 MP stroke
532 -50 6921 2471 2 MP stroke
263 -34 7190 2455 2 MP stroke
19 -177 7434 2598 2 MP stroke
-246 48 7680 2550 2 MP stroke
-20 184 7680 2550 2 MP stroke
246 -48 7434 2598 2 MP stroke
20 -184 7660 2734 2 MP stroke
-228 62 7888 2672 2 MP stroke
-16 190 7888 2672 2 MP stroke
228 -62 7660 2734 2 MP stroke
16 -190 7872 2862 2 MP stroke
-210 75 8082 2787 2 MP stroke
-10 196 8082 2787 2 MP stroke
210 -75 7872 2862 2 MP stroke
10 -196 8072 2983 2 MP stroke
-204 5 8276 2978 2 MP stroke
-1 205 8276 2978 2 MP stroke
204 -5 8072 2983 2 MP stroke
1 -205 8275 3183 2 MP stroke
-190 -5 8465 3188 2 MP stroke
11 213 8465 3188 2 MP stroke
190 5 8275 3183 2 MP stroke
-11 -213 8476 3401 2 MP stroke
-174 -18 8650 3419 2 MP stroke
23 221 8650 3419 2 MP stroke
174 18 8476 3401 2 MP stroke
-23 -221 8673 3640 2 MP stroke
-331 -62 8829 3673 2 MP stroke
-156 -33 8829 3673 2 MP stroke
37 225 8829 3673 2 MP stroke
331 62 8498 3611 2 MP stroke
156 33 8673 3640 2 MP stroke
-37 -225 8866 3898 2 MP stroke
-653 102 6259 1220 2 MP stroke
-336 41 6259 1220 2 MP stroke
28 129 6259 1220 2 MP stroke
653 -102 5606 1322 2 MP stroke
336 -41 5923 1261 2 MP stroke
-28 -129 6287 1349 2 MP stroke
-331 20 6618 1329 2 MP stroke
8 143 6618 1329 2 MP stroke
331 -20 6287 1349 2 MP stroke
-8 -143 6626 1472 2 MP stroke
-318 0 6944 1472 2 MP stroke
-6 154 6944 1472 2 MP stroke
318 0 6626 1472 2 MP stroke
6 -154 6938 1626 2 MP stroke
-607 -19 7239 1645 2 MP stroke
-301 -19 7239 1645 2 MP stroke
607 19 6632 1626 2 MP stroke
301 19 6938 1626 2 MP stroke
-516 83 7706 2372 2 MP stroke
-253 49 7706 2372 2 MP stroke
-26 178 7706 2372 2 MP stroke
516 -83 7190 2455 2 MP stroke
253 -49 7453 2421 2 MP stroke
26 -178 7680 2550 2 MP stroke
-233 64 7913 2486 2 MP stroke
-25 186 7913 2486 2 MP stroke
233 -64 7680 2550 2 MP stroke
25 -186 7888 2672 2 MP stroke
-213 77 8101 2595 2 MP stroke
-19 192 8101 2595 2 MP stroke
213 -77 7888 2672 2 MP stroke
19 -192 8082 2787 2 MP stroke
-205 13 8287 2774 2 MP stroke
-11 204 8287 2774 2 MP stroke
205 -13 8082 2787 2 MP stroke
11 -204 8276 2978 2 MP stroke
-190 5 8466 2973 2 MP stroke
-1 215 8466 2973 2 MP stroke
190 -5 8276 2978 2 MP stroke
1 -215 8465 3188 2 MP stroke
-173 -6 8638 3194 2 MP stroke
12 225 8638 3194 2 MP stroke
173 6 8465 3188 2 MP stroke
-12 -225 8650 3419 2 MP stroke
-329 -39 8805 3440 2 MP stroke
-155 -21 8805 3440 2 MP stroke
24 233 8805 3440 2 MP stroke
329 39 8476 3401 2 MP stroke
155 21 8650 3419 2 MP stroke
-24 -233 8829 3673 2 MP stroke
-685 61 6608 1200 2 MP stroke
-349 20 6608 1200 2 MP stroke
10 129 6608 1200 2 MP stroke
685 -61 5923 1261 2 MP stroke
349 -20 6259 1220 2 MP stroke
-10 -129 6618 1329 2 MP stroke
-334 0 6952 1329 2 MP stroke
-8 143 6952 1329 2 MP stroke
334 0 6618 1329 2 MP stroke
8 -143 6944 1472 2 MP stroke
-316 -19 7260 1491 2 MP stroke
-21 154 7260 1491 2 MP stroke
316 19 6944 1472 2 MP stroke
21 -154 7239 1645 2 MP stroke
-592 -56 7530 1682 2 MP stroke
-291 -37 7530 1682 2 MP stroke
592 56 6938 1626 2 MP stroke
291 37 7239 1645 2 MP stroke
-493 113 7946 2308 2 MP stroke
-240 64 7946 2308 2 MP stroke
-33 178 7946 2308 2 MP stroke
493 -113 7453 2421 2 MP stroke
240 -64 7706 2372 2 MP stroke
33 -178 7913 2486 2 MP stroke
-217 78 8130 2408 2 MP stroke
-29 187 8130 2408 2 MP stroke
217 -78 7913 2486 2 MP stroke
29 -187 8101 2595 2 MP stroke
-207 22 8308 2573 2 MP stroke
-21 201 8308 2573 2 MP stroke
207 -22 8101 2595 2 MP stroke
21 -201 8287 2774 2 MP stroke
-190 15 8477 2759 2 MP stroke
-11 214 8477 2759 2 MP stroke
190 -15 8287 2774 2 MP stroke
11 -214 8466 2973 2 MP stroke
-173 6 8639 2967 2 MP stroke
-1 227 8639 2967 2 MP stroke
173 -6 8466 2973 2 MP stroke
1 -227 8638 3194 2 MP stroke
-329 -14 8794 3202 2 MP stroke
-156 -8 8794 3202 2 MP stroke
11 238 8794 3202 2 MP stroke
329 14 8465 3188 2 MP stroke
156 8 8638 3194 2 MP stroke
-11 -238 8805 3440 2 MP stroke
-703 20 6962 1200 2 MP stroke
-354 0 6962 1200 2 MP stroke
-10 129 6962 1200 2 MP stroke
703 -20 6259 1220 2 MP stroke
354 0 6608 1200 2 MP stroke
10 -129 6952 1329 2 MP stroke
-331 -20 7283 1349 2 MP stroke
-23 142 7283 1349 2 MP stroke
331 20 6952 1329 2 MP stroke
23 -142 7260 1491 2 MP stroke
-304 -37 7564 1528 2 MP stroke
-34 154 7564 1528 2 MP stroke
304 37 7260 1491 2 MP stroke
34 -154 7530 1682 2 MP stroke
-565 -92 7804 1737 2 MP stroke
-274 -55 7804 1737 2 MP stroke
565 92 7239 1645 2 MP stroke
274 55 7530 1682 2 MP stroke
-222 80 8168 2228 2 MP stroke
-38 180 8168 2228 2 MP stroke
222 -80 7946 2308 2 MP stroke
38 -180 8130 2408 2 MP stroke
-211 30 8341 2378 2 MP stroke
-33 195 8341 2378 2 MP stroke
211 -30 8130 2408 2 MP stroke
33 -195 8308 2573 2 MP stroke
-193 25 8501 2548 2 MP stroke
-24 211 8501 2548 2 MP stroke
193 -25 8308 2573 2 MP stroke
24 -211 8477 2759 2 MP stroke
-174 17 8651 2742 2 MP stroke
-12 225 8651 2742 2 MP stroke
174 -17 8477 2759 2 MP stroke
12 -225 8639 2967 2 MP stroke
-328 11 8794 2962 2 MP stroke
-155 5 8794 2962 2 MP stroke
0 240 8794 2962 2 MP stroke
328 -11 8466 2973 2 MP stroke
155 -5 8639 2967 2 MP stroke
0 -240 8794 3202 2 MP stroke
-703 -20 7311 1220 2 MP stroke
-349 -20 7311 1220 2 MP stroke
-28 129 7311 1220 2 MP stroke
703 20 6608 1200 2 MP stroke
349 20 6962 1200 2 MP stroke
28 -129 7283 1349 2 MP stroke
-320 -39 7603 1388 2 MP stroke
-39 140 7603 1388 2 MP stroke
320 39 7283 1349 2 MP stroke
39 -140 7564 1528 2 MP stroke
-286 -56 7850 1584 2 MP stroke
-46 153 7850 1584 2 MP stroke
286 56 7564 1528 2 MP stroke
46 -153 7804 1737 2 MP stroke
-524 -126 8054 1808 2 MP stroke
-250 -71 8054 1808 2 MP stroke
524 126 7530 1682 2 MP stroke
250 71 7804 1737 2 MP stroke
-281 244 8227 2064 2 MP stroke
-59 164 8227 2064 2 MP stroke
281 -244 7946 2308 2 MP stroke
59 -164 8168 2228 2 MP stroke
-216 37 8384 2191 2 MP stroke
-43 187 8384 2191 2 MP stroke
216 -37 8168 2228 2 MP stroke
43 -187 8341 2378 2 MP stroke
-195 34 8536 2344 2 MP stroke
-35 204 8536 2344 2 MP stroke
195 -34 8341 2378 2 MP stroke
35 -204 8501 2548 2 MP stroke
-175 28 8676 2520 2 MP stroke
-25 222 8676 2520 2 MP stroke
175 -28 8501 2548 2 MP stroke
25 -222 8651 2742 2 MP stroke
-330 36 8807 2723 2 MP stroke
-156 19 8807 2723 2 MP stroke
-13 239 8807 2723 2 MP stroke
330 -36 8477 2759 2 MP stroke
156 -19 8651 2742 2 MP stroke
13 -239 8794 2962 2 MP stroke
-685 -61 7647 1261 2 MP stroke
-336 -41 7647 1261 2 MP stroke
-44 127 7647 1261 2 MP stroke
685 61 6962 1200 2 MP stroke
336 41 7311 1220 2 MP stroke
44 -127 7603 1388 2 MP stroke
-300 -57 7903 1445 2 MP stroke
-53 139 7903 1445 2 MP stroke
300 57 7603 1388 2 MP stroke
53 -139 7850 1584 2 MP stroke
-261 -73 8111 1657 2 MP stroke
-57 151 8111 1657 2 MP stroke
261 73 7850 1584 2 MP stroke
57 -151 8054 1808 2 MP stroke
-219 -86 8273 1894 2 MP stroke
-46 170 8273 1894 2 MP stroke
219 86 8054 1808 2 MP stroke
46 -170 8227 2064 2 MP stroke
-222 43 8449 2021 2 MP stroke
-65 170 8449 2021 2 MP stroke
222 -43 8227 2064 2 MP stroke
65 -170 8384 2191 2 MP stroke
-198 43 8582 2148 2 MP stroke
-46 196 8582 2148 2 MP stroke
198 -43 8384 2191 2 MP stroke
46 -196 8536 2344 2 MP stroke
-177 38 8713 2306 2 MP stroke
-37 214 8713 2306 2 MP stroke
177 -38 8536 2344 2 MP stroke
37 -214 8676 2520 2 MP stroke
-331 59 8832 2489 2 MP stroke
-156 31 8832 2489 2 MP stroke
-25 234 8832 2489 2 MP stroke
331 -59 8501 2548 2 MP stroke
156 -31 8676 2520 2 MP stroke
25 -234 8807 2723 2 MP stroke
-653 -102 7964 1322 2 MP stroke
-317 -61 7964 1322 2 MP stroke
-61 123 7964 1322 2 MP stroke
653 102 7311 1220 2 MP stroke
317 61 7647 1261 2 MP stroke
61 -123 7903 1445 2 MP stroke
-274 -75 8177 1520 2 MP stroke
-66 137 8177 1520 2 MP stroke
274 75 7903 1445 2 MP stroke
66 -137 8111 1657 2 MP stroke
-229 -88 8340 1745 2 MP stroke
-67 149 8340 1745 2 MP stroke
229 88 8111 1657 2 MP stroke
67 -149 8273 1894 2 MP stroke
-229 51 8502 1843 2 MP stroke
-53 178 8502 1843 2 MP stroke
229 -51 8273 1894 2 MP stroke
53 -178 8449 2021 2 MP stroke
-205 50 8654 1971 2 MP stroke
-72 177 8654 1971 2 MP stroke
205 -50 8449 2021 2 MP stroke
72 -177 8582 2148 2 MP stroke
-180 48 8762 2100 2 MP stroke
-49 206 8762 2100 2 MP stroke
180 -48 8582 2148 2 MP stroke
49 -206 8713 2306 2 MP stroke
-334 82 8870 2262 2 MP stroke
-157 44 8870 2262 2 MP stroke
-38 227 8870 2262 2 MP stroke
334 -82 8536 2344 2 MP stroke
157 -44 8713 2306 2 MP stroke
38 -227 8832 2489 2 MP stroke
-607 -139 8254 1400 2 MP stroke
-290 -78 8254 1400 2 MP stroke
-77 120 8254 1400 2 MP stroke
607 139 7647 1261 2 MP stroke
290 78 7964 1322 2 MP stroke
77 -120 8177 1520 2 MP stroke
-241 -91 8418 1611 2 MP stroke
-78 134 8418 1611 2 MP stroke
241 91 8177 1520 2 MP stroke
78 -134 8340 1745 2 MP stroke
-238 56 8578 1689 2 MP stroke
-76 154 8578 1689 2 MP stroke
238 -56 8340 1745 2 MP stroke
76 -154 8502 1843 2 MP stroke
-209 57 8711 1786 2 MP stroke
-57 185 8711 1786 2 MP stroke
209 -57 8502 1843 2 MP stroke
57 -185 8654 1971 2 MP stroke
-183 57 8837 1914 2 MP stroke
-75 186 8837 1914 2 MP stroke
183 -57 8654 1971 2 MP stroke
75 -186 8762 2100 2 MP stroke
-339 103 8921 2045 2 MP stroke
-159 55 8921 2045 2 MP stroke
-51 217 8921 2045 2 MP stroke
339 -103 8582 2148 2 MP stroke
159 -55 8762 2100 2 MP stroke
51 -217 8870 2262 2 MP stroke
-544 -173 8508 1495 2 MP stroke
-254 -95 8508 1495 2 MP stroke
-90 116 8508 1495 2 MP stroke
544 173 7964 1322 2 MP stroke
254 95 8254 1400 2 MP stroke
90 -116 8418 1611 2 MP stroke
-248 59 8666 1552 2 MP stroke
-88 137 8666 1552 2 MP stroke
248 -59 8418 1611 2 MP stroke
88 -137 8578 1689 2 MP stroke
-216 64 8794 1625 2 MP stroke
-83 161 8794 1625 2 MP stroke
216 -64 8578 1689 2 MP stroke
83 -161 8711 1786 2 MP stroke
-187 66 8898 1720 2 MP stroke
-61 194 8898 1720 2 MP stroke
187 -66 8711 1786 2 MP stroke
61 -194 8837 1914 2 MP stroke
-345 121 8999 1850 2 MP stroke
-162 64 8999 1850 2 MP stroke
-78 195 8999 1850 2 MP stroke
345 -121 8654 1971 2 MP stroke
162 -64 8837 1914 2 MP stroke
78 -195 8921 2045 2 MP stroke
-513 -34 8767 1434 2 MP stroke
-259 61 8767 1434 2 MP stroke
-101 118 8767 1434 2 MP stroke
513 34 8254 1400 2 MP stroke
259 -61 8508 1495 2 MP stroke
101 -118 8666 1552 2 MP stroke
-224 68 8890 1484 2 MP stroke
-96 141 8890 1484 2 MP stroke
224 -68 8666 1552 2 MP stroke
96 -141 8794 1625 2 MP stroke
-191 72 8985 1553 2 MP stroke
-87 167 8985 1553 2 MP stroke
191 -72 8794 1625 2 MP stroke
87 -167 8898 1720 2 MP stroke
-349 139 9060 1647 2 MP stroke
-162 73 9060 1647 2 MP stroke
-61 203 9060 1647 2 MP stroke
349 -139 8711 1786 2 MP stroke
162 -73 8898 1720 2 MP stroke
61 -203 8999 1850 2 MP stroke
-492 131 9000 1364 2 MP stroke
-233 70 9000 1364 2 MP stroke
-110 120 9000 1364 2 MP stroke
492 -131 8508 1495 2 MP stroke
233 -70 8767 1434 2 MP stroke
110 -120 8890 1484 2 MP stroke
-197 77 9087 1407 2 MP stroke
-102 146 9087 1407 2 MP stroke
197 -77 8890 1484 2 MP stroke
102 -146 8985 1553 2 MP stroke
-356 152 9150 1473 2 MP stroke
-165 80 9150 1473 2 MP stroke
-90 174 9150 1473 2 MP stroke
356 -152 8794 1625 2 MP stroke
165 -80 8985 1553 2 MP stroke
90 -174 9060 1647 2 MP stroke
-436 150 9203 1284 2 MP stroke
-203 80 9203 1284 2 MP stroke
-116 123 9203 1284 2 MP stroke
436 -150 8767 1434 2 MP stroke
203 -80 9000 1364 2 MP stroke
116 -123 9087 1407 2 MP stroke
-365 162 9255 1322 2 MP stroke
-168 85 9255 1322 2 MP stroke
-105 151 9255 1322 2 MP stroke
365 -162 8890 1484 2 MP stroke
168 -85 9087 1407 2 MP stroke
105 -151 9150 1473 2 MP stroke
-375 168 9375 1196 2 MP stroke
-288 211 9375 1196 2 MP stroke
-172 88 9375 1196 2 MP stroke
-120 126 9375 1196 2 MP stroke
375 -168 9000 1364 2 MP stroke
288 -211 9087 1407 2 MP stroke
172 -88 9203 1284 2 MP stroke
120 -126 9255 1322 2 MP stroke
gr

c10

end %%Color Dict

eplot
%%EndObject

epage
end

showpage

%%Trailer
%%EOF
