\relax 
\@writefile{toc}{\contentsline {chapter}{\numberline {4}State Generalization on Complex Domains}{20}}
\@writefile{lof}{\addvspace {10\p@ }}
\@writefile{lot}{\addvspace {10\p@ }}
\newlabel{chap:mNN-UCT}{{4}{20}}
\newlabel{fig:grid_wall}{{4.1(a)}{20}}
\newlabel{sub@fig:grid_wall}{{(a)}{20}}
\newlabel{fig:mani}{{4.1(b)}{20}}
\newlabel{sub@fig:mani}{{(b)}{20}}
\@writefile{lof}{\contentsline {figure}{\numberline {4.1}{\ignorespaces Grid World with Wall\relax }}{20}}
\newlabel{fig:grid_world_wall}{{4.1}{20}}
\citation{ma2012manifold}
\newlabel{fig:twoD}{{4.2(a)}{21}}
\newlabel{sub@fig:twoD}{{(a)}{21}}
\newlabel{fig:swiss_roll}{{4.2(b)}{21}}
\newlabel{sub@fig:swiss_roll}{{(b)}{21}}
\@writefile{lof}{\contentsline {figure}{\numberline {4.2}{\ignorespaces 2D data and its 3D mapping\relax }}{21}}
\@writefile{toc}{\contentsline {section}{\numberline {4.1}Manifolds}{21}}
\newlabel{sec:mani}{{4.1}{21}}
\@writefile{toc}{\contentsline {section}{\numberline {4.2}Manifold Learning}{21}}
\citation{tenenbaum2000global}
\@writefile{toc}{\contentsline {subsection}{\numberline {4.2.1}Isomap}{22}}
\newlabel{subsec:isomap}{{4.2.1}{22}}
\@writefile{loa}{\contentsline {algorithm}{\numberline {3}{\ignorespaces Isomap algorithm\relax }}{22}}
\newlabel{alg:isomap}{{3}{22}}
\@writefile{toc}{\contentsline {subsection}{\numberline {4.2.2}Local Manifolds}{23}}
\@writefile{toc}{\contentsline {section}{\numberline {4.3}mNN-UCT}{24}}
\@writefile{toc}{\contentsline {subsection}{\numberline {4.3.1}Discussion}{24}}
\citation{mahadevan2007proto}
\citation{jiang2014improving}
\@writefile{toc}{\contentsline {section}{\numberline {4.4}Related Work}{25}}
\@setckpt{mnnUCT}{
\setcounter{page}{27}
\setcounter{equation}{0}
\setcounter{enumi}{2}
\setcounter{enumii}{0}
\setcounter{enumiii}{0}
\setcounter{enumiv}{0}
\setcounter{footnote}{0}
\setcounter{mpfootnote}{0}
\setcounter{part}{0}
\setcounter{chapter}{4}
\setcounter{section}{4}
\setcounter{subsection}{0}
\setcounter{subsubsection}{0}
\setcounter{paragraph}{0}
\setcounter{subparagraph}{0}
\setcounter{figure}{2}
\setcounter{table}{0}
\setcounter{parentequation}{0}
\setcounter{ContinuedFloat}{0}
\setcounter{subfigure}{2}
\setcounter{subtable}{0}
\setcounter{NAT@ctr}{0}
\setcounter{thmt@dummyctr}{3}
\setcounter{float@type}{8}
\setcounter{algorithm}{3}
\setcounter{ALG@line}{15}
\setcounter{ALG@rem}{0}
\setcounter{ALG@nested}{0}
\setcounter{ALG@Lnr}{2}
\setcounter{ALG@blocknr}{10}
\setcounter{ALG@storecount}{0}
\setcounter{ALG@tmpcounter}{0}
\setcounter{lem}{2}
\setcounter{theorem}{1}
\setcounter{corollary}{0}
}
