\relax 
\select@language{english}
\@writefile{toc}{\select@language{english}}
\@writefile{lof}{\select@language{english}}
\@writefile{lot}{\select@language{english}}
\@input{intro.aux}
\@input{background.aux}
\@input{nnUCT.aux}
\@input{mnnUCT.aux}
\@input{experiments.aux}
\@input{conclusion.aux}
\bibstyle{apalike}
\bibdata{references}
\bibcite{auer2002finite}{{1}{2002}{{Auer et~al.}}{{}}}
\bibcite{browne2012survey}{{2}{2012}{{Browne et~al.}}{{}}}
\bibcite{childs2008transpositions}{{3}{2008}{{Childs et~al.}}{{}}}
\bibcite{couetoux2011continuous}{{4}{2011}{{Couetoux et~al.}}{{}}}
\bibcite{gelly2011monte}{{5}{2011}{{Gelly and Silver}}{{}}}
\bibcite{jiang2014improving}{{6}{2014}{{Jiang et~al.}}{{}}}
\bibcite{kocsis2006bandit}{{7}{2006}{{Kocsis and Szepesv{\'a}ri}}{{}}}
\bibcite{ma2012manifold}{{8}{2012}{{Ma and Fu}}{{}}}
\bibcite{mahadevan2007proto}{{9}{2007}{{Mahadevan and Maggioni}}{{}}}
\bibcite{mehat2010combining}{{10}{2010}{{M{\'e}hat and Cazenave}}{{}}}
\@writefile{toc}{\contentsline {chapter}{Bibliography}{37}}
\bibcite{oudeyer2007intrinsic}{{11}{2007}{{Oudeyer et~al.}}{{}}}
\bibcite{puterman2009markov}{{12}{2009}{{Puterman}}{{}}}
\bibcite{sutton1998introduction}{{13}{1998}{{Sutton and Barto}}{{}}}
\bibcite{sutton2011horde}{{14}{2011}{{Sutton et~al.}}{{}}}
\bibcite{tenenbaum2000global}{{15}{2000}{{Tenenbaum et~al.}}{{}}}
