\relax 
\@writefile{toc}{\contentsline {chapter}{\numberline {3}State Generalization in UCT}{13}}
\@writefile{lof}{\addvspace {10\p@ }}
\@writefile{lot}{\addvspace {10\p@ }}
\newlabel{chap:NN-UCT}{{3}{13}}
\newlabel{fig:grid_world}{{3.1(a)}{13}}
\newlabel{sub@fig:grid_world}{{(a)}{13}}
\newlabel{fig:uct_heatmap}{{3.1(b)}{13}}
\newlabel{sub@fig:uct_heatmap}{{(b)}{13}}
\newlabel{fig:nnuct_heatmap}{{3.1(c)}{13}}
\newlabel{sub@fig:nnuct_heatmap}{{(c)}{13}}
\@writefile{toc}{\contentsline {section}{\numberline {3.1}NN-UCT}{14}}
\newlabel{sec:nnUCT}{{3.1}{14}}
\@writefile{toc}{\contentsline {subsection}{\numberline {3.1.1}Decay Scheme}{15}}
\newlabel{sec:decay}{{3.1.1}{15}}
\@writefile{toc}{\contentsline {section}{\numberline {3.2}Theoretical Analysis}{16}}
\@writefile{loe}{\addvspace {10\p@ }}
\@writefile{loe}{\contentsline {lem}{\numberline {1}Lemma}{17}}
\newlabel{lem:tau}{{1}{17}}
\@writefile{loe}{\contentsline {lem}{\numberline {2}Lemma}{17}}
\newlabel{lem:full_dag}{{2}{17}}
\@writefile{loe}{\contentsline {theorem}{\numberline {1}Theorem}{17}}
\citation{jiang2014improving}
\citation{gelly2011monte}
\citation{couetoux2011continuous}
\@writefile{toc}{\contentsline {section}{\numberline {3.3}Related Work}{18}}
\newlabel{sec:rel_work}{{3.3}{18}}
\@setckpt{nnUCT}{
\setcounter{page}{20}
\setcounter{equation}{0}
\setcounter{enumi}{2}
\setcounter{enumii}{0}
\setcounter{enumiii}{0}
\setcounter{enumiv}{0}
\setcounter{footnote}{0}
\setcounter{mpfootnote}{0}
\setcounter{part}{0}
\setcounter{chapter}{3}
\setcounter{section}{3}
\setcounter{subsection}{0}
\setcounter{subsubsection}{0}
\setcounter{paragraph}{0}
\setcounter{subparagraph}{0}
\setcounter{figure}{1}
\setcounter{table}{0}
\setcounter{parentequation}{0}
\setcounter{ContinuedFloat}{0}
\setcounter{subfigure}{3}
\setcounter{subtable}{0}
\setcounter{NAT@ctr}{0}
\setcounter{thmt@dummyctr}{3}
\setcounter{float@type}{8}
\setcounter{algorithm}{2}
\setcounter{ALG@line}{24}
\setcounter{ALG@rem}{0}
\setcounter{ALG@nested}{0}
\setcounter{ALG@Lnr}{2}
\setcounter{ALG@blocknr}{10}
\setcounter{ALG@storecount}{0}
\setcounter{ALG@tmpcounter}{0}
\setcounter{lem}{2}
\setcounter{theorem}{1}
\setcounter{corollary}{0}
}
