%!PS-Adobe-2.0 EPSF-2.0
%%Title: /home/sriram/ferl/Thesis/Research/Thesis/plain_uct.dia
%%Creator: Dia v0.97.2
%%CreationDate: Wed Oct 15 11:10:33 2014
%%For: sriram
%%Orientation: Portrait
%%Magnification: 1.0000
%%BoundingBox: 0 0 807 622
%%BeginSetup
%%EndSetup
%%EndComments
%%BeginProlog
[ /.notdef /.notdef /.notdef /.notdef /.notdef /.notdef /.notdef /.notdef /.notdef /.notdef
/.notdef /.notdef /.notdef /.notdef /.notdef /.notdef /.notdef /.notdef /.notdef /.notdef
/.notdef /.notdef /.notdef /.notdef /.notdef /.notdef /.notdef /.notdef /.notdef /.notdef
/.notdef /.notdef /space /exclam /quotedbl /numbersign /dollar /percent /ampersand /quoteright
/parenleft /parenright /asterisk /plus /comma /hyphen /period /slash /zero /one
/two /three /four /five /six /seven /eight /nine /colon /semicolon
/less /equal /greater /question /at /A /B /C /D /E
/F /G /H /I /J /K /L /M /N /O
/P /Q /R /S /T /U /V /W /X /Y
/Z /bracketleft /backslash /bracketright /asciicircum /underscore /quoteleft /a /b /c
/d /e /f /g /h /i /j /k /l /m
/n /o /p /q /r /s /t /u /v /w
/x /y /z /braceleft /bar /braceright /asciitilde /.notdef /.notdef /.notdef
/.notdef /.notdef /.notdef /.notdef /.notdef /.notdef /.notdef /.notdef /.notdef /.notdef
/.notdef /.notdef /.notdef /.notdef /.notdef /.notdef /.notdef /.notdef /.notdef /.notdef
/.notdef /.notdef /.notdef /.notdef /.notdef /.notdef /.notdef /.notdef /.notdef /.notdef
/space /exclamdown /cent /sterling /currency /yen /brokenbar /section /dieresis /copyright
/ordfeminine /guillemotleft /logicalnot /hyphen /registered /macron /degree /plusminus /twosuperior /threesuperior
/acute /mu /paragraph /periodcentered /cedilla /onesuperior /ordmasculine /guillemotright /onequarter /onehalf
/threequarters /questiondown /Agrave /Aacute /Acircumflex /Atilde /Adieresis /Aring /AE /Ccedilla
/Egrave /Eacute /Ecircumflex /Edieresis /Igrave /Iacute /Icircumflex /Idieresis /Eth /Ntilde
/Ograve /Oacute /Ocircumflex /Otilde /Odieresis /multiply /Oslash /Ugrave /Uacute /Ucircumflex
/Udieresis /Yacute /Thorn /germandbls /agrave /aacute /acircumflex /atilde /adieresis /aring
/ae /ccedilla /egrave /eacute /ecircumflex /edieresis /igrave /iacute /icircumflex /idieresis
/eth /ntilde /ograve /oacute /ocircumflex /otilde /odieresis /divide /oslash /ugrave
/uacute /ucircumflex /udieresis /yacute /thorn /ydieresis] /isolatin1encoding exch def
/cp {closepath} bind def
/c {curveto} bind def
/f {fill} bind def
/a {arc} bind def
/ef {eofill} bind def
/ex {exch} bind def
/gr {grestore} bind def
/gs {gsave} bind def
/sa {save} bind def
/rs {restore} bind def
/l {lineto} bind def
/m {moveto} bind def
/rm {rmoveto} bind def
/n {newpath} bind def
/s {stroke} bind def
/sh {show} bind def
/slc {setlinecap} bind def
/slj {setlinejoin} bind def
/slw {setlinewidth} bind def
/srgb {setrgbcolor} bind def
/rot {rotate} bind def
/sc {scale} bind def
/sd {setdash} bind def
/ff {findfont} bind def
/sf {setfont} bind def
/scf {scalefont} bind def
/sw {stringwidth pop} bind def
/tr {translate} bind def

/ellipsedict 8 dict def
ellipsedict /mtrx matrix put
/ellipse
{ ellipsedict begin
   /endangle exch def
   /startangle exch def
   /yrad exch def
   /xrad exch def
   /y exch def
   /x exch def   /savematrix mtrx currentmatrix def
   x y tr xrad yrad sc
   0 0 1 startangle endangle arc
   savematrix setmatrix
   end
} def

/mergeprocs {
dup length
3 -1 roll
dup
length
dup
5 1 roll
3 -1 roll
add
array cvx
dup
3 -1 roll
0 exch
putinterval
dup
4 2 roll
putinterval
} bind def
/dpi_x 300 def
/dpi_y 300 def
/conicto {
    /to_y exch def
    /to_x exch def
    /conic_cntrl_y exch def
    /conic_cntrl_x exch def
    currentpoint
    /p0_y exch def
    /p0_x exch def
    /p1_x p0_x conic_cntrl_x p0_x sub 2 3 div mul add def
    /p1_y p0_y conic_cntrl_y p0_y sub 2 3 div mul add def
    /p2_x p1_x to_x p0_x sub 1 3 div mul add def
    /p2_y p1_y to_y p0_y sub 1 3 div mul add def
    p1_x p1_y p2_x p2_y to_x to_y curveto
} bind def
/start_ol { gsave 1.1 dpi_x div dup scale} bind def
/end_ol { closepath fill grestore } bind def
28.346000 -28.346000 scale
-13.560000 -26.075000 translate
%%EndProlog


0.100000 slw
[] 0 sd
[] 0 sd
0 slc
0 slj
0.100000 slw
0 slc
0 slj
[] 0 sd
1.000000 1.000000 1.000000 srgb
n 25.155000 7.260000 3.050000 3.050000 0 360 ellipse f
0.000000 0.000000 0.000000 srgb
n 25.155000 7.260000 3.050000 3.050000 0 360 ellipse cp s
0 slc
0 slj
[] 0 sd
n 25.155000 7.260000 3.050000 3.050000 0 360 ellipse cp s
0.100000 slw
[] 0 sd
[] 0 sd
0 slc
0 slj
0.100000 slw
0 slc
0 slj
[] 0 sd
1.000000 1.000000 1.000000 srgb
n 16.660000 14.715000 3.050000 3.050000 0 360 ellipse f
0.000000 0.000000 0.000000 srgb
n 16.660000 14.715000 3.050000 3.050000 0 360 ellipse cp s
0 slc
0 slj
[] 0 sd
n 16.660000 14.715000 3.050000 3.050000 0 360 ellipse cp s
0.100000 slw
[] 0 sd
[] 0 sd
0 slc
0 slj
0.100000 slw
0 slc
0 slj
[] 0 sd
1.000000 1.000000 1.000000 srgb
n 33.165000 15.120000 3.050000 3.050000 0 360 ellipse f
0.000000 0.000000 0.000000 srgb
n 33.165000 15.120000 3.050000 3.050000 0 360 ellipse cp s
0 slc
0 slj
[] 0 sd
n 33.165000 15.120000 3.050000 3.050000 0 360 ellipse cp s
0.100000 slw
[] 0 sd
[] 0 sd
0 slc
0 slj
0.100000 slw
0 slc
0 slj
[] 0 sd
1.000000 1.000000 1.000000 srgb
n 38.920000 22.975000 3.050000 3.050000 0 360 ellipse f
0.000000 0.000000 0.000000 srgb
n 38.920000 22.975000 3.050000 3.050000 0 360 ellipse cp s
0 slc
0 slj
[] 0 sd
n 38.920000 22.975000 3.050000 3.050000 0 360 ellipse cp s
gsave 32.210000 14.260000 translate 0.035278 -0.035278 scale
start_ol
2816 3456 moveto
2816 2880 lineto
2579 3008 2323 3072 conicto
2068 3136 1794 3136 conicto
1377 3136 1168 3005 conicto
960 2874 960 2612 conicto
960 2412 1110 2298 conicto
1260 2184 1713 2081 conicto
1906 2038 lineto
2504 1906 2756 1666 conicto
3008 1426 3008 996 conicto
3008 507 2629 221 conicto
2251 -64 1589 -64 conicto
1313 -64 1014 0 conicto
715 64 384 192 conicto
384 768 lineto
697 608 1001 528 conicto
1305 448 1603 448 conicto
2002 448 2217 585 conicto
2432 722 2432 971 conicto
2432 1201 2277 1324 conicto
2123 1447 1600 1561 conicto
1404 1607 lineto
864 1721 624 1956 conicto
384 2192 384 2604 conicto
384 3104 729 3376 conicto
1075 3648 1711 3648 conicto
2026 3648 2303 3600 conicto
2581 3552 2816 3456 conicto
end_ol grestore 
gsave 32.649589 14.260000 translate 0.035278 -0.035278 scale
start_ol
1250 512 moveto
3481 512 lineto
3481 0 lineto
512 0 lineto
512 512 lineto
872 893 1492 1534 conicto
2113 2176 2272 2362 conicto
2575 2710 2695 2952 conicto
2816 3194 2816 3427 conicto
2816 3808 2551 4048 conicto
2287 4288 1862 4288 conicto
1561 4288 1226 4177 conicto
892 4066 512 3840 conicto
512 4480 lineto
898 4638 1233 4719 conicto
1569 4800 1848 4800 conicto
2582 4800 3019 4431 conicto
3456 4063 3456 3447 conicto
3456 3155 3347 2893 conicto
3238 2631 2950 2275 conicto
2870 2183 2446 1743 conicto
2022 1303 1250 512 conicto
end_ol grestore 
gsave 32.210000 15.318333 translate 0.035278 -0.035278 scale
start_ol
3520 2149 moveto
3520 0 lineto
2944 0 lineto
2944 2130 lineto
2944 2635 2748 2885 conicto
2553 3136 2163 3136 conicto
1694 3136 1423 2834 conicto
1152 2533 1152 2013 conicto
1152 0 lineto
576 0 lineto
576 3520 lineto
1152 3520 lineto
1152 3008 lineto
1360 3330 1641 3489 conicto
1922 3648 2290 3648 conicto
2897 3648 3208 3267 conicto
3520 2887 3520 2149 conicto
end_ol grestore 
gsave 32.746997 15.318333 translate 0.035278 -0.035278 scale
start_ol
end_ol grestore 
gsave 33.016739 15.318333 translate 0.035278 -0.035278 scale
start_ol
704 2880 moveto
4736 2880 lineto
4736 2368 lineto
704 2368 lineto
704 2880 lineto
704 1600 moveto
4736 1600 lineto
4736 1088 lineto
704 1088 lineto
704 1600 lineto
end_ol grestore 
gsave 33.726071 15.318333 translate 0.035278 -0.035278 scale
start_ol
end_ol grestore 
gsave 33.995813 15.318333 translate 0.035278 -0.035278 scale
start_ol
512 4672 moveto
3520 4672 lineto
3520 4403 lineto
1816 0 lineto
1152 0 lineto
2756 4160 lineto
512 4160 lineto
512 4672 lineto
end_ol grestore 
gsave 32.210000 16.376667 translate 0.035278 -0.035278 scale
start_ol
2809 2197 moveto
3006 2128 3192 1902 conicto
3378 1677 3566 1283 conicto
4224 0 lineto
3530 0 lineto
2956 1204 lineto
2723 1676 2504 1830 conicto
2286 1984 1908 1984 conicto
1216 1984 lineto
1216 0 lineto
576 0 lineto
576 4672 lineto
2015 4672 lineto
2806 4672 3195 4338 conicto
3584 4004 3584 3330 conicto
3584 2890 3385 2599 conicto
3187 2309 2809 2197 conicto
1216 4160 moveto
1216 2496 lineto
2015 2496 lineto
2475 2496 2709 2708 conicto
2944 2920 2944 3331 conicto
2944 3742 2709 3951 conicto
2475 4160 2015 4160 conicto
1216 4160 lineto
end_ol grestore 
gsave 32.796945 16.376667 translate 0.035278 -0.035278 scale
start_ol
end_ol grestore 
gsave 33.066688 16.376667 translate 0.035278 -0.035278 scale
start_ol
704 2880 moveto
4736 2880 lineto
4736 2368 lineto
704 2368 lineto
704 2880 lineto
704 1600 moveto
4736 1600 lineto
4736 1088 lineto
704 1088 lineto
704 1600 lineto
end_ol grestore 
gsave 33.776019 16.376667 translate 0.035278 -0.035278 scale
start_ol
end_ol grestore 
gsave 34.045762 16.376667 translate 0.035278 -0.035278 scale
start_ol
832 512 moveto
1856 512 lineto
1856 4160 lineto
704 3904 lineto
704 4416 lineto
1848 4672 lineto
2496 4672 lineto
2496 512 lineto
3520 512 lineto
3520 0 lineto
832 0 lineto
832 512 lineto
end_ol grestore 
gsave 34.582759 16.376667 translate 0.035278 -0.035278 scale
start_ol
768 768 moveto
1408 768 lineto
1408 0 lineto
768 0 lineto
768 768 lineto
end_ol grestore 
gsave 34.852501 16.376667 translate 0.035278 -0.035278 scale
start_ol
512 4672 moveto
3520 4672 lineto
3520 4403 lineto
1816 0 lineto
1152 0 lineto
2756 4160 lineto
512 4160 lineto
512 4672 lineto
end_ol grestore 
gsave 37.710000 22.102500 translate 0.035278 -0.035278 scale
start_ol
2816 3456 moveto
2816 2880 lineto
2579 3008 2323 3072 conicto
2068 3136 1794 3136 conicto
1377 3136 1168 3005 conicto
960 2874 960 2612 conicto
960 2412 1110 2298 conicto
1260 2184 1713 2081 conicto
1906 2038 lineto
2504 1906 2756 1666 conicto
3008 1426 3008 996 conicto
3008 507 2629 221 conicto
2251 -64 1589 -64 conicto
1313 -64 1014 0 conicto
715 64 384 192 conicto
384 768 lineto
697 608 1001 528 conicto
1305 448 1603 448 conicto
2002 448 2217 585 conicto
2432 722 2432 971 conicto
2432 1201 2277 1324 conicto
2123 1447 1600 1561 conicto
1404 1607 lineto
864 1721 624 1956 conicto
384 2192 384 2604 conicto
384 3104 729 3376 conicto
1075 3648 1711 3648 conicto
2026 3648 2303 3600 conicto
2581 3552 2816 3456 conicto
end_ol grestore 
gsave 38.149589 22.102500 translate 0.035278 -0.035278 scale
start_ol
2432 4116 moveto
834 1600 lineto
2432 1600 lineto
2432 4116 lineto
2273 4672 moveto
3072 4672 lineto
3072 1600 lineto
3712 1600 lineto
3712 1088 lineto
3072 1088 lineto
3072 0 lineto
2432 0 lineto
2432 1088 lineto
320 1088 lineto
320 1701 lineto
2273 4672 lineto
end_ol grestore 
gsave 37.710000 23.160833 translate 0.035278 -0.035278 scale
start_ol
3520 2149 moveto
3520 0 lineto
2944 0 lineto
2944 2130 lineto
2944 2635 2748 2885 conicto
2553 3136 2163 3136 conicto
1694 3136 1423 2834 conicto
1152 2533 1152 2013 conicto
1152 0 lineto
576 0 lineto
576 3520 lineto
1152 3520 lineto
1152 3008 lineto
1360 3330 1641 3489 conicto
1922 3648 2290 3648 conicto
2897 3648 3208 3267 conicto
3520 2887 3520 2149 conicto
end_ol grestore 
gsave 38.246997 23.160833 translate 0.035278 -0.035278 scale
start_ol
end_ol grestore 
gsave 38.516739 23.160833 translate 0.035278 -0.035278 scale
start_ol
704 2880 moveto
4736 2880 lineto
4736 2368 lineto
704 2368 lineto
704 2880 lineto
704 1600 moveto
4736 1600 lineto
4736 1088 lineto
704 1088 lineto
704 1600 lineto
end_ol grestore 
gsave 39.226071 23.160833 translate 0.035278 -0.035278 scale
start_ol
end_ol grestore 
gsave 39.495813 23.160833 translate 0.035278 -0.035278 scale
start_ol
1250 512 moveto
3481 512 lineto
3481 0 lineto
512 0 lineto
512 512 lineto
872 893 1492 1534 conicto
2113 2176 2272 2362 conicto
2575 2710 2695 2952 conicto
2816 3194 2816 3427 conicto
2816 3808 2551 4048 conicto
2287 4288 1862 4288 conicto
1561 4288 1226 4177 conicto
892 4066 512 3840 conicto
512 4480 lineto
898 4638 1233 4719 conicto
1569 4800 1848 4800 conicto
2582 4800 3019 4431 conicto
3456 4063 3456 3447 conicto
3456 3155 3347 2893 conicto
3238 2631 2950 2275 conicto
2870 2183 2446 1743 conicto
2022 1303 1250 512 conicto
end_ol grestore 
gsave 37.710000 24.219167 translate 0.035278 -0.035278 scale
start_ol
2809 2197 moveto
3006 2128 3192 1902 conicto
3378 1677 3566 1283 conicto
4224 0 lineto
3530 0 lineto
2956 1204 lineto
2723 1676 2504 1830 conicto
2286 1984 1908 1984 conicto
1216 1984 lineto
1216 0 lineto
576 0 lineto
576 4672 lineto
2015 4672 lineto
2806 4672 3195 4338 conicto
3584 4004 3584 3330 conicto
3584 2890 3385 2599 conicto
3187 2309 2809 2197 conicto
1216 4160 moveto
1216 2496 lineto
2015 2496 lineto
2475 2496 2709 2708 conicto
2944 2920 2944 3331 conicto
2944 3742 2709 3951 conicto
2475 4160 2015 4160 conicto
1216 4160 lineto
end_ol grestore 
gsave 38.296945 24.219167 translate 0.035278 -0.035278 scale
start_ol
end_ol grestore 
gsave 38.566688 24.219167 translate 0.035278 -0.035278 scale
start_ol
704 2880 moveto
4736 2880 lineto
4736 2368 lineto
704 2368 lineto
704 2880 lineto
704 1600 moveto
4736 1600 lineto
4736 1088 lineto
704 1088 lineto
704 1600 lineto
end_ol grestore 
gsave 39.276019 24.219167 translate 0.035278 -0.035278 scale
start_ol
end_ol grestore 
gsave 39.545762 24.219167 translate 0.035278 -0.035278 scale
start_ol
2046 4288 moveto
1569 4288 1328 3808 conicto
1088 3329 1088 2366 conicto
1088 1407 1328 927 conicto
1569 448 2046 448 conicto
2527 448 2767 927 conicto
3008 1407 3008 2366 conicto
3008 3329 2767 3808 conicto
2527 4288 2046 4288 conicto
2048 4800 moveto
2826 4800 3237 4176 conicto
3648 3553 3648 2366 conicto
3648 1183 3237 559 conicto
2826 -64 2048 -64 conicto
1270 -64 859 559 conicto
448 1183 448 2366 conicto
448 3553 859 4176 conicto
1270 4800 2048 4800 conicto
end_ol grestore 
0.100000 slw
[] 0 sd
[] 0 sd
0 slc
n 22.615934 9.039199 m 18.703668 11.780641 l s
[] 0 sd
0 slj
0 slc
n 18.396562 11.995840 m 18.662571 11.504171 l 18.703668 11.780641 l 18.949503 11.913646 l ef
n 18.396562 11.995840 m 18.662571 11.504171 l 18.703668 11.780641 l 18.949503 11.913646 l cp s
0.100000 slw
[] 0 sd
[] 0 sd
0 slc
n 27.449678 9.344332 m 30.794659 12.382690 l s
[] 0 sd
0 slj
0 slc
n 31.072241 12.634827 m 30.534040 12.483699 l 30.794659 12.382690 l 30.870223 12.113590 l ef
n 31.072241 12.634827 m 30.534040 12.483699 l 30.794659 12.382690 l 30.870223 12.113590 l cp s
0.100000 slw
[] 0 sd
[] 0 sd
0 slc
0 slj
0.100000 slw
0 slc
0 slj
[] 0 sd
1.000000 1.000000 1.000000 srgb
n 26.805000 22.767500 3.050000 3.050000 0 360 ellipse f
0.000000 0.000000 0.000000 srgb
n 26.805000 22.767500 3.050000 3.050000 0 360 ellipse cp s
0 slc
0 slj
[] 0 sd
n 26.805000 22.767500 3.050000 3.050000 0 360 ellipse cp s
0.100000 slw
[] 0 sd
[] 0 sd
0 slc
n 35.421592 17.226079 m 37.944114 19.580351 l s
[] 0 sd
0 slj
0 slc
n 38.218264 19.836216 m 37.682154 19.677830 l 37.944114 19.580351 l 38.023307 19.312296 l ef
n 38.218264 19.836216 m 37.682154 19.677830 l 37.944114 19.580351 l 38.023307 19.312296 l cp s
0.100000 slw
[] 0 sd
[] 0 sd
0 slc
n 30.500000 16.912500 m 27.811543 19.336518 l s
[] 0 sd
0 slj
0 slc
n 27.533035 19.587632 m 27.736970 19.067142 l 27.811543 19.336518 l 28.071789 19.438486 l ef
n 27.533035 19.587632 m 27.736970 19.067142 l 27.811543 19.336518 l 28.071789 19.438486 l cp s
gsave 15.655000 13.855000 translate 0.035278 -0.035278 scale
start_ol
2816 3456 moveto
2816 2880 lineto
2579 3008 2323 3072 conicto
2068 3136 1794 3136 conicto
1377 3136 1168 3005 conicto
960 2874 960 2612 conicto
960 2412 1110 2298 conicto
1260 2184 1713 2081 conicto
1906 2038 lineto
2504 1906 2756 1666 conicto
3008 1426 3008 996 conicto
3008 507 2629 221 conicto
2251 -64 1589 -64 conicto
1313 -64 1014 0 conicto
715 64 384 192 conicto
384 768 lineto
697 608 1001 528 conicto
1305 448 1603 448 conicto
2002 448 2217 585 conicto
2432 722 2432 971 conicto
2432 1201 2277 1324 conicto
2123 1447 1600 1561 conicto
1404 1607 lineto
864 1721 624 1956 conicto
384 2192 384 2604 conicto
384 3104 729 3376 conicto
1075 3648 1711 3648 conicto
2026 3648 2303 3600 conicto
2581 3552 2816 3456 conicto
end_ol grestore 
gsave 16.094589 13.855000 translate 0.035278 -0.035278 scale
start_ol
2599 2518 moveto
3063 2422 3323 2118 conicto
3584 1815 3584 1369 conicto
3584 685 3109 310 conicto
2634 -64 1759 -64 conicto
1465 -64 1154 0 conicto
843 64 512 192 conicto
512 832 lineto
773 642 1084 545 conicto
1395 448 1734 448 conicto
2325 448 2634 682 conicto
2944 916 2944 1363 conicto
2944 1775 2659 2007 conicto
2375 2240 1868 2240 conicto
1344 2240 lineto
1344 2752 lineto
1892 2752 lineto
2340 2752 2578 2947 conicto
2816 3142 2816 3509 conicto
2816 3885 2570 4086 conicto
2325 4288 1868 4288 conicto
1605 4288 1303 4225 conicto
1002 4163 640 4032 conicto
640 4608 lineto
999 4704 1312 4752 conicto
1625 4800 1903 4800 conicto
2620 4800 3038 4466 conicto
3456 4133 3456 3565 conicto
3456 3169 3233 2896 conicto
3010 2623 2599 2518 conicto
end_ol grestore 
gsave 15.655000 14.913333 translate 0.035278 -0.035278 scale
start_ol
3520 2149 moveto
3520 0 lineto
2944 0 lineto
2944 2130 lineto
2944 2635 2748 2885 conicto
2553 3136 2163 3136 conicto
1694 3136 1423 2834 conicto
1152 2533 1152 2013 conicto
1152 0 lineto
576 0 lineto
576 3520 lineto
1152 3520 lineto
1152 3008 lineto
1360 3330 1641 3489 conicto
1922 3648 2290 3648 conicto
2897 3648 3208 3267 conicto
3520 2887 3520 2149 conicto
end_ol grestore 
gsave 16.191997 14.913333 translate 0.035278 -0.035278 scale
start_ol
end_ol grestore 
gsave 16.461739 14.913333 translate 0.035278 -0.035278 scale
start_ol
704 2880 moveto
4736 2880 lineto
4736 2368 lineto
704 2368 lineto
704 2880 lineto
704 1600 moveto
4736 1600 lineto
4736 1088 lineto
704 1088 lineto
704 1600 lineto
end_ol grestore 
gsave 17.171071 14.913333 translate 0.035278 -0.035278 scale
start_ol
end_ol grestore 
gsave 17.440813 14.913333 translate 0.035278 -0.035278 scale
start_ol
2599 2518 moveto
3063 2422 3323 2118 conicto
3584 1815 3584 1369 conicto
3584 685 3109 310 conicto
2634 -64 1759 -64 conicto
1465 -64 1154 0 conicto
843 64 512 192 conicto
512 832 lineto
773 642 1084 545 conicto
1395 448 1734 448 conicto
2325 448 2634 682 conicto
2944 916 2944 1363 conicto
2944 1775 2659 2007 conicto
2375 2240 1868 2240 conicto
1344 2240 lineto
1344 2752 lineto
1892 2752 lineto
2340 2752 2578 2947 conicto
2816 3142 2816 3509 conicto
2816 3885 2570 4086 conicto
2325 4288 1868 4288 conicto
1605 4288 1303 4225 conicto
1002 4163 640 4032 conicto
640 4608 lineto
999 4704 1312 4752 conicto
1625 4800 1903 4800 conicto
2620 4800 3038 4466 conicto
3456 4133 3456 3565 conicto
3456 3169 3233 2896 conicto
3010 2623 2599 2518 conicto
end_ol grestore 
gsave 15.655000 15.971667 translate 0.035278 -0.035278 scale
start_ol
2809 2197 moveto
3006 2128 3192 1902 conicto
3378 1677 3566 1283 conicto
4224 0 lineto
3530 0 lineto
2956 1204 lineto
2723 1676 2504 1830 conicto
2286 1984 1908 1984 conicto
1216 1984 lineto
1216 0 lineto
576 0 lineto
576 4672 lineto
2015 4672 lineto
2806 4672 3195 4338 conicto
3584 4004 3584 3330 conicto
3584 2890 3385 2599 conicto
3187 2309 2809 2197 conicto
1216 4160 moveto
1216 2496 lineto
2015 2496 lineto
2475 2496 2709 2708 conicto
2944 2920 2944 3331 conicto
2944 3742 2709 3951 conicto
2475 4160 2015 4160 conicto
1216 4160 lineto
end_ol grestore 
gsave 16.241945 15.971667 translate 0.035278 -0.035278 scale
start_ol
end_ol grestore 
gsave 16.511688 15.971667 translate 0.035278 -0.035278 scale
start_ol
704 2880 moveto
4736 2880 lineto
4736 2368 lineto
704 2368 lineto
704 2880 lineto
704 1600 moveto
4736 1600 lineto
4736 1088 lineto
704 1088 lineto
704 1600 lineto
end_ol grestore 
gsave 17.221019 15.971667 translate 0.035278 -0.035278 scale
start_ol
end_ol grestore 
gsave 17.490762 15.971667 translate 0.035278 -0.035278 scale
start_ol
2046 4288 moveto
1569 4288 1328 3808 conicto
1088 3329 1088 2366 conicto
1088 1407 1328 927 conicto
1569 448 2046 448 conicto
2527 448 2767 927 conicto
3008 1407 3008 2366 conicto
3008 3329 2767 3808 conicto
2527 4288 2046 4288 conicto
2048 4800 moveto
2826 4800 3237 4176 conicto
3648 3553 3648 2366 conicto
3648 1183 3237 559 conicto
2826 -64 2048 -64 conicto
1270 -64 859 559 conicto
448 1183 448 2366 conicto
448 3553 859 4176 conicto
1270 4800 2048 4800 conicto
end_ol grestore 
gsave 25.860000 22.010000 translate 0.035278 -0.035278 scale
start_ol
2816 3456 moveto
2816 2880 lineto
2579 3008 2323 3072 conicto
2068 3136 1794 3136 conicto
1377 3136 1168 3005 conicto
960 2874 960 2612 conicto
960 2412 1110 2298 conicto
1260 2184 1713 2081 conicto
1906 2038 lineto
2504 1906 2756 1666 conicto
3008 1426 3008 996 conicto
3008 507 2629 221 conicto
2251 -64 1589 -64 conicto
1313 -64 1014 0 conicto
715 64 384 192 conicto
384 768 lineto
697 608 1001 528 conicto
1305 448 1603 448 conicto
2002 448 2217 585 conicto
2432 722 2432 971 conicto
2432 1201 2277 1324 conicto
2123 1447 1600 1561 conicto
1404 1607 lineto
864 1721 624 1956 conicto
384 2192 384 2604 conicto
384 3104 729 3376 conicto
1075 3648 1711 3648 conicto
2026 3648 2303 3600 conicto
2581 3552 2816 3456 conicto
end_ol grestore 
gsave 26.299589 22.010000 translate 0.035278 -0.035278 scale
start_ol
2599 2518 moveto
3063 2422 3323 2118 conicto
3584 1815 3584 1369 conicto
3584 685 3109 310 conicto
2634 -64 1759 -64 conicto
1465 -64 1154 0 conicto
843 64 512 192 conicto
512 832 lineto
773 642 1084 545 conicto
1395 448 1734 448 conicto
2325 448 2634 682 conicto
2944 916 2944 1363 conicto
2944 1775 2659 2007 conicto
2375 2240 1868 2240 conicto
1344 2240 lineto
1344 2752 lineto
1892 2752 lineto
2340 2752 2578 2947 conicto
2816 3142 2816 3509 conicto
2816 3885 2570 4086 conicto
2325 4288 1868 4288 conicto
1605 4288 1303 4225 conicto
1002 4163 640 4032 conicto
640 4608 lineto
999 4704 1312 4752 conicto
1625 4800 1903 4800 conicto
2620 4800 3038 4466 conicto
3456 4133 3456 3565 conicto
3456 3169 3233 2896 conicto
3010 2623 2599 2518 conicto
end_ol grestore 
gsave 25.860000 23.068333 translate 0.035278 -0.035278 scale
start_ol
3520 2149 moveto
3520 0 lineto
2944 0 lineto
2944 2130 lineto
2944 2635 2748 2885 conicto
2553 3136 2163 3136 conicto
1694 3136 1423 2834 conicto
1152 2533 1152 2013 conicto
1152 0 lineto
576 0 lineto
576 3520 lineto
1152 3520 lineto
1152 3008 lineto
1360 3330 1641 3489 conicto
1922 3648 2290 3648 conicto
2897 3648 3208 3267 conicto
3520 2887 3520 2149 conicto
end_ol grestore 
gsave 26.396997 23.068333 translate 0.035278 -0.035278 scale
start_ol
end_ol grestore 
gsave 26.666739 23.068333 translate 0.035278 -0.035278 scale
start_ol
704 2880 moveto
4736 2880 lineto
4736 2368 lineto
704 2368 lineto
704 2880 lineto
704 1600 moveto
4736 1600 lineto
4736 1088 lineto
704 1088 lineto
704 1600 lineto
end_ol grestore 
gsave 27.376071 23.068333 translate 0.035278 -0.035278 scale
start_ol
end_ol grestore 
gsave 27.645813 23.068333 translate 0.035278 -0.035278 scale
start_ol
704 4672 moveto
3200 4672 lineto
3200 4160 lineto
1344 4160 lineto
1344 2982 lineto
1477 3027 1610 3049 conicto
1744 3072 1877 3072 conicto
2635 3072 3077 2649 conicto
3520 2226 3520 1504 conicto
3520 760 3053 348 conicto
2586 -64 1736 -64 conicto
1443 -64 1139 -16 conicto
836 32 512 128 conicto
512 768 lineto
791 606 1088 527 conicto
1386 448 1718 448 conicto
2254 448 2567 732 conicto
2880 1017 2880 1504 conicto
2880 1991 2566 2275 conicto
2253 2560 1716 2560 conicto
1465 2560 1215 2497 conicto
965 2435 704 2304 conicto
704 4672 lineto
end_ol grestore 
gsave 25.860000 24.126667 translate 0.035278 -0.035278 scale
start_ol
2809 2197 moveto
3006 2128 3192 1902 conicto
3378 1677 3566 1283 conicto
4224 0 lineto
3530 0 lineto
2956 1204 lineto
2723 1676 2504 1830 conicto
2286 1984 1908 1984 conicto
1216 1984 lineto
1216 0 lineto
576 0 lineto
576 4672 lineto
2015 4672 lineto
2806 4672 3195 4338 conicto
3584 4004 3584 3330 conicto
3584 2890 3385 2599 conicto
3187 2309 2809 2197 conicto
1216 4160 moveto
1216 2496 lineto
2015 2496 lineto
2475 2496 2709 2708 conicto
2944 2920 2944 3331 conicto
2944 3742 2709 3951 conicto
2475 4160 2015 4160 conicto
1216 4160 lineto
end_ol grestore 
gsave 26.446945 24.126667 translate 0.035278 -0.035278 scale
start_ol
end_ol grestore 
gsave 26.716688 24.126667 translate 0.035278 -0.035278 scale
start_ol
704 2880 moveto
4736 2880 lineto
4736 2368 lineto
704 2368 lineto
704 2880 lineto
704 1600 moveto
4736 1600 lineto
4736 1088 lineto
704 1088 lineto
704 1600 lineto
end_ol grestore 
gsave 27.426019 24.126667 translate 0.035278 -0.035278 scale
start_ol
end_ol grestore 
gsave 27.695762 24.126667 translate 0.035278 -0.035278 scale
start_ol
2046 4288 moveto
1569 4288 1328 3808 conicto
1088 3329 1088 2366 conicto
1088 1407 1328 927 conicto
1569 448 2046 448 conicto
2527 448 2767 927 conicto
3008 1407 3008 2366 conicto
3008 3329 2767 3808 conicto
2527 4288 2046 4288 conicto
2048 4800 moveto
2826 4800 3237 4176 conicto
3648 3553 3648 2366 conicto
3648 1183 3237 559 conicto
2826 -64 2048 -64 conicto
1270 -64 859 559 conicto
448 1183 448 2366 conicto
448 3553 859 4176 conicto
1270 4800 2048 4800 conicto
end_ol grestore 
gsave 24.255000 6.430000 translate 0.035278 -0.035278 scale
start_ol
2816 3456 moveto
2816 2880 lineto
2579 3008 2323 3072 conicto
2068 3136 1794 3136 conicto
1377 3136 1168 3005 conicto
960 2874 960 2612 conicto
960 2412 1110 2298 conicto
1260 2184 1713 2081 conicto
1906 2038 lineto
2504 1906 2756 1666 conicto
3008 1426 3008 996 conicto
3008 507 2629 221 conicto
2251 -64 1589 -64 conicto
1313 -64 1014 0 conicto
715 64 384 192 conicto
384 768 lineto
697 608 1001 528 conicto
1305 448 1603 448 conicto
2002 448 2217 585 conicto
2432 722 2432 971 conicto
2432 1201 2277 1324 conicto
2123 1447 1600 1561 conicto
1404 1607 lineto
864 1721 624 1956 conicto
384 2192 384 2604 conicto
384 3104 729 3376 conicto
1075 3648 1711 3648 conicto
2026 3648 2303 3600 conicto
2581 3552 2816 3456 conicto
end_ol grestore 
gsave 24.694589 6.430000 translate 0.035278 -0.035278 scale
start_ol
832 512 moveto
1856 512 lineto
1856 4160 lineto
704 3904 lineto
704 4416 lineto
1848 4672 lineto
2496 4672 lineto
2496 512 lineto
3520 512 lineto
3520 0 lineto
832 0 lineto
832 512 lineto
end_ol grestore 
gsave 24.255000 7.488333 translate 0.035278 -0.035278 scale
start_ol
3520 2149 moveto
3520 0 lineto
2944 0 lineto
2944 2130 lineto
2944 2635 2748 2885 conicto
2553 3136 2163 3136 conicto
1694 3136 1423 2834 conicto
1152 2533 1152 2013 conicto
1152 0 lineto
576 0 lineto
576 3520 lineto
1152 3520 lineto
1152 3008 lineto
1360 3330 1641 3489 conicto
1922 3648 2290 3648 conicto
2897 3648 3208 3267 conicto
3520 2887 3520 2149 conicto
end_ol grestore 
gsave 24.791997 7.488333 translate 0.035278 -0.035278 scale
start_ol
end_ol grestore 
gsave 25.061739 7.488333 translate 0.035278 -0.035278 scale
start_ol
704 2880 moveto
4736 2880 lineto
4736 2368 lineto
704 2368 lineto
704 2880 lineto
704 1600 moveto
4736 1600 lineto
4736 1088 lineto
704 1088 lineto
704 1600 lineto
end_ol grestore 
gsave 25.771071 7.488333 translate 0.035278 -0.035278 scale
start_ol
end_ol grestore 
gsave 26.040813 7.488333 translate 0.035278 -0.035278 scale
start_ol
832 512 moveto
1856 512 lineto
1856 4160 lineto
704 3904 lineto
704 4416 lineto
1848 4672 lineto
2496 4672 lineto
2496 512 lineto
3520 512 lineto
3520 0 lineto
832 0 lineto
832 512 lineto
end_ol grestore 
gsave 26.577810 7.488333 translate 0.035278 -0.035278 scale
start_ol
2046 4288 moveto
1569 4288 1328 3808 conicto
1088 3329 1088 2366 conicto
1088 1407 1328 927 conicto
1569 448 2046 448 conicto
2527 448 2767 927 conicto
3008 1407 3008 2366 conicto
3008 3329 2767 3808 conicto
2527 4288 2046 4288 conicto
2048 4800 moveto
2826 4800 3237 4176 conicto
3648 3553 3648 2366 conicto
3648 1183 3237 559 conicto
2826 -64 2048 -64 conicto
1270 -64 859 559 conicto
448 1183 448 2366 conicto
448 3553 859 4176 conicto
1270 4800 2048 4800 conicto
end_ol grestore 
gsave 24.255000 8.546667 translate 0.035278 -0.035278 scale
start_ol
2809 2197 moveto
3006 2128 3192 1902 conicto
3378 1677 3566 1283 conicto
4224 0 lineto
3530 0 lineto
2956 1204 lineto
2723 1676 2504 1830 conicto
2286 1984 1908 1984 conicto
1216 1984 lineto
1216 0 lineto
576 0 lineto
576 4672 lineto
2015 4672 lineto
2806 4672 3195 4338 conicto
3584 4004 3584 3330 conicto
3584 2890 3385 2599 conicto
3187 2309 2809 2197 conicto
1216 4160 moveto
1216 2496 lineto
2015 2496 lineto
2475 2496 2709 2708 conicto
2944 2920 2944 3331 conicto
2944 3742 2709 3951 conicto
2475 4160 2015 4160 conicto
1216 4160 lineto
end_ol grestore 
gsave 24.841945 8.546667 translate 0.035278 -0.035278 scale
start_ol
end_ol grestore 
gsave 25.111688 8.546667 translate 0.035278 -0.035278 scale
start_ol
704 2880 moveto
4736 2880 lineto
4736 2368 lineto
704 2368 lineto
704 2880 lineto
704 1600 moveto
4736 1600 lineto
4736 1088 lineto
704 1088 lineto
704 1600 lineto
end_ol grestore 
gsave 25.821019 8.546667 translate 0.035278 -0.035278 scale
start_ol
end_ol grestore 
gsave 26.090762 8.546667 translate 0.035278 -0.035278 scale
start_ol
2112 2624 moveto
1699 2624 1457 2333 conicto
1216 2042 1216 1536 conicto
1216 1033 1457 740 conicto
1699 448 2112 448 conicto
2525 448 2766 740 conicto
3008 1033 3008 1536 conicto
3008 2042 2766 2333 conicto
2525 2624 2112 2624 conicto
3328 4608 moveto
3328 4032 lineto
3096 4157 2859 4222 conicto
2622 4288 2390 4288 conicto
1779 4288 1456 3858 conicto
1134 3429 1088 2561 conicto
1270 2839 1544 2987 conicto
1819 3136 2149 3136 conicto
2843 3136 3245 2706 conicto
3648 2276 3648 1536 conicto
3648 812 3226 374 conicto
2804 -64 2102 -64 conicto
1298 -64 873 559 conicto
448 1183 448 2366 conicto
448 3478 966 4139 conicto
1484 4800 2357 4800 conicto
2591 4800 2830 4752 conicto
3069 4704 3328 4608 conicto
end_ol grestore 
gsave 26.627759 8.546667 translate 0.035278 -0.035278 scale
start_ol
768 768 moveto
1408 768 lineto
1408 0 lineto
768 0 lineto
768 768 lineto
end_ol grestore 
gsave 26.897501 8.546667 translate 0.035278 -0.035278 scale
start_ol
2599 2518 moveto
3063 2422 3323 2118 conicto
3584 1815 3584 1369 conicto
3584 685 3109 310 conicto
2634 -64 1759 -64 conicto
1465 -64 1154 0 conicto
843 64 512 192 conicto
512 832 lineto
773 642 1084 545 conicto
1395 448 1734 448 conicto
2325 448 2634 682 conicto
2944 916 2944 1363 conicto
2944 1775 2659 2007 conicto
2375 2240 1868 2240 conicto
1344 2240 lineto
1344 2752 lineto
1892 2752 lineto
2340 2752 2578 2947 conicto
2816 3142 2816 3509 conicto
2816 3885 2570 4086 conicto
2325 4288 1868 4288 conicto
1605 4288 1303 4225 conicto
1002 4163 640 4032 conicto
640 4608 lineto
999 4704 1312 4752 conicto
1625 4800 1903 4800 conicto
2620 4800 3038 4466 conicto
3456 4133 3456 3565 conicto
3456 3169 3233 2896 conicto
3010 2623 2599 2518 conicto
end_ol grestore 
showpage
