\relax 
\citation{childs2008transpositions}
\select@language{english}
\@writefile{toc}{\select@language{english}}
\@writefile{lof}{\select@language{english}}
\@writefile{lot}{\select@language{english}}
\@writefile{toc}{\contentsline {section}{\numberline {1}NN-UCT}{1}}
\@writefile{toc}{\contentsline {subsection}{\numberline {1.1}Decay Scheme}{2}}
\newlabel{sec:decay}{{1.1}{2}}
\@writefile{toc}{\contentsline {section}{\numberline {2}Theoretical Analysis}{2}}
\bibstyle{plain}
\bibdata{references}
\bibcite{childs2008transpositions}{{1}{}{{}}{{}}}
\@writefile{loe}{\contentsline {lem}{\numberline {1}Lemma}{3}}
\newlabel{lem:tau}{{1}{3}}
\@writefile{loe}{\contentsline {lem}{\numberline {2}Lemma}{3}}
\newlabel{lem:full_dag}{{2}{3}}
\@writefile{loe}{\contentsline {theorem}{\numberline {1}Theorem}{3}}
\providecommand\NAT@force@numbers{}\NAT@force@numbers
