\relax 
\citation{childs2008transpositions}
\citation{jiang2014improving}
\citation{gelly2011monte}
\citation{couetoux2011continuous}
\citation{mahadevan2007proto}
\@writefile{toc}{\contentsline {chapter}{\numberline {6}Related Work}{18}}
\@writefile{lof}{\addvspace {10\p@ }}
\@writefile{lot}{\addvspace {10\p@ }}
\newlabel{chap:rel_work}{{6}{18}}
\@setckpt{rel_work}{
\setcounter{page}{20}
\setcounter{equation}{0}
\setcounter{enumi}{3}
\setcounter{enumii}{0}
\setcounter{enumiii}{0}
\setcounter{enumiv}{0}
\setcounter{footnote}{0}
\setcounter{mpfootnote}{0}
\setcounter{part}{0}
\setcounter{chapter}{6}
\setcounter{section}{0}
\setcounter{subsection}{0}
\setcounter{subsubsection}{0}
\setcounter{paragraph}{0}
\setcounter{subparagraph}{0}
\setcounter{figure}{0}
\setcounter{table}{0}
\setcounter{parentequation}{0}
\setcounter{ContinuedFloat}{0}
\setcounter{subfigure}{2}
\setcounter{subtable}{0}
\setcounter{NAT@ctr}{0}
\setcounter{thmt@dummyctr}{3}
\setcounter{float@type}{8}
\setcounter{algorithm}{3}
\setcounter{ALG@line}{16}
\setcounter{ALG@rem}{16}
\setcounter{ALG@nested}{0}
\setcounter{ALG@Lnr}{2}
\setcounter{ALG@blocknr}{10}
\setcounter{ALG@storecount}{0}
\setcounter{ALG@tmpcounter}{0}
\setcounter{lem}{2}
\setcounter{theorem}{1}
\setcounter{corollary}{0}
}
