\relax 
\citation{sutton1998introduction}
\citation{oudeyer2007intrinsic}
\citation{sutton2011horde}
\citation{puterman2009markov}
\@writefile{toc}{\contentsline {chapter}{\numberline {2}Background}{2}}
\@writefile{lof}{\addvspace {10\p@ }}
\@writefile{lot}{\addvspace {10\p@ }}
\newlabel{chap:background}{{2}{2}}
\@writefile{toc}{\contentsline {section}{\numberline {2.1}Markov Decision Processes}{2}}
\@writefile{toc}{\contentsline {section}{\numberline {2.2}Value Function}{3}}
\newlabel{eqn:qValue}{{2.1}{3}}
\newlabel{eqn:bellman}{{2.2}{3}}
\@writefile{toc}{\contentsline {section}{\numberline {2.3}Value Function Approximation}{4}}
\@setckpt{rl}{
\setcounter{page}{5}
\setcounter{equation}{2}
\setcounter{enumi}{2}
\setcounter{enumii}{0}
\setcounter{enumiii}{0}
\setcounter{enumiv}{0}
\setcounter{footnote}{0}
\setcounter{mpfootnote}{0}
\setcounter{part}{0}
\setcounter{chapter}{2}
\setcounter{section}{3}
\setcounter{subsection}{0}
\setcounter{subsubsection}{0}
\setcounter{paragraph}{0}
\setcounter{subparagraph}{0}
\setcounter{figure}{0}
\setcounter{table}{0}
\setcounter{parentequation}{0}
\setcounter{ContinuedFloat}{0}
\setcounter{subfigure}{0}
\setcounter{subtable}{0}
\setcounter{NAT@ctr}{0}
\setcounter{thmt@dummyctr}{0}
\setcounter{float@type}{8}
\setcounter{algorithm}{0}
\setcounter{ALG@line}{0}
\setcounter{ALG@rem}{0}
\setcounter{ALG@nested}{0}
\setcounter{ALG@Lnr}{2}
\setcounter{ALG@blocknr}{10}
\setcounter{ALG@storecount}{0}
\setcounter{ALG@tmpcounter}{0}
\setcounter{lem}{0}
\setcounter{theorem}{0}
\setcounter{corollary}{0}
}
