%!PS-Adobe-3.0 EPSF-3.0
%%Creator: MATLAB, The Mathworks, Inc. Version 7.9.0.529 (R2009b). Operating System: Linux 3.13.0-34-generic #60-Ubuntu SMP Wed Aug 13 15:49:09 UTC 2014 i686.
%%Title: /home/sriram/ferl/Thesis/Research/AAAI_2015/seaquest_scatter.eps
%%CreationDate: 09/14/2014  18:05:49
%%DocumentNeededFonts: Helvetica
%%DocumentProcessColors: Cyan Magenta Yellow Black
%%LanguageLevel: 2
%%Pages: 1
%%BoundingBox:  -239   147   853   644
%%EndComments

%%BeginProlog
% MathWorks dictionary
/MathWorks 160 dict begin
% definition operators
/bdef {bind def} bind def
/ldef {load def} bind def
/xdef {exch def} bdef
/xstore {exch store} bdef
% operator abbreviations
/c  /clip ldef
/cc /concat ldef
/cp /closepath ldef
/gr /grestore ldef
/gs /gsave ldef
/mt /moveto ldef
/np /newpath ldef
/cm /currentmatrix ldef
/sm /setmatrix ldef
/rm /rmoveto ldef
/rl /rlineto ldef
/s {show newpath} bdef
/sc {setcmykcolor} bdef
/sr /setrgbcolor ldef
/sg /setgray ldef
/w /setlinewidth ldef
/j /setlinejoin ldef
/cap /setlinecap ldef
/rc {rectclip} bdef
/rf {rectfill} bdef
% page state control
/pgsv () def
/bpage {/pgsv save def} bdef
/epage {pgsv restore} bdef
/bplot /gsave ldef
/eplot {stroke grestore} bdef
% orientation switch
/portraitMode 0 def /landscapeMode 1 def /rotateMode 2 def
% coordinate system mappings
/dpi2point 0 def
% font control
/FontSize 0 def
/FMS {/FontSize xstore findfont [FontSize 0 0 FontSize neg 0 0]
  makefont setfont} bdef
/reencode {exch dup where {pop load} {pop StandardEncoding} ifelse
  exch dup 3 1 roll findfont dup length dict begin
  { 1 index /FID ne {def}{pop pop} ifelse } forall
  /Encoding exch def currentdict end definefont pop} bdef
/isroman {findfont /CharStrings get /Agrave known} bdef
/FMSR {3 1 roll 1 index dup isroman {reencode} {pop pop} ifelse
  exch FMS} bdef
/csm {1 dpi2point div -1 dpi2point div scale neg translate
 dup landscapeMode eq {pop -90 rotate}
  {rotateMode eq {90 rotate} if} ifelse} bdef
% line types: solid, dotted, dashed, dotdash
/SO { [] 0 setdash } bdef
/DO { [.5 dpi2point mul 4 dpi2point mul] 0 setdash } bdef
/DA { [6 dpi2point mul] 0 setdash } bdef
/DD { [.5 dpi2point mul 4 dpi2point mul 6 dpi2point mul 4
  dpi2point mul] 0 setdash } bdef
% macros for lines and objects
/L {lineto stroke} bdef
/MP {3 1 roll moveto 1 sub {rlineto} repeat} bdef
/AP {{rlineto} repeat} bdef
/PDlw -1 def
/W {/PDlw currentlinewidth def setlinewidth} def
/PP {closepath eofill} bdef
/DP {closepath stroke} bdef
/MR {4 -2 roll moveto dup  0 exch rlineto exch 0 rlineto
  neg 0 exch rlineto closepath} bdef
/FR {MR stroke} bdef
/PR {MR fill} bdef
/L1i {{currentfile picstr readhexstring pop} image} bdef
/tMatrix matrix def
/MakeOval {newpath tMatrix currentmatrix pop translate scale
0 0 1 0 360 arc tMatrix setmatrix} bdef
/FO {MakeOval stroke} bdef
/PO {MakeOval fill} bdef
/PD {currentlinewidth 2 div 0 360 arc fill
   PDlw -1 eq not {PDlw w /PDlw -1 def} if} def
/FA {newpath tMatrix currentmatrix pop translate scale
  0 0 1 5 -2 roll arc tMatrix setmatrix stroke} bdef
/PA {newpath tMatrix currentmatrix pop	translate 0 0 moveto scale
  0 0 1 5 -2 roll arc closepath tMatrix setmatrix fill} bdef
/FAn {newpath tMatrix currentmatrix pop translate scale
  0 0 1 5 -2 roll arcn tMatrix setmatrix stroke} bdef
/PAn {newpath tMatrix currentmatrix pop translate 0 0 moveto scale
  0 0 1 5 -2 roll arcn closepath tMatrix setmatrix fill} bdef
/vradius 0 def /hradius 0 def /lry 0 def
/lrx 0 def /uly 0 def /ulx 0 def /rad 0 def
/MRR {/vradius xdef /hradius xdef /lry xdef /lrx xdef /uly xdef
  /ulx xdef newpath tMatrix currentmatrix pop ulx hradius add uly
  vradius add translate hradius vradius scale 0 0 1 180 270 arc 
  tMatrix setmatrix lrx hradius sub uly vradius add translate
  hradius vradius scale 0 0 1 270 360 arc tMatrix setmatrix
  lrx hradius sub lry vradius sub translate hradius vradius scale
  0 0 1 0 90 arc tMatrix setmatrix ulx hradius add lry vradius sub
  translate hradius vradius scale 0 0 1 90 180 arc tMatrix setmatrix
  closepath} bdef
/FRR {MRR stroke } bdef
/PRR {MRR fill } bdef
/MlrRR {/lry xdef /lrx xdef /uly xdef /ulx xdef /rad lry uly sub 2 div def
  newpath tMatrix currentmatrix pop ulx rad add uly rad add translate
  rad rad scale 0 0 1 90 270 arc tMatrix setmatrix lrx rad sub lry rad
  sub translate rad rad scale 0 0 1 270 90 arc tMatrix setmatrix
  closepath} bdef
/FlrRR {MlrRR stroke } bdef
/PlrRR {MlrRR fill } bdef
/MtbRR {/lry xdef /lrx xdef /uly xdef /ulx xdef /rad lrx ulx sub 2 div def
  newpath tMatrix currentmatrix pop ulx rad add uly rad add translate
  rad rad scale 0 0 1 180 360 arc tMatrix setmatrix lrx rad sub lry rad
  sub translate rad rad scale 0 0 1 0 180 arc tMatrix setmatrix
  closepath} bdef
/FtbRR {MtbRR stroke } bdef
/PtbRR {MtbRR fill } bdef
/stri 6 array def /dtri 6 array def
/smat 6 array def /dmat 6 array def
/tmat1 6 array def /tmat2 6 array def /dif 3 array def
/asub {/ind2 exch def /ind1 exch def dup dup
  ind1 get exch ind2 get sub exch } bdef
/tri_to_matrix {
  2 0 asub 3 1 asub 4 0 asub 5 1 asub
  dup 0 get exch 1 get 7 -1 roll astore } bdef
/compute_transform {
  dmat dtri tri_to_matrix tmat1 invertmatrix 
  smat stri tri_to_matrix tmat2 concatmatrix } bdef
/ds {stri astore pop} bdef
/dt {dtri astore pop} bdef
/db {2 copy /cols xdef /rows xdef mul dup 3 mul string
  currentfile 
  3 index 0 eq {/ASCIIHexDecode filter}
  {/ASCII85Decode filter 3 index 2 eq {/RunLengthDecode filter} if }
  ifelse exch readstring pop
  dup 0 3 index getinterval /rbmap xdef
  dup 2 index dup getinterval /gbmap xdef
  1 index dup 2 mul exch getinterval /bbmap xdef pop pop}bdef
/it {gs np dtri aload pop moveto lineto lineto cp c
  cols rows 8 compute_transform 
  rbmap gbmap bbmap true 3 colorimage gr}bdef
/il {newpath moveto lineto stroke}bdef
currentdict end def
%%EndProlog

%%BeginSetup
MathWorks begin

0 cap

end
%%EndSetup

%%Page: 1 1
%%BeginPageSetup
%%PageBoundingBox:  -239   147   853   644
MathWorks begin
bpage
%%EndPageSetup

%%BeginObject: obj1
bplot

/dpi2point 12 def
portraitMode -2868 7728 csm

    0     0 13112  5953 rc
85 dict begin %Colortable dictionary
/c0 { 0.000000 0.000000 0.000000 sr} bdef
/c1 { 1.000000 1.000000 1.000000 sr} bdef
/c2 { 0.900000 0.000000 0.000000 sr} bdef
/c3 { 0.000000 0.820000 0.000000 sr} bdef
/c4 { 0.000000 0.000000 0.800000 sr} bdef
/c5 { 0.910000 0.820000 0.320000 sr} bdef
/c6 { 1.000000 0.260000 0.820000 sr} bdef
/c7 { 0.000000 0.820000 0.820000 sr} bdef
c0
1 j
1 sg
   0    0 13113 5954 rf
6 w
0 4393 10161 0 0 -4393 1705 4839 4 MP
PP
-10161 0 0 4393 10161 0 0 -4393 1705 4839 5 MP stroke
4 w
DO
SO
6 w
0 sg
1705 4839 mt 11866 4839 L
1705 4839 mt 1705  446 L
1705 4839 mt 1705 4737 L
%%IncludeResource: font Helvetica
/Helvetica /ISOLatin1Encoding 480 FMSR

1292 5319 mt 
(-6) s
3737 4839 mt 3737 4737 L
3324 5319 mt 
(-4) s
5769 4839 mt 5769 4737 L
5356 5319 mt 
(-2) s
7801 4839 mt 7801 4737 L
7668 5319 mt 
(0) s
9833 4839 mt 9833 4737 L
9700 5319 mt 
(2) s
11866 4839 mt 11866 4737 L
11733 5319 mt 
(4) s
1705 4839 mt 1806 4839 L
1404 5017 mt 
(0) s
1705 3374 mt 1806 3374 L
1404 3552 mt 
(2) s
1705 1910 mt 1806 1910 L
1404 2088 mt 
(4) s
1705  446 mt 1806  446 L
1404  624 mt 
(6) s
gs 1705 446 10162 4394 rc
0 j
gs 2441 3270 560 561 rc
0 -218 -218 0 0 218 218 0 2612 3441 5 MP
/c8 { 1.000000 0.000000 0.000000 sr} bdef
c8
gs
PP
gr
DP
gr

c8
gs 3457 3261 561 561 rc
0 -218 -218 0 0 218 218 0 3628 3432 5 MP
gs
PP
gr
DP
gr

gs 4473 3504 561 561 rc
0 -218 -218 0 0 218 218 0 4644 3675 5 MP
gs
PP
gr
DP
gr

gs 5489 3728 561 561 rc
0 -218 -218 0 0 218 218 0 5660 3899 5 MP
gs
PP
gr
DP
gr

gs 6505 3749 561 561 rc
0 -218 -218 0 0 218 218 0 6676 3920 5 MP
gs
PP
gr
DP
gr

gs 7521 3720 561 560 rc
0 -218 -218 0 0 218 218 0 7692 3890 5 MP
gs
PP
gr
DP
gr

gs 8537 3761 561 560 rc
0 -218 -218 0 0 218 218 0 8708 3931 5 MP
gs
PP
gr
DP
gr

gs 9553 3785 561 561 rc
0 -218 -218 0 0 218 218 0 9724 3956 5 MP
gs
PP
gr
DP
gr

gs 10570 3793 560 561 rc
0 -218 -218 0 0 218 218 0 10740 3964 5 MP
gs
PP
gr
DP
gr

gr

c8
gs 11586 3784 560 561 rc
0 j
0 -218 -218 0 0 218 218 0 11757 3955 5 MP
gs
PP
gr
DP
gr

gs 1705 446 10162 4394 rc
0 j
gr

gs 2441 274 9705 4115 rc
/c9 { 0.000000 0.000000 1.000000 sr} bdef
c9
11768 3083 mt 11964 3279 L
11964 3083 mt 11768 3279 L
gr

c9
gs 1705 446 10162 4394 rc
gr

gs 2441 274 9705 4115 rc
11768  907 mt 11964 1103 L
11964  907 mt 11768 1103 L
gr

gs 1705 446 10162 4394 rc
gr

gs 2441 274 9705 4115 rc
11768 1938 mt 11964 2134 L
11964 1938 mt 11768 2134 L
gr

gs 1705 446 10162 4394 rc
gr

gs 2441 274 9705 4115 rc
11768 2190 mt 11964 2386 L
11964 2190 mt 11768 2386 L
gr

gs 1705 446 10162 4394 rc
gr

gs 2441 274 9705 4115 rc
11768 3007 mt 11964 3203 L
11964 3007 mt 11768 3203 L
gr

gs 1705 446 10162 4394 rc
gr

gs 2441 274 9705 4115 rc
11768  905 mt 11964 1101 L
11964  905 mt 11768 1101 L
gr

gs 1705 446 10162 4394 rc
gr

gs 2441 274 9705 4115 rc
11768 2124 mt 11964 2320 L
11964 2124 mt 11768 2320 L
gr

gs 1705 446 10162 4394 rc
gr

gs 2441 274 9705 4115 rc
11768 2231 mt 11964 2427 L
11964 2231 mt 11768 2427 L
gr

gs 1705 446 10162 4394 rc
gr

gs 2441 274 9705 4115 rc
11768 3054 mt 11964 3250 L
11964 3054 mt 11768 3250 L
gr

gs 1705 446 10162 4394 rc
gr

gs 2441 274 9705 4115 rc
11768  954 mt 11964 1150 L
11964  954 mt 11768 1150 L
gr

gs 1705 446 10162 4394 rc
gr

gs 2441 274 9705 4115 rc
11768 2198 mt 11964 2394 L
11964 2198 mt 11768 2394 L
gr

gs 1705 446 10162 4394 rc
gr

gs 2441 274 9705 4115 rc
11768 2231 mt 11964 2427 L
11964 2231 mt 11768 2427 L
gr

gs 1705 446 10162 4394 rc
gr

gs 2441 274 9705 4115 rc
11768 1901 mt 11964 2097 L
11964 1901 mt 11768 2097 L
gr

gs 1705 446 10162 4394 rc
gr

gs 2441 274 9705 4115 rc
11768 1541 mt 11964 1737 L
11964 1541 mt 11768 1737 L
gr

gs 1705 446 10162 4394 rc
gr

gs 2441 274 9705 4115 rc
11768 2226 mt 11964 2422 L
11964 2226 mt 11768 2422 L
gr

gs 1705 446 10162 4394 rc
gr

gs 2441 274 9705 4115 rc
11768 2286 mt 11964 2482 L
11964 2286 mt 11768 2482 L
gr

gs 1705 446 10162 4394 rc
gr

gs 2441 274 9705 4115 rc
10751 3020 mt 10947 3216 L
10947 3020 mt 10751 3216 L
gr

gs 1705 446 10162 4394 rc
gr

gs 2441 274 9705 4115 rc
10751  883 mt 10947 1079 L
10947  883 mt 10751 1079 L
gr

gs 1705 446 10162 4394 rc
gr

gs 2441 274 9705 4115 rc
10751 1973 mt 10947 2169 L
10947 1973 mt 10751 2169 L
gr

gs 1705 446 10162 4394 rc
gr

gs 2441 274 9705 4115 rc
10751 2193 mt 10947 2389 L
10947 2193 mt 10751 2389 L
gr

gs 1705 446 10162 4394 rc
gr

gs 2441 274 9705 4115 rc
10751 3109 mt 10947 3305 L
10947 3109 mt 10751 3305 L
gr

gs 1705 446 10162 4394 rc
gr

gs 2441 274 9705 4115 rc
10751  892 mt 10947 1088 L
10947  892 mt 10751 1088 L
gr

gs 1705 446 10162 4394 rc
gr

gs 2441 274 9705 4115 rc
10751 2191 mt 10947 2387 L
10947 2191 mt 10751 2387 L
gr

gs 1705 446 10162 4394 rc
gr

gs 2441 274 9705 4115 rc
10751 2181 mt 10947 2377 L
10947 2181 mt 10751 2377 L
gr

gs 1705 446 10162 4394 rc
gr

gs 2441 274 9705 4115 rc
10751 3128 mt 10947 3324 L
10947 3128 mt 10751 3324 L
gr

gs 1705 446 10162 4394 rc
gr

gs 2441 274 9705 4115 rc
10751  995 mt 10947 1191 L
10947  995 mt 10751 1191 L
gr

gs 1705 446 10162 4394 rc
gr

gs 2441 274 9705 4115 rc
10751 2213 mt 10947 2409 L
10947 2213 mt 10751 2409 L
gr

gs 1705 446 10162 4394 rc
gr

gs 2441 274 9705 4115 rc
10751 2216 mt 10947 2412 L
10947 2216 mt 10751 2412 L
gr

gs 1705 446 10162 4394 rc
gr

gs 2441 274 9705 4115 rc
10751 1736 mt 10947 1932 L
10947 1736 mt 10751 1932 L
gr

gs 1705 446 10162 4394 rc
gr

gs 2441 274 9705 4115 rc
10751 1554 mt 10947 1750 L
10947 1554 mt 10751 1750 L
gr

gs 1705 446 10162 4394 rc
gr

gs 2441 274 9705 4115 rc
10751 2187 mt 10947 2383 L
10947 2187 mt 10751 2383 L
gr

gs 1705 446 10162 4394 rc
gr

gs 2441 274 9705 4115 rc
10751 2220 mt 10947 2416 L
10947 2220 mt 10751 2416 L
gr

gs 1705 446 10162 4394 rc
gr

gs 2441 274 9705 4115 rc
9735 2958 mt 9931 3154 L
9931 2958 mt 9735 3154 L
gr

gs 1705 446 10162 4394 rc
gr

gs 2441 274 9705 4115 rc
9735  847 mt 9931 1043 L
9931  847 mt 9735 1043 L
gr

gs 1705 446 10162 4394 rc
gr

gs 2441 274 9705 4115 rc
9735 1805 mt 9931 2001 L
9931 1805 mt 9735 2001 L
gr

gs 1705 446 10162 4394 rc
gr

gs 2441 274 9705 4115 rc
9735 2086 mt 9931 2282 L
9931 2086 mt 9735 2282 L
gr

gs 1705 446 10162 4394 rc
gr

gs 2441 274 9705 4115 rc
9735 3016 mt 9931 3212 L
9931 3016 mt 9735 3212 L
gr

gs 1705 446 10162 4394 rc
gr

gs 2441 274 9705 4115 rc
9735  853 mt 9931 1049 L
9931  853 mt 9735 1049 L
gr

gs 1705 446 10162 4394 rc
gr

gs 2441 274 9705 4115 rc
9735 2065 mt 9931 2261 L
9931 2065 mt 9735 2261 L
gr

gs 1705 446 10162 4394 rc
gr

gs 2441 274 9705 4115 rc
9735 2093 mt 9931 2289 L
9931 2093 mt 9735 2289 L
gr

gs 1705 446 10162 4394 rc
gr

gs 2441 274 9705 4115 rc
9735 3103 mt 9931 3299 L
9931 3103 mt 9735 3299 L
gr

gs 1705 446 10162 4394 rc
gr

gs 2441 274 9705 4115 rc
9735  916 mt 9931 1112 L
9931  916 mt 9735 1112 L
gr

gs 1705 446 10162 4394 rc
gr

gs 2441 274 9705 4115 rc
9735 2162 mt 9931 2358 L
9931 2162 mt 9735 2358 L
gr

gs 1705 446 10162 4394 rc
gr

gs 2441 274 9705 4115 rc
9735 2108 mt 9931 2304 L
9931 2108 mt 9735 2304 L
gr

gs 1705 446 10162 4394 rc
gr

gs 2441 274 9705 4115 rc
9735 1780 mt 9931 1976 L
9931 1780 mt 9735 1976 L
gr

gs 1705 446 10162 4394 rc
gr

gs 2441 274 9705 4115 rc
9735 1393 mt 9931 1589 L
9931 1393 mt 9735 1589 L
gr

gs 1705 446 10162 4394 rc
gr

gs 2441 274 9705 4115 rc
9735 2094 mt 9931 2290 L
9931 2094 mt 9735 2290 L
gr

gs 1705 446 10162 4394 rc
gr

gs 2441 274 9705 4115 rc
9735 2146 mt 9931 2342 L
9931 2146 mt 9735 2342 L
gr

gs 1705 446 10162 4394 rc
gr

gs 2441 274 9705 4115 rc
8719 3431 mt 8915 3627 L
8915 3431 mt 8719 3627 L
gr

gs 1705 446 10162 4394 rc
gr

gs 2441 274 9705 4115 rc
8719  901 mt 8915 1097 L
8915  901 mt 8719 1097 L
gr

gs 1705 446 10162 4394 rc
gr

gs 2441 274 9705 4115 rc
8719 1867 mt 8915 2063 L
8915 1867 mt 8719 2063 L
gr

gs 1705 446 10162 4394 rc
gr

gs 2441 274 9705 4115 rc
8719 2084 mt 8915 2280 L
8915 2084 mt 8719 2280 L
gr

gs 1705 446 10162 4394 rc
gr

gs 2441 274 9705 4115 rc
8719 3370 mt 8915 3566 L
8915 3370 mt 8719 3566 L
gr

gs 1705 446 10162 4394 rc
gr

gs 2441 274 9705 4115 rc
8719  870 mt 8915 1066 L
8915  870 mt 8719 1066 L
gr

gs 1705 446 10162 4394 rc
gr

gs 2441 274 9705 4115 rc
8719 2134 mt 8915 2330 L
8915 2134 mt 8719 2330 L
gr

gs 1705 446 10162 4394 rc
gr

gs 2441 274 9705 4115 rc
8719 2179 mt 8915 2375 L
8915 2179 mt 8719 2375 L
gr

gs 1705 446 10162 4394 rc
gr

gs 2441 274 9705 4115 rc
8719 3423 mt 8915 3619 L
8915 3423 mt 8719 3619 L
gr

gs 1705 446 10162 4394 rc
gr

gs 2441 274 9705 4115 rc
8719  922 mt 8915 1118 L
8915  922 mt 8719 1118 L
gr

gs 1705 446 10162 4394 rc
gr

gs 2441 274 9705 4115 rc
8719 2153 mt 8915 2349 L
8915 2153 mt 8719 2349 L
gr

gs 1705 446 10162 4394 rc
gr

gs 2441 274 9705 4115 rc
8719 2195 mt 8915 2391 L
8915 2195 mt 8719 2391 L
gr

gs 1705 446 10162 4394 rc
gr

gs 2441 274 9705 4115 rc
8719 1525 mt 8915 1721 L
8915 1525 mt 8719 1721 L
gr

gs 1705 446 10162 4394 rc
gr

gs 2441 274 9705 4115 rc
8719 1485 mt 8915 1681 L
8915 1485 mt 8719 1681 L
gr

gs 1705 446 10162 4394 rc
gr

gs 2441 274 9705 4115 rc
8719 2216 mt 8915 2412 L
8915 2216 mt 8719 2412 L
gr

gs 1705 446 10162 4394 rc
gr

gs 2441 274 9705 4115 rc
8719 2201 mt 8915 2397 L
8915 2201 mt 8719 2397 L
gr

gs 1705 446 10162 4394 rc
gr

gs 2441 274 9705 4115 rc
7703 3727 mt 7899 3923 L
7899 3727 mt 7703 3923 L
gr

gs 1705 446 10162 4394 rc
gr

gs 2441 274 9705 4115 rc
7703  456 mt 7899  652 L
7899  456 mt 7703  652 L
gr

gs 1705 446 10162 4394 rc
gr

gs 2441 274 9705 4115 rc
7703 1837 mt 7899 2033 L
7899 1837 mt 7703 2033 L
gr

gs 1705 446 10162 4394 rc
gr

gs 2441 274 9705 4115 rc
7703 2105 mt 7899 2301 L
7899 2105 mt 7703 2301 L
gr

gs 1705 446 10162 4394 rc
gr

gs 2441 274 9705 4115 rc
7703 3708 mt 7899 3904 L
7899 3708 mt 7703 3904 L
gr

gs 1705 446 10162 4394 rc
gr

gs 2441 274 9705 4115 rc
7703  561 mt 7899  757 L
7899  561 mt 7703  757 L
gr

gs 1705 446 10162 4394 rc
gr

gs 2441 274 9705 4115 rc
7703 2036 mt 7899 2232 L
7899 2036 mt 7703 2232 L
gr

gs 1705 446 10162 4394 rc
gr

gs 2441 274 9705 4115 rc
7703 2081 mt 7899 2277 L
7899 2081 mt 7703 2277 L
gr

gs 1705 446 10162 4394 rc
gr

gs 2441 274 9705 4115 rc
7703 3464 mt 7899 3660 L
7899 3464 mt 7703 3660 L
gr

gs 1705 446 10162 4394 rc
gr

gs 2441 274 9705 4115 rc
7703  941 mt 7899 1137 L
7899  941 mt 7703 1137 L
gr

gs 1705 446 10162 4394 rc
gr

gs 2441 274 9705 4115 rc
7703 2097 mt 7899 2293 L
7899 2097 mt 7703 2293 L
gr

gs 1705 446 10162 4394 rc
gr

gs 2441 274 9705 4115 rc
7703 2089 mt 7899 2285 L
7899 2089 mt 7703 2285 L
gr

gs 1705 446 10162 4394 rc
gr

gs 2441 274 9705 4115 rc
7703 1293 mt 7899 1489 L
7899 1293 mt 7703 1489 L
gr

gs 1705 446 10162 4394 rc
gr

gs 2441 274 9705 4115 rc
7703 1453 mt 7899 1649 L
7899 1453 mt 7703 1649 L
gr

gs 1705 446 10162 4394 rc
gr

gs 2441 274 9705 4115 rc
7703 2065 mt 7899 2261 L
7899 2065 mt 7703 2261 L
gr

gs 1705 446 10162 4394 rc
gr

gs 2441 274 9705 4115 rc
7703 2105 mt 7899 2301 L
7899 2105 mt 7703 2301 L
gr

gs 1705 446 10162 4394 rc
gr

gs 2441 274 9705 4115 rc
6687 3953 mt 6883 4149 L
6883 3953 mt 6687 4149 L
gr

gs 1705 446 10162 4394 rc
gr

gs 2441 274 9705 4115 rc
6687 2863 mt 6883 3059 L
6883 2863 mt 6687 3059 L
gr

gs 1705 446 10162 4394 rc
gr

gs 2441 274 9705 4115 rc
6687 1831 mt 6883 2027 L
6883 1831 mt 6687 2027 L
gr

gs 1705 446 10162 4394 rc
gr

gs 2441 274 9705 4115 rc
6687 2049 mt 6883 2245 L
6883 2049 mt 6687 2245 L
gr

gs 1705 446 10162 4394 rc
gr

gs 2441 274 9705 4115 rc
6687 3732 mt 6883 3928 L
6883 3732 mt 6687 3928 L
gr

gs 1705 446 10162 4394 rc
gr

gs 2441 274 9705 4115 rc
6687 1143 mt 6883 1339 L
6883 1143 mt 6687 1339 L
gr

gs 1705 446 10162 4394 rc
gr

gs 2441 274 9705 4115 rc
6687 1995 mt 6883 2191 L
6883 1995 mt 6687 2191 L
gr

gs 1705 446 10162 4394 rc
gr

gs 2441 274 9705 4115 rc
6687 2092 mt 6883 2288 L
6883 2092 mt 6687 2288 L
gr

gs 1705 446 10162 4394 rc
gr

gs 2441 274 9705 4115 rc
6687 3380 mt 6883 3576 L
6883 3380 mt 6687 3576 L
gr

gs 1705 446 10162 4394 rc
gr

gs 2441 274 9705 4115 rc
6687 1030 mt 6883 1226 L
6883 1030 mt 6687 1226 L
gr

gs 1705 446 10162 4394 rc
gr

gs 2441 274 9705 4115 rc
6687 2074 mt 6883 2270 L
6883 2074 mt 6687 2270 L
gr

gs 1705 446 10162 4394 rc
gr

gs 2441 274 9705 4115 rc
6687 2087 mt 6883 2283 L
6883 2087 mt 6687 2283 L
gr

gs 1705 446 10162 4394 rc
gr

gs 2441 274 9705 4115 rc
6687 2821 mt 6883 3017 L
6883 2821 mt 6687 3017 L
gr

gs 1705 446 10162 4394 rc
gr

gs 2441 274 9705 4115 rc
6687 1472 mt 6883 1668 L
6883 1472 mt 6687 1668 L
gr

gs 1705 446 10162 4394 rc
gr

gs 2441 274 9705 4115 rc
6687 2074 mt 6883 2270 L
6883 2074 mt 6687 2270 L
gr

gs 1705 446 10162 4394 rc
gr

gs 2441 274 9705 4115 rc
6687 2119 mt 6883 2315 L
6883 2119 mt 6687 2315 L
gr

gs 1705 446 10162 4394 rc
gr

gs 2441 274 9705 4115 rc
5671 3989 mt 5867 4185 L
5867 3989 mt 5671 4185 L
gr

gs 1705 446 10162 4394 rc
gr

gs 2441 274 9705 4115 rc
5671 3314 mt 5867 3510 L
5867 3314 mt 5671 3510 L
gr

gs 1705 446 10162 4394 rc
gr

gs 2441 274 9705 4115 rc
5671 2247 mt 5867 2443 L
5867 2247 mt 5671 2443 L
gr

gs 1705 446 10162 4394 rc
gr

gs 2441 274 9705 4115 rc
5671 2275 mt 5867 2471 L
5867 2275 mt 5671 2471 L
gr

gs 1705 446 10162 4394 rc
gr

gs 2441 274 9705 4115 rc
5671 3964 mt 5867 4160 L
5867 3964 mt 5671 4160 L
gr

gs 1705 446 10162 4394 rc
gr

gs 2441 274 9705 4115 rc
5671 2111 mt 5867 2307 L
5867 2111 mt 5671 2307 L
gr

gs 1705 446 10162 4394 rc
gr

gs 2441 274 9705 4115 rc
5671 2200 mt 5867 2396 L
5867 2200 mt 5671 2396 L
gr

gs 1705 446 10162 4394 rc
gr

gs 2441 274 9705 4115 rc
5671 2314 mt 5867 2510 L
5867 2314 mt 5671 2510 L
gr

gs 1705 446 10162 4394 rc
gr

gs 2441 274 9705 4115 rc
5671 3518 mt 5867 3714 L
5867 3518 mt 5671 3714 L
gr

gs 1705 446 10162 4394 rc
gr

gs 2441 274 9705 4115 rc
5671 1412 mt 5867 1608 L
5867 1412 mt 5671 1608 L
gr

gs 1705 446 10162 4394 rc
gr

gs 2441 274 9705 4115 rc
5671 2209 mt 5867 2405 L
5867 2209 mt 5671 2405 L
gr

gs 1705 446 10162 4394 rc
gr

gs 2441 274 9705 4115 rc
5671 2348 mt 5867 2544 L
5867 2348 mt 5671 2544 L
gr

gs 1705 446 10162 4394 rc
gr

gs 2441 274 9705 4115 rc
5671 2579 mt 5867 2775 L
5867 2579 mt 5671 2775 L
gr

gs 1705 446 10162 4394 rc
gr

gs 2441 274 9705 4115 rc
5671 1680 mt 5867 1876 L
5867 1680 mt 5671 1876 L
gr

gs 1705 446 10162 4394 rc
gr

gs 2441 274 9705 4115 rc
5671 2349 mt 5867 2545 L
5867 2349 mt 5671 2545 L
gr

gs 1705 446 10162 4394 rc
gr

gs 2441 274 9705 4115 rc
5671 2324 mt 5867 2520 L
5867 2324 mt 5671 2520 L
gr

gs 1705 446 10162 4394 rc
gr

gs 2441 274 9705 4115 rc
4655 4010 mt 4851 4206 L
4851 4010 mt 4655 4206 L
gr

gs 1705 446 10162 4394 rc
gr

gs 2441 274 9705 4115 rc
4655 3196 mt 4851 3392 L
4851 3196 mt 4655 3392 L
gr

gs 1705 446 10162 4394 rc
gr

gs 2441 274 9705 4115 rc
4655 2277 mt 4851 2473 L
4851 2277 mt 4655 2473 L
gr

gs 1705 446 10162 4394 rc
gr

gs 2441 274 9705 4115 rc
4655 2307 mt 4851 2503 L
4851 2307 mt 4655 2503 L
gr

gs 1705 446 10162 4394 rc
gr

gs 2441 274 9705 4115 rc
4655 3975 mt 4851 4171 L
4851 3975 mt 4655 4171 L
gr

gs 1705 446 10162 4394 rc
gr

gs 2441 274 9705 4115 rc
4655 2860 mt 4851 3056 L
4851 2860 mt 4655 3056 L
gr

gs 1705 446 10162 4394 rc
gr

gs 2441 274 9705 4115 rc
4655 2276 mt 4851 2472 L
4851 2276 mt 4655 2472 L
gr

gs 1705 446 10162 4394 rc
gr

gs 2441 274 9705 4115 rc
4655 2321 mt 4851 2517 L
4851 2321 mt 4655 2517 L
gr

gs 1705 446 10162 4394 rc
gr

gs 2441 274 9705 4115 rc
4655 3959 mt 4851 4155 L
4851 3959 mt 4655 4155 L
gr

gs 1705 446 10162 4394 rc
gr

gs 2441 274 9705 4115 rc
4655 2055 mt 4851 2251 L
4851 2055 mt 4655 2251 L
gr

gs 1705 446 10162 4394 rc
gr

gs 2441 274 9705 4115 rc
4655 2276 mt 4851 2472 L
4851 2276 mt 4655 2472 L
gr

gs 1705 446 10162 4394 rc
gr

gs 2441 274 9705 4115 rc
4655 2317 mt 4851 2513 L
4851 2317 mt 4655 2513 L
gr

gs 1705 446 10162 4394 rc
gr

gs 2441 274 9705 4115 rc
4655 2699 mt 4851 2895 L
4851 2699 mt 4655 2895 L
gr

gs 1705 446 10162 4394 rc
gr

gs 2441 274 9705 4115 rc
4655 1756 mt 4851 1952 L
4851 1756 mt 4655 1952 L
gr

gs 1705 446 10162 4394 rc
gr

gs 2441 274 9705 4115 rc
4655 2316 mt 4851 2512 L
4851 2316 mt 4655 2512 L
gr

gs 1705 446 10162 4394 rc
gr

gs 2441 274 9705 4115 rc
4655 2389 mt 4851 2585 L
4851 2389 mt 4655 2585 L
gr

gs 1705 446 10162 4394 rc
gr

gs 2441 274 9705 4115 rc
3639 4004 mt 3835 4200 L
3835 4004 mt 3639 4200 L
gr

gs 1705 446 10162 4394 rc
gr

gs 2441 274 9705 4115 rc
3639 2931 mt 3835 3127 L
3835 2931 mt 3639 3127 L
gr

gs 1705 446 10162 4394 rc
gr

gs 2441 274 9705 4115 rc
3639 1973 mt 3835 2169 L
3835 1973 mt 3639 2169 L
gr

gs 1705 446 10162 4394 rc
gr

gs 2441 274 9705 4115 rc
3639 2014 mt 3835 2210 L
3835 2014 mt 3639 2210 L
gr

gs 1705 446 10162 4394 rc
gr

gs 2441 274 9705 4115 rc
3639 3997 mt 3835 4193 L
3835 3997 mt 3639 4193 L
gr

gs 1705 446 10162 4394 rc
gr

gs 2441 274 9705 4115 rc
3639 2544 mt 3835 2740 L
3835 2544 mt 3639 2740 L
gr

gs 1705 446 10162 4394 rc
gr

gs 2441 274 9705 4115 rc
3639 2055 mt 3835 2251 L
3835 2055 mt 3639 2251 L
gr

gs 1705 446 10162 4394 rc
gr

gs 2441 274 9705 4115 rc
3639 2031 mt 3835 2227 L
3835 2031 mt 3639 2227 L
gr

gs 1705 446 10162 4394 rc
gr

gs 2441 274 9705 4115 rc
3639 3973 mt 3835 4169 L
3835 3973 mt 3639 4169 L
gr

gs 1705 446 10162 4394 rc
gr

gs 2441 274 9705 4115 rc
3639 2313 mt 3835 2509 L
3835 2313 mt 3639 2509 L
gr

gs 1705 446 10162 4394 rc
gr

gs 2441 274 9705 4115 rc
3639 2052 mt 3835 2248 L
3835 2052 mt 3639 2248 L
gr

gs 1705 446 10162 4394 rc
gr

gs 2441 274 9705 4115 rc
3639 2042 mt 3835 2238 L
3835 2042 mt 3639 2238 L
gr

gs 1705 446 10162 4394 rc
gr

gs 2441 274 9705 4115 rc
3639 3611 mt 3835 3807 L
3835 3611 mt 3639 3807 L
gr

gs 1705 446 10162 4394 rc
gr

gs 2441 274 9705 4115 rc
3639 1822 mt 3835 2018 L
3835 1822 mt 3639 2018 L
gr

gs 1705 446 10162 4394 rc
gr

gs 2441 274 9705 4115 rc
3639 2068 mt 3835 2264 L
3835 2068 mt 3639 2264 L
gr

gs 1705 446 10162 4394 rc
gr

gs 2441 274 9705 4115 rc
3639 2109 mt 3835 2305 L
3835 2109 mt 3639 2305 L
gr

gs 1705 446 10162 4394 rc
gr

gs 2441 274 9705 4115 rc
2623 4010 mt 2819 4206 L
2819 4010 mt 2623 4206 L
gr

gs 1705 446 10162 4394 rc
gr

gs 2441 274 9705 4115 rc
2623 2441 mt 2819 2637 L
2819 2441 mt 2623 2637 L
gr

gs 1705 446 10162 4394 rc
gr

gs 2441 274 9705 4115 rc
2623 1898 mt 2819 2094 L
2819 1898 mt 2623 2094 L
gr

gs 1705 446 10162 4394 rc
gr

gs 2441 274 9705 4115 rc
2623 1910 mt 2819 2106 L
2819 1910 mt 2623 2106 L
gr

gs 1705 446 10162 4394 rc
gr

gs 2441 274 9705 4115 rc
2623 4007 mt 2819 4203 L
2819 4007 mt 2623 4203 L
gr

gs 1705 446 10162 4394 rc
gr

gs 2441 274 9705 4115 rc
2623 2077 mt 2819 2273 L
2819 2077 mt 2623 2273 L
gr

gs 1705 446 10162 4394 rc
gr

gs 2441 274 9705 4115 rc
2623 1911 mt 2819 2107 L
2819 1911 mt 2623 2107 L
gr

gs 1705 446 10162 4394 rc
gr

gs 2441 274 9705 4115 rc
2623 1903 mt 2819 2099 L
2819 1903 mt 2623 2099 L
gr

gs 1705 446 10162 4394 rc
gr

gs 2441 274 9705 4115 rc
2623 3991 mt 2819 4187 L
2819 3991 mt 2623 4187 L
gr

gs 1705 446 10162 4394 rc
gr

gs 2441 274 9705 4115 rc
2623 2062 mt 2819 2258 L
2819 2062 mt 2623 2258 L
gr

gs 1705 446 10162 4394 rc
gr

gs 2441 274 9705 4115 rc
2623 1985 mt 2819 2181 L
2819 1985 mt 2623 2181 L
gr

gs 1705 446 10162 4394 rc
gr

gs 2441 274 9705 4115 rc
2623 1960 mt 2819 2156 L
2819 1960 mt 2623 2156 L
gr

gs 1705 446 10162 4394 rc
gr

gs 2441 274 9705 4115 rc
2623 3710 mt 2819 3906 L
2819 3710 mt 2623 3906 L
gr

gs 1705 446 10162 4394 rc
gr

gs 2441 274 9705 4115 rc
2623 2093 mt 2819 2289 L
2819 2093 mt 2623 2289 L
gr

gs 1705 446 10162 4394 rc
gr

gs 2441 274 9705 4115 rc
2623 1973 mt 2819 2169 L
2819 1973 mt 2623 2169 L
gr

gs 1705 446 10162 4394 rc
gr

gs 2441 274 9705 4115 rc
2623 1944 mt 2819 2140 L
2819 1944 mt 2623 2140 L
gr

gs 1705 446 10162 4394 rc
gr

0 sg
%%IncludeResource: font Helvetica
/Helvetica /ISOLatin1Encoding 600 FMSR

3949 5816 mt 
(Log10 UCB Constant) s
1214 4260 mt  -90 rotate
(Mean Score) s
90 rotate
%%IncludeResource: font Helvetica
/Helvetica /ISOLatin1Encoding 120 FMSR

1688 4882 mt 
( ) s
11850  488 mt 
( ) s
1 sg
0 1437 2865 0 0 -1437 1826 1948 4 MP
PP
-2865 0 0 1437 2865 0 0 -1437 1826 1948 5 MP stroke
4 w
DO
SO
6 w
0 sg
1826 1948 mt 4691 1948 L
1826  511 mt 4691  511 L
1826 1948 mt 1826  511 L
4691 1948 mt 4691  511 L
1826 1948 mt 4691 1948 L
1826 1948 mt 1826  511 L
1826 1948 mt 4691 1948 L
1826  511 mt 4691  511 L
1826 1948 mt 1826  511 L
4691 1948 mt 4691  511 L
%%IncludeResource: font Helvetica
/Helvetica /ISOLatin1Encoding 480 FMSR

2310 1050 mt 
(UCT) s
gs 1826 511 2866 1438 rc
0 j
gs 2013 807 147 147 rc
0 -58 -58 0 0 58 58 0 2057 851 5 MP
c8
gs
PP
gr
DP
gr

c8
gr

c8
0 sg
2310 1748 mt 
(mNN-UCT) s
gs 1826 511 2866 1438 rc
0 j
gs 2013 1505 147 147 rc
c9
2061 1553 mt 2111 1603 L
2111 1553 mt 2061 1603 L
gr

c9
gr

c9

end %%Color Dict

eplot
%%EndObject

epage
end

showpage

%%Trailer
%%EOF
