%!PS-Adobe-3.0 EPSF-3.0
%%Creator: MATLAB, The Mathworks, Inc. Version 7.9.0.529 (R2009b). Operating System: Linux 3.13.0-36-generic #63-Ubuntu SMP Wed Sep 3 21:30:45 UTC 2014 i686.
%%Title: /home/sriram/ferl/Thesis/Research/Thesis/Manifold/swiss_roll.eps
%%CreationDate: 10/15/2014  16:32:02
%%DocumentNeededFonts: Helvetica
%%DocumentProcessColors: Cyan Magenta Yellow Black
%%LanguageLevel: 2
%%Pages: 1
%%BoundingBox:  -239   130   853   660
%%EndComments

%%BeginProlog
% MathWorks dictionary
/MathWorks 160 dict begin
% definition operators
/bdef {bind def} bind def
/ldef {load def} bind def
/xdef {exch def} bdef
/xstore {exch store} bdef
% operator abbreviations
/c  /clip ldef
/cc /concat ldef
/cp /closepath ldef
/gr /grestore ldef
/gs /gsave ldef
/mt /moveto ldef
/np /newpath ldef
/cm /currentmatrix ldef
/sm /setmatrix ldef
/rm /rmoveto ldef
/rl /rlineto ldef
/s {show newpath} bdef
/sc {setcmykcolor} bdef
/sr /setrgbcolor ldef
/sg /setgray ldef
/w /setlinewidth ldef
/j /setlinejoin ldef
/cap /setlinecap ldef
/rc {rectclip} bdef
/rf {rectfill} bdef
% page state control
/pgsv () def
/bpage {/pgsv save def} bdef
/epage {pgsv restore} bdef
/bplot /gsave ldef
/eplot {stroke grestore} bdef
% orientation switch
/portraitMode 0 def /landscapeMode 1 def /rotateMode 2 def
% coordinate system mappings
/dpi2point 0 def
% font control
/FontSize 0 def
/FMS {/FontSize xstore findfont [FontSize 0 0 FontSize neg 0 0]
  makefont setfont} bdef
/reencode {exch dup where {pop load} {pop StandardEncoding} ifelse
  exch dup 3 1 roll findfont dup length dict begin
  { 1 index /FID ne {def}{pop pop} ifelse } forall
  /Encoding exch def currentdict end definefont pop} bdef
/isroman {findfont /CharStrings get /Agrave known} bdef
/FMSR {3 1 roll 1 index dup isroman {reencode} {pop pop} ifelse
  exch FMS} bdef
/csm {1 dpi2point div -1 dpi2point div scale neg translate
 dup landscapeMode eq {pop -90 rotate}
  {rotateMode eq {90 rotate} if} ifelse} bdef
% line types: solid, dotted, dashed, dotdash
/SO { [] 0 setdash } bdef
/DO { [.5 dpi2point mul 4 dpi2point mul] 0 setdash } bdef
/DA { [6 dpi2point mul] 0 setdash } bdef
/DD { [.5 dpi2point mul 4 dpi2point mul 6 dpi2point mul 4
  dpi2point mul] 0 setdash } bdef
% macros for lines and objects
/L {lineto stroke} bdef
/MP {3 1 roll moveto 1 sub {rlineto} repeat} bdef
/AP {{rlineto} repeat} bdef
/PDlw -1 def
/W {/PDlw currentlinewidth def setlinewidth} def
/PP {closepath eofill} bdef
/DP {closepath stroke} bdef
/MR {4 -2 roll moveto dup  0 exch rlineto exch 0 rlineto
  neg 0 exch rlineto closepath} bdef
/FR {MR stroke} bdef
/PR {MR fill} bdef
/L1i {{currentfile picstr readhexstring pop} image} bdef
/tMatrix matrix def
/MakeOval {newpath tMatrix currentmatrix pop translate scale
0 0 1 0 360 arc tMatrix setmatrix} bdef
/FO {MakeOval stroke} bdef
/PO {MakeOval fill} bdef
/PD {currentlinewidth 2 div 0 360 arc fill
   PDlw -1 eq not {PDlw w /PDlw -1 def} if} def
/FA {newpath tMatrix currentmatrix pop translate scale
  0 0 1 5 -2 roll arc tMatrix setmatrix stroke} bdef
/PA {newpath tMatrix currentmatrix pop	translate 0 0 moveto scale
  0 0 1 5 -2 roll arc closepath tMatrix setmatrix fill} bdef
/FAn {newpath tMatrix currentmatrix pop translate scale
  0 0 1 5 -2 roll arcn tMatrix setmatrix stroke} bdef
/PAn {newpath tMatrix currentmatrix pop translate 0 0 moveto scale
  0 0 1 5 -2 roll arcn closepath tMatrix setmatrix fill} bdef
/vradius 0 def /hradius 0 def /lry 0 def
/lrx 0 def /uly 0 def /ulx 0 def /rad 0 def
/MRR {/vradius xdef /hradius xdef /lry xdef /lrx xdef /uly xdef
  /ulx xdef newpath tMatrix currentmatrix pop ulx hradius add uly
  vradius add translate hradius vradius scale 0 0 1 180 270 arc 
  tMatrix setmatrix lrx hradius sub uly vradius add translate
  hradius vradius scale 0 0 1 270 360 arc tMatrix setmatrix
  lrx hradius sub lry vradius sub translate hradius vradius scale
  0 0 1 0 90 arc tMatrix setmatrix ulx hradius add lry vradius sub
  translate hradius vradius scale 0 0 1 90 180 arc tMatrix setmatrix
  closepath} bdef
/FRR {MRR stroke } bdef
/PRR {MRR fill } bdef
/MlrRR {/lry xdef /lrx xdef /uly xdef /ulx xdef /rad lry uly sub 2 div def
  newpath tMatrix currentmatrix pop ulx rad add uly rad add translate
  rad rad scale 0 0 1 90 270 arc tMatrix setmatrix lrx rad sub lry rad
  sub translate rad rad scale 0 0 1 270 90 arc tMatrix setmatrix
  closepath} bdef
/FlrRR {MlrRR stroke } bdef
/PlrRR {MlrRR fill } bdef
/MtbRR {/lry xdef /lrx xdef /uly xdef /ulx xdef /rad lrx ulx sub 2 div def
  newpath tMatrix currentmatrix pop ulx rad add uly rad add translate
  rad rad scale 0 0 1 180 360 arc tMatrix setmatrix lrx rad sub lry rad
  sub translate rad rad scale 0 0 1 0 180 arc tMatrix setmatrix
  closepath} bdef
/FtbRR {MtbRR stroke } bdef
/PtbRR {MtbRR fill } bdef
/stri 6 array def /dtri 6 array def
/smat 6 array def /dmat 6 array def
/tmat1 6 array def /tmat2 6 array def /dif 3 array def
/asub {/ind2 exch def /ind1 exch def dup dup
  ind1 get exch ind2 get sub exch } bdef
/tri_to_matrix {
  2 0 asub 3 1 asub 4 0 asub 5 1 asub
  dup 0 get exch 1 get 7 -1 roll astore } bdef
/compute_transform {
  dmat dtri tri_to_matrix tmat1 invertmatrix 
  smat stri tri_to_matrix tmat2 concatmatrix } bdef
/ds {stri astore pop} bdef
/dt {dtri astore pop} bdef
/db {2 copy /cols xdef /rows xdef mul dup 3 mul string
  currentfile 
  3 index 0 eq {/ASCIIHexDecode filter}
  {/ASCII85Decode filter 3 index 2 eq {/RunLengthDecode filter} if }
  ifelse exch readstring pop
  dup 0 3 index getinterval /rbmap xdef
  dup 2 index dup getinterval /gbmap xdef
  1 index dup 2 mul exch getinterval /bbmap xdef pop pop}bdef
/it {gs np dtri aload pop moveto lineto lineto cp c
  cols rows 8 compute_transform 
  rbmap gbmap bbmap true 3 colorimage gr}bdef
/il {newpath moveto lineto stroke}bdef
currentdict end def
%%EndProlog

%%BeginSetup
MathWorks begin

0 cap

end
%%EndSetup

%%Page: 1 1
%%BeginPageSetup
%%PageBoundingBox:  -239   130   853   660
MathWorks begin
bpage
%%EndPageSetup

%%BeginObject: obj1
bplot

/dpi2point 12 def
portraitMode -2868 7920 csm

    0     0 13112  6355 rc
86 dict begin %Colortable dictionary
/c0 { 0.000000 0.000000 0.000000 sr} bdef
/c1 { 1.000000 1.000000 1.000000 sr} bdef
/c2 { 0.900000 0.000000 0.000000 sr} bdef
/c3 { 0.000000 0.820000 0.000000 sr} bdef
/c4 { 0.000000 0.000000 0.800000 sr} bdef
/c5 { 0.910000 0.820000 0.320000 sr} bdef
/c6 { 1.000000 0.260000 0.820000 sr} bdef
/c7 { 0.000000 0.820000 0.820000 sr} bdef
c0
1 j
1 sg
   0    0 13113 6356 rf
6 w
0 4029 -1389 -992 0 -4029 11865 5498 4 MP
PP
1389 992 0 4029 -1389 -992 0 -4029 11865 5498 5 MP stroke
1389 992 8772 -157 -1390 -993 3094 5656 4 MP
PP
-8771 158 1389 992 8772 -157 -1390 -993 3094 5656 5 MP stroke
0 4029 8772 -157 0 -4029 1704 4663 4 MP
PP
-8772 157 0 4029 8772 -157 0 -4029 1704 4663 5 MP stroke
4 w
DO
SO
6 w
0 sg
3094 5656 mt 11865 5498 L
3094 5656 mt 1704 4663 L
1704 4663 mt 1704  634 L
3094 5656 mt 3272 5783 L
%%IncludeResource: font Helvetica
/Helvetica /ISOLatin1Encoding 120 FMSR

3300 5914 mt 
(-20) s
4347 5633 mt 4525 5760 L
4553 5892 mt 
(-15) s
5600 5611 mt 5778 5738 L
5806 5869 mt 
(-10) s
6853 5588 mt 7031 5716 L
7060 5847 mt 
(-5) s
8106 5566 mt 8285 5693 L
8313 5824 mt 
(0) s
9359 5543 mt 9538 5671 L
9566 5802 mt 
(5) s
10612 5521 mt 10791 5648 L
10819 5779 mt 
(10) s
11865 5498 mt 12044 5626 L
12072 5757 mt 
(15) s
3094 5656 mt 2875 5659 L
2774 5771 mt 
(0) s
2746 5407 mt 2527 5411 L
2427 5523 mt 
(5) s
2399 5159 mt 2180 5163 L
2012 5275 mt 
(10) s
2052 4911 mt 1833 4915 L
1665 5027 mt 
(15) s
1704 4663 mt 1485 4667 L
1318 4779 mt 
(20) s
1704 4663 mt 1526 4536 L
1295 4560 mt 
(-15) s
1704 3992 mt 1526 3864 L
1295 3888 mt 
(-10) s
1704 3320 mt 1526 3193 L
1362 3217 mt 
(-5) s
1704 2648 mt 1526 2521 L
1432 2545 mt 
(0) s
1704 1977 mt 1526 1849 L
1432 1873 mt 
(5) s
1704 1305 mt 1526 1178 L
1365 1202 mt 
(10) s
1704  634 mt 1526  506 L
1365  530 mt 
(15) s
gs 1704 477 10162 5180 rc
gr

/c8 { 0.000000 1.000000 0.000000 sr} bdef
c8
  36   36 4773 3019 FO
gs 1704 477 10162 5180 rc
gr

  36   36 4840 3298 FO
gs 1704 477 10162 5180 rc
gr

  36   36 4769 2857 FO
gs 1704 477 10162 5180 rc
gr

0 sg
  36   36 5190 1188 FO
gs 1704 477 10162 5180 rc
gr

  36   36 5432 1117 FO
gs 1704 477 10162 5180 rc
gr

c8
  36   36 5712 2024 FO
gs 1704 477 10162 5180 rc
gr

  36   36 8634 2447 FO
gs 1704 477 10162 5180 rc
gr

  36   36 8700 2552 FO
gs 1704 477 10162 5180 rc
gr

  36   36 8346 2134 FO
gs 1704 477 10162 5180 rc
gr

  36   36 6663 1802 FO
gs 1704 477 10162 5180 rc
gr

  36   36 6679 1832 FO
gs 1704 477 10162 5180 rc
gr

  36   36 8550 3066 FO
gs 1704 477 10162 5180 rc
gr

  36   36 8316 2112 FO
gs 1704 477 10162 5180 rc
gr

  36   36 4992 2841 FO
gs 1704 477 10162 5180 rc
gr

  36   36 5217 2604 FO
gs 1704 477 10162 5180 rc
gr

0 sg
  36   36 7467 4356 FO
gs 1704 477 10162 5180 rc
gr

c8
  36   36 7251 1839 FO
gs 1704 477 10162 5180 rc
gr

0 sg
  36   36 6093 4252 FO
gs 1704 477 10162 5180 rc
gr

  36   36 5619 4050 FO
gs 1704 477 10162 5180 rc
gr

  36   36 7787  997 FO
gs 1704 477 10162 5180 rc
gr

c8
  36   36 7276 1846 FO
gs 1704 477 10162 5180 rc
gr

  36   36 6109 1926 FO
gs 1704 477 10162 5180 rc
gr

0 sg
  36   36 6657 4359 FO
gs 1704 477 10162 5180 rc
gr

c8
  36   36 8497 2250 FO
gs 1704 477 10162 5180 rc
gr

  36   36 8602 2357 FO
gs 1704 477 10162 5180 rc
gr

  36   36 8653 2420 FO
gs 1704 477 10162 5180 rc
gr

  36   36 8736 2532 FO
gs 1704 477 10162 5180 rc
gr

  36   36 8541 2285 FO
gs 1704 477 10162 5180 rc
gr

  36   36 8417 2186 FO
gs 1704 477 10162 5180 rc
gr

  36   36 8583 3152 FO
gs 1704 477 10162 5180 rc
gr

  36   36 5706 2229 FO
gs 1704 477 10162 5180 rc
gr

0 sg
  36   36 5888 4166 FO
gs 1704 477 10162 5180 rc
gr

c8
  36   36 5717 2007 FO
gs 1704 477 10162 5180 rc
gr

  36   36 5802 2158 FO
gs 1704 477 10162 5180 rc
gr

  36   36 8589 2335 FO
gs 1704 477 10162 5180 rc
gr

  36   36 8630 2379 FO
gs 1704 477 10162 5180 rc
gr

  36   36 8452 2210 FO
gs 1704 477 10162 5180 rc
gr

0 sg
  36   36 9050 4019 FO
gs 1704 477 10162 5180 rc
gr

  36   36 9431 3823 FO
gs 1704 477 10162 5180 rc
gr

  36   36 7668 4369 FO
gs 1704 477 10162 5180 rc
gr

  36   36 8640 4175 FO
gs 1704 477 10162 5180 rc
gr

  36   36 9096 4024 FO
gs 1704 477 10162 5180 rc
gr

  36   36 9315 1445 FO
gs 1704 477 10162 5180 rc
gr

  36   36 8513 4227 FO
gs 1704 477 10162 5180 rc
gr

c8
  36   36 8673 2418 FO
gs 1704 477 10162 5180 rc
gr

  36   36 8429 2196 FO
gs 1704 477 10162 5180 rc
gr

  36   36 8742 2507 FO
gs 1704 477 10162 5180 rc
gr

  36   36 6252 1949 FO
gs 1704 477 10162 5180 rc
gr

  36   36 6298 1938 FO
gs 1704 477 10162 5180 rc
gr

  36   36 6541 1897 FO
gs 1704 477 10162 5180 rc
gr

  36   36 6716 1856 FO
gs 1704 477 10162 5180 rc
gr

  36   36 6722 1876 FO
gs 1704 477 10162 5180 rc
gr

  36   36 5088 2663 FO
gs 1704 477 10162 5180 rc
gr

  36   36 7375 1821 FO
gs 1704 477 10162 5180 rc
gr

  36   36 7769 1943 FO
gs 1704 477 10162 5180 rc
gr

0 sg
  36   36 6318 4231 FO
gs 1704 477 10162 5180 rc
gr

  36   36 7906 4341 FO
gs 1704 477 10162 5180 rc
gr

  36   36 9115 4128 FO
gs 1704 477 10162 5180 rc
gr

  36   36 9257 3968 FO
gs 1704 477 10162 5180 rc
gr

  36   36 9077 4052 FO
gs 1704 477 10162 5180 rc
gr

  36   36 8592 4246 FO
gs 1704 477 10162 5180 rc
gr

  36   36 9245 3862 FO
gs 1704 477 10162 5180 rc
gr

  36   36 8187 4318 FO
gs 1704 477 10162 5180 rc
gr

  36   36 8003 4384 FO
gs 1704 477 10162 5180 rc
gr

  36   36 8308 4266 FO
gs 1704 477 10162 5180 rc
gr

  36   36 8359 4258 FO
gs 1704 477 10162 5180 rc
gr

  36   36 7863 4436 FO
gs 1704 477 10162 5180 rc
gr

  36   36 8576 4323 FO
gs 1704 477 10162 5180 rc
gr

  36   36 9153 4061 FO
gs 1704 477 10162 5180 rc
gr

  36   36 9570 3802 FO
gs 1704 477 10162 5180 rc
gr

  36   36 9575 3864 FO
gs 1704 477 10162 5180 rc
gr

  36   36 8563 4167 FO
gs 1704 477 10162 5180 rc
gr

  36   36 10248 2489 FO
gs 1704 477 10162 5180 rc
gr

  36   36 9474 1539 FO
gs 1704 477 10162 5180 rc
gr

  36   36 9353 3959 FO
gs 1704 477 10162 5180 rc
gr

  36   36 9534 4012 FO
gs 1704 477 10162 5180 rc
gr

  36   36 9538 3959 FO
gs 1704 477 10162 5180 rc
gr

  36   36 9638 3844 FO
gs 1704 477 10162 5180 rc
gr

c8
  36   36 8697 2675 FO
gs 1704 477 10162 5180 rc
gr

  36   36 8526 2263 FO
gs 1704 477 10162 5180 rc
gr

  36   36 8814 2662 FO
gs 1704 477 10162 5180 rc
gr

0 sg
  36   36 7623 4352 FO
gs 1704 477 10162 5180 rc
gr

  36   36 9067 4078 FO
gs 1704 477 10162 5180 rc
gr

  36   36 9223 1434 FO
gs 1704 477 10162 5180 rc
gr

  36   36 9288 4139 FO
gs 1704 477 10162 5180 rc
gr

  36   36 9652 3784 FO
gs 1704 477 10162 5180 rc
gr

  36   36 9695 3888 FO
gs 1704 477 10162 5180 rc
gr

  36   36 9813 3691 FO
gs 1704 477 10162 5180 rc
gr

  36   36 9766 1730 FO
gs 1704 477 10162 5180 rc
gr

  36   36 10253 2407 FO
gs 1704 477 10162 5180 rc
gr

  36   36 10116 3394 FO
gs 1704 477 10162 5180 rc
gr

  36   36 10050 3353 FO
gs 1704 477 10162 5180 rc
gr

  36   36 10214 3146 FO
gs 1704 477 10162 5180 rc
gr

  36   36 10255 2975 FO
gs 1704 477 10162 5180 rc
gr

  36   36 6463 4321 FO
gs 1704 477 10162 5180 rc
gr

  36   36 9822 3799 FO
gs 1704 477 10162 5180 rc
gr

  36   36 10174 3306 FO
gs 1704 477 10162 5180 rc
gr

  36   36 9896 3547 FO
gs 1704 477 10162 5180 rc
gr

  36   36 10222 3259 FO
gs 1704 477 10162 5180 rc
gr

  36   36 8895 1318 FO
gs 1704 477 10162 5180 rc
gr

  36   36 9535 4033 FO
gs 1704 477 10162 5180 rc
gr

  36   36 10330 2775 FO
gs 1704 477 10162 5180 rc
gr

  36   36 10300 2378 FO
gs 1704 477 10162 5180 rc
gr

  36   36 10312 2796 FO
gs 1704 477 10162 5180 rc
gr

  36   36 10371 2412 FO
gs 1704 477 10162 5180 rc
gr

  36   36 10346 2533 FO
gs 1704 477 10162 5180 rc
gr

  36   36 10371 2481 FO
gs 1704 477 10162 5180 rc
gr

  36   36 10295 2316 FO
gs 1704 477 10162 5180 rc
gr

  36   36 10319 3153 FO
gs 1704 477 10162 5180 rc
gr

  36   36 9828 1794 FO
gs 1704 477 10162 5180 rc
gr

  36   36 10009 1959 FO
gs 1704 477 10162 5180 rc
gr

  36   36 10029 1963 FO
gs 1704 477 10162 5180 rc
gr

  36   36 10188 2075 FO
gs 1704 477 10162 5180 rc
gr

  36   36 10350 2890 FO
gs 1704 477 10162 5180 rc
gr

  36   36 10373 2808 FO
gs 1704 477 10162 5180 rc
gr

  36   36 10376 2911 FO
gs 1704 477 10162 5180 rc
gr

  36   36 10390 2785 FO
gs 1704 477 10162 5180 rc
gr

  36   36 10521 2711 FO
gs 1704 477 10162 5180 rc
gr

  36   36 10360 2643 FO
gs 1704 477 10162 5180 rc
gr

  36   36 10385 2615 FO
gs 1704 477 10162 5180 rc
gr

  36   36 9929 3624 FO
gs 1704 477 10162 5180 rc
gr

  36   36 10374 2941 FO
gs 1704 477 10162 5180 rc
gr

  36   36 10220 3383 FO
gs 1704 477 10162 5180 rc
gr

  36   36 10145 3397 FO
gs 1704 477 10162 5180 rc
gr

  36   36 10127 3432 FO
gs 1704 477 10162 5180 rc
gr

  36   36 10226 3276 FO
gs 1704 477 10162 5180 rc
gr

  36   36 10374 2973 FO
gs 1704 477 10162 5180 rc
gr

  36   36 10417 2864 FO
gs 1704 477 10162 5180 rc
gr

  36   36 10439 2796 FO
gs 1704 477 10162 5180 rc
gr

  36   36 10378 3030 FO
gs 1704 477 10162 5180 rc
gr

  36   36 10365 3100 FO
gs 1704 477 10162 5180 rc
gr

  36   36 10337 2305 FO
gs 1704 477 10162 5180 rc
gr

  36   36 10429 2494 FO
gs 1704 477 10162 5180 rc
gr

  36   36 10418 2688 FO
gs 1704 477 10162 5180 rc
gr

  36   36 9101 1394 FO
gs 1704 477 10162 5180 rc
gr

  36   36 10162 2110 FO
gs 1704 477 10162 5180 rc
gr

  36   36 10396 2982 FO
gs 1704 477 10162 5180 rc
gr

  36   36 10290 3294 FO
gs 1704 477 10162 5180 rc
gr

  36   36 10377 3254 FO
gs 1704 477 10162 5180 rc
gr

  36   36 10432 3057 FO
gs 1704 477 10162 5180 rc
gr

  36   36 10379 3154 FO
gs 1704 477 10162 5180 rc
gr

  36   36 10286 3295 FO
gs 1704 477 10162 5180 rc
gr

  36   36 10349 3152 FO
gs 1704 477 10162 5180 rc
gr

  36   36 10332 3296 FO
gs 1704 477 10162 5180 rc
gr

  36   36 10451 2587 FO
gs 1704 477 10162 5180 rc
gr

  36   36 10345 3270 FO
gs 1704 477 10162 5180 rc
gr

  36   36 10456 3010 FO
gs 1704 477 10162 5180 rc
gr

  36   36 10188 2104 FO
gs 1704 477 10162 5180 rc
gr

  36   36 10183 3508 FO
gs 1704 477 10162 5180 rc
gr

  36   36 10436 2906 FO
gs 1704 477 10162 5180 rc
gr

  36   36 10166 3431 FO
gs 1704 477 10162 5180 rc
gr

  36   36 10414 2444 FO
gs 1704 477 10162 5180 rc
gr

  36   36 9194 1441 FO
gs 1704 477 10162 5180 rc
gr

  36   36 10027 3649 FO
gs 1704 477 10162 5180 rc
gr

  36   36 9808 3843 FO
gs 1704 477 10162 5180 rc
gr

  36   36 7005 4443 FO
gs 1704 477 10162 5180 rc
gr

c8
  36   36 7556 1837 FO
gs 1704 477 10162 5180 rc
gr

  36   36 7744 1969 FO
gs 1704 477 10162 5180 rc
gr

  36   36 7791 1970 FO
gs 1704 477 10162 5180 rc
gr

  36   36 7674 1961 FO
gs 1704 477 10162 5180 rc
gr

  36   36 8644 2359 FO
gs 1704 477 10162 5180 rc
gr

  36   36 8672 2810 FO
gs 1704 477 10162 5180 rc
gr

  36   36 8827 2982 FO
gs 1704 477 10162 5180 rc
gr

  36   36 8869 2810 FO
gs 1704 477 10162 5180 rc
gr

  36   36 8739 2445 FO
gs 1704 477 10162 5180 rc
gr

  36   36 8830 3009 FO
gs 1704 477 10162 5180 rc
gr

  36   36 8867 2661 FO
gs 1704 477 10162 5180 rc
gr

  36   36 8848 2587 FO
gs 1704 477 10162 5180 rc
gr

  36   36 8770 3185 FO
gs 1704 477 10162 5180 rc
gr

  36   36 8856 2733 FO
gs 1704 477 10162 5180 rc
gr

  36   36 8993 2761 FO
gs 1704 477 10162 5180 rc
gr

  36   36 8864 2689 FO
gs 1704 477 10162 5180 rc
gr

  36   36 8919 2852 FO
gs 1704 477 10162 5180 rc
gr

  36   36 8942 2757 FO
gs 1704 477 10162 5180 rc
gr

0 sg
  36   36 5971 1165 FO
gs 1704 477 10162 5180 rc
gr

c8
  36   36 8737 2970 FO
gs 1704 477 10162 5180 rc
gr

0 sg
  36   36 10484 2609 FO
gs 1704 477 10162 5180 rc
gr

  36   36 10544 3095 FO
gs 1704 477 10162 5180 rc
gr

  36   36 10204 2091 FO
gs 1704 477 10162 5180 rc
gr

  36   36 10245 2130 FO
gs 1704 477 10162 5180 rc
gr

  36   36 10474 2543 FO
gs 1704 477 10162 5180 rc
gr

  36   36 9568 1604 FO
gs 1704 477 10162 5180 rc
gr

  36   36 10375 2323 FO
gs 1704 477 10162 5180 rc
gr

  36   36 10192 3527 FO
gs 1704 477 10162 5180 rc
gr

  36   36 10349 3347 FO
gs 1704 477 10162 5180 rc
gr

  36   36 10515 2820 FO
gs 1704 477 10162 5180 rc
gr

c8
  36   36 8963 2903 FO
gs 1704 477 10162 5180 rc
gr

  36   36 8850 3087 FO
gs 1704 477 10162 5180 rc
gr

  36   36 8890 2797 FO
gs 1704 477 10162 5180 rc
gr

  36   36 8882 2760 FO
gs 1704 477 10162 5180 rc
gr

  36   36 8899 2777 FO
gs 1704 477 10162 5180 rc
gr

  36   36 8814 2499 FO
gs 1704 477 10162 5180 rc
gr

  36   36 8824 3171 FO
gs 1704 477 10162 5180 rc
gr

  36   36 8883 3283 FO
gs 1704 477 10162 5180 rc
gr

  36   36 8872 2854 FO
gs 1704 477 10162 5180 rc
gr

  36   36 8744 3127 FO
gs 1704 477 10162 5180 rc
gr

  36   36 8877 2609 FO
gs 1704 477 10162 5180 rc
gr

  36   36 7689 1977 FO
gs 1704 477 10162 5180 rc
gr

  36   36 8737 2439 FO
gs 1704 477 10162 5180 rc
gr

  36   36 8768 2460 FO
gs 1704 477 10162 5180 rc
gr

  36   36 8423 2195 FO
gs 1704 477 10162 5180 rc
gr

  36   36 8269 2143 FO
gs 1704 477 10162 5180 rc
gr

  36   36 8398 2213 FO
gs 1704 477 10162 5180 rc
gr

  36   36 7932 2056 FO
gs 1704 477 10162 5180 rc
gr

  36   36 7909 3562 FO
gs 1704 477 10162 5180 rc
gr

  36   36 8917 2753 FO
gs 1704 477 10162 5180 rc
gr

  36   36 8825 2878 FO
gs 1704 477 10162 5180 rc
gr

  36   36 8859 3013 FO
gs 1704 477 10162 5180 rc
gr

  36   36 7807 1981 FO
gs 1704 477 10162 5180 rc
gr

  36   36 7893 1993 FO
gs 1704 477 10162 5180 rc
gr

  36   36 7971 2014 FO
gs 1704 477 10162 5180 rc
gr

  36   36 7939 1962 FO
gs 1704 477 10162 5180 rc
gr

  36   36 8099 2053 FO
gs 1704 477 10162 5180 rc
gr

  36   36 8033 2039 FO
gs 1704 477 10162 5180 rc
gr

0 sg
  36   36 8369 4366 FO
gs 1704 477 10162 5180 rc
gr

  36   36 9399 4123 FO
gs 1704 477 10162 5180 rc
gr

  36   36 8847 4345 FO
gs 1704 477 10162 5180 rc
gr

  36   36 10114 3630 FO
gs 1704 477 10162 5180 rc
gr

  36   36 10456 3068 FO
gs 1704 477 10162 5180 rc
gr

  36   36 10145 3572 FO
gs 1704 477 10162 5180 rc
gr

  36   36 10436 3291 FO
gs 1704 477 10162 5180 rc
gr

  36   36 10417 2593 FO
gs 1704 477 10162 5180 rc
gr

  36   36 10386 2501 FO
gs 1704 477 10162 5180 rc
gr

  36   36 10435 2552 FO
gs 1704 477 10162 5180 rc
gr

  36   36 10368 2847 FO
gs 1704 477 10162 5180 rc
gr

  36   36 10148 2081 FO
gs 1704 477 10162 5180 rc
gr

  36   36 10444 2837 FO
gs 1704 477 10162 5180 rc
gr

  36   36 10168 2038 FO
gs 1704 477 10162 5180 rc
gr

  36   36 10342 2987 FO
gs 1704 477 10162 5180 rc
gr

  36   36 10360 2436 FO
gs 1704 477 10162 5180 rc
gr

  36   36 10325 2289 FO
gs 1704 477 10162 5180 rc
gr

  36   36 10398 2454 FO
gs 1704 477 10162 5180 rc
gr

  36   36 10440 2544 FO
gs 1704 477 10162 5180 rc
gr

  36   36 10332 2824 FO
gs 1704 477 10162 5180 rc
gr

  36   36 10364 2725 FO
gs 1704 477 10162 5180 rc
gr

  36   36 10354 2916 FO
gs 1704 477 10162 5180 rc
gr

  36   36 9340 4119 FO
gs 1704 477 10162 5180 rc
gr

  36   36 9583 4009 FO
gs 1704 477 10162 5180 rc
gr

  36   36 9545 4036 FO
gs 1704 477 10162 5180 rc
gr

  36   36 10104 3643 FO
gs 1704 477 10162 5180 rc
gr

  36   36 10352 2567 FO
gs 1704 477 10162 5180 rc
gr

  36   36 9998 3582 FO
gs 1704 477 10162 5180 rc
gr

  36   36 10329 3110 FO
gs 1704 477 10162 5180 rc
gr

  36   36 9758 3867 FO
gs 1704 477 10162 5180 rc
gr

  36   36 10225 3407 FO
gs 1704 477 10162 5180 rc
gr

  36   36 9658 3931 FO
gs 1704 477 10162 5180 rc
gr

  36   36 9919 1877 FO
gs 1704 477 10162 5180 rc
gr

  36   36 9979 1900 FO
gs 1704 477 10162 5180 rc
gr

  36   36 10332 2657 FO
gs 1704 477 10162 5180 rc
gr

  36   36 10335 2420 FO
gs 1704 477 10162 5180 rc
gr

  36   36 9974 3626 FO
gs 1704 477 10162 5180 rc
gr

  36   36 10331 2412 FO
gs 1704 477 10162 5180 rc
gr

  36   36 9523 1562 FO
gs 1704 477 10162 5180 rc
gr

  36   36 9973 1887 FO
gs 1704 477 10162 5180 rc
gr

  36   36 9545 1598 FO
gs 1704 477 10162 5180 rc
gr

  36   36 10326 3141 FO
gs 1704 477 10162 5180 rc
gr

  36   36 9892 3697 FO
gs 1704 477 10162 5180 rc
gr

  36   36 9887 1817 FO
gs 1704 477 10162 5180 rc
gr

  36   36 10097 1990 FO
gs 1704 477 10162 5180 rc
gr

  36   36 10321 2580 FO
gs 1704 477 10162 5180 rc
gr

  36   36 9851 3703 FO
gs 1704 477 10162 5180 rc
gr

  36   36 10175 2143 FO
gs 1704 477 10162 5180 rc
gr

  36   36 10098 2020 FO
gs 1704 477 10162 5180 rc
gr

  36   36 10338 2430 FO
gs 1704 477 10162 5180 rc
gr

  36   36 10266 3155 FO
gs 1704 477 10162 5180 rc
gr

  36   36 9764 3772 FO
gs 1704 477 10162 5180 rc
gr

  36   36 9859 3782 FO
gs 1704 477 10162 5180 rc
gr

  36   36 10324 2730 FO
gs 1704 477 10162 5180 rc
gr

  36   36 10357 2697 FO
gs 1704 477 10162 5180 rc
gr

  36   36 10315 2945 FO
gs 1704 477 10162 5180 rc
gr

  36   36 10308 3094 FO
gs 1704 477 10162 5180 rc
gr

  36   36 10357 2343 FO
gs 1704 477 10162 5180 rc
gr

  36   36 10241 3111 FO
gs 1704 477 10162 5180 rc
gr

  36   36 10350 2490 FO
gs 1704 477 10162 5180 rc
gr

  36   36 10190 3209 FO
gs 1704 477 10162 5180 rc
gr

  36   36 9769 3652 FO
gs 1704 477 10162 5180 rc
gr

  36   36 10162 3312 FO
gs 1704 477 10162 5180 rc
gr

  36   36 10111 3457 FO
gs 1704 477 10162 5180 rc
gr

  36   36 10281 2307 FO
gs 1704 477 10162 5180 rc
gr

  36   36 10112 3123 FO
gs 1704 477 10162 5180 rc
gr

  36   36 10314 3067 FO
gs 1704 477 10162 5180 rc
gr

  36   36 9816 1766 FO
gs 1704 477 10162 5180 rc
gr

  36   36 10025 1959 FO
gs 1704 477 10162 5180 rc
gr

  36   36 9810 1759 FO
gs 1704 477 10162 5180 rc
gr

  36   36 10182 3198 FO
gs 1704 477 10162 5180 rc
gr

  36   36 9715 1691 FO
gs 1704 477 10162 5180 rc
gr

  36   36 9875 1806 FO
gs 1704 477 10162 5180 rc
gr

  36   36 10119 3540 FO
gs 1704 477 10162 5180 rc
gr

  36   36 9635 3829 FO
gs 1704 477 10162 5180 rc
gr

  36   36 9942 3681 FO
gs 1704 477 10162 5180 rc
gr

  36   36 8880 4270 FO
gs 1704 477 10162 5180 rc
gr

  36   36 9816 3774 FO
gs 1704 477 10162 5180 rc
gr

  36   36 9362 1491 FO
gs 1704 477 10162 5180 rc
gr

  36   36 9870 1802 FO
gs 1704 477 10162 5180 rc
gr

  36   36 9853 1790 FO
gs 1704 477 10162 5180 rc
gr

  36   36 10091 3356 FO
gs 1704 477 10162 5180 rc
gr

  36   36 9653 3768 FO
gs 1704 477 10162 5180 rc
gr

  36   36 10077 3491 FO
gs 1704 477 10162 5180 rc
gr

  36   36 9595 3807 FO
gs 1704 477 10162 5180 rc
gr

  36   36 9719 3909 FO
gs 1704 477 10162 5180 rc
gr

  36   36 10211 2994 FO
gs 1704 477 10162 5180 rc
gr

  36   36 9519 1564 FO
gs 1704 477 10162 5180 rc
gr

  36   36 10200 2172 FO
gs 1704 477 10162 5180 rc
gr

  36   36 9394 1513 FO
gs 1704 477 10162 5180 rc
gr

  36   36 9818 1764 FO
gs 1704 477 10162 5180 rc
gr

  36   36 9689 3867 FO
gs 1704 477 10162 5180 rc
gr

  36   36 9843 3780 FO
gs 1704 477 10162 5180 rc
gr

  36   36 9434 1517 FO
gs 1704 477 10162 5180 rc
gr

  36   36 10156 2127 FO
gs 1704 477 10162 5180 rc
gr

  36   36 9902 3497 FO
gs 1704 477 10162 5180 rc
gr

  36   36 10337 2702 FO
gs 1704 477 10162 5180 rc
gr

  36   36 7691 4367 FO
gs 1704 477 10162 5180 rc
gr

  36   36 10240 2160 FO
gs 1704 477 10162 5180 rc
gr

  36   36 6747 1121 FO
gs 1704 477 10162 5180 rc
gr

  36   36 10010 1931 FO
gs 1704 477 10162 5180 rc
gr

  36   36 8055 1150 FO
gs 1704 477 10162 5180 rc
gr

  36   36 10211 2161 FO
gs 1704 477 10162 5180 rc
gr

c8
  36   36 8861 2709 FO
gs 1704 477 10162 5180 rc
gr

  36   36 8806 2627 FO
gs 1704 477 10162 5180 rc
gr

  36   36 8814 2633 FO
gs 1704 477 10162 5180 rc
gr

  36   36 7508 1972 FO
gs 1704 477 10162 5180 rc
gr

  36   36 8800 2998 FO
gs 1704 477 10162 5180 rc
gr

0 sg
  36   36 8686 4309 FO
gs 1704 477 10162 5180 rc
gr

  36   36 10274 3089 FO
gs 1704 477 10162 5180 rc
gr

  36   36 8729 4125 FO
gs 1704 477 10162 5180 rc
gr

  36   36 10221 3309 FO
gs 1704 477 10162 5180 rc
gr

  36   36 9396 3979 FO
gs 1704 477 10162 5180 rc
gr

  36   36 10117 2076 FO
gs 1704 477 10162 5180 rc
gr

  36   36 8987 1356 FO
gs 1704 477 10162 5180 rc
gr

  36   36 10191 2138 FO
gs 1704 477 10162 5180 rc
gr

  36   36 8896 1298 FO
gs 1704 477 10162 5180 rc
gr

  36   36 10064 2007 FO
gs 1704 477 10162 5180 rc
gr

  36   36 9706 3663 FO
gs 1704 477 10162 5180 rc
gr

  36   36 9581 3833 FO
gs 1704 477 10162 5180 rc
gr

  36   36 10010 2005 FO
gs 1704 477 10162 5180 rc
gr

  36   36 9948 3411 FO
gs 1704 477 10162 5180 rc
gr

  36   36 9687 1671 FO
gs 1704 477 10162 5180 rc
gr

  36   36 9701 1682 FO
gs 1704 477 10162 5180 rc
gr

  36   36 9549 1589 FO
gs 1704 477 10162 5180 rc
gr

  36   36 9674 1663 FO
gs 1704 477 10162 5180 rc
gr

  36   36 9667 1659 FO
gs 1704 477 10162 5180 rc
gr

  36   36 10146 2065 FO
gs 1704 477 10162 5180 rc
gr

  36   36 9703 3763 FO
gs 1704 477 10162 5180 rc
gr

  36   36 9487 3957 FO
gs 1704 477 10162 5180 rc
gr

  36   36 9978 3589 FO
gs 1704 477 10162 5180 rc
gr

  36   36 9249 4025 FO
gs 1704 477 10162 5180 rc
gr

  36   36 9811 3534 FO
gs 1704 477 10162 5180 rc
gr

  36   36 10034 1972 FO
gs 1704 477 10162 5180 rc
gr

  36   36 9148 1404 FO
gs 1704 477 10162 5180 rc
gr

  36   36 9982 1906 FO
gs 1704 477 10162 5180 rc
gr

  36   36 9184 1393 FO
gs 1704 477 10162 5180 rc
gr

  36   36 9632 1639 FO
gs 1704 477 10162 5180 rc
gr

  36   36 8842 1292 FO
gs 1704 477 10162 5180 rc
gr

  36   36 9494 1564 FO
gs 1704 477 10162 5180 rc
gr

  36   36 9809 1760 FO
gs 1704 477 10162 5180 rc
gr

  36   36 9111 4179 FO
gs 1704 477 10162 5180 rc
gr

  36   36 9012 4213 FO
gs 1704 477 10162 5180 rc
gr

  36   36 9082 4200 FO
gs 1704 477 10162 5180 rc
gr

  36   36 9313 4090 FO
gs 1704 477 10162 5180 rc
gr

  36   36 9328 4094 FO
gs 1704 477 10162 5180 rc
gr

  36   36 8459 4316 FO
gs 1704 477 10162 5180 rc
gr

  36   36 9084 4233 FO
gs 1704 477 10162 5180 rc
gr

  36   36 8911 4139 FO
gs 1704 477 10162 5180 rc
gr

  36   36 10250 2318 FO
gs 1704 477 10162 5180 rc
gr

  36   36 9106 1363 FO
gs 1704 477 10162 5180 rc
gr

  36   36 10286 2260 FO
gs 1704 477 10162 5180 rc
gr

  36   36 9410 3853 FO
gs 1704 477 10162 5180 rc
gr

  36   36 9188 4061 FO
gs 1704 477 10162 5180 rc
gr

  36   36 10016 3492 FO
gs 1704 477 10162 5180 rc
gr

  36   36 8930 4152 FO
gs 1704 477 10162 5180 rc
gr

  36   36 10072 3461 FO
gs 1704 477 10162 5180 rc
gr

  36   36 8694 4185 FO
gs 1704 477 10162 5180 rc
gr

  36   36 9584 3840 FO
gs 1704 477 10162 5180 rc
gr

  36   36 9363 3999 FO
gs 1704 477 10162 5180 rc
gr

  36   36 10266 3022 FO
gs 1704 477 10162 5180 rc
gr

  36   36 8843 1266 FO
gs 1704 477 10162 5180 rc
gr

  36   36 9823 1771 FO
gs 1704 477 10162 5180 rc
gr

  36   36 8737 4170 FO
gs 1704 477 10162 5180 rc
gr

  36   36 9948 1866 FO
gs 1704 477 10162 5180 rc
gr

  36   36 6560 1071 FO
gs 1704 477 10162 5180 rc
gr

c8
  36   36 6717 1961 FO
gs 1704 477 10162 5180 rc
gr

0 sg
  36   36 7074 1092 FO
gs 1704 477 10162 5180 rc
gr

  36   36 7418 1064 FO
gs 1704 477 10162 5180 rc
gr

c8
  36   36 7957 1947 FO
gs 1704 477 10162 5180 rc
gr

0 sg
  36   36 8492 1210 FO
gs 1704 477 10162 5180 rc
gr

  36   36 8634 1265 FO
gs 1704 477 10162 5180 rc
gr

c8
  36   36 7610 1975 FO
gs 1704 477 10162 5180 rc
gr

  36   36 8714 2464 FO
gs 1704 477 10162 5180 rc
gr

  36   36 8812 2624 FO
gs 1704 477 10162 5180 rc
gr

0 sg
  36   36 8773 4238 FO
gs 1704 477 10162 5180 rc
gr

  36   36 8913 1334 FO
gs 1704 477 10162 5180 rc
gr

  36   36 8497 1180 FO
gs 1704 477 10162 5180 rc
gr

  36   36 9137 1383 FO
gs 1704 477 10162 5180 rc
gr

  36   36 8772 1270 FO
gs 1704 477 10162 5180 rc
gr

  36   36 9045 1385 FO
gs 1704 477 10162 5180 rc
gr

  36   36 9690 3725 FO
gs 1704 477 10162 5180 rc
gr

  36   36 8835 4138 FO
gs 1704 477 10162 5180 rc
gr

  36   36 9835 3655 FO
gs 1704 477 10162 5180 rc
gr

  36   36 7485 4461 FO
gs 1704 477 10162 5180 rc
gr

  36   36 8765 4268 FO
gs 1704 477 10162 5180 rc
gr

c8
  36   36 7876 2003 FO
gs 1704 477 10162 5180 rc
gr

  36   36 7892 2023 FO
gs 1704 477 10162 5180 rc
gr

  36   36 7272 1922 FO
gs 1704 477 10162 5180 rc
gr

0 sg
  36   36 8988 4191 FO
gs 1704 477 10162 5180 rc
gr

c8
  36   36 8816 2779 FO
gs 1704 477 10162 5180 rc
gr

  36   36 6414 2050 FO
gs 1704 477 10162 5180 rc
gr

  36   36 7632 1966 FO
gs 1704 477 10162 5180 rc
gr

  36   36 7429 1956 FO
gs 1704 477 10162 5180 rc
gr

  36   36 7415 1963 FO
gs 1704 477 10162 5180 rc
gr

  36   36 8511 2265 FO
gs 1704 477 10162 5180 rc
gr

/c9 { 1.000000 0.000000 0.000000 sr} bdef
c9
  36   36 8726 2405 FO
gs 1704 477 10162 5180 rc
gr

  36   36 8961 2611 FO
gs 1704 477 10162 5180 rc
gr

c8
  36   36 8779 2443 FO
gs 1704 477 10162 5180 rc
gr

c9
  36   36 8441 2225 FO
gs 1704 477 10162 5180 rc
gr

c8
  36   36 7643 1955 FO
gs 1704 477 10162 5180 rc
gr

  36   36 7825 2014 FO
gs 1704 477 10162 5180 rc
gr

  36   36 6740 2003 FO
gs 1704 477 10162 5180 rc
gr

  36   36 7053 1856 FO
gs 1704 477 10162 5180 rc
gr

  36   36 7091 1900 FO
gs 1704 477 10162 5180 rc
gr

  36   36 7306 1892 FO
gs 1704 477 10162 5180 rc
gr

  36   36 7249 1928 FO
gs 1704 477 10162 5180 rc
gr

0 sg
  36   36 8698 4246 FO
gs 1704 477 10162 5180 rc
gr

  36   36 6904 4430 FO
gs 1704 477 10162 5180 rc
gr

  36   36 9930 3700 FO
gs 1704 477 10162 5180 rc
gr

c8
  36   36 8742 2901 FO
gs 1704 477 10162 5180 rc
gr

  36   36 8781 2894 FO
gs 1704 477 10162 5180 rc
gr

  36   36 8835 2751 FO
gs 1704 477 10162 5180 rc
gr

  36   36 8401 2185 FO
gs 1704 477 10162 5180 rc
gr

0 sg
  36   36 9149 1388 FO
gs 1704 477 10162 5180 rc
gr

c8
  36   36 8190 2083 FO
gs 1704 477 10162 5180 rc
gr

  36   36 8278 2123 FO
gs 1704 477 10162 5180 rc
gr

  36   36 8276 2126 FO
gs 1704 477 10162 5180 rc
gr

  36   36 8132 2076 FO
gs 1704 477 10162 5180 rc
gr

  36   36 8873 2684 FO
gs 1704 477 10162 5180 rc
gr

  36   36 6038 2091 FO
gs 1704 477 10162 5180 rc
gr

  36   36 6714 1958 FO
gs 1704 477 10162 5180 rc
gr

  36   36 6496 2009 FO
gs 1704 477 10162 5180 rc
gr

  36   36 8323 2163 FO
gs 1704 477 10162 5180 rc
gr

  36   36 8795 2808 FO
gs 1704 477 10162 5180 rc
gr

0 sg
  36   36 8658 1207 FO
gs 1704 477 10162 5180 rc
gr

c8
  36   36 8810 2558 FO
gs 1704 477 10162 5180 rc
gr

  36   36 8470 2222 FO
gs 1704 477 10162 5180 rc
gr

  36   36 8530 2265 FO
gs 1704 477 10162 5180 rc
gr

  36   36 8502 2246 FO
gs 1704 477 10162 5180 rc
gr

  36   36 8683 2396 FO
gs 1704 477 10162 5180 rc
gr

  36   36 8819 2725 FO
gs 1704 477 10162 5180 rc
gr

  36   36 8659 2395 FO
gs 1704 477 10162 5180 rc
gr

  36   36 8604 2321 FO
gs 1704 477 10162 5180 rc
gr

0 sg
  36   36 9106 4041 FO
gs 1704 477 10162 5180 rc
gr

  36   36 8607 4239 FO
gs 1704 477 10162 5180 rc
gr

  36   36 9684 3650 FO
gs 1704 477 10162 5180 rc
gr

  36   36 9463 3904 FO
gs 1704 477 10162 5180 rc
gr

  36   36 10014 1958 FO
gs 1704 477 10162 5180 rc
gr

  36   36 9327 1462 FO
gs 1704 477 10162 5180 rc
gr

  36   36 10298 2877 FO
gs 1704 477 10162 5180 rc
gr

  36   36 8766 1247 FO
gs 1704 477 10162 5180 rc
gr

  36   36 9108 1378 FO
gs 1704 477 10162 5180 rc
gr

c8
  36   36 8691 2482 FO
gs 1704 477 10162 5180 rc
gr

  36   36 8802 2576 FO
gs 1704 477 10162 5180 rc
gr

  36   36 8295 2123 FO
gs 1704 477 10162 5180 rc
gr

  36   36 8167 2080 FO
gs 1704 477 10162 5180 rc
gr

  36   36 8269 2116 FO
gs 1704 477 10162 5180 rc
gr

  36   36 8115 2051 FO
gs 1704 477 10162 5180 rc
gr

  36   36 8416 2194 FO
gs 1704 477 10162 5180 rc
gr

  36   36 8497 3296 FO
gs 1704 477 10162 5180 rc
gr

  36   36 8772 3130 FO
gs 1704 477 10162 5180 rc
gr

  36   36 6398 1927 FO
gs 1704 477 10162 5180 rc
gr

  36   36 7263 1864 FO
gs 1704 477 10162 5180 rc
gr

  36   36 7836 2030 FO
gs 1704 477 10162 5180 rc
gr

0 sg
  36   36 8358 1187 FO
gs 1704 477 10162 5180 rc
gr

  36   36 7749 1145 FO
gs 1704 477 10162 5180 rc
gr

  36   36 7743 4391 FO
gs 1704 477 10162 5180 rc
gr

  36   36 9842 3543 FO
gs 1704 477 10162 5180 rc
gr

  36   36 9806 3626 FO
gs 1704 477 10162 5180 rc
gr

  36   36 8603 1190 FO
gs 1704 477 10162 5180 rc
gr

  36   36 8852 1275 FO
gs 1704 477 10162 5180 rc
gr

  36   36 8189 1114 FO
gs 1704 477 10162 5180 rc
gr

  36   36 8806 1295 FO
gs 1704 477 10162 5180 rc
gr

c8
  36   36 8745 3187 FO
gs 1704 477 10162 5180 rc
gr

  36   36 8459 3370 FO
gs 1704 477 10162 5180 rc
gr

  36   36 8381 2166 FO
gs 1704 477 10162 5180 rc
gr

  36   36 7930 1988 FO
gs 1704 477 10162 5180 rc
gr

  36   36 8285 2112 FO
gs 1704 477 10162 5180 rc
gr

  36   36 8070 2029 FO
gs 1704 477 10162 5180 rc
gr

  36   36 8233 2093 FO
gs 1704 477 10162 5180 rc
gr

  36   36 8824 2992 FO
gs 1704 477 10162 5180 rc
gr

  36   36 8297 2108 FO
gs 1704 477 10162 5180 rc
gr

  36   36 8213 2077 FO
gs 1704 477 10162 5180 rc
gr

  36   36 8667 2390 FO
gs 1704 477 10162 5180 rc
gr

  36   36 8534 2268 FO
gs 1704 477 10162 5180 rc
gr

  36   36 8790 2639 FO
gs 1704 477 10162 5180 rc
gr

  36   36 7757 1946 FO
gs 1704 477 10162 5180 rc
gr

  36   36 8084 2050 FO
gs 1704 477 10162 5180 rc
gr

  36   36 5043 2875 FO
gs 1704 477 10162 5180 rc
gr

  36   36 4845 3081 FO
gs 1704 477 10162 5180 rc
gr

c9
  36   36 5330 2845 FO
gs 1704 477 10162 5180 rc
gr

  36   36 5396 2605 FO
gs 1704 477 10162 5180 rc
gr

  36   36 5874 2327 FO
gs 1704 477 10162 5180 rc
gr

c8
  36   36 5961 2229 FO
gs 1704 477 10162 5180 rc
gr

c9
  36   36 5904 2382 FO
gs 1704 477 10162 5180 rc
gr

0 sg
  36   36 5529 3984 FO
gs 1704 477 10162 5180 rc
gr

/c10 { 0.000000 0.000000 1.000000 sr} bdef
c10
  36   36 5473 3953 FO
gs 1704 477 10162 5180 rc
gr

0 sg
  36   36 5738 4109 FO
gs 1704 477 10162 5180 rc
gr

  36   36 3409 2671 FO
gs 1704 477 10162 5180 rc
gr

c8
  36   36 5287 2528 FO
gs 1704 477 10162 5180 rc
gr

  36   36 5347 2376 FO
gs 1704 477 10162 5180 rc
gr

  36   36 5393 2392 FO
gs 1704 477 10162 5180 rc
gr

c9
  36   36 5435 2727 FO
gs 1704 477 10162 5180 rc
gr

  36   36 5535 2688 FO
gs 1704 477 10162 5180 rc
gr

c8
  36   36 5555 2015 FO
gs 1704 477 10162 5180 rc
gr

0 sg
  36   36 6375 4298 FO
gs 1704 477 10162 5180 rc
gr

c9
  36   36 6406 2194 FO
gs 1704 477 10162 5180 rc
gr

  36   36 5861 2463 FO
gs 1704 477 10162 5180 rc
gr

  36   36 6262 2301 FO
gs 1704 477 10162 5180 rc
gr

c8
  36   36 6742 1883 FO
gs 1704 477 10162 5180 rc
gr

  36   36 6714 1908 FO
gs 1704 477 10162 5180 rc
gr

c9
  36   36 7428 2070 FO
gs 1704 477 10162 5180 rc
gr

  36   36 7480 2038 FO
gs 1704 477 10162 5180 rc
gr

c10
  36   36 8337 4471 FO
gs 1704 477 10162 5180 rc
gr

  36   36 6446 1353 FO
gs 1704 477 10162 5180 rc
gr

  36   36 8063 1268 FO
gs 1704 477 10162 5180 rc
gr

0 sg
  36   36 6191 4326 FO
gs 1704 477 10162 5180 rc
gr

  36   36 6509 4322 FO
gs 1704 477 10162 5180 rc
gr

c10
  36   36 6851 4584 FO
gs 1704 477 10162 5180 rc
gr

c9
  36   36 6909 2061 FO
gs 1704 477 10162 5180 rc
gr

c10
  36   36 6984 4618 FO
gs 1704 477 10162 5180 rc
gr

c8
  36   36 7392 1943 FO
gs 1704 477 10162 5180 rc
gr

c9
  36   36 5306 2884 FO
gs 1704 477 10162 5180 rc
gr

  36   36 5404 2730 FO
gs 1704 477 10162 5180 rc
gr

c10
  36   36 7899 4606 FO
gs 1704 477 10162 5180 rc
gr

c9
  36   36 8923 2583 FO
gs 1704 477 10162 5180 rc
gr

  36   36 8626 2345 FO
gs 1704 477 10162 5180 rc
gr

c8
  36   36 8105 2033 FO
gs 1704 477 10162 5180 rc
gr

c9
  36   36 8282 2209 FO
gs 1704 477 10162 5180 rc
gr

  36   36 8513 2288 FO
gs 1704 477 10162 5180 rc
gr

  36   36 6661 2186 FO
gs 1704 477 10162 5180 rc
gr

c8
  36   36 7439 1886 FO
gs 1704 477 10162 5180 rc
gr

  36   36 7486 1864 FO
gs 1704 477 10162 5180 rc
gr

c10
  36   36 8118 4647 FO
gs 1704 477 10162 5180 rc
gr

  36   36 8717 4344 FO
gs 1704 477 10162 5180 rc
gr

  36   36 9961 1866 FO
gs 1704 477 10162 5180 rc
gr

0 sg
  36   36 8388 4354 FO
gs 1704 477 10162 5180 rc
gr

c10
  36   36 8634 4560 FO
gs 1704 477 10162 5180 rc
gr

  36   36 8842 4447 FO
gs 1704 477 10162 5180 rc
gr

  36   36 9607 4110 FO
gs 1704 477 10162 5180 rc
gr

  36   36 6731 4485 FO
gs 1704 477 10162 5180 rc
gr

c8
  36   36 6070 2034 FO
gs 1704 477 10162 5180 rc
gr

  36   36 6179 1955 FO
gs 1704 477 10162 5180 rc
gr

c9
  36   36 8100 2166 FO
gs 1704 477 10162 5180 rc
gr

  36   36 6903 2126 FO
gs 1704 477 10162 5180 rc
gr

  36   36 7897 2112 FO
gs 1704 477 10162 5180 rc
gr

  36   36 8655 2369 FO
gs 1704 477 10162 5180 rc
gr

  36   36 9095 2976 FO
gs 1704 477 10162 5180 rc
gr

  36   36 6307 2319 FO
gs 1704 477 10162 5180 rc
gr

c8
  36   36 7312 1961 FO
gs 1704 477 10162 5180 rc
gr

c9
  36   36 8937 2585 FO
gs 1704 477 10162 5180 rc
gr

c10
  36   36 10233 3722 FO
gs 1704 477 10162 5180 rc
gr

  36   36 9169 1513 FO
gs 1704 477 10162 5180 rc
gr

  36   36 9172 1514 FO
gs 1704 477 10162 5180 rc
gr

  36   36 9336 1551 FO
gs 1704 477 10162 5180 rc
gr

  36   36 8506 4593 FO
gs 1704 477 10162 5180 rc
gr

  36   36 8607 4567 FO
gs 1704 477 10162 5180 rc
gr

  36   36 9026 4520 FO
gs 1704 477 10162 5180 rc
gr

  36   36 9485 4163 FO
gs 1704 477 10162 5180 rc
gr

  36   36 9577 4240 FO
gs 1704 477 10162 5180 rc
gr

  36   36 10172 4106 FO
gs 1704 477 10162 5180 rc
gr

  36   36 10098 3975 FO
gs 1704 477 10162 5180 rc
gr

  36   36 9771 4159 FO
gs 1704 477 10162 5180 rc
gr

c9
  36   36 7645 2150 FO
gs 1704 477 10162 5180 rc
gr

c8
  36   36 7661 1927 FO
gs 1704 477 10162 5180 rc
gr

c9
  36   36 7539 2148 FO
gs 1704 477 10162 5180 rc
gr

  36   36 9076 2695 FO
gs 1704 477 10162 5180 rc
gr

c10
  36   36 4429 2143 FO
gs 1704 477 10162 5180 rc
gr

c9
  36   36 5197 3380 FO
gs 1704 477 10162 5180 rc
gr

  36   36 9113 3025 FO
gs 1704 477 10162 5180 rc
gr

  36   36 9126 3088 FO
gs 1704 477 10162 5180 rc
gr

  36   36 9079 2890 FO
gs 1704 477 10162 5180 rc
gr

  36   36 9144 2814 FO
gs 1704 477 10162 5180 rc
gr

  36   36 8650 3640 FO
gs 1704 477 10162 5180 rc
gr

  36   36 9038 2663 FO
gs 1704 477 10162 5180 rc
gr

c10
  36   36 9204 4372 FO
gs 1704 477 10162 5180 rc
gr

  36   36 9922 4221 FO
gs 1704 477 10162 5180 rc
gr

  36   36 9612 4268 FO
gs 1704 477 10162 5180 rc
gr

  36   36 9859 4134 FO
gs 1704 477 10162 5180 rc
gr

  36   36 9787 4193 FO
gs 1704 477 10162 5180 rc
gr

  36   36 10111 3828 FO
gs 1704 477 10162 5180 rc
gr

  36   36 8993 1479 FO
gs 1704 477 10162 5180 rc
gr

c9
  36   36 8442 3758 FO
gs 1704 477 10162 5180 rc
gr

c10
  36   36 10166 3878 FO
gs 1704 477 10162 5180 rc
gr

  36   36 10280 3411 FO
gs 1704 477 10162 5180 rc
gr

0 sg
  36   36 9234 4159 FO
gs 1704 477 10162 5180 rc
gr

c10
  36   36 10102 4042 FO
gs 1704 477 10162 5180 rc
gr

  36   36 8691 4690 FO
gs 1704 477 10162 5180 rc
gr

  36   36 9590 4293 FO
gs 1704 477 10162 5180 rc
gr

  36   36 9313 1565 FO
gs 1704 477 10162 5180 rc
gr

  36   36 9139 4485 FO
gs 1704 477 10162 5180 rc
gr

  36   36 10226 3883 FO
gs 1704 477 10162 5180 rc
gr

  36   36 10342 3795 FO
gs 1704 477 10162 5180 rc
gr

  36   36 10376 3687 FO
gs 1704 477 10162 5180 rc
gr

  36   36 10506 3760 FO
gs 1704 477 10162 5180 rc
gr

  36   36 10673 2976 FO
gs 1704 477 10162 5180 rc
gr

  36   36 10663 3516 FO
gs 1704 477 10162 5180 rc
gr

  36   36 10682 3367 FO
gs 1704 477 10162 5180 rc
gr

  36   36 8513 4586 FO
gs 1704 477 10162 5180 rc
gr

  36   36 10706 2901 FO
gs 1704 477 10162 5180 rc
gr

  36   36 8811 1429 FO
gs 1704 477 10162 5180 rc
gr

  36   36 9402 1621 FO
gs 1704 477 10162 5180 rc
gr

  36   36 9537 1687 FO
gs 1704 477 10162 5180 rc
gr

  36   36 9771 1776 FO
gs 1704 477 10162 5180 rc
gr

  36   36 9847 1815 FO
gs 1704 477 10162 5180 rc
gr

  36   36 10612 3306 FO
gs 1704 477 10162 5180 rc
gr

  36   36 10769 3240 FO
gs 1704 477 10162 5180 rc
gr

  36   36 10580 3598 FO
gs 1704 477 10162 5180 rc
gr

  36   36 10668 2746 FO
gs 1704 477 10162 5180 rc
gr

  36   36 10301 4108 FO
gs 1704 477 10162 5180 rc
gr

  36   36 10480 2349 FO
gs 1704 477 10162 5180 rc
gr

  36   36 10597 2484 FO
gs 1704 477 10162 5180 rc
gr

  36   36 10501 3489 FO
gs 1704 477 10162 5180 rc
gr

  36   36 10588 3689 FO
gs 1704 477 10162 5180 rc
gr

  36   36 10766 3090 FO
gs 1704 477 10162 5180 rc
gr

  36   36 10689 2993 FO
gs 1704 477 10162 5180 rc
gr

  36   36 10729 3128 FO
gs 1704 477 10162 5180 rc
gr

  36   36 10573 3516 FO
gs 1704 477 10162 5180 rc
gr

  36   36 10748 3025 FO
gs 1704 477 10162 5180 rc
gr

  36   36 10862 2914 FO
gs 1704 477 10162 5180 rc
gr

  36   36 10683 2622 FO
gs 1704 477 10162 5180 rc
gr

  36   36 10759 2947 FO
gs 1704 477 10162 5180 rc
gr

  36   36 10629 2500 FO
gs 1704 477 10162 5180 rc
gr

  36   36 10696 2875 FO
gs 1704 477 10162 5180 rc
gr

  36   36 10732 2935 FO
gs 1704 477 10162 5180 rc
gr

  36   36 10742 3181 FO
gs 1704 477 10162 5180 rc
gr

  36   36 8008 4718 FO
gs 1704 477 10162 5180 rc
gr

  36   36 9289 4414 FO
gs 1704 477 10162 5180 rc
gr

  36   36 7855 1373 FO
gs 1704 477 10162 5180 rc
gr

c9
  36   36 9164 3071 FO
gs 1704 477 10162 5180 rc
gr

  36   36 9086 2794 FO
gs 1704 477 10162 5180 rc
gr

  36   36 9170 3038 FO
gs 1704 477 10162 5180 rc
gr

  36   36 9091 3058 FO
gs 1704 477 10162 5180 rc
gr

  36   36 9183 2836 FO
gs 1704 477 10162 5180 rc
gr

  36   36 9203 2930 FO
gs 1704 477 10162 5180 rc
gr

  36   36 9220 2956 FO
gs 1704 477 10162 5180 rc
gr

  36   36 9185 3046 FO
gs 1704 477 10162 5180 rc
gr

  36   36 9253 3070 FO
gs 1704 477 10162 5180 rc
gr

c10
  36   36 7614 1321 FO
gs 1704 477 10162 5180 rc
gr

  36   36 10768 3064 FO
gs 1704 477 10162 5180 rc
gr

  36   36 10646 3315 FO
gs 1704 477 10162 5180 rc
gr

  36   36 10781 3055 FO
gs 1704 477 10162 5180 rc
gr

  36   36 10782 3088 FO
gs 1704 477 10162 5180 rc
gr

  36   36 10775 2917 FO
gs 1704 477 10162 5180 rc
gr

  36   36 8872 4553 FO
gs 1704 477 10162 5180 rc
gr

c9
  36   36 9195 3061 FO
gs 1704 477 10162 5180 rc
gr

  36   36 9218 3229 FO
gs 1704 477 10162 5180 rc
gr

c10
  36   36 10136 1991 FO
gs 1704 477 10162 5180 rc
gr

  36   36 10172 2034 FO
gs 1704 477 10162 5180 rc
gr

  36   36 10407 2220 FO
gs 1704 477 10162 5180 rc
gr

  36   36 10542 2400 FO
gs 1704 477 10162 5180 rc
gr

  36   36 10529 3544 FO
gs 1704 477 10162 5180 rc
gr

  36   36 10665 2488 FO
gs 1704 477 10162 5180 rc
gr

  36   36 10819 3051 FO
gs 1704 477 10162 5180 rc
gr

  36   36 10614 3450 FO
gs 1704 477 10162 5180 rc
gr

  36   36 10631 3583 FO
gs 1704 477 10162 5180 rc
gr

  36   36 10720 3267 FO
gs 1704 477 10162 5180 rc
gr

  36   36 10734 3329 FO
gs 1704 477 10162 5180 rc
gr

  36   36 10550 2349 FO
gs 1704 477 10162 5180 rc
gr

c9
  36   36 9291 3154 FO
gs 1704 477 10162 5180 rc
gr

  36   36 9201 2919 FO
gs 1704 477 10162 5180 rc
gr

  36   36 9179 3549 FO
gs 1704 477 10162 5180 rc
gr

  36   36 9240 3261 FO
gs 1704 477 10162 5180 rc
gr

  36   36 9272 3135 FO
gs 1704 477 10162 5180 rc
gr

  36   36 9233 3576 FO
gs 1704 477 10162 5180 rc
gr

  36   36 9212 2858 FO
gs 1704 477 10162 5180 rc
gr

  36   36 9182 3048 FO
gs 1704 477 10162 5180 rc
gr

  36   36 9173 2860 FO
gs 1704 477 10162 5180 rc
gr

  36   36 9228 3187 FO
gs 1704 477 10162 5180 rc
gr

  36   36 9181 2977 FO
gs 1704 477 10162 5180 rc
gr

  36   36 9111 3304 FO
gs 1704 477 10162 5180 rc
gr

  36   36 9153 2808 FO
gs 1704 477 10162 5180 rc
gr

  36   36 9134 2946 FO
gs 1704 477 10162 5180 rc
gr

  36   36 9049 3366 FO
gs 1704 477 10162 5180 rc
gr

  36   36 8407 3731 FO
gs 1704 477 10162 5180 rc
gr

  36   36 8733 3735 FO
gs 1704 477 10162 5180 rc
gr

  36   36 9162 3478 FO
gs 1704 477 10162 5180 rc
gr

  36   36 7338 3789 FO
gs 1704 477 10162 5180 rc
gr

  36   36 8705 2416 FO
gs 1704 477 10162 5180 rc
gr

  36   36 8838 2487 FO
gs 1704 477 10162 5180 rc
gr

  36   36 8886 2521 FO
gs 1704 477 10162 5180 rc
gr

  36   36 7961 2230 FO
gs 1704 477 10162 5180 rc
gr

  36   36 9355 3088 FO
gs 1704 477 10162 5180 rc
gr

c10
  36   36 7868 4663 FO
gs 1704 477 10162 5180 rc
gr

  36   36 10780 3182 FO
gs 1704 477 10162 5180 rc
gr

  36   36 10803 3188 FO
gs 1704 477 10162 5180 rc
gr

  36   36 10806 2868 FO
gs 1704 477 10162 5180 rc
gr

  36   36 10817 3134 FO
gs 1704 477 10162 5180 rc
gr

  36   36 9382 4462 FO
gs 1704 477 10162 5180 rc
gr

  36   36 9452 4416 FO
gs 1704 477 10162 5180 rc
gr

  36   36 9569 4369 FO
gs 1704 477 10162 5180 rc
gr

  36   36 9657 4293 FO
gs 1704 477 10162 5180 rc
gr

  36   36 10416 4074 FO
gs 1704 477 10162 5180 rc
gr

  36   36 10025 4203 FO
gs 1704 477 10162 5180 rc
gr

  36   36 9301 4510 FO
gs 1704 477 10162 5180 rc
gr

  36   36 9606 4247 FO
gs 1704 477 10162 5180 rc
gr

  36   36 10563 2385 FO
gs 1704 477 10162 5180 rc
gr

  36   36 10185 4114 FO
gs 1704 477 10162 5180 rc
gr

  36   36 10797 3429 FO
gs 1704 477 10162 5180 rc
gr

  36   36 9403 4531 FO
gs 1704 477 10162 5180 rc
gr

  36   36 10736 3112 FO
gs 1704 477 10162 5180 rc
gr

  36   36 10064 1940 FO
gs 1704 477 10162 5180 rc
gr

  36   36 10774 3151 FO
gs 1704 477 10162 5180 rc
gr

  36   36 10775 3226 FO
gs 1704 477 10162 5180 rc
gr

  36   36 10789 3347 FO
gs 1704 477 10162 5180 rc
gr

  36   36 10699 2608 FO
gs 1704 477 10162 5180 rc
gr

  36   36 10772 2716 FO
gs 1704 477 10162 5180 rc
gr

  36   36 10577 2382 FO
gs 1704 477 10162 5180 rc
gr

  36   36 10677 2481 FO
gs 1704 477 10162 5180 rc
gr

  36   36 10584 2516 FO
gs 1704 477 10162 5180 rc
gr

  36   36 10768 3211 FO
gs 1704 477 10162 5180 rc
gr

  36   36 10721 3011 FO
gs 1704 477 10162 5180 rc
gr

  36   36 10396 2214 FO
gs 1704 477 10162 5180 rc
gr

  36   36 10695 3294 FO
gs 1704 477 10162 5180 rc
gr

  36   36 10459 3656 FO
gs 1704 477 10162 5180 rc
gr

  36   36 10550 3684 FO
gs 1704 477 10162 5180 rc
gr

  36   36 10752 2976 FO
gs 1704 477 10162 5180 rc
gr

  36   36 10142 1997 FO
gs 1704 477 10162 5180 rc
gr

  36   36 10533 2368 FO
gs 1704 477 10162 5180 rc
gr

  36   36 10363 2168 FO
gs 1704 477 10162 5180 rc
gr

  36   36 10822 3064 FO
gs 1704 477 10162 5180 rc
gr

  36   36 10290 3890 FO
gs 1704 477 10162 5180 rc
gr

  36   36 10808 3092 FO
gs 1704 477 10162 5180 rc
gr

  36   36 10415 2216 FO
gs 1704 477 10162 5180 rc
gr

  36   36 10226 2055 FO
gs 1704 477 10162 5180 rc
gr

  36   36 10690 3348 FO
gs 1704 477 10162 5180 rc
gr

  36   36 9861 1823 FO
gs 1704 477 10162 5180 rc
gr

  36   36 10197 2034 FO
gs 1704 477 10162 5180 rc
gr

  36   36 10085 1970 FO
gs 1704 477 10162 5180 rc
gr

  36   36 10783 2939 FO
gs 1704 477 10162 5180 rc
gr

  36   36 10549 2453 FO
gs 1704 477 10162 5180 rc
gr

  36   36 10667 3214 FO
gs 1704 477 10162 5180 rc
gr

  36   36 10257 4013 FO
gs 1704 477 10162 5180 rc
gr

  36   36 10325 4048 FO
gs 1704 477 10162 5180 rc
gr

  36   36 10411 3792 FO
gs 1704 477 10162 5180 rc
gr

  36   36 10247 4038 FO
gs 1704 477 10162 5180 rc
gr

  36   36 10666 2741 FO
gs 1704 477 10162 5180 rc
gr

  36   36 10579 3323 FO
gs 1704 477 10162 5180 rc
gr

  36   36 10660 3214 FO
gs 1704 477 10162 5180 rc
gr

  36   36 9983 4113 FO
gs 1704 477 10162 5180 rc
gr

  36   36 9934 4144 FO
gs 1704 477 10162 5180 rc
gr

  36   36 10383 3894 FO
gs 1704 477 10162 5180 rc
gr

  36   36 9856 1803 FO
gs 1704 477 10162 5180 rc
gr

  36   36 10561 3329 FO
gs 1704 477 10162 5180 rc
gr

  36   36 10599 3459 FO
gs 1704 477 10162 5180 rc
gr

  36   36 9637 4254 FO
gs 1704 477 10162 5180 rc
gr

  36   36 10373 3884 FO
gs 1704 477 10162 5180 rc
gr

  36   36 9335 4437 FO
gs 1704 477 10162 5180 rc
gr

  36   36 10455 2265 FO
gs 1704 477 10162 5180 rc
gr

  36   36 10445 2252 FO
gs 1704 477 10162 5180 rc
gr

  36   36 10610 3393 FO
gs 1704 477 10162 5180 rc
gr

  36   36 10506 3622 FO
gs 1704 477 10162 5180 rc
gr

  36   36 10638 2691 FO
gs 1704 477 10162 5180 rc
gr

  36   36 10627 2626 FO
gs 1704 477 10162 5180 rc
gr

  36   36 10652 2634 FO
gs 1704 477 10162 5180 rc
gr

  36   36 10581 3333 FO
gs 1704 477 10162 5180 rc
gr

  36   36 10492 3628 FO
gs 1704 477 10162 5180 rc
gr

  36   36 10535 2410 FO
gs 1704 477 10162 5180 rc
gr

  36   36 10037 1921 FO
gs 1704 477 10162 5180 rc
gr

  36   36 10425 2281 FO
gs 1704 477 10162 5180 rc
gr

  36   36 10330 2146 FO
gs 1704 477 10162 5180 rc
gr

  36   36 10643 2563 FO
gs 1704 477 10162 5180 rc
gr

  36   36 9739 1749 FO
gs 1704 477 10162 5180 rc
gr

  36   36 10426 2226 FO
gs 1704 477 10162 5180 rc
gr

  36   36 10532 3358 FO
gs 1704 477 10162 5180 rc
gr

  36   36 10248 3759 FO
gs 1704 477 10162 5180 rc
gr

  36   36 10507 3538 FO
gs 1704 477 10162 5180 rc
gr

  36   36 9854 4173 FO
gs 1704 477 10162 5180 rc
gr

  36   36 10702 2641 FO
gs 1704 477 10162 5180 rc
gr

  36   36 8674 1392 FO
gs 1704 477 10162 5180 rc
gr

  36   36 8726 1407 FO
gs 1704 477 10162 5180 rc
gr

  36   36 8797 1442 FO
gs 1704 477 10162 5180 rc
gr

  36   36 9102 1522 FO
gs 1704 477 10162 5180 rc
gr

  36   36 9797 1799 FO
gs 1704 477 10162 5180 rc
gr

  36   36 10271 2112 FO
gs 1704 477 10162 5180 rc
gr

  36   36 9257 1537 FO
gs 1704 477 10162 5180 rc
gr

  36   36 10151 2001 FO
gs 1704 477 10162 5180 rc
gr

  36   36 9573 4364 FO
gs 1704 477 10162 5180 rc
gr

  36   36 10515 3442 FO
gs 1704 477 10162 5180 rc
gr

  36   36 10349 3589 FO
gs 1704 477 10162 5180 rc
gr

  36   36 10521 3321 FO
gs 1704 477 10162 5180 rc
gr

  36   36 10380 3787 FO
gs 1704 477 10162 5180 rc
gr

  36   36 10015 4056 FO
gs 1704 477 10162 5180 rc
gr

  36   36 10419 2278 FO
gs 1704 477 10162 5180 rc
gr

  36   36 10412 2257 FO
gs 1704 477 10162 5180 rc
gr

  36   36 10652 2676 FO
gs 1704 477 10162 5180 rc
gr

c9
  36   36 8489 3621 FO
gs 1704 477 10162 5180 rc
gr

c10
  36   36 10752 3438 FO
gs 1704 477 10162 5180 rc
gr

  36   36 5674 4110 FO
gs 1704 477 10162 5180 rc
gr

  36   36 5867 4244 FO
gs 1704 477 10162 5180 rc
gr

  36   36 9873 4203 FO
gs 1704 477 10162 5180 rc
gr

  36   36 9585 1690 FO
gs 1704 477 10162 5180 rc
gr

  36   36 9538 1673 FO
gs 1704 477 10162 5180 rc
gr

  36   36 10672 2573 FO
gs 1704 477 10162 5180 rc
gr

  36   36 8653 1397 FO
gs 1704 477 10162 5180 rc
gr

  36   36 10449 2246 FO
gs 1704 477 10162 5180 rc
gr

  36   36 8609 4593 FO
gs 1704 477 10162 5180 rc
gr

  36   36 10444 3708 FO
gs 1704 477 10162 5180 rc
gr

  36   36 9389 1591 FO
gs 1704 477 10162 5180 rc
gr

  36   36 10132 1988 FO
gs 1704 477 10162 5180 rc
gr

  36   36 10103 1974 FO
gs 1704 477 10162 5180 rc
gr

  36   36 10455 3628 FO
gs 1704 477 10162 5180 rc
gr

  36   36 10134 3931 FO
gs 1704 477 10162 5180 rc
gr

  36   36 10147 3933 FO
gs 1704 477 10162 5180 rc
gr

  36   36 10651 2833 FO
gs 1704 477 10162 5180 rc
gr

  36   36 9614 1693 FO
gs 1704 477 10162 5180 rc
gr

  36   36 10458 2298 FO
gs 1704 477 10162 5180 rc
gr

  36   36 9274 1571 FO
gs 1704 477 10162 5180 rc
gr

  36   36 10588 3265 FO
gs 1704 477 10162 5180 rc
gr

  36   36 10024 3957 FO
gs 1704 477 10162 5180 rc
gr

  36   36 10740 2677 FO
gs 1704 477 10162 5180 rc
gr

  36   36 10004 3985 FO
gs 1704 477 10162 5180 rc
gr

  36   36 9930 4036 FO
gs 1704 477 10162 5180 rc
gr

  36   36 10648 3239 FO
gs 1704 477 10162 5180 rc
gr

  36   36 10081 3988 FO
gs 1704 477 10162 5180 rc
gr

  36   36 9586 4362 FO
gs 1704 477 10162 5180 rc
gr

  36   36 10109 4118 FO
gs 1704 477 10162 5180 rc
gr

  36   36 8940 4546 FO
gs 1704 477 10162 5180 rc
gr

  36   36 10552 3622 FO
gs 1704 477 10162 5180 rc
gr

  36   36 8550 4605 FO
gs 1704 477 10162 5180 rc
gr

  36   36 10404 3650 FO
gs 1704 477 10162 5180 rc
gr

  36   36 8429 1356 FO
gs 1704 477 10162 5180 rc
gr

  36   36 10047 4204 FO
gs 1704 477 10162 5180 rc
gr

c9
  36   36 9014 2617 FO
gs 1704 477 10162 5180 rc
gr

  36   36 9150 2862 FO
gs 1704 477 10162 5180 rc
gr

  36   36 8904 3607 FO
gs 1704 477 10162 5180 rc
gr

  36   36 8409 3866 FO
gs 1704 477 10162 5180 rc
gr

  36   36 9274 3075 FO
gs 1704 477 10162 5180 rc
gr

  36   36 9086 2705 FO
gs 1704 477 10162 5180 rc
gr

  36   36 8410 2299 FO
gs 1704 477 10162 5180 rc
gr

  36   36 9125 2735 FO
gs 1704 477 10162 5180 rc
gr

  36   36 5640 2744 FO
gs 1704 477 10162 5180 rc
gr

  36   36 5240 3372 FO
gs 1704 477 10162 5180 rc
gr

  36   36 5223 3554 FO
gs 1704 477 10162 5180 rc
gr

  36   36 5774 2458 FO
gs 1704 477 10162 5180 rc
gr

  36   36 5767 2661 FO
gs 1704 477 10162 5180 rc
gr

c10
  36   36 10698 2652 FO
gs 1704 477 10162 5180 rc
gr

c9
  36   36 8982 2589 FO
gs 1704 477 10162 5180 rc
gr

  36   36 9119 2762 FO
gs 1704 477 10162 5180 rc
gr

  36   36 8847 2492 FO
gs 1704 477 10162 5180 rc
gr

  36   36 9009 2623 FO
gs 1704 477 10162 5180 rc
gr

  36   36 7727 2167 FO
gs 1704 477 10162 5180 rc
gr

  36   36 7944 2195 FO
gs 1704 477 10162 5180 rc
gr

  36   36 7718 2177 FO
gs 1704 477 10162 5180 rc
gr

  36   36 7784 2196 FO
gs 1704 477 10162 5180 rc
gr

  36   36 7877 2204 FO
gs 1704 477 10162 5180 rc
gr

  36   36 8696 2426 FO
gs 1704 477 10162 5180 rc
gr

c10
  36   36 7663 1319 FO
gs 1704 477 10162 5180 rc
gr

  36   36 10287 2124 FO
gs 1704 477 10162 5180 rc
gr

  36   36 8355 1337 FO
gs 1704 477 10162 5180 rc
gr

  36   36 10693 2547 FO
gs 1704 477 10162 5180 rc
gr

  36   36 7903 1325 FO
gs 1704 477 10162 5180 rc
gr

  36   36 10606 2594 FO
gs 1704 477 10162 5180 rc
gr

  36   36 8099 4653 FO
gs 1704 477 10162 5180 rc
gr

  36   36 10423 3787 FO
gs 1704 477 10162 5180 rc
gr

  36   36 6881 4589 FO
gs 1704 477 10162 5180 rc
gr

  36   36 10260 3944 FO
gs 1704 477 10162 5180 rc
gr

  36   36 9769 1757 FO
gs 1704 477 10162 5180 rc
gr

  36   36 9914 1844 FO
gs 1704 477 10162 5180 rc
gr

  36   36 10347 3577 FO
gs 1704 477 10162 5180 rc
gr

  36   36 9614 4054 FO
gs 1704 477 10162 5180 rc
gr

  36   36 10346 3649 FO
gs 1704 477 10162 5180 rc
gr

  36   36 7798 4687 FO
gs 1704 477 10162 5180 rc
gr

c9
  36   36 8338 2270 FO
gs 1704 477 10162 5180 rc
gr

  36   36 8357 2251 FO
gs 1704 477 10162 5180 rc
gr

  36   36 8547 2317 FO
gs 1704 477 10162 5180 rc
gr

  36   36 8542 2328 FO
gs 1704 477 10162 5180 rc
gr

  36   36 8420 2263 FO
gs 1704 477 10162 5180 rc
gr

  36   36 8542 2338 FO
gs 1704 477 10162 5180 rc
gr

  36   36 8561 2327 FO
gs 1704 477 10162 5180 rc
gr

c10
  36   36 8898 1555 FO
gs 1704 477 10162 5180 rc
gr

  36   36 9714 4238 FO
gs 1704 477 10162 5180 rc
gr

  36   36 8915 4607 FO
gs 1704 477 10162 5180 rc
gr

  36   36 10339 3863 FO
gs 1704 477 10162 5180 rc
gr

  36   36 8546 4581 FO
gs 1704 477 10162 5180 rc
gr

  36   36 9823 4164 FO
gs 1704 477 10162 5180 rc
gr

  36   36 8889 4539 FO
gs 1704 477 10162 5180 rc
gr

  36   36 10344 3756 FO
gs 1704 477 10162 5180 rc
gr

  36   36 9011 4408 FO
gs 1704 477 10162 5180 rc
gr

  36   36 9754 4176 FO
gs 1704 477 10162 5180 rc
gr

  36   36 8760 4515 FO
gs 1704 477 10162 5180 rc
gr

  36   36 9740 4155 FO
gs 1704 477 10162 5180 rc
gr

  36   36 8699 4599 FO
gs 1704 477 10162 5180 rc
gr

  36   36 9773 1774 FO
gs 1704 477 10162 5180 rc
gr

  36   36 9692 1740 FO
gs 1704 477 10162 5180 rc
gr

  36   36 10389 2226 FO
gs 1704 477 10162 5180 rc
gr

  36   36 9701 1722 FO
gs 1704 477 10162 5180 rc
gr

  36   36 9709 1734 FO
gs 1704 477 10162 5180 rc
gr

  36   36 9409 1629 FO
gs 1704 477 10162 5180 rc
gr

  36   36 10536 3616 FO
gs 1704 477 10162 5180 rc
gr

  36   36 9538 4300 FO
gs 1704 477 10162 5180 rc
gr

  36   36 9071 4615 FO
gs 1704 477 10162 5180 rc
gr

  36   36 10341 3636 FO
gs 1704 477 10162 5180 rc
gr

  36   36 9899 1826 FO
gs 1704 477 10162 5180 rc
gr

  36   36 10005 1897 FO
gs 1704 477 10162 5180 rc
gr

  36   36 9083 4435 FO
gs 1704 477 10162 5180 rc
gr

  36   36 10511 2406 FO
gs 1704 477 10162 5180 rc
gr

  36   36 8263 1323 FO
gs 1704 477 10162 5180 rc
gr

  36   36 10273 2096 FO
gs 1704 477 10162 5180 rc
gr

  36   36 8622 4518 FO
gs 1704 477 10162 5180 rc
gr

c9
  36   36 9219 3157 FO
gs 1704 477 10162 5180 rc
gr

  36   36 8843 3216 FO
gs 1704 477 10162 5180 rc
gr

  36   36 9089 2722 FO
gs 1704 477 10162 5180 rc
gr

  36   36 8902 2537 FO
gs 1704 477 10162 5180 rc
gr

  36   36 9155 2800 FO
gs 1704 477 10162 5180 rc
gr

  36   36 8856 2498 FO
gs 1704 477 10162 5180 rc
gr

  36   36 9112 2778 FO
gs 1704 477 10162 5180 rc
gr

  36   36 7297 2191 FO
gs 1704 477 10162 5180 rc
gr

  36   36 8742 2434 FO
gs 1704 477 10162 5180 rc
gr

  36   36 7450 2122 FO
gs 1704 477 10162 5180 rc
gr

c10
  36   36 6963 1390 FO
gs 1704 477 10162 5180 rc
gr

c9
  36   36 8406 2310 FO
gs 1704 477 10162 5180 rc
gr

  36   36 9086 2794 FO
gs 1704 477 10162 5180 rc
gr

  36   36 9070 2720 FO
gs 1704 477 10162 5180 rc
gr

  36   36 9164 2988 FO
gs 1704 477 10162 5180 rc
gr

  36   36 6932 2200 FO
gs 1704 477 10162 5180 rc
gr

  36   36 8632 2428 FO
gs 1704 477 10162 5180 rc
gr

  36   36 7899 2210 FO
gs 1704 477 10162 5180 rc
gr

  36   36 7549 2213 FO
gs 1704 477 10162 5180 rc
gr

  36   36 9236 3118 FO
gs 1704 477 10162 5180 rc
gr

  36   36 6661 2274 FO
gs 1704 477 10162 5180 rc
gr

  36   36 7139 2102 FO
gs 1704 477 10162 5180 rc
gr

c10
  36   36 10421 3639 FO
gs 1704 477 10162 5180 rc
gr

c9
  36   36 6401 2296 FO
gs 1704 477 10162 5180 rc
gr

  36   36 7456 2161 FO
gs 1704 477 10162 5180 rc
gr

  36   36 7672 2189 FO
gs 1704 477 10162 5180 rc
gr

  36   36 7113 2219 FO
gs 1704 477 10162 5180 rc
gr

  36   36 8601 2363 FO
gs 1704 477 10162 5180 rc
gr

  36   36 8496 2353 FO
gs 1704 477 10162 5180 rc
gr

  36   36 9081 2697 FO
gs 1704 477 10162 5180 rc
gr

  36   36 8526 3714 FO
gs 1704 477 10162 5180 rc
gr

  36   36 9074 2702 FO
gs 1704 477 10162 5180 rc
gr

  36   36 9066 2690 FO
gs 1704 477 10162 5180 rc
gr

  36   36 9130 3128 FO
gs 1704 477 10162 5180 rc
gr

  36   36 7608 3812 FO
gs 1704 477 10162 5180 rc
gr

  36   36 9168 3278 FO
gs 1704 477 10162 5180 rc
gr

  36   36 9079 2816 FO
gs 1704 477 10162 5180 rc
gr

  36   36 6779 2207 FO
gs 1704 477 10162 5180 rc
gr

  36   36 9084 2694 FO
gs 1704 477 10162 5180 rc
gr

  36   36 9064 2676 FO
gs 1704 477 10162 5180 rc
gr

  36   36 7112 2160 FO
gs 1704 477 10162 5180 rc
gr

  36   36 9052 2718 FO
gs 1704 477 10162 5180 rc
gr

  36   36 8981 3380 FO
gs 1704 477 10162 5180 rc
gr

  36   36 8821 2474 FO
gs 1704 477 10162 5180 rc
gr

  36   36 8462 2294 FO
gs 1704 477 10162 5180 rc
gr

  36   36 8799 2479 FO
gs 1704 477 10162 5180 rc
gr

  36   36 8370 2275 FO
gs 1704 477 10162 5180 rc
gr

  36   36 8916 2541 FO
gs 1704 477 10162 5180 rc
gr

  36   36 7586 2184 FO
gs 1704 477 10162 5180 rc
gr

  36   36 8707 2437 FO
gs 1704 477 10162 5180 rc
gr

  36   36 6747 2184 FO
gs 1704 477 10162 5180 rc
gr

  36   36 8791 2459 FO
gs 1704 477 10162 5180 rc
gr

  36   36 8392 2276 FO
gs 1704 477 10162 5180 rc
gr

  36   36 8511 2321 FO
gs 1704 477 10162 5180 rc
gr

  36   36 9072 2920 FO
gs 1704 477 10162 5180 rc
gr

  36   36 8782 3488 FO
gs 1704 477 10162 5180 rc
gr

  36   36 8913 3434 FO
gs 1704 477 10162 5180 rc
gr

  36   36 8867 2506 FO
gs 1704 477 10162 5180 rc
gr

  36   36 9041 2778 FO
gs 1704 477 10162 5180 rc
gr

  36   36 8776 3512 FO
gs 1704 477 10162 5180 rc
gr

  36   36 9116 3155 FO
gs 1704 477 10162 5180 rc
gr

c10
  36   36 7502 4717 FO
gs 1704 477 10162 5180 rc
gr

c9
  36   36 8560 3856 FO
gs 1704 477 10162 5180 rc
gr

  36   36 8999 2645 FO
gs 1704 477 10162 5180 rc
gr

  36   36 8733 2414 FO
gs 1704 477 10162 5180 rc
gr

  36   36 8983 2612 FO
gs 1704 477 10162 5180 rc
gr

  36   36 7970 2168 FO
gs 1704 477 10162 5180 rc
gr

  36   36 8086 2181 FO
gs 1704 477 10162 5180 rc
gr

c10
  36   36 7925 1322 FO
gs 1704 477 10162 5180 rc
gr

c9
  36   36 7996 2145 FO
gs 1704 477 10162 5180 rc
gr

  36   36 8294 2233 FO
gs 1704 477 10162 5180 rc
gr

  36   36 8183 2219 FO
gs 1704 477 10162 5180 rc
gr

  36   36 8620 2375 FO
gs 1704 477 10162 5180 rc
gr

  36   36 8623 2368 FO
gs 1704 477 10162 5180 rc
gr

  36   36 8706 2411 FO
gs 1704 477 10162 5180 rc
gr

c10
  36   36 8490 1406 FO
gs 1704 477 10162 5180 rc
gr

  36   36 9797 4290 FO
gs 1704 477 10162 5180 rc
gr

  36   36 7622 4669 FO
gs 1704 477 10162 5180 rc
gr

  36   36 7621 1314 FO
gs 1704 477 10162 5180 rc
gr

c9
  36   36 8749 2455 FO
gs 1704 477 10162 5180 rc
gr

  36   36 7205 2138 FO
gs 1704 477 10162 5180 rc
gr

  36   36 7325 2173 FO
gs 1704 477 10162 5180 rc
gr

  36   36 7045 2098 FO
gs 1704 477 10162 5180 rc
gr

  36   36 7375 2101 FO
gs 1704 477 10162 5180 rc
gr

  36   36 7149 2138 FO
gs 1704 477 10162 5180 rc
gr

  36   36 8976 2626 FO
gs 1704 477 10162 5180 rc
gr

  36   36 9047 2713 FO
gs 1704 477 10162 5180 rc
gr

  36   36 8124 2189 FO
gs 1704 477 10162 5180 rc
gr

  36   36 8575 2343 FO
gs 1704 477 10162 5180 rc
gr

  36   36 8074 2190 FO
gs 1704 477 10162 5180 rc
gr

  36   36 8081 2234 FO
gs 1704 477 10162 5180 rc
gr

  36   36 9014 2646 FO
gs 1704 477 10162 5180 rc
gr

  36   36 5961 2515 FO
gs 1704 477 10162 5180 rc
gr

  36   36 8579 2362 FO
gs 1704 477 10162 5180 rc
gr

c10
  36   36 6246 4433 FO
gs 1704 477 10162 5180 rc
gr

c9
  36   36 6262 2311 FO
gs 1704 477 10162 5180 rc
gr

  36   36 6234 2367 FO
gs 1704 477 10162 5180 rc
gr

  36   36 6273 2253 FO
gs 1704 477 10162 5180 rc
gr

c8
  36   36 6291 1915 FO
gs 1704 477 10162 5180 rc
gr

c10
  36   36 6091 1489 FO
gs 1704 477 10162 5180 rc
gr

c9
  36   36 6174 2479 FO
gs 1704 477 10162 5180 rc
gr

  36   36 6640 2245 FO
gs 1704 477 10162 5180 rc
gr

c10
  36   36 10179 3945 FO
gs 1704 477 10162 5180 rc
gr

  36   36 6745 4553 FO
gs 1704 477 10162 5180 rc
gr

  36   36 6753 4530 FO
gs 1704 477 10162 5180 rc
gr

  36   36 7821 4711 FO
gs 1704 477 10162 5180 rc
gr

  36   36 8296 4684 FO
gs 1704 477 10162 5180 rc
gr

  36   36 7972 4720 FO
gs 1704 477 10162 5180 rc
gr

  36   36 10750 2743 FO
gs 1704 477 10162 5180 rc
gr

  36   36 7956 1326 FO
gs 1704 477 10162 5180 rc
gr

  36   36 9879 1819 FO
gs 1704 477 10162 5180 rc
gr

  36   36 9598 4188 FO
gs 1704 477 10162 5180 rc
gr

  36   36 9985 4019 FO
gs 1704 477 10162 5180 rc
gr

  36   36 9324 4338 FO
gs 1704 477 10162 5180 rc
gr

  36   36 9379 4348 FO
gs 1704 477 10162 5180 rc
gr

  36   36 9734 4125 FO
gs 1704 477 10162 5180 rc
gr

  36   36 9293 4354 FO
gs 1704 477 10162 5180 rc
gr

  36   36 9296 1550 FO
gs 1704 477 10162 5180 rc
gr

  36   36 9897 3939 FO
gs 1704 477 10162 5180 rc
gr

  36   36 10090 3827 FO
gs 1704 477 10162 5180 rc
gr

  36   36 9947 1857 FO
gs 1704 477 10162 5180 rc
gr

  36   36 9239 1514 FO
gs 1704 477 10162 5180 rc
gr

  36   36 9237 1542 FO
gs 1704 477 10162 5180 rc
gr

  36   36 10055 1933 FO
gs 1704 477 10162 5180 rc
gr

  36   36 9009 4389 FO
gs 1704 477 10162 5180 rc
gr

  36   36 10218 3803 FO
gs 1704 477 10162 5180 rc
gr

  36   36 7538 4635 FO
gs 1704 477 10162 5180 rc
gr

c9
  36   36 7567 2080 FO
gs 1704 477 10162 5180 rc
gr

  36   36 7617 2058 FO
gs 1704 477 10162 5180 rc
gr

c10
  36   36 9834 4149 FO
gs 1704 477 10162 5180 rc
gr

c9
  36   36 7526 2099 FO
gs 1704 477 10162 5180 rc
gr

  36   36 8491 2303 FO
gs 1704 477 10162 5180 rc
gr

  36   36 8846 2493 FO
gs 1704 477 10162 5180 rc
gr

  36   36 8721 3470 FO
gs 1704 477 10162 5180 rc
gr

  36   36 9036 3236 FO
gs 1704 477 10162 5180 rc
gr

  36   36 7499 3803 FO
gs 1704 477 10162 5180 rc
gr

c10
  36   36 6067 4339 FO
gs 1704 477 10162 5180 rc
gr

c9
  36   36 6177 2374 FO
gs 1704 477 10162 5180 rc
gr

  36   36 8632 2369 FO
gs 1704 477 10162 5180 rc
gr

  36   36 7030 2154 FO
gs 1704 477 10162 5180 rc
gr

  36   36 8431 2297 FO
gs 1704 477 10162 5180 rc
gr

  36   36 8288 2287 FO
gs 1704 477 10162 5180 rc
gr

  36   36 8718 2406 FO
gs 1704 477 10162 5180 rc
gr

  36   36 8609 2346 FO
gs 1704 477 10162 5180 rc
gr

  36   36 8741 2425 FO
gs 1704 477 10162 5180 rc
gr

  36   36 8710 3570 FO
gs 1704 477 10162 5180 rc
gr

  36   36 8107 3789 FO
gs 1704 477 10162 5180 rc
gr

c10
  36   36 8698 4692 FO
gs 1704 477 10162 5180 rc
gr

c9
  36   36 8196 2197 FO
gs 1704 477 10162 5180 rc
gr

  36   36 8644 2369 FO
gs 1704 477 10162 5180 rc
gr

  36   36 8429 3714 FO
gs 1704 477 10162 5180 rc
gr

  36   36 7976 3876 FO
gs 1704 477 10162 5180 rc
gr

  36   36 8593 2348 FO
gs 1704 477 10162 5180 rc
gr

  36   36 7906 2114 FO
gs 1704 477 10162 5180 rc
gr

  36   36 8014 2117 FO
gs 1704 477 10162 5180 rc
gr

c10
  36   36 8377 4527 FO
gs 1704 477 10162 5180 rc
gr

c9
  36   36 8221 3813 FO
gs 1704 477 10162 5180 rc
gr

  36   36 8218 2173 FO
gs 1704 477 10162 5180 rc
gr

  36   36 8809 2466 FO
gs 1704 477 10162 5180 rc
gr

  36   36 7905 2136 FO
gs 1704 477 10162 5180 rc
gr

  36   36 8340 2248 FO
gs 1704 477 10162 5180 rc
gr

  36   36 7872 2154 FO
gs 1704 477 10162 5180 rc
gr

  36   36 8907 2540 FO
gs 1704 477 10162 5180 rc
gr

  36   36 7687 2116 FO
gs 1704 477 10162 5180 rc
gr

  36   36 8927 2562 FO
gs 1704 477 10162 5180 rc
gr

  36   36 8945 2564 FO
gs 1704 477 10162 5180 rc
gr

  36   36 6536 2227 FO
gs 1704 477 10162 5180 rc
gr

  36   36 6708 2208 FO
gs 1704 477 10162 5180 rc
gr

  36   36 6858 2208 FO
gs 1704 477 10162 5180 rc
gr

  36   36 6203 2348 FO
gs 1704 477 10162 5180 rc
gr

  36   36 7083 2157 FO
gs 1704 477 10162 5180 rc
gr

  36   36 8265 2214 FO
gs 1704 477 10162 5180 rc
gr

  36   36 7429 2138 FO
gs 1704 477 10162 5180 rc
gr

  36   36 8239 2231 FO
gs 1704 477 10162 5180 rc
gr

  36   36 8856 3465 FO
gs 1704 477 10162 5180 rc
gr

  36   36 7707 2118 FO
gs 1704 477 10162 5180 rc
gr

  36   36 8628 2360 FO
gs 1704 477 10162 5180 rc
gr

  36   36 7646 2122 FO
gs 1704 477 10162 5180 rc
gr

  36   36 9164 2766 FO
gs 1704 477 10162 5180 rc
gr

  36   36 7443 2132 FO
gs 1704 477 10162 5180 rc
gr

  36   36 7992 2164 FO
gs 1704 477 10162 5180 rc
gr

  36   36 7494 2099 FO
gs 1704 477 10162 5180 rc
gr

  36   36 7512 2122 FO
gs 1704 477 10162 5180 rc
gr

  36   36 7635 2190 FO
gs 1704 477 10162 5180 rc
gr

  36   36 7675 2119 FO
gs 1704 477 10162 5180 rc
gr

c8
  36   36 7690 1981 FO
gs 1704 477 10162 5180 rc
gr

c9
  36   36 7795 2156 FO
gs 1704 477 10162 5180 rc
gr

c10
  36   36 8994 4447 FO
gs 1704 477 10162 5180 rc
gr

  36   36 8516 4580 FO
gs 1704 477 10162 5180 rc
gr

  36   36 8623 4565 FO
gs 1704 477 10162 5180 rc
gr

  36   36 7471 4661 FO
gs 1704 477 10162 5180 rc
gr

  36   36 8188 4571 FO
gs 1704 477 10162 5180 rc
gr

  36   36 7949 4618 FO
gs 1704 477 10162 5180 rc
gr

c9
  36   36 8901 3519 FO
gs 1704 477 10162 5180 rc
gr

  36   36 6983 2147 FO
gs 1704 477 10162 5180 rc
gr

  36   36 6970 2176 FO
gs 1704 477 10162 5180 rc
gr

  36   36 8936 2562 FO
gs 1704 477 10162 5180 rc
gr

  36   36 5595 2718 FO
gs 1704 477 10162 5180 rc
gr

  36   36 5805 2563 FO
gs 1704 477 10162 5180 rc
gr

  36   36 8748 2431 FO
gs 1704 477 10162 5180 rc
gr

  36   36 7869 2066 FO
gs 1704 477 10162 5180 rc
gr

  36   36 8325 2286 FO
gs 1704 477 10162 5180 rc
gr

  36   36 8479 2302 FO
gs 1704 477 10162 5180 rc
gr

  36   36 7834 2106 FO
gs 1704 477 10162 5180 rc
gr

  36   36 8545 2317 FO
gs 1704 477 10162 5180 rc
gr

  36   36 7682 2079 FO
gs 1704 477 10162 5180 rc
gr

  36   36 8376 2227 FO
gs 1704 477 10162 5180 rc
gr

  36   36 8111 2172 FO
gs 1704 477 10162 5180 rc
gr

  36   36 8110 2193 FO
gs 1704 477 10162 5180 rc
gr

  36   36 8901 2535 FO
gs 1704 477 10162 5180 rc
gr

  36   36 8779 3418 FO
gs 1704 477 10162 5180 rc
gr

  36   36 8675 2375 FO
gs 1704 477 10162 5180 rc
gr

  36   36 9108 3018 FO
gs 1704 477 10162 5180 rc
gr

  36   36 7475 2043 FO
gs 1704 477 10162 5180 rc
gr

c10
  36   36 8120 4623 FO
gs 1704 477 10162 5180 rc
gr

  36   36 7394 4664 FO
gs 1704 477 10162 5180 rc
gr

  36   36 7945 4692 FO
gs 1704 477 10162 5180 rc
gr

  36   36 6985 4625 FO
gs 1704 477 10162 5180 rc
gr

c8
  36   36 7058 1700 FO
gs 1704 477 10162 5180 rc
gr

c10
  36   36 8842 4553 FO
gs 1704 477 10162 5180 rc
gr

c9
  36   36 7282 2102 FO
gs 1704 477 10162 5180 rc
gr

c10
  36   36 7266 4606 FO
gs 1704 477 10162 5180 rc
gr

  36   36 10478 3441 FO
gs 1704 477 10162 5180 rc
gr

  36   36 8110 1221 FO
gs 1704 477 10162 5180 rc
gr

  36   36 9531 1662 FO
gs 1704 477 10162 5180 rc
gr

  36   36 7863 1272 FO
gs 1704 477 10162 5180 rc
gr

  36   36 8957 1431 FO
gs 1704 477 10162 5180 rc
gr

  36   36 7770 1290 FO
gs 1704 477 10162 5180 rc
gr

  36   36 8810 1407 FO
gs 1704 477 10162 5180 rc
gr

  36   36 8349 1340 FO
gs 1704 477 10162 5180 rc
gr

  36   36 10449 3579 FO
gs 1704 477 10162 5180 rc
gr

  36   36 8213 1269 FO
gs 1704 477 10162 5180 rc
gr

  36   36 8405 1345 FO
gs 1704 477 10162 5180 rc
gr

  36   36 9795 3951 FO
gs 1704 477 10162 5180 rc
gr

  36   36 8125 4544 FO
gs 1704 477 10162 5180 rc
gr

  36   36 9369 4358 FO
gs 1704 477 10162 5180 rc
gr

  36   36 7241 4590 FO
gs 1704 477 10162 5180 rc
gr

  36   36 8690 4498 FO
gs 1704 477 10162 5180 rc
gr

  36   36 7839 4621 FO
gs 1704 477 10162 5180 rc
gr

  36   36 7950 4617 FO
gs 1704 477 10162 5180 rc
gr

  36   36 7324 4627 FO
gs 1704 477 10162 5180 rc
gr

c9
  36   36 8134 2211 FO
gs 1704 477 10162 5180 rc
gr

  36   36 6792 2192 FO
gs 1704 477 10162 5180 rc
gr

  36   36 7142 2028 FO
gs 1704 477 10162 5180 rc
gr

  36   36 9033 3090 FO
gs 1704 477 10162 5180 rc
gr

c10
  36   36 7009 4541 FO
gs 1704 477 10162 5180 rc
gr

c9
  36   36 6979 2105 FO
gs 1704 477 10162 5180 rc
gr

  36   36 7761 2129 FO
gs 1704 477 10162 5180 rc
gr

  36   36 7667 2078 FO
gs 1704 477 10162 5180 rc
gr

  36   36 8028 3650 FO
gs 1704 477 10162 5180 rc
gr

  36   36 8983 2683 FO
gs 1704 477 10162 5180 rc
gr

  36   36 7454 2086 FO
gs 1704 477 10162 5180 rc
gr

  36   36 7942 2097 FO
gs 1704 477 10162 5180 rc
gr

c10
  36   36 7666 1244 FO
gs 1704 477 10162 5180 rc
gr

  36   36 10591 2504 FO
gs 1704 477 10162 5180 rc
gr

  36   36 6808 1279 FO
gs 1704 477 10162 5180 rc
gr

  36   36 7223 1262 FO
gs 1704 477 10162 5180 rc
gr

c9
  36   36 6349 2269 FO
gs 1704 477 10162 5180 rc
gr

c10
  36   36 6366 1361 FO
gs 1704 477 10162 5180 rc
gr

c9
  36   36 8577 2365 FO
gs 1704 477 10162 5180 rc
gr

  36   36 5881 2508 FO
gs 1704 477 10162 5180 rc
gr

  36   36 5912 2510 FO
gs 1704 477 10162 5180 rc
gr

  36   36 6436 2287 FO
gs 1704 477 10162 5180 rc
gr

  36   36 6445 2175 FO
gs 1704 477 10162 5180 rc
gr

c8
  36   36 6673 1839 FO
gs 1704 477 10162 5180 rc
gr

c9
  36   36 6885 2190 FO
gs 1704 477 10162 5180 rc
gr

c10
  36   36 6850 1338 FO
gs 1704 477 10162 5180 rc
gr

  36   36 6451 1407 FO
gs 1704 477 10162 5180 rc
gr

  36   36 8308 4678 FO
gs 1704 477 10162 5180 rc
gr

  36   36 6407 4480 FO
gs 1704 477 10162 5180 rc
gr

  36   36 6412 4482 FO
gs 1704 477 10162 5180 rc
gr

c9
  36   36 9031 2629 FO
gs 1704 477 10162 5180 rc
gr

  36   36 6060 2403 FO
gs 1704 477 10162 5180 rc
gr

  36   36 6026 2564 FO
gs 1704 477 10162 5180 rc
gr

  36   36 7107 2337 FO
gs 1704 477 10162 5180 rc
gr

  36   36 7415 2074 FO
gs 1704 477 10162 5180 rc
gr

  36   36 7252 2111 FO
gs 1704 477 10162 5180 rc
gr

  36   36 8943 2560 FO
gs 1704 477 10162 5180 rc
gr

  36   36 6886 2138 FO
gs 1704 477 10162 5180 rc
gr

  36   36 8949 2582 FO
gs 1704 477 10162 5180 rc
gr

  36   36 5606 2654 FO
gs 1704 477 10162 5180 rc
gr

  36   36 7620 2089 FO
gs 1704 477 10162 5180 rc
gr

  36   36 5919 2450 FO
gs 1704 477 10162 5180 rc
gr

  36   36 6306 2228 FO
gs 1704 477 10162 5180 rc
gr

  36   36 6071 2363 FO
gs 1704 477 10162 5180 rc
gr

  36   36 7109 2151 FO
gs 1704 477 10162 5180 rc
gr

  36   36 8978 2658 FO
gs 1704 477 10162 5180 rc
gr

  36   36 7154 2089 FO
gs 1704 477 10162 5180 rc
gr

  36   36 7814 2143 FO
gs 1704 477 10162 5180 rc
gr

  36   36 6615 2184 FO
gs 1704 477 10162 5180 rc
gr

c10
  36   36 8754 4458 FO
gs 1704 477 10162 5180 rc
gr

c9
  36   36 6722 2150 FO
gs 1704 477 10162 5180 rc
gr

  36   36 8657 2362 FO
gs 1704 477 10162 5180 rc
gr

  36   36 7257 2074 FO
gs 1704 477 10162 5180 rc
gr

  36   36 8413 2255 FO
gs 1704 477 10162 5180 rc
gr

  36   36 7092 2084 FO
gs 1704 477 10162 5180 rc
gr

  36   36 8213 2139 FO
gs 1704 477 10162 5180 rc
gr

  36   36 8040 2143 FO
gs 1704 477 10162 5180 rc
gr

  36   36 8966 2598 FO
gs 1704 477 10162 5180 rc
gr

  36   36 7224 2072 FO
gs 1704 477 10162 5180 rc
gr

  36   36 7885 2121 FO
gs 1704 477 10162 5180 rc
gr

  36   36 6934 2080 FO
gs 1704 477 10162 5180 rc
gr

  36   36 6967 2331 FO
gs 1704 477 10162 5180 rc
gr

c10
  36   36 6991 4559 FO
gs 1704 477 10162 5180 rc
gr

c9
  36   36 9138 2753 FO
gs 1704 477 10162 5180 rc
gr

  36   36 6682 2124 FO
gs 1704 477 10162 5180 rc
gr

  36   36 6933 2126 FO
gs 1704 477 10162 5180 rc
gr

  36   36 6174 2244 FO
gs 1704 477 10162 5180 rc
gr

  36   36 7549 2113 FO
gs 1704 477 10162 5180 rc
gr

c10
  36   36 5820 1468 FO
gs 1704 477 10162 5180 rc
gr

c9
  36   36 5810 2459 FO
gs 1704 477 10162 5180 rc
gr

  36   36 7289 2151 FO
gs 1704 477 10162 5180 rc
gr

  36   36 5580 2616 FO
gs 1704 477 10162 5180 rc
gr

  36   36 5574 2857 FO
gs 1704 477 10162 5180 rc
gr

c10
  36   36 10694 3221 FO
gs 1704 477 10162 5180 rc
gr

c9
  36   36 5287 3036 FO
gs 1704 477 10162 5180 rc
gr

  36   36 7092 2131 FO
gs 1704 477 10162 5180 rc
gr

c10
  36   36 5972 1478 FO
gs 1704 477 10162 5180 rc
gr

c9
  36   36 8595 2350 FO
gs 1704 477 10162 5180 rc
gr

  36   36 5197 3572 FO
gs 1704 477 10162 5180 rc
gr

  36   36 8697 3528 FO
gs 1704 477 10162 5180 rc
gr

  36   36 5363 3759 FO
gs 1704 477 10162 5180 rc
gr

c10
  36   36 5354 1674 FO
gs 1704 477 10162 5180 rc
gr

c9
  36   36 7389 2178 FO
gs 1704 477 10162 5180 rc
gr

  36   36 5313 3664 FO
gs 1704 477 10162 5180 rc
gr

  36   36 6771 2174 FO
gs 1704 477 10162 5180 rc
gr

  36   36 5738 2701 FO
gs 1704 477 10162 5180 rc
gr

  36   36 5665 4104 FO
gs 1704 477 10162 5180 rc
gr

  36   36 5703 4132 FO
gs 1704 477 10162 5180 rc
gr

c10
  36   36 5706 4135 FO
gs 1704 477 10162 5180 rc
gr

  36   36 7141 4596 FO
gs 1704 477 10162 5180 rc
gr

c9
  36   36 6012 4325 FO
gs 1704 477 10162 5180 rc
gr

  36   36 6016 2356 FO
gs 1704 477 10162 5180 rc
gr

  36   36 5954 2399 FO
gs 1704 477 10162 5180 rc
gr

c10
  36   36 5965 4283 FO
gs 1704 477 10162 5180 rc
gr

  36   36 7289 4675 FO
gs 1704 477 10162 5180 rc
gr

  36   36 5578 4023 FO
gs 1704 477 10162 5180 rc
gr

  36   36 10709 2573 FO
gs 1704 477 10162 5180 rc
gr

  36   36 5446 3922 FO
gs 1704 477 10162 5180 rc
gr

c9
  36   36 5465 3928 FO
gs 1704 477 10162 5180 rc
gr

  36   36 6919 2093 FO
gs 1704 477 10162 5180 rc
gr

  36   36 6592 2191 FO
gs 1704 477 10162 5180 rc
gr

  36   36 6637 2084 FO
gs 1704 477 10162 5180 rc
gr

  36   36 7197 2066 FO
gs 1704 477 10162 5180 rc
gr

  36   36 6521 2148 FO
gs 1704 477 10162 5180 rc
gr

  36   36 8223 2174 FO
gs 1704 477 10162 5180 rc
gr

  36   36 6160 2219 FO
gs 1704 477 10162 5180 rc
gr

  36   36 6738 2136 FO
gs 1704 477 10162 5180 rc
gr

  36   36 6043 2413 FO
gs 1704 477 10162 5180 rc
gr

c10
  36   36 6297 4423 FO
gs 1704 477 10162 5180 rc
gr

c9
  36   36 6038 2373 FO
gs 1704 477 10162 5180 rc
gr

  36   36 6025 2443 FO
gs 1704 477 10162 5180 rc
gr

  36   36 6065 2510 FO
gs 1704 477 10162 5180 rc
gr

  36   36 7558 2062 FO
gs 1704 477 10162 5180 rc
gr

  36   36 7206 2072 FO
gs 1704 477 10162 5180 rc
gr

  36   36 8849 2499 FO
gs 1704 477 10162 5180 rc
gr

  36   36 8414 2223 FO
gs 1704 477 10162 5180 rc
gr

  36   36 8487 2263 FO
gs 1704 477 10162 5180 rc
gr

  36   36 6234 2183 FO
gs 1704 477 10162 5180 rc
gr

  36   36 7554 2053 FO
gs 1704 477 10162 5180 rc
gr

  36   36 5979 2354 FO
gs 1704 477 10162 5180 rc
gr

  36   36 8362 2254 FO
gs 1704 477 10162 5180 rc
gr

  36   36 5732 2446 FO
gs 1704 477 10162 5180 rc
gr

  36   36 7698 2160 FO
gs 1704 477 10162 5180 rc
gr

  36   36 5333 3795 FO
gs 1704 477 10162 5180 rc
gr

  36   36 5265 3624 FO
gs 1704 477 10162 5180 rc
gr

  36   36 5197 3088 FO
gs 1704 477 10162 5180 rc
gr

c10
  36   36 10474 2283 FO
gs 1704 477 10162 5180 rc
gr

c9
  36   36 5229 3678 FO
gs 1704 477 10162 5180 rc
gr

  36   36 9093 2752 FO
gs 1704 477 10162 5180 rc
gr

  36   36 5101 3214 FO
gs 1704 477 10162 5180 rc
gr

  36   36 7945 2079 FO
gs 1704 477 10162 5180 rc
gr

  36   36 5713 2444 FO
gs 1704 477 10162 5180 rc
gr

  36   36 8696 2385 FO
gs 1704 477 10162 5180 rc
gr

c8
  36   36 7305 1899 FO
gs 1704 477 10162 5180 rc
gr

  36   36 7608 1981 FO
gs 1704 477 10162 5180 rc
gr

  36   36 7317 1904 FO
gs 1704 477 10162 5180 rc
gr

  36   36 6935 1916 FO
gs 1704 477 10162 5180 rc
gr

  36   36 7674 1970 FO
gs 1704 477 10162 5180 rc
gr

  36   36 7312 1929 FO
gs 1704 477 10162 5180 rc
gr

0 sg
  36   36 9851 1793 FO
gs 1704 477 10162 5180 rc
gr

  36   36 7128 1012 FO
gs 1704 477 10162 5180 rc
gr

  36   36 8214 1136 FO
gs 1704 477 10162 5180 rc
gr

c8
  36   36 7641 1934 FO
gs 1704 477 10162 5180 rc
gr

  36   36 8071 2053 FO
gs 1704 477 10162 5180 rc
gr

  36   36 7475 1926 FO
gs 1704 477 10162 5180 rc
gr

  36   36 7998 2001 FO
gs 1704 477 10162 5180 rc
gr

  36   36 8481 3172 FO
gs 1704 477 10162 5180 rc
gr

  36   36 8696 3134 FO
gs 1704 477 10162 5180 rc
gr

  36   36 8327 3360 FO
gs 1704 477 10162 5180 rc
gr

  36   36 7606 3640 FO
gs 1704 477 10162 5180 rc
gr

  36   36 8292 2129 FO
gs 1704 477 10162 5180 rc
gr

  36   36 6398 1984 FO
gs 1704 477 10162 5180 rc
gr

  36   36 6762 1966 FO
gs 1704 477 10162 5180 rc
gr

  36   36 5861 2095 FO
gs 1704 477 10162 5180 rc
gr

  36   36 5941 2034 FO
gs 1704 477 10162 5180 rc
gr

0 sg
  36   36 9518 4009 FO
gs 1704 477 10162 5180 rc
gr

  36   36 6442 4338 FO
gs 1704 477 10162 5180 rc
gr

c8
  36   36 8795 3305 FO
gs 1704 477 10162 5180 rc
gr

  36   36 5894 2121 FO
gs 1704 477 10162 5180 rc
gr

  36   36 6445 2031 FO
gs 1704 477 10162 5180 rc
gr

  36   36 5426 2412 FO
gs 1704 477 10162 5180 rc
gr

  36   36 7933 2007 FO
gs 1704 477 10162 5180 rc
gr

  36   36 7250 1893 FO
gs 1704 477 10162 5180 rc
gr

  36   36 7591 1903 FO
gs 1704 477 10162 5180 rc
gr

  36   36 7531 1857 FO
gs 1704 477 10162 5180 rc
gr

  36   36 7715 1886 FO
gs 1704 477 10162 5180 rc
gr

  36   36 7585 1896 FO
gs 1704 477 10162 5180 rc
gr

0 sg
  36   36 7583 4437 FO
gs 1704 477 10162 5180 rc
gr

c8
  36   36 8313 2148 FO
gs 1704 477 10162 5180 rc
gr

  36   36 6475 1948 FO
gs 1704 477 10162 5180 rc
gr

  36   36 7824 1964 FO
gs 1704 477 10162 5180 rc
gr

  36   36 7448 1937 FO
gs 1704 477 10162 5180 rc
gr

0 sg
  36   36 8619 4267 FO
gs 1704 477 10162 5180 rc
gr

  36   36 7650 4435 FO
gs 1704 477 10162 5180 rc
gr

  36   36 9023 4106 FO
gs 1704 477 10162 5180 rc
gr

  36   36 8601 1141 FO
gs 1704 477 10162 5180 rc
gr

c8
  36   36 8757 2539 FO
gs 1704 477 10162 5180 rc
gr

  36   36 8382 2160 FO
gs 1704 477 10162 5180 rc
gr

  36   36 8039 1998 FO
gs 1704 477 10162 5180 rc
gr

  36   36 8352 2148 FO
gs 1704 477 10162 5180 rc
gr

  36   36 7424 1915 FO
gs 1704 477 10162 5180 rc
gr

  36   36 8180 2086 FO
gs 1704 477 10162 5180 rc
gr

  36   36 6471 1919 FO
gs 1704 477 10162 5180 rc
gr

  36   36 8278 2109 FO
gs 1704 477 10162 5180 rc
gr

  36   36 7702 1939 FO
gs 1704 477 10162 5180 rc
gr

  36   36 8785 2562 FO
gs 1704 477 10162 5180 rc
gr

  36   36 7687 1882 FO
gs 1704 477 10162 5180 rc
gr

  36   36 7951 1974 FO
gs 1704 477 10162 5180 rc
gr

  36   36 7780 1932 FO
gs 1704 477 10162 5180 rc
gr

  36   36 8293 2121 FO
gs 1704 477 10162 5180 rc
gr

  36   36 7898 1970 FO
gs 1704 477 10162 5180 rc
gr

  36   36 8810 2766 FO
gs 1704 477 10162 5180 rc
gr

  36   36 5739 2123 FO
gs 1704 477 10162 5180 rc
gr

  36   36 6758 1939 FO
gs 1704 477 10162 5180 rc
gr

  36   36 5916 2119 FO
gs 1704 477 10162 5180 rc
gr

  36   36 8158 2085 FO
gs 1704 477 10162 5180 rc
gr

  36   36 8770 2591 FO
gs 1704 477 10162 5180 rc
gr

  36   36 7658 1899 FO
gs 1704 477 10162 5180 rc
gr

  36   36 8757 2543 FO
gs 1704 477 10162 5180 rc
gr

  36   36 7375 1936 FO
gs 1704 477 10162 5180 rc
gr

  36   36 8187 2064 FO
gs 1704 477 10162 5180 rc
gr

  36   36 6835 1754 FO
gs 1704 477 10162 5180 rc
gr

  36   36 7690 1915 FO
gs 1704 477 10162 5180 rc
gr

  36   36 7596 1899 FO
gs 1704 477 10162 5180 rc
gr

  36   36 8237 2097 FO
gs 1704 477 10162 5180 rc
gr

  36   36 8445 2239 FO
gs 1704 477 10162 5180 rc
gr

  36   36 8363 3387 FO
gs 1704 477 10162 5180 rc
gr

  36   36 8758 2563 FO
gs 1704 477 10162 5180 rc
gr

  36   36 8186 2044 FO
gs 1704 477 10162 5180 rc
gr

  36   36 8140 3469 FO
gs 1704 477 10162 5180 rc
gr

  36   36 8659 2404 FO
gs 1704 477 10162 5180 rc
gr

  36   36 8427 2194 FO
gs 1704 477 10162 5180 rc
gr

0 sg
  36   36 8576 1222 FO
gs 1704 477 10162 5180 rc
gr

  36   36 8433 1214 FO
gs 1704 477 10162 5180 rc
gr

  36   36 10234 2232 FO
gs 1704 477 10162 5180 rc
gr

  36   36 8519 1163 FO
gs 1704 477 10162 5180 rc
gr

  36   36 9199 1405 FO
gs 1704 477 10162 5180 rc
gr

  36   36 8589 1174 FO
gs 1704 477 10162 5180 rc
gr

  36   36 8017 1087 FO
gs 1704 477 10162 5180 rc
gr

  36   36 10192 2187 FO
gs 1704 477 10162 5180 rc
gr

  36   36 7797 4337 FO
gs 1704 477 10162 5180 rc
gr

  36   36 9901 3598 FO
gs 1704 477 10162 5180 rc
gr

  36   36 7479 4366 FO
gs 1704 477 10162 5180 rc
gr

  36   36 7365 4376 FO
gs 1704 477 10162 5180 rc
gr

  36   36 9968 3607 FO
gs 1704 477 10162 5180 rc
gr

  36   36 8117 1035 FO
gs 1704 477 10162 5180 rc
gr

  36   36 9655 1648 FO
gs 1704 477 10162 5180 rc
gr

  36   36 7307  946 FO
gs 1704 477 10162 5180 rc
gr

  36   36 8544 1192 FO
gs 1704 477 10162 5180 rc
gr

  36   36 10126 3058 FO
gs 1704 477 10162 5180 rc
gr

  36   36 6960  930 FO
gs 1704 477 10162 5180 rc
gr

  36   36 6970 4368 FO
gs 1704 477 10162 5180 rc
gr

  36   36 8029 4388 FO
gs 1704 477 10162 5180 rc
gr

  36   36 7578 4419 FO
gs 1704 477 10162 5180 rc
gr

c8
  36   36 8702 3308 FO
gs 1704 477 10162 5180 rc
gr

  36   36 6790 1861 FO
gs 1704 477 10162 5180 rc
gr

  36   36 8074 2049 FO
gs 1704 477 10162 5180 rc
gr

  36   36 6417 1960 FO
gs 1704 477 10162 5180 rc
gr

0 sg
  36   36 8440 1128 FO
gs 1704 477 10162 5180 rc
gr

c8
  36   36 6711 1850 FO
gs 1704 477 10162 5180 rc
gr

  36   36 7808 1926 FO
gs 1704 477 10162 5180 rc
gr

  36   36 7045 1881 FO
gs 1704 477 10162 5180 rc
gr

  36   36 8419 2189 FO
gs 1704 477 10162 5180 rc
gr

0 sg
  36   36 7338 1053 FO
gs 1704 477 10162 5180 rc
gr

c8
  36   36 8694 2416 FO
gs 1704 477 10162 5180 rc
gr

  36   36 7349 1858 FO
gs 1704 477 10162 5180 rc
gr

  36   36 8165 2048 FO
gs 1704 477 10162 5180 rc
gr

  36   36 8138 2040 FO
gs 1704 477 10162 5180 rc
gr

  36   36 8499 2252 FO
gs 1704 477 10162 5180 rc
gr

  36   36 7906 1920 FO
gs 1704 477 10162 5180 rc
gr

0 sg
  36   36 7924 4414 FO
gs 1704 477 10162 5180 rc
gr

c8
  36   36 8700 3081 FO
gs 1704 477 10162 5180 rc
gr

  36   36 5639 2193 FO
gs 1704 477 10162 5180 rc
gr

0 sg
  36   36 8121 1153 FO
gs 1704 477 10162 5180 rc
gr

c8
  36   36 5600 2278 FO
gs 1704 477 10162 5180 rc
gr

  36   36 8353 2147 FO
gs 1704 477 10162 5180 rc
gr

  36   36 6008 1965 FO
gs 1704 477 10162 5180 rc
gr

  36   36 6372 1898 FO
gs 1704 477 10162 5180 rc
gr

0 sg
  36   36 8549 4275 FO
gs 1704 477 10162 5180 rc
gr

  36   36 6067 4248 FO
gs 1704 477 10162 5180 rc
gr

c8
  36   36 6280 4324 FO
gs 1704 477 10162 5180 rc
gr

  36   36 8914 2793 FO
gs 1704 477 10162 5180 rc
gr

  36   36 5407 2421 FO
gs 1704 477 10162 5180 rc
gr

  36   36 7324 1979 FO
gs 1704 477 10162 5180 rc
gr

  36   36 8739 2919 FO
gs 1704 477 10162 5180 rc
gr

  36   36 7437 1843 FO
gs 1704 477 10162 5180 rc
gr

  36   36 8656 2397 FO
gs 1704 477 10162 5180 rc
gr

  36   36 6940 1849 FO
gs 1704 477 10162 5180 rc
gr

  36   36 8300 2111 FO
gs 1704 477 10162 5180 rc
gr

0 sg
  36   36 7473 4391 FO
gs 1704 477 10162 5180 rc
gr

c8
  36   36 8040 3474 FO
gs 1704 477 10162 5180 rc
gr

  36   36 7243 3572 FO
gs 1704 477 10162 5180 rc
gr

  36   36 7582 3576 FO
gs 1704 477 10162 5180 rc
gr

0 sg
  36   36 6176 4265 FO
gs 1704 477 10162 5180 rc
gr

c8
  36   36 8545 2276 FO
gs 1704 477 10162 5180 rc
gr

  36   36 5362 2379 FO
gs 1704 477 10162 5180 rc
gr

  36   36 7499 1920 FO
gs 1704 477 10162 5180 rc
gr

  36   36 7243 1911 FO
gs 1704 477 10162 5180 rc
gr

  36   36 8273 3312 FO
gs 1704 477 10162 5180 rc
gr

0 sg
  36   36 6882 4372 FO
gs 1704 477 10162 5180 rc
gr

c8
  36   36 8655 3102 FO
gs 1704 477 10162 5180 rc
gr

  36   36 7172 1812 FO
gs 1704 477 10162 5180 rc
gr

  36   36 8338 2136 FO
gs 1704 477 10162 5180 rc
gr

  36   36 6793 1857 FO
gs 1704 477 10162 5180 rc
gr

  36   36 6781 1886 FO
gs 1704 477 10162 5180 rc
gr

  36   36 8547 2285 FO
gs 1704 477 10162 5180 rc
gr

  36   36 7825 1876 FO
gs 1704 477 10162 5180 rc
gr

  36   36 8064 1998 FO
gs 1704 477 10162 5180 rc
gr

0 sg
  36   36 6414  981 FO
gs 1704 477 10162 5180 rc
gr

c8
  36   36 8020 1993 FO
gs 1704 477 10162 5180 rc
gr

  36   36 6074 4223 FO
gs 1704 477 10162 5180 rc
gr

  36   36 7431 3660 FO
gs 1704 477 10162 5180 rc
gr

  36   36 5764 2171 FO
gs 1704 477 10162 5180 rc
gr

  36   36 8380 2162 FO
gs 1704 477 10162 5180 rc
gr

  36   36 5452 2297 FO
gs 1704 477 10162 5180 rc
gr

  36   36 7499 1904 FO
gs 1704 477 10162 5180 rc
gr

  36   36 6616 1939 FO
gs 1704 477 10162 5180 rc
gr

  36   36 6539 1991 FO
gs 1704 477 10162 5180 rc
gr

  36   36 7802 1936 FO
gs 1704 477 10162 5180 rc
gr

  36   36 6606 1875 FO
gs 1704 477 10162 5180 rc
gr

  36   36 6526 1912 FO
gs 1704 477 10162 5180 rc
gr

  36   36 6538 1852 FO
gs 1704 477 10162 5180 rc
gr

0 sg
  36   36 6741 1046 FO
gs 1704 477 10162 5180 rc
gr

c8
  36   36 6493 1966 FO
gs 1704 477 10162 5180 rc
gr

0 sg
  36   36 6475 4285 FO
gs 1704 477 10162 5180 rc
gr

c8
  36   36 8762 2576 FO
gs 1704 477 10162 5180 rc
gr

0 sg
  36   36 5736 4082 FO
gs 1704 477 10162 5180 rc
gr

c8
  36   36 5701 2115 FO
gs 1704 477 10162 5180 rc
gr

  36   36 7683 1892 FO
gs 1704 477 10162 5180 rc
gr

  36   36 6762 1825 FO
gs 1704 477 10162 5180 rc
gr

  36   36 7422 1869 FO
gs 1704 477 10162 5180 rc
gr

  36   36 6740 1927 FO
gs 1704 477 10162 5180 rc
gr

0 sg
  36   36 7179  991 FO
gs 1704 477 10162 5180 rc
gr

c8
  36   36 6523 1864 FO
gs 1704 477 10162 5180 rc
gr

  36   36 7781 1975 FO
gs 1704 477 10162 5180 rc
gr

  36   36 7025 1804 FO
gs 1704 477 10162 5180 rc
gr

  36   36 6575 1882 FO
gs 1704 477 10162 5180 rc
gr

  36   36 6508 1920 FO
gs 1704 477 10162 5180 rc
gr

  36   36 7437 1812 FO
gs 1704 477 10162 5180 rc
gr

0 sg
  36   36 6955  991 FO
gs 1704 477 10162 5180 rc
gr

  36   36 10365 2999 FO
gs 1704 477 10162 5180 rc
gr

  36   36 6521  960 FO
gs 1704 477 10162 5180 rc
gr

c8
  36   36 7872 1939 FO
gs 1704 477 10162 5180 rc
gr

  36   36 7440 3463 FO
gs 1704 477 10162 5180 rc
gr

0 sg
  36   36 6432 4316 FO
gs 1704 477 10162 5180 rc
gr

c8
  36   36 7813 1966 FO
gs 1704 477 10162 5180 rc
gr

  36   36 6371 1867 FO
gs 1704 477 10162 5180 rc
gr

  36   36 7296 1835 FO
gs 1704 477 10162 5180 rc
gr

  36   36 6151 1958 FO
gs 1704 477 10162 5180 rc
gr

  36   36 6040 2018 FO
gs 1704 477 10162 5180 rc
gr

  36   36 6146 1937 FO
gs 1704 477 10162 5180 rc
gr

  36   36 6683 1789 FO
gs 1704 477 10162 5180 rc
gr

  36   36 6393 1890 FO
gs 1704 477 10162 5180 rc
gr

  36   36 8798 2768 FO
gs 1704 477 10162 5180 rc
gr

  36   36 5916 1922 FO
gs 1704 477 10162 5180 rc
gr

  36   36 8276 2133 FO
gs 1704 477 10162 5180 rc
gr

  36   36 5789 2153 FO
gs 1704 477 10162 5180 rc
gr

  36   36 6828 1929 FO
gs 1704 477 10162 5180 rc
gr

  36   36 5830 2029 FO
gs 1704 477 10162 5180 rc
gr

0 sg
  36   36 7300 1047 FO
gs 1704 477 10162 5180 rc
gr

c8
  36   36 5573 2171 FO
gs 1704 477 10162 5180 rc
gr

  36   36 6493 1920 FO
gs 1704 477 10162 5180 rc
gr

  36   36 5281 2356 FO
gs 1704 477 10162 5180 rc
gr

  36   36 6312 1935 FO
gs 1704 477 10162 5180 rc
gr

  36   36 5406 2288 FO
gs 1704 477 10162 5180 rc
gr

  36   36 7164 1837 FO
gs 1704 477 10162 5180 rc
gr

  36   36 5634 2137 FO
gs 1704 477 10162 5180 rc
gr

  36   36 7440 1936 FO
gs 1704 477 10162 5180 rc
gr

  36   36 5873 1953 FO
gs 1704 477 10162 5180 rc
gr

  36   36 7033 1789 FO
gs 1704 477 10162 5180 rc
gr

  36   36 5799 2033 FO
gs 1704 477 10162 5180 rc
gr

  36   36 8042 2012 FO
gs 1704 477 10162 5180 rc
gr

  36   36 5009 3493 FO
gs 1704 477 10162 5180 rc
gr

  36   36 5062 2867 FO
gs 1704 477 10162 5180 rc
gr

  36   36 7816 1998 FO
gs 1704 477 10162 5180 rc
gr

  36   36 5024 3515 FO
gs 1704 477 10162 5180 rc
gr

  36   36 7324 1898 FO
gs 1704 477 10162 5180 rc
gr

  36   36 4966 3302 FO
gs 1704 477 10162 5180 rc
gr

  36   36 4893 3197 FO
gs 1704 477 10162 5180 rc
gr

  36   36 5199 2653 FO
gs 1704 477 10162 5180 rc
gr

0 sg
  36   36 5093 3664 FO
gs 1704 477 10162 5180 rc
gr

c8
  36   36 4978 2700 FO
gs 1704 477 10162 5180 rc
gr

  36   36 5852 2067 FO
gs 1704 477 10162 5180 rc
gr

  36   36 5464 2393 FO
gs 1704 477 10162 5180 rc
gr

  36   36 5485 2377 FO
gs 1704 477 10162 5180 rc
gr

  36   36 5441 2194 FO
gs 1704 477 10162 5180 rc
gr

  36   36 6017 1958 FO
gs 1704 477 10162 5180 rc
gr

  36   36 5305 2358 FO
gs 1704 477 10162 5180 rc
gr

  36   36 8531 2274 FO
gs 1704 477 10162 5180 rc
gr

  36   36 6028 1903 FO
gs 1704 477 10162 5180 rc
gr

  36   36 6203 1928 FO
gs 1704 477 10162 5180 rc
gr

  36   36 8151 3392 FO
gs 1704 477 10162 5180 rc
gr

  36   36 5565 2107 FO
gs 1704 477 10162 5180 rc
gr

  36   36 6895 1820 FO
gs 1704 477 10162 5180 rc
gr

  36   36 5341 2293 FO
gs 1704 477 10162 5180 rc
gr

  36   36 5429 2251 FO
gs 1704 477 10162 5180 rc
gr

  36   36 5117 2496 FO
gs 1704 477 10162 5180 rc
gr

0 sg
  36   36 7599 4391 FO
gs 1704 477 10162 5180 rc
gr

c8
  36   36 4862 3239 FO
gs 1704 477 10162 5180 rc
gr

0 sg
  36   36 4851 1449 FO
gs 1704 477 10162 5180 rc
gr

c8
  36   36 8582 2303 FO
gs 1704 477 10162 5180 rc
gr

0 sg
  36   36 4817 3201 FO
gs 1704 477 10162 5180 rc
gr

c8
  36   36 4875 2807 FO
gs 1704 477 10162 5180 rc
gr

0 sg
  36   36 9378 3972 FO
gs 1704 477 10162 5180 rc
gr

c8
  36   36 4946 3332 FO
gs 1704 477 10162 5180 rc
gr

0 sg
  36   36 5132 1319 FO
gs 1704 477 10162 5180 rc
gr

c8
  36   36 4973 3522 FO
gs 1704 477 10162 5180 rc
gr

  36   36 5041 2556 FO
gs 1704 477 10162 5180 rc
gr

  36   36 5041 2575 FO
gs 1704 477 10162 5180 rc
gr

  36   36 5097 3687 FO
gs 1704 477 10162 5180 rc
gr

  36   36 4988 2672 FO
gs 1704 477 10162 5180 rc
gr

  36   36 6913 1878 FO
gs 1704 477 10162 5180 rc
gr

  36   36 5303 2231 FO
gs 1704 477 10162 5180 rc
gr

  36   36 8143 2008 FO
gs 1704 477 10162 5180 rc
gr

  36   36 7674 1867 FO
gs 1704 477 10162 5180 rc
gr

0 sg
  36   36 9129 3999 FO
gs 1704 477 10162 5180 rc
gr

  36   36 7982 4311 FO
gs 1704 477 10162 5180 rc
gr

  36   36 7982 1106 FO
gs 1704 477 10162 5180 rc
gr

c10
  36   36 10671 3125 FO
gs 1704 477 10162 5180 rc
gr

  36   36 10708 2651 FO
gs 1704 477 10162 5180 rc
gr

  36   36 10781 2741 FO
gs 1704 477 10162 5180 rc
gr

  36   36 10864 2855 FO
gs 1704 477 10162 5180 rc
gr

  36   36 10652 3329 FO
gs 1704 477 10162 5180 rc
gr

  36   36 10221 2055 FO
gs 1704 477 10162 5180 rc
gr

  36   36 10092 4066 FO
gs 1704 477 10162 5180 rc
gr

  36   36 9561 4419 FO
gs 1704 477 10162 5180 rc
gr

  36   36 9388 1643 FO
gs 1704 477 10162 5180 rc
gr

0 sg
  36   36 9278 1442 FO
gs 1704 477 10162 5180 rc
gr

c10
  36   36 9121 1519 FO
gs 1704 477 10162 5180 rc
gr

c9
  36   36 9108 2825 FO
gs 1704 477 10162 5180 rc
gr

0 sg
  36   36 8893 1256 FO
gs 1704 477 10162 5180 rc
gr

c8
  36   36 8864 2882 FO
gs 1704 477 10162 5180 rc
gr

c10
  36   36 8836 1479 FO
gs 1704 477 10162 5180 rc
gr

  36   36 8835 1488 FO
gs 1704 477 10162 5180 rc
gr

c9
  36   36 8687 2402 FO
gs 1704 477 10162 5180 rc
gr

0 sg
  36   36 8472 1177 FO
gs 1704 477 10162 5180 rc
gr

c9
  36   36 8461 2291 FO
gs 1704 477 10162 5180 rc
gr

  36   36 8447 2287 FO
gs 1704 477 10162 5180 rc
gr

0 sg
  36   36 8432 1124 FO
gs 1704 477 10162 5180 rc
gr

c9
  36   36 8392 2243 FO
gs 1704 477 10162 5180 rc
gr

  36   36 8324 2230 FO
gs 1704 477 10162 5180 rc
gr

  36   36 8314 2232 FO
gs 1704 477 10162 5180 rc
gr

c8
  36   36 8229 2098 FO
gs 1704 477 10162 5180 rc
gr

c9
  36   36 8222 2284 FO
gs 1704 477 10162 5180 rc
gr

  36   36 8020 2235 FO
gs 1704 477 10162 5180 rc
gr

c8
  36   36 7772 1935 FO
gs 1704 477 10162 5180 rc
gr

c10
  36   36 7479 1363 FO
gs 1704 477 10162 5180 rc
gr

c9
  36   36 7455 2129 FO
gs 1704 477 10162 5180 rc
gr

  36   36 7339 2074 FO
gs 1704 477 10162 5180 rc
gr

  36   36 7222 2045 FO
gs 1704 477 10162 5180 rc
gr

0 sg
  36   36 7070 4444 FO
gs 1704 477 10162 5180 rc
gr

c9
  36   36 7031 2234 FO
gs 1704 477 10162 5180 rc
gr

c8
  36   36 6815 1956 FO
gs 1704 477 10162 5180 rc
gr

c10
  36   36 6801 1270 FO
gs 1704 477 10162 5180 rc
gr

c8
  36   36 6747 1910 FO
gs 1704 477 10162 5180 rc
gr

c9
  36   36 6661 2232 FO
gs 1704 477 10162 5180 rc
gr

c10
  36   36 6389 1436 FO
gs 1704 477 10162 5180 rc
gr

c9
  36   36 6099 2307 FO
gs 1704 477 10162 5180 rc
gr

c8
  36   36 5945 2153 FO
gs 1704 477 10162 5180 rc
gr

c9
  36   36 5845 2498 FO
gs 1704 477 10162 5180 rc
gr

c10
  36   36 5411 1623 FO
gs 1704 477 10162 5180 rc
gr

  36   36 5748 1492 FO
gs 1704 477 10162 5180 rc
gr

c8
  36   36 5694 2121 FO
gs 1704 477 10162 5180 rc
gr

  36   36 5349 2276 FO
gs 1704 477 10162 5180 rc
gr

c9
  36   36 5295 3182 FO
gs 1704 477 10162 5180 rc
gr

  36   36 5237 3378 FO
gs 1704 477 10162 5180 rc
gr

  36   36 5259 3297 FO
gs 1704 477 10162 5180 rc
gr

0 sg
  36   36 5182 1360 FO
gs 1704 477 10162 5180 rc
gr

c9
  36   36 5159 3222 FO
gs 1704 477 10162 5180 rc
gr

c10
  36   36 4411 2125 FO
gs 1704 477 10162 5180 rc
gr

0 sg
  36   36 4356 1642 FO
gs 1704 477 10162 5180 rc
gr

c10
  36   36 4147 2529 FO
gs 1704 477 10162 5180 rc
gr

  36   36 3643 2677 FO
gs 1704 477 10162 5180 rc
gr

0 sg
  36   36 3350 3304 FO
gs 1704 477 10162 5180 rc
gr


end %%Color Dict

eplot
%%EndObject

epage
end

showpage

%%Trailer
%%EOF
