%!PS-Adobe-3.0 EPSF-3.0
%%Creator: MATLAB, The Mathworks, Inc. Version 7.9.0.529 (R2009b). Operating System: Linux 3.13.0-34-generic #60-Ubuntu SMP Wed Aug 13 15:49:09 UTC 2014 i686.
%%Title: /home/sriram/ferl/Thesis/Research/AAAI_2015/freeway.eps
%%CreationDate: 09/15/2014  14:53:34
%%DocumentNeededFonts: Helvetica
%%DocumentProcessColors: Cyan Magenta Yellow Black
%%LanguageLevel: 2
%%Pages: 1
%%BoundingBox:  -239   147   853   644
%%EndComments

%%BeginProlog
% MathWorks dictionary
/MathWorks 160 dict begin
% definition operators
/bdef {bind def} bind def
/ldef {load def} bind def
/xdef {exch def} bdef
/xstore {exch store} bdef
% operator abbreviations
/c  /clip ldef
/cc /concat ldef
/cp /closepath ldef
/gr /grestore ldef
/gs /gsave ldef
/mt /moveto ldef
/np /newpath ldef
/cm /currentmatrix ldef
/sm /setmatrix ldef
/rm /rmoveto ldef
/rl /rlineto ldef
/s {show newpath} bdef
/sc {setcmykcolor} bdef
/sr /setrgbcolor ldef
/sg /setgray ldef
/w /setlinewidth ldef
/j /setlinejoin ldef
/cap /setlinecap ldef
/rc {rectclip} bdef
/rf {rectfill} bdef
% page state control
/pgsv () def
/bpage {/pgsv save def} bdef
/epage {pgsv restore} bdef
/bplot /gsave ldef
/eplot {stroke grestore} bdef
% orientation switch
/portraitMode 0 def /landscapeMode 1 def /rotateMode 2 def
% coordinate system mappings
/dpi2point 0 def
% font control
/FontSize 0 def
/FMS {/FontSize xstore findfont [FontSize 0 0 FontSize neg 0 0]
  makefont setfont} bdef
/reencode {exch dup where {pop load} {pop StandardEncoding} ifelse
  exch dup 3 1 roll findfont dup length dict begin
  { 1 index /FID ne {def}{pop pop} ifelse } forall
  /Encoding exch def currentdict end definefont pop} bdef
/isroman {findfont /CharStrings get /Agrave known} bdef
/FMSR {3 1 roll 1 index dup isroman {reencode} {pop pop} ifelse
  exch FMS} bdef
/csm {1 dpi2point div -1 dpi2point div scale neg translate
 dup landscapeMode eq {pop -90 rotate}
  {rotateMode eq {90 rotate} if} ifelse} bdef
% line types: solid, dotted, dashed, dotdash
/SO { [] 0 setdash } bdef
/DO { [.5 dpi2point mul 4 dpi2point mul] 0 setdash } bdef
/DA { [6 dpi2point mul] 0 setdash } bdef
/DD { [.5 dpi2point mul 4 dpi2point mul 6 dpi2point mul 4
  dpi2point mul] 0 setdash } bdef
% macros for lines and objects
/L {lineto stroke} bdef
/MP {3 1 roll moveto 1 sub {rlineto} repeat} bdef
/AP {{rlineto} repeat} bdef
/PDlw -1 def
/W {/PDlw currentlinewidth def setlinewidth} def
/PP {closepath eofill} bdef
/DP {closepath stroke} bdef
/MR {4 -2 roll moveto dup  0 exch rlineto exch 0 rlineto
  neg 0 exch rlineto closepath} bdef
/FR {MR stroke} bdef
/PR {MR fill} bdef
/L1i {{currentfile picstr readhexstring pop} image} bdef
/tMatrix matrix def
/MakeOval {newpath tMatrix currentmatrix pop translate scale
0 0 1 0 360 arc tMatrix setmatrix} bdef
/FO {MakeOval stroke} bdef
/PO {MakeOval fill} bdef
/PD {currentlinewidth 2 div 0 360 arc fill
   PDlw -1 eq not {PDlw w /PDlw -1 def} if} def
/FA {newpath tMatrix currentmatrix pop translate scale
  0 0 1 5 -2 roll arc tMatrix setmatrix stroke} bdef
/PA {newpath tMatrix currentmatrix pop	translate 0 0 moveto scale
  0 0 1 5 -2 roll arc closepath tMatrix setmatrix fill} bdef
/FAn {newpath tMatrix currentmatrix pop translate scale
  0 0 1 5 -2 roll arcn tMatrix setmatrix stroke} bdef
/PAn {newpath tMatrix currentmatrix pop translate 0 0 moveto scale
  0 0 1 5 -2 roll arcn closepath tMatrix setmatrix fill} bdef
/vradius 0 def /hradius 0 def /lry 0 def
/lrx 0 def /uly 0 def /ulx 0 def /rad 0 def
/MRR {/vradius xdef /hradius xdef /lry xdef /lrx xdef /uly xdef
  /ulx xdef newpath tMatrix currentmatrix pop ulx hradius add uly
  vradius add translate hradius vradius scale 0 0 1 180 270 arc 
  tMatrix setmatrix lrx hradius sub uly vradius add translate
  hradius vradius scale 0 0 1 270 360 arc tMatrix setmatrix
  lrx hradius sub lry vradius sub translate hradius vradius scale
  0 0 1 0 90 arc tMatrix setmatrix ulx hradius add lry vradius sub
  translate hradius vradius scale 0 0 1 90 180 arc tMatrix setmatrix
  closepath} bdef
/FRR {MRR stroke } bdef
/PRR {MRR fill } bdef
/MlrRR {/lry xdef /lrx xdef /uly xdef /ulx xdef /rad lry uly sub 2 div def
  newpath tMatrix currentmatrix pop ulx rad add uly rad add translate
  rad rad scale 0 0 1 90 270 arc tMatrix setmatrix lrx rad sub lry rad
  sub translate rad rad scale 0 0 1 270 90 arc tMatrix setmatrix
  closepath} bdef
/FlrRR {MlrRR stroke } bdef
/PlrRR {MlrRR fill } bdef
/MtbRR {/lry xdef /lrx xdef /uly xdef /ulx xdef /rad lrx ulx sub 2 div def
  newpath tMatrix currentmatrix pop ulx rad add uly rad add translate
  rad rad scale 0 0 1 180 360 arc tMatrix setmatrix lrx rad sub lry rad
  sub translate rad rad scale 0 0 1 0 180 arc tMatrix setmatrix
  closepath} bdef
/FtbRR {MtbRR stroke } bdef
/PtbRR {MtbRR fill } bdef
/stri 6 array def /dtri 6 array def
/smat 6 array def /dmat 6 array def
/tmat1 6 array def /tmat2 6 array def /dif 3 array def
/asub {/ind2 exch def /ind1 exch def dup dup
  ind1 get exch ind2 get sub exch } bdef
/tri_to_matrix {
  2 0 asub 3 1 asub 4 0 asub 5 1 asub
  dup 0 get exch 1 get 7 -1 roll astore } bdef
/compute_transform {
  dmat dtri tri_to_matrix tmat1 invertmatrix 
  smat stri tri_to_matrix tmat2 concatmatrix } bdef
/ds {stri astore pop} bdef
/dt {dtri astore pop} bdef
/db {2 copy /cols xdef /rows xdef mul dup 3 mul string
  currentfile 
  3 index 0 eq {/ASCIIHexDecode filter}
  {/ASCII85Decode filter 3 index 2 eq {/RunLengthDecode filter} if }
  ifelse exch readstring pop
  dup 0 3 index getinterval /rbmap xdef
  dup 2 index dup getinterval /gbmap xdef
  1 index dup 2 mul exch getinterval /bbmap xdef pop pop}bdef
/it {gs np dtri aload pop moveto lineto lineto cp c
  cols rows 8 compute_transform 
  rbmap gbmap bbmap true 3 colorimage gr}bdef
/il {newpath moveto lineto stroke}bdef
currentdict end def
%%EndProlog

%%BeginSetup
MathWorks begin

0 cap

end
%%EndSetup

%%Page: 1 1
%%BeginPageSetup
%%PageBoundingBox:  -239   147   853   644
MathWorks begin
bpage
%%EndPageSetup

%%BeginObject: obj1
bplot

/dpi2point 12 def
portraitMode -2868 7728 csm

    0     0 13112  5953 rc
85 dict begin %Colortable dictionary
/c0 { 0.000000 0.000000 0.000000 sr} bdef
/c1 { 1.000000 1.000000 1.000000 sr} bdef
/c2 { 0.900000 0.000000 0.000000 sr} bdef
/c3 { 0.000000 0.820000 0.000000 sr} bdef
/c4 { 0.000000 0.000000 0.800000 sr} bdef
/c5 { 0.910000 0.820000 0.320000 sr} bdef
/c6 { 1.000000 0.260000 0.820000 sr} bdef
/c7 { 0.000000 0.820000 0.820000 sr} bdef
c0
1 j
1 sg
   0    0 13113 5954 rf
6 w
0 4393 10161 0 0 -4393 1705 4839 4 MP
PP
-10161 0 0 4393 10161 0 0 -4393 1705 4839 5 MP stroke
4 w
DO
SO
6 w
0 sg
1705 4839 mt 11866 4839 L
1705  446 mt 11866  446 L
1705 4839 mt 1705  446 L
11866 4839 mt 11866  446 L
1705 4839 mt 11866 4839 L
1705 4839 mt 1705  446 L
3398 4839 mt 3398 4737 L
3398  446 mt 3398  547 L
%%IncludeResource: font Helvetica
/Helvetica /ISOLatin1Encoding 480 FMSR

3132 5319 mt 
(20) s
5092 4839 mt 5092 4737 L
5092  446 mt 5092  547 L
4826 5319 mt 
(40) s
6785 4839 mt 6785 4737 L
6785  446 mt 6785  547 L
6519 5319 mt 
(80) s
8479 4839 mt 8479 4737 L
8479  446 mt 8479  547 L
8079 5319 mt 
(160) s
10172 4839 mt 10172 4737 L
10172  446 mt 10172  547 L
9772 5319 mt 
(320) s
1705 4839 mt 1806 4839 L
11866 4839 mt 11764 4839 L
1404 5017 mt 
(0) s
1705 3740 mt 1806 3740 L
11866 3740 mt 11764 3740 L
1404 3918 mt 
(5) s
1705 2642 mt 1806 2642 L
11866 2642 mt 11764 2642 L
1137 2820 mt 
(10) s
1705 1544 mt 1806 1544 L
11866 1544 mt 11764 1544 L
1137 1722 mt 
(15) s
1705  446 mt 1806  446 L
11866  446 mt 11764  446 L
1137  624 mt 
(20) s
1705 4839 mt 11866 4839 L
1705  446 mt 11866  446 L
1705 4839 mt 1705  446 L
11866 4839 mt 11866  446 L
gs 1705 446 10162 4394 rc
/c8 { 0.000000 0.000000 0.562500 sr} bdef
c8
0 121 376 0 0 -121 2834 4839 4 MP
PP
0 sg
-376 0 0 121 376 0 0 -121 2834 4839 5 MP stroke
c8
0 323 376 0 0 -323 4527 4839 4 MP
PP
0 sg
-376 0 0 323 376 0 0 -323 4527 4839 5 MP stroke
c8
0 717 376 0 0 -717 6221 4839 4 MP
PP
0 sg
-376 0 0 717 376 0 0 -717 6221 4839 5 MP stroke
c8
0 1119 376 0 0 -1119 7914 4839 4 MP
PP
0 sg
-376 0 0 1119 376 0 0 -1119 7914 4839 5 MP stroke
c8
0 1367 376 0 0 -1367 9608 4839 4 MP
PP
0 sg
-376 0 0 1367 376 0 0 -1367 9608 4839 5 MP stroke
10161 0 1705 4839 2 MP stroke
/c9 { 0.562500 1.000000 0.437500 sr} bdef
c9
0 583 376 0 0 -583 3210 4839 4 MP
PP
0 sg
-376 0 0 583 376 0 0 -583 3210 4839 5 MP stroke
c9
0 1242 377 0 0 -1242 4903 4839 4 MP
PP
0 sg
-377 0 0 1242 377 0 0 -1242 4903 4839 5 MP stroke
c9
0 1837 376 0 0 -1837 6597 4839 4 MP
PP
0 sg
-376 0 0 1837 376 0 0 -1837 6597 4839 5 MP stroke
c9
0 2401 377 0 0 -2401 8290 4839 4 MP
PP
0 sg
-377 0 0 2401 377 0 0 -2401 8290 4839 5 MP stroke
c9
0 2709 376 0 0 -2709 9984 4839 4 MP
PP
0 sg
-376 0 0 2709 376 0 0 -2709 9984 4839 5 MP stroke
/c10 { 0.500000 0.000000 0.000000 sr} bdef
c10
0 675 377 0 0 -675 3586 4839 4 MP
PP
0 sg
-377 0 0 675 377 0 0 -675 3586 4839 5 MP stroke
c10
0 1316 376 0 0 -1316 5280 4839 4 MP
PP
0 sg
-376 0 0 1316 376 0 0 -1316 5280 4839 5 MP stroke
c10
0 2208 377 0 0 -2208 6973 4839 4 MP
PP
0 sg
-377 0 0 2208 377 0 0 -2208 6973 4839 5 MP stroke
c10
0 2939 376 0 0 -2939 8667 4839 4 MP
PP
0 sg
-376 0 0 2939 376 0 0 -2939 8667 4839 5 MP stroke
c10
0 3047 377 0 0 -3047 10360 4839 4 MP
PP
0 sg
-377 0 0 3047 377 0 0 -3047 10360 4839 5 MP stroke
gr

%%IncludeResource: font Helvetica
/Helvetica /ISOLatin1Encoding 600 FMSR

4217 5816 mt 
(Number of Rollouts) s
 947 4260 mt  -90 rotate
(Mean Score) s
90 rotate
%%IncludeResource: font Helvetica
/Helvetica /ISOLatin1Encoding 120 FMSR

1688 4882 mt 
( ) s
11850  488 mt 
( ) s
gs 1705 446 10162 4394 rc
0 13 3022 4711 2 MP stroke
135 0 2954 4711 2 MP stroke
135 0 2954 4724 2 MP stroke
0 27 4715 4502 2 MP stroke
136 0 4647 4502 2 MP stroke
136 0 4647 4529 2 MP stroke
0 27 6409 4109 2 MP stroke
135 0 6341 4109 2 MP stroke
135 0 6341 4136 2 MP stroke
0 31 8102 3705 2 MP stroke
136 0 8034 3705 2 MP stroke
136 0 8034 3736 2 MP stroke
0 18 9796 3463 2 MP stroke
135 0 9728 3463 2 MP stroke
135 0 9728 3481 2 MP stroke
0 31 3398 4241 2 MP stroke
136 0 3330 4241 2 MP stroke
136 0 3330 4272 2 MP stroke
0 27 5092 3584 2 MP stroke
135 0 5024 3584 2 MP stroke
135 0 5024 3611 2 MP stroke
0 26 6785 2989 2 MP stroke
136 0 6717 2989 2 MP stroke
136 0 6717 3015 2 MP stroke
0 18 8479 2429 2 MP stroke
135 0 8411 2429 2 MP stroke
135 0 8411 2447 2 MP stroke
0 13 10172 2124 2 MP stroke
136 0 10104 2124 2 MP stroke
136 0 10104 2137 2 MP stroke
0 31 3774 4149 2 MP stroke
135 0 3707 4149 2 MP stroke
135 0 3707 4180 2 MP stroke
0 35 5468 3505 2 MP stroke
136 0 5400 3505 2 MP stroke
136 0 5400 3540 2 MP stroke
0 44 7161 2609 2 MP stroke
135 0 7094 2609 2 MP stroke
135 0 7094 2653 2 MP stroke
0 27 8855 1886 2 MP stroke
136 0 8787 1886 2 MP stroke
136 0 8787 1913 2 MP stroke
0 18 10548 1783 2 MP stroke
135 0 10481 1783 2 MP stroke
135 0 10481 1801 2 MP stroke
/c11 { 0.000000 0.000000 1.000000 sr} bdef
c11
10161 0 1705 1324 2 MP stroke
gr

c11
1 sg
0 1586 2715 0 0 -1586 1822 3061 4 MP
PP
-2715 0 0 1586 2715 0 0 -1586 1822 3061 5 MP stroke
4 w
DO
SO
6 w
0 sg
1822 3061 mt 4537 3061 L
1822 1475 mt 4537 1475 L
1822 3061 mt 1822 1475 L
4537 3061 mt 4537 1475 L
1822 3061 mt 4537 3061 L
1822 3061 mt 1822 1475 L
1822 3061 mt 4537 3061 L
1822 1475 mt 4537 1475 L
1822 3061 mt 1822 1475 L
4537 3061 mt 4537 1475 L
%%IncludeResource: font Helvetica
/Helvetica /ISOLatin1Encoding 360 FMSR

2306 1881 mt 
(UCT) s
gs 1822 1475 2716 1587 rc
c8
-372 0 0 401 372 0 0 -401 1896 1953 5 MP
PP
0 sg
0 0 -372 0 0 401 372 0 0 -401 1896 1953 6 MP stroke
gr

2306 2396 mt 
(mNN-UCT\(0\)) s
gs 1822 1475 2716 1587 rc
c9
-372 0 0 401 372 0 0 -401 1896 2468 5 MP
PP
0 sg
0 0 -372 0 0 401 372 0 0 -401 1896 2468 6 MP stroke
gr

2306 2910 mt 
(mNN-UCT) s
gs 1822 1475 2716 1587 rc
c10
-372 0 0 401 372 0 0 -401 1896 2983 5 MP
PP
0 sg
0 0 -372 0 0 401 372 0 0 -401 1896 2983 6 MP stroke
gr


end %%Color Dict

eplot
%%EndObject

epage
end

showpage

%%Trailer
%%EOF
