%!PS-Adobe-3.0 EPSF-3.0
%%Creator: MATLAB, The Mathworks, Inc. Version 7.9.0.529 (R2009b). Operating System: Linux 3.13.0-34-generic #60-Ubuntu SMP Wed Aug 13 15:49:09 UTC 2014 i686.
%%Title: /home/sriram/ferl/Thesis/Research/AAAI_2015/grid_bar.eps
%%CreationDate: 09/15/2014  15:01:35
%%DocumentNeededFonts: Helvetica
%%DocumentProcessColors: Cyan Magenta Yellow Black
%%LanguageLevel: 2
%%Pages: 1
%%BoundingBox:  -239   147   853   644
%%EndComments

%%BeginProlog
% MathWorks dictionary
/MathWorks 160 dict begin
% definition operators
/bdef {bind def} bind def
/ldef {load def} bind def
/xdef {exch def} bdef
/xstore {exch store} bdef
% operator abbreviations
/c  /clip ldef
/cc /concat ldef
/cp /closepath ldef
/gr /grestore ldef
/gs /gsave ldef
/mt /moveto ldef
/np /newpath ldef
/cm /currentmatrix ldef
/sm /setmatrix ldef
/rm /rmoveto ldef
/rl /rlineto ldef
/s {show newpath} bdef
/sc {setcmykcolor} bdef
/sr /setrgbcolor ldef
/sg /setgray ldef
/w /setlinewidth ldef
/j /setlinejoin ldef
/cap /setlinecap ldef
/rc {rectclip} bdef
/rf {rectfill} bdef
% page state control
/pgsv () def
/bpage {/pgsv save def} bdef
/epage {pgsv restore} bdef
/bplot /gsave ldef
/eplot {stroke grestore} bdef
% orientation switch
/portraitMode 0 def /landscapeMode 1 def /rotateMode 2 def
% coordinate system mappings
/dpi2point 0 def
% font control
/FontSize 0 def
/FMS {/FontSize xstore findfont [FontSize 0 0 FontSize neg 0 0]
  makefont setfont} bdef
/reencode {exch dup where {pop load} {pop StandardEncoding} ifelse
  exch dup 3 1 roll findfont dup length dict begin
  { 1 index /FID ne {def}{pop pop} ifelse } forall
  /Encoding exch def currentdict end definefont pop} bdef
/isroman {findfont /CharStrings get /Agrave known} bdef
/FMSR {3 1 roll 1 index dup isroman {reencode} {pop pop} ifelse
  exch FMS} bdef
/csm {1 dpi2point div -1 dpi2point div scale neg translate
 dup landscapeMode eq {pop -90 rotate}
  {rotateMode eq {90 rotate} if} ifelse} bdef
% line types: solid, dotted, dashed, dotdash
/SO { [] 0 setdash } bdef
/DO { [.5 dpi2point mul 4 dpi2point mul] 0 setdash } bdef
/DA { [6 dpi2point mul] 0 setdash } bdef
/DD { [.5 dpi2point mul 4 dpi2point mul 6 dpi2point mul 4
  dpi2point mul] 0 setdash } bdef
% macros for lines and objects
/L {lineto stroke} bdef
/MP {3 1 roll moveto 1 sub {rlineto} repeat} bdef
/AP {{rlineto} repeat} bdef
/PDlw -1 def
/W {/PDlw currentlinewidth def setlinewidth} def
/PP {closepath eofill} bdef
/DP {closepath stroke} bdef
/MR {4 -2 roll moveto dup  0 exch rlineto exch 0 rlineto
  neg 0 exch rlineto closepath} bdef
/FR {MR stroke} bdef
/PR {MR fill} bdef
/L1i {{currentfile picstr readhexstring pop} image} bdef
/tMatrix matrix def
/MakeOval {newpath tMatrix currentmatrix pop translate scale
0 0 1 0 360 arc tMatrix setmatrix} bdef
/FO {MakeOval stroke} bdef
/PO {MakeOval fill} bdef
/PD {currentlinewidth 2 div 0 360 arc fill
   PDlw -1 eq not {PDlw w /PDlw -1 def} if} def
/FA {newpath tMatrix currentmatrix pop translate scale
  0 0 1 5 -2 roll arc tMatrix setmatrix stroke} bdef
/PA {newpath tMatrix currentmatrix pop	translate 0 0 moveto scale
  0 0 1 5 -2 roll arc closepath tMatrix setmatrix fill} bdef
/FAn {newpath tMatrix currentmatrix pop translate scale
  0 0 1 5 -2 roll arcn tMatrix setmatrix stroke} bdef
/PAn {newpath tMatrix currentmatrix pop translate 0 0 moveto scale
  0 0 1 5 -2 roll arcn closepath tMatrix setmatrix fill} bdef
/vradius 0 def /hradius 0 def /lry 0 def
/lrx 0 def /uly 0 def /ulx 0 def /rad 0 def
/MRR {/vradius xdef /hradius xdef /lry xdef /lrx xdef /uly xdef
  /ulx xdef newpath tMatrix currentmatrix pop ulx hradius add uly
  vradius add translate hradius vradius scale 0 0 1 180 270 arc 
  tMatrix setmatrix lrx hradius sub uly vradius add translate
  hradius vradius scale 0 0 1 270 360 arc tMatrix setmatrix
  lrx hradius sub lry vradius sub translate hradius vradius scale
  0 0 1 0 90 arc tMatrix setmatrix ulx hradius add lry vradius sub
  translate hradius vradius scale 0 0 1 90 180 arc tMatrix setmatrix
  closepath} bdef
/FRR {MRR stroke } bdef
/PRR {MRR fill } bdef
/MlrRR {/lry xdef /lrx xdef /uly xdef /ulx xdef /rad lry uly sub 2 div def
  newpath tMatrix currentmatrix pop ulx rad add uly rad add translate
  rad rad scale 0 0 1 90 270 arc tMatrix setmatrix lrx rad sub lry rad
  sub translate rad rad scale 0 0 1 270 90 arc tMatrix setmatrix
  closepath} bdef
/FlrRR {MlrRR stroke } bdef
/PlrRR {MlrRR fill } bdef
/MtbRR {/lry xdef /lrx xdef /uly xdef /ulx xdef /rad lrx ulx sub 2 div def
  newpath tMatrix currentmatrix pop ulx rad add uly rad add translate
  rad rad scale 0 0 1 180 360 arc tMatrix setmatrix lrx rad sub lry rad
  sub translate rad rad scale 0 0 1 0 180 arc tMatrix setmatrix
  closepath} bdef
/FtbRR {MtbRR stroke } bdef
/PtbRR {MtbRR fill } bdef
/stri 6 array def /dtri 6 array def
/smat 6 array def /dmat 6 array def
/tmat1 6 array def /tmat2 6 array def /dif 3 array def
/asub {/ind2 exch def /ind1 exch def dup dup
  ind1 get exch ind2 get sub exch } bdef
/tri_to_matrix {
  2 0 asub 3 1 asub 4 0 asub 5 1 asub
  dup 0 get exch 1 get 7 -1 roll astore } bdef
/compute_transform {
  dmat dtri tri_to_matrix tmat1 invertmatrix 
  smat stri tri_to_matrix tmat2 concatmatrix } bdef
/ds {stri astore pop} bdef
/dt {dtri astore pop} bdef
/db {2 copy /cols xdef /rows xdef mul dup 3 mul string
  currentfile 
  3 index 0 eq {/ASCIIHexDecode filter}
  {/ASCII85Decode filter 3 index 2 eq {/RunLengthDecode filter} if }
  ifelse exch readstring pop
  dup 0 3 index getinterval /rbmap xdef
  dup 2 index dup getinterval /gbmap xdef
  1 index dup 2 mul exch getinterval /bbmap xdef pop pop}bdef
/it {gs np dtri aload pop moveto lineto lineto cp c
  cols rows 8 compute_transform 
  rbmap gbmap bbmap true 3 colorimage gr}bdef
/il {newpath moveto lineto stroke}bdef
currentdict end def
%%EndProlog

%%BeginSetup
MathWorks begin

0 cap

end
%%EndSetup

%%Page: 1 1
%%BeginPageSetup
%%PageBoundingBox:  -239   147   853   644
MathWorks begin
bpage
%%EndPageSetup

%%BeginObject: obj1
bplot

/dpi2point 12 def
portraitMode -2868 7728 csm

    0     0 13112  5953 rc
86 dict begin %Colortable dictionary
/c0 { 0.000000 0.000000 0.000000 sr} bdef
/c1 { 1.000000 1.000000 1.000000 sr} bdef
/c2 { 0.900000 0.000000 0.000000 sr} bdef
/c3 { 0.000000 0.820000 0.000000 sr} bdef
/c4 { 0.000000 0.000000 0.800000 sr} bdef
/c5 { 0.910000 0.820000 0.320000 sr} bdef
/c6 { 1.000000 0.260000 0.820000 sr} bdef
/c7 { 0.000000 0.820000 0.820000 sr} bdef
c0
1 j
1 sg
   0    0 13113 5954 rf
6 w
0 4852 10161 0 0 -4852 1705 5298 4 MP
PP
-10161 0 0 4852 10161 0 0 -4852 1705 5298 5 MP stroke
4 w
DO
SO
6 w
0 sg
1705 5298 mt 11866 5298 L
1705  446 mt 11866  446 L
1705 5298 mt 1705  446 L
11866 5298 mt 11866  446 L
1705 5298 mt 11866 5298 L
1705 5298 mt 1705  446 L
2721 5298 mt 2721 5196 L
2721  446 mt 2721  547 L
%%IncludeResource: font Helvetica
/Helvetica /ISOLatin1Encoding 300 FMSR

2413 5611 mt 
(UCT) s
4753 5298 mt 4753 5196 L
4753  446 mt 4753  547 L
4141 5611 mt 
(NN-UCT) s
6785 5298 mt 6785 5196 L
6785  446 mt 6785  547 L
5865 5611 mt 
(mNN-UCT\(0\)) s
8817 5298 mt 8817 5196 L
8817  446 mt 8817  547 L
8080 5611 mt 
(mNN-UCT) s
10849 5298 mt 10849 5196 L
10849  446 mt 10849  547 L
9941 5611 mt 
(mNN-UCT-g) s
1705 5298 mt 1806 5298 L
11866 5298 mt 11764 5298 L
1504 5409 mt 
(0) s
1705 4327 mt 1806 4327 L
11866 4327 mt 11764 4327 L
1170 4438 mt 
(100) s
1705 3357 mt 1806 3357 L
11866 3357 mt 11764 3357 L
1170 3468 mt 
(200) s
1705 2386 mt 1806 2386 L
11866 2386 mt 11764 2386 L
1170 2497 mt 
(300) s
1705 1416 mt 1806 1416 L
11866 1416 mt 11764 1416 L
1170 1527 mt 
(400) s
1705  446 mt 1806  446 L
11866  446 mt 11764  446 L
1170  557 mt 
(500) s
1705 5298 mt 11866 5298 L
1705  446 mt 11866  446 L
1705 5298 mt 1705  446 L
11866 5298 mt 11866  446 L
gs 1705 446 10162 4853 rc
/c8 { 0.000000 1.000000 1.000000 sr} bdef
c8
0 4066 1625 0 0 -4066 1908 5298 4 MP
PP
0 sg
-1625 0 0 4066 1625 0 0 -4066 1908 5298 5 MP stroke
c8
0 1049 1626 0 0 -1049 3940 5298 4 MP
PP
0 sg
-1626 0 0 1049 1626 0 0 -1049 3940 5298 5 MP stroke
c8
0 2824 1626 0 0 -2824 5972 5298 4 MP
PP
0 sg
-1626 0 0 2824 1626 0 0 -2824 5972 5298 5 MP stroke
c8
0 457 1626 0 0 -457 8004 5298 4 MP
PP
0 sg
-1626 0 0 457 1626 0 0 -457 8004 5298 5 MP stroke
c8
0 573 1625 0 0 -573 10037 5298 4 MP
PP
0 sg
-1625 0 0 573 1625 0 0 -573 10037 5298 5 MP stroke
10161 0 1705 5298 2 MP stroke
gr

%%IncludeResource: font Helvetica
/Helvetica /ISOLatin1Encoding 480 FMSR

1007 4327 mt  -90 rotate
(Steps to Goal) s
90 rotate
gs 1705 446 10162 4853 rc
0 253 2721 1105 2 MP stroke
163 0 2639 1105 2 MP stroke
163 0 2639 1358 2 MP stroke
0 195 4753 4152 2 MP stroke
162 0 4672 4152 2 MP stroke
162 0 4672 4347 2 MP stroke
0 194 6785 2377 2 MP stroke
162 0 6704 2377 2 MP stroke
162 0 6704 2571 2 MP stroke
0 19 8817 4832 2 MP stroke
162 0 8736 4832 2 MP stroke
162 0 8736 4851 2 MP stroke
0 20 10849 4715 2 MP stroke
163 0 10768 4715 2 MP stroke
163 0 10768 4735 2 MP stroke
gr


end %%Color Dict

eplot
%%EndObject

epage
end

showpage

%%Trailer
%%EOF
