%!PS-Adobe-2.0 EPSF-2.0
%%Title: /home/sriram/ferl/Thesis/Research/AAAI_2015/Grid.dia
%%Creator: Dia v0.97.2
%%CreationDate: Fri Sep 12 16:03:02 2014
%%For: sriram
%%Orientation: Portrait
%%Magnification: 1.0000
%%BoundingBox: 0 0 1140 1141
%%BeginSetup
%%EndSetup
%%EndComments
%%BeginProlog
[ /.notdef /.notdef /.notdef /.notdef /.notdef /.notdef /.notdef /.notdef /.notdef /.notdef
/.notdef /.notdef /.notdef /.notdef /.notdef /.notdef /.notdef /.notdef /.notdef /.notdef
/.notdef /.notdef /.notdef /.notdef /.notdef /.notdef /.notdef /.notdef /.notdef /.notdef
/.notdef /.notdef /space /exclam /quotedbl /numbersign /dollar /percent /ampersand /quoteright
/parenleft /parenright /asterisk /plus /comma /hyphen /period /slash /zero /one
/two /three /four /five /six /seven /eight /nine /colon /semicolon
/less /equal /greater /question /at /A /B /C /D /E
/F /G /H /I /J /K /L /M /N /O
/P /Q /R /S /T /U /V /W /X /Y
/Z /bracketleft /backslash /bracketright /asciicircum /underscore /quoteleft /a /b /c
/d /e /f /g /h /i /j /k /l /m
/n /o /p /q /r /s /t /u /v /w
/x /y /z /braceleft /bar /braceright /asciitilde /.notdef /.notdef /.notdef
/.notdef /.notdef /.notdef /.notdef /.notdef /.notdef /.notdef /.notdef /.notdef /.notdef
/.notdef /.notdef /.notdef /.notdef /.notdef /.notdef /.notdef /.notdef /.notdef /.notdef
/.notdef /.notdef /.notdef /.notdef /.notdef /.notdef /.notdef /.notdef /.notdef /.notdef
/space /exclamdown /cent /sterling /currency /yen /brokenbar /section /dieresis /copyright
/ordfeminine /guillemotleft /logicalnot /hyphen /registered /macron /degree /plusminus /twosuperior /threesuperior
/acute /mu /paragraph /periodcentered /cedilla /onesuperior /ordmasculine /guillemotright /onequarter /onehalf
/threequarters /questiondown /Agrave /Aacute /Acircumflex /Atilde /Adieresis /Aring /AE /Ccedilla
/Egrave /Eacute /Ecircumflex /Edieresis /Igrave /Iacute /Icircumflex /Idieresis /Eth /Ntilde
/Ograve /Oacute /Ocircumflex /Otilde /Odieresis /multiply /Oslash /Ugrave /Uacute /Ucircumflex
/Udieresis /Yacute /Thorn /germandbls /agrave /aacute /acircumflex /atilde /adieresis /aring
/ae /ccedilla /egrave /eacute /ecircumflex /edieresis /igrave /iacute /icircumflex /idieresis
/eth /ntilde /ograve /oacute /ocircumflex /otilde /odieresis /divide /oslash /ugrave
/uacute /ucircumflex /udieresis /yacute /thorn /ydieresis] /isolatin1encoding exch def
/cp {closepath} bind def
/c {curveto} bind def
/f {fill} bind def
/a {arc} bind def
/ef {eofill} bind def
/ex {exch} bind def
/gr {grestore} bind def
/gs {gsave} bind def
/sa {save} bind def
/rs {restore} bind def
/l {lineto} bind def
/m {moveto} bind def
/rm {rmoveto} bind def
/n {newpath} bind def
/s {stroke} bind def
/sh {show} bind def
/slc {setlinecap} bind def
/slj {setlinejoin} bind def
/slw {setlinewidth} bind def
/srgb {setrgbcolor} bind def
/rot {rotate} bind def
/sc {scale} bind def
/sd {setdash} bind def
/ff {findfont} bind def
/sf {setfont} bind def
/scf {scalefont} bind def
/sw {stringwidth pop} bind def
/tr {translate} bind def

/ellipsedict 8 dict def
ellipsedict /mtrx matrix put
/ellipse
{ ellipsedict begin
   /endangle exch def
   /startangle exch def
   /yrad exch def
   /xrad exch def
   /y exch def
   /x exch def   /savematrix mtrx currentmatrix def
   x y tr xrad yrad sc
   0 0 1 startangle endangle arc
   savematrix setmatrix
   end
} def

/mergeprocs {
dup length
3 -1 roll
dup
length
dup
5 1 roll
3 -1 roll
add
array cvx
dup
3 -1 roll
0 exch
putinterval
dup
4 2 roll
putinterval
} bind def
/dpi_x 300 def
/dpi_y 300 def
/conicto {
    /to_y exch def
    /to_x exch def
    /conic_cntrl_y exch def
    /conic_cntrl_x exch def
    currentpoint
    /p0_y exch def
    /p0_x exch def
    /p1_x p0_x conic_cntrl_x p0_x sub 2 3 div mul add def
    /p1_y p0_y conic_cntrl_y p0_y sub 2 3 div mul add def
    /p2_x p1_x to_x p0_x sub 1 3 div mul add def
    /p2_y p1_y to_y p0_y sub 1 3 div mul add def
    p1_x p1_y p2_x p2_y to_x to_y curveto
} bind def
/start_ol { gsave 1.1 dpi_x div dup scale} bind def
/end_ol { closepath fill grestore } bind def
28.346000 -28.346000 scale
-19.930112 -40.162600 translate
%%EndProlog


0.100000 slw
[] 0 sd
[] 0 sd
0 slj
1.000000 1.000000 1.000000 srgb
n 20.000000 0.050000 m 20.000000 40.112599 l 60.062599 40.112599 l 60.062599 0.050000 l f
0.000000 0.000000 0.000000 srgb
n 20.000000 0.050000 m 20.000000 40.112599 l 60.062599 40.112599 l 60.062599 0.050000 l cp s
0.100000 slw
[] 0 sd
[] 0 sd
0 slc
0.658824 0.650980 0.650980 srgb
n 20.100100 34.875000 m 59.950100 35.025000 l s
0.100000 slw
[] 0 sd
[] 0 sd
0 slc
n 20.115300 30.030200 m 59.965300 30.180200 l s
0.100000 slw
[] 0 sd
[] 0 sd
0 slc
n 20.130300 10.085200 m 59.980300 10.235200 l s
0.100000 slw
[] 0 sd
[] 0 sd
0 slc
n 20.145300 4.940190 m 59.995300 5.090190 l s
0.100000 slw
[] 0 sd
[] 0 sd
0 slc
n 20.165300 14.930200 m 60.015300 15.080200 l s
0.100000 slw
[] 0 sd
[] 0 sd
0 slc
n 20.000000 20.081300 m 59.915300 20.230200 l s
0.100000 slw
[] 0 sd
[] 0 sd
0 slc
n 20.165300 25.030200 m 60.015300 25.180200 l s
0.100000 slw
[] 0 sd
[] 0 sd
0 slc
n 25.015200 39.867600 m 25.050100 -0.025000 l s
0.100000 slw
[] 0 sd
[] 0 sd
0 slc
n 29.965100 39.860100 m 30.000100 -0.032456 l s
0.100000 slw
[] 0 sd
[] 0 sd
0 slc
n 35.030100 39.965100 m 35.065100 0.072544 l s
0.100000 slw
[] 0 sd
[] 0 sd
0 slc
n 44.945100 39.970100 m 44.980100 0.077544 l s
0.100000 slw
[] 0 sd
[] 0 sd
0 slc
n 40.031300 40.112600 m 40.031300 0.050000 l s
0.100000 slw
[] 0 sd
[] 0 sd
0 slc
n 49.975100 39.980100 m 50.010100 0.087544 l s
0.100000 slw
[] 0 sd
[] 0 sd
0 slc
n 54.990100 39.985100 m 55.025100 0.092544 l s
0.100000 slw
[] 0 sd
[] 0 sd
0 slc
n 20.165300 3.855190 m 60.015300 4.005190 l s
0.100000 slw
[] 0 sd
[] 0 sd
0 slc
n 19.980300 2.910190 m 59.830300 3.060190 l s
0.100000 slw
[] 0 sd
[] 0 sd
0 slc
n 20.095300 1.965190 m 59.945300 2.115190 l s
0.100000 slw
[] 0 sd
[] 0 sd
0 slc
n 20.110300 0.870188 m 59.960300 1.020190 l s
0.100000 slw
[] 0 sd
[] 0 sd
0 slc
n 20.125300 6.775190 m 59.975300 6.925190 l s
0.100000 slw
[] 0 sd
[] 0 sd
0 slc
n 20.140300 5.830190 m 59.990300 5.980190 l s
0.100000 slw
[] 0 sd
[] 0 sd
0 slc
n 20.115300 15.905200 m 59.965300 16.055200 l s
0.100000 slw
[] 0 sd
[] 0 sd
0 slc
n 20.030300 8.910190 m 59.880300 9.060190 l s
0.100000 slw
[] 0 sd
[] 0 sd
0 slc
n 20.195300 7.865190 m 60.045300 8.015190 l s
0.100000 slw
[] 0 sd
[] 0 sd
0 slc
n 20.115300 23.892700 m 59.965300 24.042700 l s
0.100000 slw
[] 0 sd
[] 0 sd
0 slc
n 20.080300 18.047700 m 59.930300 18.197700 l s
0.100000 slw
[] 0 sd
[] 0 sd
0 slc
n 20.145300 17.002700 m 59.995300 17.152700 l s
0.100000 slw
[] 0 sd
[] 0 sd
0 slc
n 20.060300 13.957700 m 59.910300 14.107700 l s
0.100000 slw
[] 0 sd
[] 0 sd
0 slc
n 20.075300 12.962700 m 59.925300 13.112700 l s
0.100000 slw
[] 0 sd
[] 0 sd
0 slc
n 20.040300 11.917700 m 59.890300 12.067700 l s
0.100000 slw
[] 0 sd
[] 0 sd
0 slc
n 20.105300 10.922700 m 59.955300 11.072700 l s
0.100000 slw
[] 0 sd
[] 0 sd
0 slc
n 20.115300 32.980200 m 59.965300 33.130200 l s
0.100000 slw
[] 0 sd
[] 0 sd
0 slc
n 20.080300 35.985200 m 59.930300 36.135200 l s
0.100000 slw
[] 0 sd
[] 0 sd
0 slc
n 20.045300 38.990200 m 59.895300 39.140200 l s
0.100000 slw
[] 0 sd
[] 0 sd
0 slc
n 20.210300 22.795200 m 60.060300 22.945200 l s
0.100000 slw
[] 0 sd
[] 0 sd
0 slc
n 20.025300 22.000200 m 59.875300 22.150200 l s
0.100000 slw
[] 0 sd
[] 0 sd
0 slc
n 20.040300 20.955200 m 59.890300 21.105200 l s
0.100000 slw
[] 0 sd
[] 0 sd
0 slc
n 20.005300 19.060200 m 59.855300 19.210200 l s
0.100000 slw
[] 0 sd
[] 0 sd
0 slc
n 20.130300 31.022700 m 59.980300 31.172700 l s
0.100000 slw
[] 0 sd
[] 0 sd
0 slc
n 20.095300 31.927700 m 59.945300 32.077700 l s
0.100000 slw
[] 0 sd
[] 0 sd
0 slc
n 20.060300 33.882700 m 59.910300 34.032700 l s
0.100000 slw
[] 0 sd
[] 0 sd
0 slc
n 20.075300 36.887700 m 59.925300 37.037700 l s
0.100000 slw
[] 0 sd
[] 0 sd
0 slc
n 20.090300 37.992700 m 59.940300 38.142700 l s
0.100000 slw
[] 0 sd
[] 0 sd
0 slc
n 20.030300 25.985200 m 59.880300 26.135200 l s
0.100000 slw
[] 0 sd
[] 0 sd
0 slc
n 20.045300 26.990200 m 59.895300 27.140200 l s
0.100000 slw
[] 0 sd
[] 0 sd
0 slc
n 20.160300 27.995200 m 60.010300 28.145200 l s
0.100000 slw
[] 0 sd
[] 0 sd
0 slc
n 20.075300 28.950200 m 59.925300 29.100200 l s
0.100000 slw
[] 0 sd
[] 0 sd
0 slc
n 38.965000 40.072600 m 38.999900 0.180044 l s
0.100000 slw
[] 0 sd
[] 0 sd
0 slc
n 23.980000 40.077600 m 24.014900 0.185044 l s
0.100000 slw
[] 0 sd
[] 0 sd
0 slc
n 22.895000 40.082600 m 22.929900 0.190044 l s
0.100000 slw
[] 0 sd
[] 0 sd
0 slc
n 21.910000 40.037600 m 21.944900 0.145044 l s
0.100000 slw
[] 0 sd
[] 0 sd
0 slc
n 25.975000 39.992600 m 26.009900 0.100044 l s
0.100000 slw
[] 0 sd
[] 0 sd
0 slc
n 21.040000 39.997600 m 21.074900 0.105044 l s
0.100000 slw
[] 0 sd
[] 0 sd
0 slc
n 37.965000 40.047600 m 37.999900 0.155044 l s
0.100000 slw
[] 0 sd
[] 0 sd
0 slc
n 32.030000 40.002600 m 32.064900 0.110044 l s
0.100000 slw
[] 0 sd
[] 0 sd
0 slc
n 28.945000 40.007600 m 28.979900 0.115044 l s
0.100000 slw
[] 0 sd
[] 0 sd
0 slc
n 30.960000 40.012600 m 30.994900 0.120044 l s
0.100000 slw
[] 0 sd
[] 0 sd
0 slc
n 26.975000 40.017600 m 27.009900 0.125044 l s
0.100000 slw
[] 0 sd
[] 0 sd
0 slc
n 28.040000 40.072600 m 28.074900 0.180044 l s
0.100000 slw
[] 0 sd
[] 0 sd
0 slc
n 36.980000 40.002600 m 37.014900 0.110044 l s
0.100000 slw
[] 0 sd
[] 0 sd
0 slc
n 35.945000 40.057600 m 35.979900 0.165044 l s
0.100000 slw
[] 0 sd
[] 0 sd
0 slc
n 33.960000 40.012600 m 33.994900 0.120044 l s
0.100000 slw
[] 0 sd
[] 0 sd
0 slc
n 33.025000 40.017600 m 33.059900 0.125044 l s
0.100000 slw
[] 0 sd
[] 0 sd
0 slc
n 43.915000 40.060100 m 43.949900 0.167544 l s
0.100000 slw
[] 0 sd
[] 0 sd
0 slc
n 42.895000 39.970100 m 42.929900 0.077544 l s
0.100000 slw
[] 0 sd
[] 0 sd
0 slc
n 41.960000 39.925100 m 41.994900 0.032544 l s
0.100000 slw
[] 0 sd
[] 0 sd
0 slc
n 41.025000 39.980100 m 41.059900 0.087544 l s
0.100000 slw
[] 0 sd
[] 0 sd
0 slc
n 57.015000 40.022600 m 57.049900 0.130044 l s
0.100000 slw
[] 0 sd
[] 0 sd
0 slc
n 48.980000 39.977600 m 49.014900 0.085044 l s
0.100000 slw
[] 0 sd
[] 0 sd
0 slc
n 47.995000 39.982600 m 48.029900 0.090044 l s
0.100000 slw
[] 0 sd
[] 0 sd
0 slc
n 46.960000 39.987600 m 46.994900 0.095044 l s
0.100000 slw
[] 0 sd
[] 0 sd
0 slc
n 46.025000 39.942600 m 46.059900 0.050044 l s
0.100000 slw
[] 0 sd
[] 0 sd
0 slc
n 54.015000 39.972600 m 54.049900 0.080044 l s
0.100000 slw
[] 0 sd
[] 0 sd
0 slc
n 52.980000 39.927600 m 53.014900 0.035044 l s
0.100000 slw
[] 0 sd
[] 0 sd
0 slc
n 51.895000 39.982600 m 51.929900 0.090044 l s
0.100000 slw
[] 0 sd
[] 0 sd
0 slc
n 55.960000 39.987600 m 55.994900 0.095044 l s
0.100000 slw
[] 0 sd
[] 0 sd
0 slc
n 51.025000 40.042600 m 51.059900 0.150044 l s
0.100000 slw
[] 0 sd
[] 0 sd
0 slc
n 58.052800 39.985100 m 58.087700 0.092544 l s
0.100000 slw
[] 0 sd
[] 0 sd
0 slc
n 59.002800 39.985100 m 59.037700 0.092544 l s
0.100000 slw
[] 0 sd
[] 0 sd
0 slj
0.000000 0.000000 1.000000 srgb
n 39.100300 39.137500 m 39.100300 40.037200 l 40.000000 40.037200 l 40.000000 39.137500 l f
0.000000 0.000000 0.000000 srgb
n 39.100300 39.137500 m 39.100300 40.037200 l 40.000000 40.037200 l 40.000000 39.137500 l cp s
0.300000 slw
[] 0 sd
[] 0 sd
0 slc
1.000000 0.000000 0.000000 srgb
n 39.050300 14.050000 m 40.000300 15.000000 l s
0.300000 slw
[] 0 sd
[] 0 sd
0 slc
n 39.900300 14.050000 m 39.050300 14.900000 l s
showpage
