%!PS-Adobe-3.0 EPSF-3.0
%%Creator: MATLAB, The Mathworks, Inc. Version 7.9.0.529 (R2009b). Operating System: Linux 3.13.0-34-generic #60-Ubuntu SMP Wed Aug 13 15:49:09 UTC 2014 i686.
%%Title: /home/sriram/ferl/Thesis/Research/AAAI_2015/invaders_scatter.eps
%%CreationDate: 09/14/2014  18:07:39
%%DocumentNeededFonts: Helvetica
%%DocumentProcessColors: Cyan Magenta Yellow Black
%%LanguageLevel: 2
%%Pages: 1
%%BoundingBox:  -239   147   853   644
%%EndComments

%%BeginProlog
% MathWorks dictionary
/MathWorks 160 dict begin
% definition operators
/bdef {bind def} bind def
/ldef {load def} bind def
/xdef {exch def} bdef
/xstore {exch store} bdef
% operator abbreviations
/c  /clip ldef
/cc /concat ldef
/cp /closepath ldef
/gr /grestore ldef
/gs /gsave ldef
/mt /moveto ldef
/np /newpath ldef
/cm /currentmatrix ldef
/sm /setmatrix ldef
/rm /rmoveto ldef
/rl /rlineto ldef
/s {show newpath} bdef
/sc {setcmykcolor} bdef
/sr /setrgbcolor ldef
/sg /setgray ldef
/w /setlinewidth ldef
/j /setlinejoin ldef
/cap /setlinecap ldef
/rc {rectclip} bdef
/rf {rectfill} bdef
% page state control
/pgsv () def
/bpage {/pgsv save def} bdef
/epage {pgsv restore} bdef
/bplot /gsave ldef
/eplot {stroke grestore} bdef
% orientation switch
/portraitMode 0 def /landscapeMode 1 def /rotateMode 2 def
% coordinate system mappings
/dpi2point 0 def
% font control
/FontSize 0 def
/FMS {/FontSize xstore findfont [FontSize 0 0 FontSize neg 0 0]
  makefont setfont} bdef
/reencode {exch dup where {pop load} {pop StandardEncoding} ifelse
  exch dup 3 1 roll findfont dup length dict begin
  { 1 index /FID ne {def}{pop pop} ifelse } forall
  /Encoding exch def currentdict end definefont pop} bdef
/isroman {findfont /CharStrings get /Agrave known} bdef
/FMSR {3 1 roll 1 index dup isroman {reencode} {pop pop} ifelse
  exch FMS} bdef
/csm {1 dpi2point div -1 dpi2point div scale neg translate
 dup landscapeMode eq {pop -90 rotate}
  {rotateMode eq {90 rotate} if} ifelse} bdef
% line types: solid, dotted, dashed, dotdash
/SO { [] 0 setdash } bdef
/DO { [.5 dpi2point mul 4 dpi2point mul] 0 setdash } bdef
/DA { [6 dpi2point mul] 0 setdash } bdef
/DD { [.5 dpi2point mul 4 dpi2point mul 6 dpi2point mul 4
  dpi2point mul] 0 setdash } bdef
% macros for lines and objects
/L {lineto stroke} bdef
/MP {3 1 roll moveto 1 sub {rlineto} repeat} bdef
/AP {{rlineto} repeat} bdef
/PDlw -1 def
/W {/PDlw currentlinewidth def setlinewidth} def
/PP {closepath eofill} bdef
/DP {closepath stroke} bdef
/MR {4 -2 roll moveto dup  0 exch rlineto exch 0 rlineto
  neg 0 exch rlineto closepath} bdef
/FR {MR stroke} bdef
/PR {MR fill} bdef
/L1i {{currentfile picstr readhexstring pop} image} bdef
/tMatrix matrix def
/MakeOval {newpath tMatrix currentmatrix pop translate scale
0 0 1 0 360 arc tMatrix setmatrix} bdef
/FO {MakeOval stroke} bdef
/PO {MakeOval fill} bdef
/PD {currentlinewidth 2 div 0 360 arc fill
   PDlw -1 eq not {PDlw w /PDlw -1 def} if} def
/FA {newpath tMatrix currentmatrix pop translate scale
  0 0 1 5 -2 roll arc tMatrix setmatrix stroke} bdef
/PA {newpath tMatrix currentmatrix pop	translate 0 0 moveto scale
  0 0 1 5 -2 roll arc closepath tMatrix setmatrix fill} bdef
/FAn {newpath tMatrix currentmatrix pop translate scale
  0 0 1 5 -2 roll arcn tMatrix setmatrix stroke} bdef
/PAn {newpath tMatrix currentmatrix pop translate 0 0 moveto scale
  0 0 1 5 -2 roll arcn closepath tMatrix setmatrix fill} bdef
/vradius 0 def /hradius 0 def /lry 0 def
/lrx 0 def /uly 0 def /ulx 0 def /rad 0 def
/MRR {/vradius xdef /hradius xdef /lry xdef /lrx xdef /uly xdef
  /ulx xdef newpath tMatrix currentmatrix pop ulx hradius add uly
  vradius add translate hradius vradius scale 0 0 1 180 270 arc 
  tMatrix setmatrix lrx hradius sub uly vradius add translate
  hradius vradius scale 0 0 1 270 360 arc tMatrix setmatrix
  lrx hradius sub lry vradius sub translate hradius vradius scale
  0 0 1 0 90 arc tMatrix setmatrix ulx hradius add lry vradius sub
  translate hradius vradius scale 0 0 1 90 180 arc tMatrix setmatrix
  closepath} bdef
/FRR {MRR stroke } bdef
/PRR {MRR fill } bdef
/MlrRR {/lry xdef /lrx xdef /uly xdef /ulx xdef /rad lry uly sub 2 div def
  newpath tMatrix currentmatrix pop ulx rad add uly rad add translate
  rad rad scale 0 0 1 90 270 arc tMatrix setmatrix lrx rad sub lry rad
  sub translate rad rad scale 0 0 1 270 90 arc tMatrix setmatrix
  closepath} bdef
/FlrRR {MlrRR stroke } bdef
/PlrRR {MlrRR fill } bdef
/MtbRR {/lry xdef /lrx xdef /uly xdef /ulx xdef /rad lrx ulx sub 2 div def
  newpath tMatrix currentmatrix pop ulx rad add uly rad add translate
  rad rad scale 0 0 1 180 360 arc tMatrix setmatrix lrx rad sub lry rad
  sub translate rad rad scale 0 0 1 0 180 arc tMatrix setmatrix
  closepath} bdef
/FtbRR {MtbRR stroke } bdef
/PtbRR {MtbRR fill } bdef
/stri 6 array def /dtri 6 array def
/smat 6 array def /dmat 6 array def
/tmat1 6 array def /tmat2 6 array def /dif 3 array def
/asub {/ind2 exch def /ind1 exch def dup dup
  ind1 get exch ind2 get sub exch } bdef
/tri_to_matrix {
  2 0 asub 3 1 asub 4 0 asub 5 1 asub
  dup 0 get exch 1 get 7 -1 roll astore } bdef
/compute_transform {
  dmat dtri tri_to_matrix tmat1 invertmatrix 
  smat stri tri_to_matrix tmat2 concatmatrix } bdef
/ds {stri astore pop} bdef
/dt {dtri astore pop} bdef
/db {2 copy /cols xdef /rows xdef mul dup 3 mul string
  currentfile 
  3 index 0 eq {/ASCIIHexDecode filter}
  {/ASCII85Decode filter 3 index 2 eq {/RunLengthDecode filter} if }
  ifelse exch readstring pop
  dup 0 3 index getinterval /rbmap xdef
  dup 2 index dup getinterval /gbmap xdef
  1 index dup 2 mul exch getinterval /bbmap xdef pop pop}bdef
/it {gs np dtri aload pop moveto lineto lineto cp c
  cols rows 8 compute_transform 
  rbmap gbmap bbmap true 3 colorimage gr}bdef
/il {newpath moveto lineto stroke}bdef
currentdict end def
%%EndProlog

%%BeginSetup
MathWorks begin

0 cap

end
%%EndSetup

%%Page: 1 1
%%BeginPageSetup
%%PageBoundingBox:  -239   147   853   644
MathWorks begin
bpage
%%EndPageSetup

%%BeginObject: obj1
bplot

/dpi2point 12 def
portraitMode -2868 7728 csm

    0     0 13112  5953 rc
85 dict begin %Colortable dictionary
/c0 { 0.000000 0.000000 0.000000 sr} bdef
/c1 { 1.000000 1.000000 1.000000 sr} bdef
/c2 { 0.900000 0.000000 0.000000 sr} bdef
/c3 { 0.000000 0.820000 0.000000 sr} bdef
/c4 { 0.000000 0.000000 0.800000 sr} bdef
/c5 { 0.910000 0.820000 0.320000 sr} bdef
/c6 { 1.000000 0.260000 0.820000 sr} bdef
/c7 { 0.000000 0.820000 0.820000 sr} bdef
c0
1 j
1 sg
   0    0 13113 5954 rf
6 w
0 4393 10161 0 0 -4393 1705 4839 4 MP
PP
-10161 0 0 4393 10161 0 0 -4393 1705 4839 5 MP stroke
4 w
DO
SO
6 w
0 sg
1705 4839 mt 11866 4839 L
1705 4839 mt 1705  446 L
1705 4839 mt 1705 4737 L
%%IncludeResource: font Helvetica
/Helvetica /ISOLatin1Encoding 480 FMSR

1292 5319 mt 
(-6) s
3737 4839 mt 3737 4737 L
3324 5319 mt 
(-4) s
5769 4839 mt 5769 4737 L
5356 5319 mt 
(-2) s
7801 4839 mt 7801 4737 L
7668 5319 mt 
(0) s
9833 4839 mt 9833 4737 L
9700 5319 mt 
(2) s
11866 4839 mt 11866 4737 L
11733 5319 mt 
(4) s
1705 4839 mt 1806 4839 L
1137 5017 mt 
(15) s
1705 3374 mt 1806 3374 L
1137 3552 mt 
(20) s
1705 1910 mt 1806 1910 L
1137 2088 mt 
(25) s
1705  446 mt 1806  446 L
1137  624 mt 
(30) s
gs 1705 446 10162 4394 rc
0 j
gs 2441 2844 560 560 rc
0 -218 -218 0 0 218 218 0 2612 3014 5 MP
/c8 { 1.000000 0.000000 0.000000 sr} bdef
c8
gs
PP
gr
DP
gr

c8
gs 3457 2929 561 561 rc
0 -218 -218 0 0 218 218 0 3628 3100 5 MP
gs
PP
gr
DP
gr

gs 4473 2817 561 560 rc
0 -218 -218 0 0 218 218 0 4644 2988 5 MP
gs
PP
gr
DP
gr

gs 5489 2424 561 560 rc
0 -218 -218 0 0 218 218 0 5660 2595 5 MP
gs
PP
gr
DP
gr

gs 6505 1102 561 560 rc
0 -218 -218 0 0 218 218 0 6676 1273 5 MP
gs
PP
gr
DP
gr

gs 7521 2099 561 561 rc
0 -218 -218 0 0 218 218 0 7692 2270 5 MP
gs
PP
gr
DP
gr

gs 8537 2088 561 561 rc
0 -218 -218 0 0 218 218 0 8708 2259 5 MP
gs
PP
gr
DP
gr

gs 9553 1994 561 561 rc
0 -218 -218 0 0 218 218 0 9724 2165 5 MP
gs
PP
gr
DP
gr

gs 10570 1893 560 561 rc
0 -218 -218 0 0 218 218 0 10740 2064 5 MP
gs
PP
gr
DP
gr

gr

c8
gs 11586 2025 560 560 rc
0 j
0 -218 -218 0 0 218 218 0 11757 2196 5 MP
gs
PP
gr
DP
gr

gs 1705 446 10162 4394 rc
0 j
gr

gs 2441 705 9705 3106 rc
/c9 { 0.000000 0.000000 1.000000 sr} bdef
c9
11768 1015 mt 11964 1211 L
11964 1015 mt 11768 1211 L
gr

c9
gs 1705 446 10162 4394 rc
gr

gs 2441 705 9705 3106 rc
11768 1176 mt 11964 1372 L
11964 1176 mt 11768 1372 L
gr

gs 1705 446 10162 4394 rc
gr

gs 2441 705 9705 3106 rc
11768 1467 mt 11964 1663 L
11964 1467 mt 11768 1663 L
gr

gs 1705 446 10162 4394 rc
gr

gs 2441 705 9705 3106 rc
11768 1853 mt 11964 2049 L
11964 1853 mt 11768 2049 L
gr

gs 1705 446 10162 4394 rc
gr

gs 2441 705 9705 3106 rc
11768  886 mt 11964 1082 L
11964  886 mt 11768 1082 L
gr

gs 1705 446 10162 4394 rc
gr

gs 2441 705 9705 3106 rc
11768 1315 mt 11964 1511 L
11964 1315 mt 11768 1511 L
gr

gs 1705 446 10162 4394 rc
gr

gs 2441 705 9705 3106 rc
11768 1580 mt 11964 1776 L
11964 1580 mt 11768 1776 L
gr

gs 1705 446 10162 4394 rc
gr

gs 2441 705 9705 3106 rc
11768 1771 mt 11964 1967 L
11964 1771 mt 11768 1967 L
gr

gs 1705 446 10162 4394 rc
gr

gs 2441 705 9705 3106 rc
11768 1053 mt 11964 1249 L
11964 1053 mt 11768 1249 L
gr

gs 1705 446 10162 4394 rc
gr

gs 2441 705 9705 3106 rc
11768 1265 mt 11964 1461 L
11964 1265 mt 11768 1461 L
gr

gs 1705 446 10162 4394 rc
gr

gs 2441 705 9705 3106 rc
11768 1755 mt 11964 1951 L
11964 1755 mt 11768 1951 L
gr

gs 1705 446 10162 4394 rc
gr

gs 2441 705 9705 3106 rc
11768 1833 mt 11964 2029 L
11964 1833 mt 11768 2029 L
gr

gs 1705 446 10162 4394 rc
gr

gs 2441 705 9705 3106 rc
11768  997 mt 11964 1193 L
11964  997 mt 11768 1193 L
gr

gs 1705 446 10162 4394 rc
gr

gs 2441 705 9705 3106 rc
11768 1330 mt 11964 1526 L
11964 1330 mt 11768 1526 L
gr

gs 1705 446 10162 4394 rc
gr

gs 2441 705 9705 3106 rc
11768 1863 mt 11964 2059 L
11964 1863 mt 11768 2059 L
gr

gs 1705 446 10162 4394 rc
gr

gs 2441 705 9705 3106 rc
11768 1886 mt 11964 2082 L
11964 1886 mt 11768 2082 L
gr

gs 1705 446 10162 4394 rc
gr

gs 2441 705 9705 3106 rc
10751  935 mt 10947 1131 L
10947  935 mt 10751 1131 L
gr

gs 1705 446 10162 4394 rc
gr

gs 2441 705 9705 3106 rc
10751 1218 mt 10947 1414 L
10947 1218 mt 10751 1414 L
gr

gs 1705 446 10162 4394 rc
gr

gs 2441 705 9705 3106 rc
10751 1392 mt 10947 1588 L
10947 1392 mt 10751 1588 L
gr

gs 1705 446 10162 4394 rc
gr

gs 2441 705 9705 3106 rc
10751 1794 mt 10947 1990 L
10947 1794 mt 10751 1990 L
gr

gs 1705 446 10162 4394 rc
gr

gs 2441 705 9705 3106 rc
10751 1046 mt 10947 1242 L
10947 1046 mt 10751 1242 L
gr

gs 1705 446 10162 4394 rc
gr

gs 2441 705 9705 3106 rc
10751 1317 mt 10947 1513 L
10947 1317 mt 10751 1513 L
gr

gs 1705 446 10162 4394 rc
gr

gs 2441 705 9705 3106 rc
10751 1612 mt 10947 1808 L
10947 1612 mt 10751 1808 L
gr

gs 1705 446 10162 4394 rc
gr

gs 2441 705 9705 3106 rc
10751 1849 mt 10947 2045 L
10947 1849 mt 10751 2045 L
gr

gs 1705 446 10162 4394 rc
gr

gs 2441 705 9705 3106 rc
10751  993 mt 10947 1189 L
10947  993 mt 10751 1189 L
gr

gs 1705 446 10162 4394 rc
gr

gs 2441 705 9705 3106 rc
10751 1306 mt 10947 1502 L
10947 1306 mt 10751 1502 L
gr

gs 1705 446 10162 4394 rc
gr

gs 2441 705 9705 3106 rc
10751 1778 mt 10947 1974 L
10947 1778 mt 10751 1974 L
gr

gs 1705 446 10162 4394 rc
gr

gs 2441 705 9705 3106 rc
10751 1899 mt 10947 2095 L
10947 1899 mt 10751 2095 L
gr

gs 1705 446 10162 4394 rc
gr

gs 2441 705 9705 3106 rc
10751 1002 mt 10947 1198 L
10947 1002 mt 10751 1198 L
gr

gs 1705 446 10162 4394 rc
gr

gs 2441 705 9705 3106 rc
10751 1345 mt 10947 1541 L
10947 1345 mt 10751 1541 L
gr

gs 1705 446 10162 4394 rc
gr

gs 2441 705 9705 3106 rc
10751 1865 mt 10947 2061 L
10947 1865 mt 10751 2061 L
gr

gs 1705 446 10162 4394 rc
gr

gs 2441 705 9705 3106 rc
10751 1914 mt 10947 2110 L
10947 1914 mt 10751 2110 L
gr

gs 1705 446 10162 4394 rc
gr

gs 2441 705 9705 3106 rc
9735 1013 mt 9931 1209 L
9931 1013 mt 9735 1209 L
gr

gs 1705 446 10162 4394 rc
gr

gs 2441 705 9705 3106 rc
9735 1144 mt 9931 1340 L
9931 1144 mt 9735 1340 L
gr

gs 1705 446 10162 4394 rc
gr

gs 2441 705 9705 3106 rc
9735 1407 mt 9931 1603 L
9931 1407 mt 9735 1603 L
gr

gs 1705 446 10162 4394 rc
gr

gs 2441 705 9705 3106 rc
9735 1908 mt 9931 2104 L
9931 1908 mt 9735 2104 L
gr

gs 1705 446 10162 4394 rc
gr

gs 2441 705 9705 3106 rc
9735 1028 mt 9931 1224 L
9931 1028 mt 9735 1224 L
gr

gs 1705 446 10162 4394 rc
gr

gs 2441 705 9705 3106 rc
9735 1315 mt 9931 1511 L
9931 1315 mt 9735 1511 L
gr

gs 1705 446 10162 4394 rc
gr

gs 2441 705 9705 3106 rc
9735 1548 mt 9931 1744 L
9931 1548 mt 9735 1744 L
gr

gs 1705 446 10162 4394 rc
gr

gs 2441 705 9705 3106 rc
9735 1809 mt 9931 2005 L
9931 1809 mt 9735 2005 L
gr

gs 1705 446 10162 4394 rc
gr

gs 2441 705 9705 3106 rc
9735  964 mt 9931 1160 L
9931  964 mt 9735 1160 L
gr

gs 1705 446 10162 4394 rc
gr

gs 2441 705 9705 3106 rc
9735 1273 mt 9931 1469 L
9931 1273 mt 9735 1469 L
gr

gs 1705 446 10162 4394 rc
gr

gs 2441 705 9705 3106 rc
9735 1826 mt 9931 2022 L
9931 1826 mt 9735 2022 L
gr

gs 1705 446 10162 4394 rc
gr

gs 2441 705 9705 3106 rc
9735 1886 mt 9931 2082 L
9931 1886 mt 9735 2082 L
gr

gs 1705 446 10162 4394 rc
gr

gs 2441 705 9705 3106 rc
9735  976 mt 9931 1172 L
9931  976 mt 9735 1172 L
gr

gs 1705 446 10162 4394 rc
gr

gs 2441 705 9705 3106 rc
9735 1311 mt 9931 1507 L
9931 1311 mt 9735 1507 L
gr

gs 1705 446 10162 4394 rc
gr

gs 2441 705 9705 3106 rc
9735 1877 mt 9931 2073 L
9931 1877 mt 9735 2073 L
gr

gs 1705 446 10162 4394 rc
gr

gs 2441 705 9705 3106 rc
9735 1891 mt 9931 2087 L
9931 1891 mt 9735 2087 L
gr

gs 1705 446 10162 4394 rc
gr

gs 2441 705 9705 3106 rc
8719  965 mt 8915 1161 L
8915  965 mt 8719 1161 L
gr

gs 1705 446 10162 4394 rc
gr

gs 2441 705 9705 3106 rc
8719 1176 mt 8915 1372 L
8915 1176 mt 8719 1372 L
gr

gs 1705 446 10162 4394 rc
gr

gs 2441 705 9705 3106 rc
8719 1495 mt 8915 1691 L
8915 1495 mt 8719 1691 L
gr

gs 1705 446 10162 4394 rc
gr

gs 2441 705 9705 3106 rc
8719 1860 mt 8915 2056 L
8915 1860 mt 8719 2056 L
gr

gs 1705 446 10162 4394 rc
gr

gs 2441 705 9705 3106 rc
8719  963 mt 8915 1159 L
8915  963 mt 8719 1159 L
gr

gs 1705 446 10162 4394 rc
gr

gs 2441 705 9705 3106 rc
8719 1358 mt 8915 1554 L
8915 1358 mt 8719 1554 L
gr

gs 1705 446 10162 4394 rc
gr

gs 2441 705 9705 3106 rc
8719 1595 mt 8915 1791 L
8915 1595 mt 8719 1791 L
gr

gs 1705 446 10162 4394 rc
gr

gs 2441 705 9705 3106 rc
8719 1853 mt 8915 2049 L
8915 1853 mt 8719 2049 L
gr

gs 1705 446 10162 4394 rc
gr

gs 2441 705 9705 3106 rc
8719  900 mt 8915 1096 L
8915  900 mt 8719 1096 L
gr

gs 1705 446 10162 4394 rc
gr

gs 2441 705 9705 3106 rc
8719 1282 mt 8915 1478 L
8915 1282 mt 8719 1478 L
gr

gs 1705 446 10162 4394 rc
gr

gs 2441 705 9705 3106 rc
8719 1792 mt 8915 1988 L
8915 1792 mt 8719 1988 L
gr

gs 1705 446 10162 4394 rc
gr

gs 2441 705 9705 3106 rc
8719 1848 mt 8915 2044 L
8915 1848 mt 8719 2044 L
gr

gs 1705 446 10162 4394 rc
gr

gs 2441 705 9705 3106 rc
8719 1047 mt 8915 1243 L
8915 1047 mt 8719 1243 L
gr

gs 1705 446 10162 4394 rc
gr

gs 2441 705 9705 3106 rc
8719 1373 mt 8915 1569 L
8915 1373 mt 8719 1569 L
gr

gs 1705 446 10162 4394 rc
gr

gs 2441 705 9705 3106 rc
8719 1954 mt 8915 2150 L
8915 1954 mt 8719 2150 L
gr

gs 1705 446 10162 4394 rc
gr

gs 2441 705 9705 3106 rc
8719 1791 mt 8915 1987 L
8915 1791 mt 8719 1987 L
gr

gs 1705 446 10162 4394 rc
gr

gs 2441 705 9705 3106 rc
7703 1767 mt 7899 1963 L
7899 1767 mt 7703 1963 L
gr

gs 1705 446 10162 4394 rc
gr

gs 2441 705 9705 3106 rc
7703 1501 mt 7899 1697 L
7899 1501 mt 7703 1697 L
gr

gs 1705 446 10162 4394 rc
gr

gs 2441 705 9705 3106 rc
7703 1742 mt 7899 1938 L
7899 1742 mt 7703 1938 L
gr

gs 1705 446 10162 4394 rc
gr

gs 2441 705 9705 3106 rc
7703 1834 mt 7899 2030 L
7899 1834 mt 7703 2030 L
gr

gs 1705 446 10162 4394 rc
gr

gs 2441 705 9705 3106 rc
7703 1649 mt 7899 1845 L
7899 1649 mt 7703 1845 L
gr

gs 1705 446 10162 4394 rc
gr

gs 2441 705 9705 3106 rc
7703 1525 mt 7899 1721 L
7899 1525 mt 7703 1721 L
gr

gs 1705 446 10162 4394 rc
gr

gs 2441 705 9705 3106 rc
7703 1894 mt 7899 2090 L
7899 1894 mt 7703 2090 L
gr

gs 1705 446 10162 4394 rc
gr

gs 2441 705 9705 3106 rc
7703 1770 mt 7899 1966 L
7899 1770 mt 7703 1966 L
gr

gs 1705 446 10162 4394 rc
gr

gs 2441 705 9705 3106 rc
7703 1534 mt 7899 1730 L
7899 1534 mt 7703 1730 L
gr

gs 1705 446 10162 4394 rc
gr

gs 2441 705 9705 3106 rc
7703 1520 mt 7899 1716 L
7899 1520 mt 7703 1716 L
gr

gs 1705 446 10162 4394 rc
gr

gs 2441 705 9705 3106 rc
7703 1831 mt 7899 2027 L
7899 1831 mt 7703 2027 L
gr

gs 1705 446 10162 4394 rc
gr

gs 2441 705 9705 3106 rc
7703 1649 mt 7899 1845 L
7899 1649 mt 7703 1845 L
gr

gs 1705 446 10162 4394 rc
gr

gs 2441 705 9705 3106 rc
7703 1618 mt 7899 1814 L
7899 1618 mt 7703 1814 L
gr

gs 1705 446 10162 4394 rc
gr

gs 2441 705 9705 3106 rc
7703 1575 mt 7899 1771 L
7899 1575 mt 7703 1771 L
gr

gs 1705 446 10162 4394 rc
gr

gs 2441 705 9705 3106 rc
7703 1814 mt 7899 2010 L
7899 1814 mt 7703 2010 L
gr

gs 1705 446 10162 4394 rc
gr

gs 2441 705 9705 3106 rc
7703 1706 mt 7899 1902 L
7899 1706 mt 7703 1902 L
gr

gs 1705 446 10162 4394 rc
gr

gs 2441 705 9705 3106 rc
6687 2900 mt 6883 3096 L
6883 2900 mt 6687 3096 L
gr

gs 1705 446 10162 4394 rc
gr

gs 2441 705 9705 3106 rc
6687 2416 mt 6883 2612 L
6883 2416 mt 6687 2612 L
gr

gs 1705 446 10162 4394 rc
gr

gs 2441 705 9705 3106 rc
6687 2029 mt 6883 2225 L
6883 2029 mt 6687 2225 L
gr

gs 1705 446 10162 4394 rc
gr

gs 2441 705 9705 3106 rc
6687 1716 mt 6883 1912 L
6883 1716 mt 6687 1912 L
gr

gs 1705 446 10162 4394 rc
gr

gs 2441 705 9705 3106 rc
6687 2430 mt 6883 2626 L
6883 2430 mt 6687 2626 L
gr

gs 1705 446 10162 4394 rc
gr

gs 2441 705 9705 3106 rc
6687 2190 mt 6883 2386 L
6883 2190 mt 6687 2386 L
gr

gs 1705 446 10162 4394 rc
gr

gs 2441 705 9705 3106 rc
6687 1838 mt 6883 2034 L
6883 1838 mt 6687 2034 L
gr

gs 1705 446 10162 4394 rc
gr

gs 2441 705 9705 3106 rc
6687 1757 mt 6883 1953 L
6883 1757 mt 6687 1953 L
gr

gs 1705 446 10162 4394 rc
gr

gs 2441 705 9705 3106 rc
6687 2376 mt 6883 2572 L
6883 2376 mt 6687 2572 L
gr

gs 1705 446 10162 4394 rc
gr

gs 2441 705 9705 3106 rc
6687 2071 mt 6883 2267 L
6883 2071 mt 6687 2267 L
gr

gs 1705 446 10162 4394 rc
gr

gs 2441 705 9705 3106 rc
6687 1819 mt 6883 2015 L
6883 1819 mt 6687 2015 L
gr

gs 1705 446 10162 4394 rc
gr

gs 2441 705 9705 3106 rc
6687 1791 mt 6883 1987 L
6883 1791 mt 6687 1987 L
gr

gs 1705 446 10162 4394 rc
gr

gs 2441 705 9705 3106 rc
6687 2367 mt 6883 2563 L
6883 2367 mt 6687 2563 L
gr

gs 1705 446 10162 4394 rc
gr

gs 2441 705 9705 3106 rc
6687 1936 mt 6883 2132 L
6883 1936 mt 6687 2132 L
gr

gs 1705 446 10162 4394 rc
gr

gs 2441 705 9705 3106 rc
6687 1680 mt 6883 1876 L
6883 1680 mt 6687 1876 L
gr

gs 1705 446 10162 4394 rc
gr

gs 2441 705 9705 3106 rc
6687 1671 mt 6883 1867 L
6883 1671 mt 6687 1867 L
gr

gs 1705 446 10162 4394 rc
gr

gs 2441 705 9705 3106 rc
5671 3433 mt 5867 3629 L
5867 3433 mt 5671 3629 L
gr

gs 1705 446 10162 4394 rc
gr

gs 2441 705 9705 3106 rc
5671 2927 mt 5867 3123 L
5867 2927 mt 5671 3123 L
gr

gs 1705 446 10162 4394 rc
gr

gs 2441 705 9705 3106 rc
5671 2426 mt 5867 2622 L
5867 2426 mt 5671 2622 L
gr

gs 1705 446 10162 4394 rc
gr

gs 2441 705 9705 3106 rc
5671 2311 mt 5867 2507 L
5867 2311 mt 5671 2507 L
gr

gs 1705 446 10162 4394 rc
gr

gs 2441 705 9705 3106 rc
5671 3074 mt 5867 3270 L
5867 3074 mt 5671 3270 L
gr

gs 1705 446 10162 4394 rc
gr

gs 2441 705 9705 3106 rc
5671 2546 mt 5867 2742 L
5867 2546 mt 5671 2742 L
gr

gs 1705 446 10162 4394 rc
gr

gs 2441 705 9705 3106 rc
5671 2281 mt 5867 2477 L
5867 2281 mt 5671 2477 L
gr

gs 1705 446 10162 4394 rc
gr

gs 2441 705 9705 3106 rc
5671 2248 mt 5867 2444 L
5867 2248 mt 5671 2444 L
gr

gs 1705 446 10162 4394 rc
gr

gs 2441 705 9705 3106 rc
5671 2758 mt 5867 2954 L
5867 2758 mt 5671 2954 L
gr

gs 1705 446 10162 4394 rc
gr

gs 2441 705 9705 3106 rc
5671 2370 mt 5867 2566 L
5867 2370 mt 5671 2566 L
gr

gs 1705 446 10162 4394 rc
gr

gs 2441 705 9705 3106 rc
5671 2253 mt 5867 2449 L
5867 2253 mt 5671 2449 L
gr

gs 1705 446 10162 4394 rc
gr

gs 2441 705 9705 3106 rc
5671 2338 mt 5867 2534 L
5867 2338 mt 5671 2534 L
gr

gs 1705 446 10162 4394 rc
gr

gs 2441 705 9705 3106 rc
5671 2728 mt 5867 2924 L
5867 2728 mt 5671 2924 L
gr

gs 1705 446 10162 4394 rc
gr

gs 2441 705 9705 3106 rc
5671 2249 mt 5867 2445 L
5867 2249 mt 5671 2445 L
gr

gs 1705 446 10162 4394 rc
gr

gs 2441 705 9705 3106 rc
5671 2261 mt 5867 2457 L
5867 2261 mt 5671 2457 L
gr

gs 1705 446 10162 4394 rc
gr

gs 2441 705 9705 3106 rc
5671 2234 mt 5867 2430 L
5867 2234 mt 5671 2430 L
gr

gs 1705 446 10162 4394 rc
gr

gs 2441 705 9705 3106 rc
4655 3381 mt 4851 3577 L
4851 3381 mt 4655 3577 L
gr

gs 1705 446 10162 4394 rc
gr

gs 2441 705 9705 3106 rc
4655 3027 mt 4851 3223 L
4851 3027 mt 4655 3223 L
gr

gs 1705 446 10162 4394 rc
gr

gs 2441 705 9705 3106 rc
4655 2456 mt 4851 2652 L
4851 2456 mt 4655 2652 L
gr

gs 1705 446 10162 4394 rc
gr

gs 2441 705 9705 3106 rc
4655 2471 mt 4851 2667 L
4851 2471 mt 4655 2667 L
gr

gs 1705 446 10162 4394 rc
gr

gs 2441 705 9705 3106 rc
4655 3190 mt 4851 3386 L
4851 3190 mt 4655 3386 L
gr

gs 1705 446 10162 4394 rc
gr

gs 2441 705 9705 3106 rc
4655 2705 mt 4851 2901 L
4851 2705 mt 4655 2901 L
gr

gs 1705 446 10162 4394 rc
gr

gs 2441 705 9705 3106 rc
4655 2442 mt 4851 2638 L
4851 2442 mt 4655 2638 L
gr

gs 1705 446 10162 4394 rc
gr

gs 2441 705 9705 3106 rc
4655 2423 mt 4851 2619 L
4851 2423 mt 4655 2619 L
gr

gs 1705 446 10162 4394 rc
gr

gs 2441 705 9705 3106 rc
4655 3046 mt 4851 3242 L
4851 3046 mt 4655 3242 L
gr

gs 1705 446 10162 4394 rc
gr

gs 2441 705 9705 3106 rc
4655 2464 mt 4851 2660 L
4851 2464 mt 4655 2660 L
gr

gs 1705 446 10162 4394 rc
gr

gs 2441 705 9705 3106 rc
4655 2309 mt 4851 2505 L
4851 2309 mt 4655 2505 L
gr

gs 1705 446 10162 4394 rc
gr

gs 2441 705 9705 3106 rc
4655 2318 mt 4851 2514 L
4851 2318 mt 4655 2514 L
gr

gs 1705 446 10162 4394 rc
gr

gs 2441 705 9705 3106 rc
4655 2949 mt 4851 3145 L
4851 2949 mt 4655 3145 L
gr

gs 1705 446 10162 4394 rc
gr

gs 2441 705 9705 3106 rc
4655 2309 mt 4851 2505 L
4851 2309 mt 4655 2505 L
gr

gs 1705 446 10162 4394 rc
gr

gs 2441 705 9705 3106 rc
4655 2456 mt 4851 2652 L
4851 2456 mt 4655 2652 L
gr

gs 1705 446 10162 4394 rc
gr

gs 2441 705 9705 3106 rc
4655 2475 mt 4851 2671 L
4851 2475 mt 4655 2671 L
gr

gs 1705 446 10162 4394 rc
gr

gs 2441 705 9705 3106 rc
3639 3365 mt 3835 3561 L
3835 3365 mt 3639 3561 L
gr

gs 1705 446 10162 4394 rc
gr

gs 2441 705 9705 3106 rc
3639 3025 mt 3835 3221 L
3835 3025 mt 3639 3221 L
gr

gs 1705 446 10162 4394 rc
gr

gs 2441 705 9705 3106 rc
3639 2317 mt 3835 2513 L
3835 2317 mt 3639 2513 L
gr

gs 1705 446 10162 4394 rc
gr

gs 2441 705 9705 3106 rc
3639 2352 mt 3835 2548 L
3835 2352 mt 3639 2548 L
gr

gs 1705 446 10162 4394 rc
gr

gs 2441 705 9705 3106 rc
3639 3194 mt 3835 3390 L
3835 3194 mt 3639 3390 L
gr

gs 1705 446 10162 4394 rc
gr

gs 2441 705 9705 3106 rc
3639 2921 mt 3835 3117 L
3835 2921 mt 3639 3117 L
gr

gs 1705 446 10162 4394 rc
gr

gs 2441 705 9705 3106 rc
3639 2453 mt 3835 2649 L
3835 2453 mt 3639 2649 L
gr

gs 1705 446 10162 4394 rc
gr

gs 2441 705 9705 3106 rc
3639 2328 mt 3835 2524 L
3835 2328 mt 3639 2524 L
gr

gs 1705 446 10162 4394 rc
gr

gs 2441 705 9705 3106 rc
3639 3355 mt 3835 3551 L
3835 3355 mt 3639 3551 L
gr

gs 1705 446 10162 4394 rc
gr

gs 2441 705 9705 3106 rc
3639 2793 mt 3835 2989 L
3835 2793 mt 3639 2989 L
gr

gs 1705 446 10162 4394 rc
gr

gs 2441 705 9705 3106 rc
3639 2453 mt 3835 2649 L
3835 2453 mt 3639 2649 L
gr

gs 1705 446 10162 4394 rc
gr

gs 2441 705 9705 3106 rc
3639 2358 mt 3835 2554 L
3835 2358 mt 3639 2554 L
gr

gs 1705 446 10162 4394 rc
gr

gs 2441 705 9705 3106 rc
3639 2901 mt 3835 3097 L
3835 2901 mt 3639 3097 L
gr

gs 1705 446 10162 4394 rc
gr

gs 2441 705 9705 3106 rc
3639 2419 mt 3835 2615 L
3835 2419 mt 3639 2615 L
gr

gs 1705 446 10162 4394 rc
gr

gs 2441 705 9705 3106 rc
3639 2439 mt 3835 2635 L
3835 2439 mt 3639 2635 L
gr

gs 1705 446 10162 4394 rc
gr

gs 2441 705 9705 3106 rc
3639 2460 mt 3835 2656 L
3835 2460 mt 3639 2656 L
gr

gs 1705 446 10162 4394 rc
gr

gs 2441 705 9705 3106 rc
2623 3392 mt 2819 3588 L
2819 3392 mt 2623 3588 L
gr

gs 1705 446 10162 4394 rc
gr

gs 2441 705 9705 3106 rc
2623 3049 mt 2819 3245 L
2819 3049 mt 2623 3245 L
gr

gs 1705 446 10162 4394 rc
gr

gs 2441 705 9705 3106 rc
2623 2398 mt 2819 2594 L
2819 2398 mt 2623 2594 L
gr

gs 1705 446 10162 4394 rc
gr

gs 2441 705 9705 3106 rc
2623 2432 mt 2819 2628 L
2819 2432 mt 2623 2628 L
gr

gs 1705 446 10162 4394 rc
gr

gs 2441 705 9705 3106 rc
2623 3388 mt 2819 3584 L
2819 3388 mt 2623 3584 L
gr

gs 1705 446 10162 4394 rc
gr

gs 2441 705 9705 3106 rc
2623 2899 mt 2819 3095 L
2819 2899 mt 2623 3095 L
gr

gs 1705 446 10162 4394 rc
gr

gs 2441 705 9705 3106 rc
2623 2290 mt 2819 2486 L
2819 2290 mt 2623 2486 L
gr

gs 1705 446 10162 4394 rc
gr

gs 2441 705 9705 3106 rc
2623 2391 mt 2819 2587 L
2819 2391 mt 2623 2587 L
gr

gs 1705 446 10162 4394 rc
gr

gs 2441 705 9705 3106 rc
2623 3058 mt 2819 3254 L
2819 3058 mt 2623 3254 L
gr

gs 1705 446 10162 4394 rc
gr

gs 2441 705 9705 3106 rc
2623 2621 mt 2819 2817 L
2819 2621 mt 2623 2817 L
gr

gs 1705 446 10162 4394 rc
gr

gs 2441 705 9705 3106 rc
2623 2410 mt 2819 2606 L
2819 2410 mt 2623 2606 L
gr

gs 1705 446 10162 4394 rc
gr

gs 2441 705 9705 3106 rc
2623 2430 mt 2819 2626 L
2819 2430 mt 2623 2626 L
gr

gs 1705 446 10162 4394 rc
gr

gs 2441 705 9705 3106 rc
2623 3157 mt 2819 3353 L
2819 3157 mt 2623 3353 L
gr

gs 1705 446 10162 4394 rc
gr

gs 2441 705 9705 3106 rc
2623 2374 mt 2819 2570 L
2819 2374 mt 2623 2570 L
gr

gs 1705 446 10162 4394 rc
gr

gs 2441 705 9705 3106 rc
2623 2361 mt 2819 2557 L
2819 2361 mt 2623 2557 L
gr

gs 1705 446 10162 4394 rc
gr

gs 2441 705 9705 3106 rc
2623 2354 mt 2819 2550 L
2819 2354 mt 2623 2550 L
gr

gs 1705 446 10162 4394 rc
gr

0 sg
%%IncludeResource: font Helvetica
/Helvetica /ISOLatin1Encoding 600 FMSR

3949 5816 mt 
(Log10 UCB Constant) s
 947 4260 mt  -90 rotate
(Mean Score) s
90 rotate
%%IncludeResource: font Helvetica
/Helvetica /ISOLatin1Encoding 120 FMSR

1688 4882 mt 
( ) s
11850  488 mt 
( ) s
1 sg
0 1436 2865 0 0 -1436 1855 1986 4 MP
PP
-2865 0 0 1436 2865 0 0 -1436 1855 1986 5 MP stroke
4 w
DO
SO
6 w
0 sg
1855 1986 mt 4720 1986 L
1855  550 mt 4720  550 L
1855 1986 mt 1855  550 L
4720 1986 mt 4720  550 L
1855 1986 mt 4720 1986 L
1855 1986 mt 1855  550 L
1855 1986 mt 4720 1986 L
1855  550 mt 4720  550 L
1855 1986 mt 1855  550 L
4720 1986 mt 4720  550 L
%%IncludeResource: font Helvetica
/Helvetica /ISOLatin1Encoding 480 FMSR

2339 1089 mt 
(UCT) s
gs 1855 550 2866 1437 rc
0 j
gs 2042 846 147 147 rc
0 -58 -58 0 0 58 58 0 2086 890 5 MP
c8
gs
PP
gr
DP
gr

c8
gr

c8
0 sg
2339 1786 mt 
(mNN-UCT) s
gs 1855 550 2866 1437 rc
0 j
gs 2042 1543 147 147 rc
c9
2090 1591 mt 2140 1641 L
2140 1591 mt 2090 1641 L
gr

c9
gr

c9

end %%Color Dict

eplot
%%EndObject

epage
end

showpage

%%Trailer
%%EOF
