%!PS-Adobe-2.0 EPSF-2.0
%%Title: /home/sriram/ferl/Thesis/Research/AAAI_2015/seaquest_game.dia
%%Creator: Dia v0.97.2
%%CreationDate: Wed Sep  3 12:56:53 2014
%%For: sriram
%%Orientation: Portrait
%%Magnification: 1.0000
%%BoundingBox: 0 0 465 463
%%BeginSetup
%%EndSetup
%%EndComments
%%BeginProlog
[ /.notdef /.notdef /.notdef /.notdef /.notdef /.notdef /.notdef /.notdef /.notdef /.notdef
/.notdef /.notdef /.notdef /.notdef /.notdef /.notdef /.notdef /.notdef /.notdef /.notdef
/.notdef /.notdef /.notdef /.notdef /.notdef /.notdef /.notdef /.notdef /.notdef /.notdef
/.notdef /.notdef /space /exclam /quotedbl /numbersign /dollar /percent /ampersand /quoteright
/parenleft /parenright /asterisk /plus /comma /hyphen /period /slash /zero /one
/two /three /four /five /six /seven /eight /nine /colon /semicolon
/less /equal /greater /question /at /A /B /C /D /E
/F /G /H /I /J /K /L /M /N /O
/P /Q /R /S /T /U /V /W /X /Y
/Z /bracketleft /backslash /bracketright /asciicircum /underscore /quoteleft /a /b /c
/d /e /f /g /h /i /j /k /l /m
/n /o /p /q /r /s /t /u /v /w
/x /y /z /braceleft /bar /braceright /asciitilde /.notdef /.notdef /.notdef
/.notdef /.notdef /.notdef /.notdef /.notdef /.notdef /.notdef /.notdef /.notdef /.notdef
/.notdef /.notdef /.notdef /.notdef /.notdef /.notdef /.notdef /.notdef /.notdef /.notdef
/.notdef /.notdef /.notdef /.notdef /.notdef /.notdef /.notdef /.notdef /.notdef /.notdef
/space /exclamdown /cent /sterling /currency /yen /brokenbar /section /dieresis /copyright
/ordfeminine /guillemotleft /logicalnot /hyphen /registered /macron /degree /plusminus /twosuperior /threesuperior
/acute /mu /paragraph /periodcentered /cedilla /onesuperior /ordmasculine /guillemotright /onequarter /onehalf
/threequarters /questiondown /Agrave /Aacute /Acircumflex /Atilde /Adieresis /Aring /AE /Ccedilla
/Egrave /Eacute /Ecircumflex /Edieresis /Igrave /Iacute /Icircumflex /Idieresis /Eth /Ntilde
/Ograve /Oacute /Ocircumflex /Otilde /Odieresis /multiply /Oslash /Ugrave /Uacute /Ucircumflex
/Udieresis /Yacute /Thorn /germandbls /agrave /aacute /acircumflex /atilde /adieresis /aring
/ae /ccedilla /egrave /eacute /ecircumflex /edieresis /igrave /iacute /icircumflex /idieresis
/eth /ntilde /ograve /oacute /ocircumflex /otilde /odieresis /divide /oslash /ugrave
/uacute /ucircumflex /udieresis /yacute /thorn /ydieresis] /isolatin1encoding exch def
/cp {closepath} bind def
/c {curveto} bind def
/f {fill} bind def
/a {arc} bind def
/ef {eofill} bind def
/ex {exch} bind def
/gr {grestore} bind def
/gs {gsave} bind def
/sa {save} bind def
/rs {restore} bind def
/l {lineto} bind def
/m {moveto} bind def
/rm {rmoveto} bind def
/n {newpath} bind def
/s {stroke} bind def
/sh {show} bind def
/slc {setlinecap} bind def
/slj {setlinejoin} bind def
/slw {setlinewidth} bind def
/srgb {setrgbcolor} bind def
/rot {rotate} bind def
/sc {scale} bind def
/sd {setdash} bind def
/ff {findfont} bind def
/sf {setfont} bind def
/scf {scalefont} bind def
/sw {stringwidth pop} bind def
/tr {translate} bind def

/ellipsedict 8 dict def
ellipsedict /mtrx matrix put
/ellipse
{ ellipsedict begin
   /endangle exch def
   /startangle exch def
   /yrad exch def
   /xrad exch def
   /y exch def
   /x exch def   /savematrix mtrx currentmatrix def
   x y tr xrad yrad sc
   0 0 1 startangle endangle arc
   savematrix setmatrix
   end
} def

/mergeprocs {
dup length
3 -1 roll
dup
length
dup
5 1 roll
3 -1 roll
add
array cvx
dup
3 -1 roll
0 exch
putinterval
dup
4 2 roll
putinterval
} bind def
/dpi_x 300 def
/dpi_y 300 def
/conicto {
    /to_y exch def
    /to_x exch def
    /conic_cntrl_y exch def
    /conic_cntrl_x exch def
    currentpoint
    /p0_y exch def
    /p0_x exch def
    /p1_x p0_x conic_cntrl_x p0_x sub 2 3 div mul add def
    /p1_y p0_y conic_cntrl_y p0_y sub 2 3 div mul add def
    /p2_x p1_x to_x p0_x sub 1 3 div mul add def
    /p2_y p1_y to_y p0_y sub 1 3 div mul add def
    p1_x p1_y p2_x p2_y to_x to_y curveto
} bind def
/start_ol { gsave 1.1 dpi_x div dup scale} bind def
/end_ol { closepath fill grestore } bind def
28.346000 -28.346000 scale
-19.815000 -23.055000 translate
%%EndProlog


0.100000 slw
[] 0 sd
[] 0 sd
0 slc
0 slj
0.100000 slw
0 slc
0 slj
[] 0 sd
1.000000 0.000000 0.000000 srgb
n 23.661455 20.865000 m 24.261455 20.865000 l 24.561455 21.290000 l 24.261455 21.715000 l 23.661455 21.715000 l 23.961455 21.290000 l ef
0.000000 0.000000 0.000000 srgb
n 23.661455 20.865000 m 24.261455 20.865000 l 24.561455 21.290000 l 24.261455 21.715000 l 23.661455 21.715000 l 23.961455 21.290000 l cp s
0 slc
0 slj
[] 0 sd
n 23.661455 20.865000 m 24.261455 20.865000 l 24.561455 21.290000 l 24.261455 21.715000 l 23.661455 21.715000 l 23.961455 21.290000 l cp s
0.100000 slw
[] 0 sd
[] 0 sd
0 slj
1.000000 1.000000 1.000000 srgb
n 20.039955 6.890000 m 20.039955 22.890000 l 36.039955 22.890000 l 36.039955 6.890000 l f
0.000000 0.000000 0.000000 srgb
n 20.039955 6.890000 m 20.039955 22.890000 l 36.039955 22.890000 l 36.039955 6.890000 l cp s
0.100000 slw
[] 0 sd
[] 0 sd
0 slc
0.658824 0.650980 0.650980 srgb
n 29.989955 6.890000 m 29.989955 22.990000 l s
0.100000 slw
[] 0 sd
[] 0 sd
0 slc
n 22.054955 6.845000 m 22.054955 22.945000 l s
0.100000 slw
[] 0 sd
[] 0 sd
0 slc
n 21.069955 6.900000 m 21.069955 23.000000 l s
0.100000 slw
[] 0 sd
[] 0 sd
0 slc
n 24.984955 6.855000 m 24.984955 22.955000 l s
0.100000 slw
[] 0 sd
[] 0 sd
0 slc
n 26.004955 6.845000 m 26.004955 22.945000 l s
0.100000 slw
[] 0 sd
[] 0 sd
0 slc
n 26.969955 6.900000 m 26.969955 23.000000 l s
0.100000 slw
[] 0 sd
[] 0 sd
0 slc
n 23.984955 6.905000 m 23.984955 23.005000 l s
0.100000 slw
[] 0 sd
[] 0 sd
0 slc
n 22.999955 6.860000 m 22.989955 22.790000 l s
0.100000 slw
[] 0 sd
[] 0 sd
0 slc
n 28.039955 6.890000 m 28.039955 22.890000 l s
0.100000 slw
[] 0 sd
[] 0 sd
0 slc
n 28.979955 6.870000 m 28.979955 22.970000 l s
0.100000 slw
[] 0 sd
[] 0 sd
0 slc
n 30.994955 6.875000 m 30.994955 22.975000 l s
0.100000 slw
[] 0 sd
[] 0 sd
0 slc
n 32.059955 6.830000 m 32.059955 22.930000 l s
0.100000 slw
[] 0 sd
[] 0 sd
0 slc
n 34.969955 6.850000 m 34.969955 22.950000 l s
0.100000 slw
[] 0 sd
[] 0 sd
0 slc
n 33.934955 6.805000 m 33.934955 22.905000 l s
0.100000 slw
[] 0 sd
[] 0 sd
0 slc
n 33.049955 6.860000 m 33.049955 22.960000 l s
0.100000 slw
[] 0 sd
[] 0 sd
0 slc
n 20.039955 11.790000 m 36.139955 11.740000 l s
0.100000 slw
[] 0 sd
[] 0 sd
0 slc
n 19.955155 19.845200 m 36.055155 19.795200 l s
0.100000 slw
[] 0 sd
[] 0 sd
0 slc
n 19.970155 20.850200 m 36.070155 20.800200 l s
0.100000 slw
[] 0 sd
[] 0 sd
0 slc
n 19.935155 21.855200 m 36.035155 21.805200 l s
0.100000 slw
[] 0 sd
[] 0 sd
0 slc
n 20.050155 16.760200 m 36.150155 16.710200 l s
0.100000 slw
[] 0 sd
[] 0 sd
0 slc
n 19.955155 13.795200 m 36.055155 13.745200 l s
0.100000 slw
[] 0 sd
[] 0 sd
0 slc
n 20.039955 14.890000 m 36.039955 14.890000 l s
0.100000 slw
[] 0 sd
[] 0 sd
0 slc
n 19.935155 15.855200 m 36.035155 15.805200 l s
0.100000 slw
[] 0 sd
[] 0 sd
0 slc
n 20.000155 17.860200 m 36.100155 17.810200 l s
0.100000 slw
[] 0 sd
[] 0 sd
0 slc
n 19.865155 18.865200 m 35.965155 18.815200 l s
0.100000 slw
[] 0 sd
[] 0 sd
0 slc
n 20.138255 9.910000 m 36.105155 9.795160 l s
0.100000 slw
[] 0 sd
[] 0 sd
0 slc
n 20.020155 7.800160 m 36.120155 7.750160 l s
0.100000 slw
[] 0 sd
[] 0 sd
0 slc
n 20.138255 8.910000 m 36.085155 8.805160 l s
0.100000 slw
[] 0 sd
[] 0 sd
0 slc
n 20.050155 10.860160 m 36.150155 10.810160 l s
0.100000 slw
[] 0 sd
[] 0 sd
0 slc
n 19.965155 12.765200 m 36.065155 12.715200 l s
0.100000 slw
[] 0 sd
[] 0 sd
0 slc
0 slj
0.100000 slw
0 slc
0 slj
[] 0 sd
1.000000 0.000000 0.000000 srgb
n 24.989955 20.840000 m 25.589955 20.840000 l 25.889955 21.340000 l 25.589955 21.840000 l 24.989955 21.840000 l 25.289955 21.340000 l ef
0.000000 0.000000 0.000000 srgb
n 24.989955 20.840000 m 25.589955 20.840000 l 25.889955 21.340000 l 25.589955 21.840000 l 24.989955 21.840000 l 25.289955 21.340000 l cp s
0 slc
0 slj
[] 0 sd
n 24.989955 20.840000 m 25.589955 20.840000 l 25.889955 21.340000 l 25.589955 21.840000 l 24.989955 21.840000 l 25.289955 21.340000 l cp s
0.100000 slw
[] 0 sd
[] 0 sd
0 slc
0 slj
0.100000 slw
0 slc
0 slj
[] 0 sd
1.000000 0.000000 0.000000 srgb
n 32.140810 12.705000 m 32.740810 12.705000 l 33.040810 13.205000 l 32.740810 13.705000 l 32.140810 13.705000 l 32.440810 13.205000 l ef
0.000000 0.000000 0.000000 srgb
n 32.140810 12.705000 m 32.740810 12.705000 l 33.040810 13.205000 l 32.740810 13.705000 l 32.140810 13.705000 l 32.440810 13.205000 l cp s
0 slc
0 slj
[] 0 sd
n 32.140810 12.705000 m 32.740810 12.705000 l 33.040810 13.205000 l 32.740810 13.705000 l 32.140810 13.705000 l 32.440810 13.205000 l cp s
0.100000 slw
[] 0 sd
[] 0 sd
0 slc
0 slj
0.100000 slw
0 slc
0 slj
[] 0 sd
1.000000 0.000000 0.000000 srgb
n 27.055810 8.860000 m 27.655810 8.860000 l 27.955810 9.360000 l 27.655810 9.860000 l 27.055810 9.860000 l 27.355810 9.360000 l ef
0.000000 0.000000 0.000000 srgb
n 27.055810 8.860000 m 27.655810 8.860000 l 27.955810 9.360000 l 27.655810 9.860000 l 27.055810 9.860000 l 27.355810 9.360000 l cp s
0 slc
0 slj
[] 0 sd
n 27.055810 8.860000 m 27.655810 8.860000 l 27.955810 9.360000 l 27.655810 9.860000 l 27.055810 9.860000 l 27.355810 9.360000 l cp s
0.100000 slw
[] 0 sd
[] 0 sd
0 slc
0 slj
0.100000 slw
0 slc
0 slj
[] 0 sd
1.000000 0.000000 0.000000 srgb
n 28.070810 16.765000 m 28.670810 16.765000 l 28.970810 17.265000 l 28.670810 17.765000 l 28.070810 17.765000 l 28.370810 17.265000 l ef
0.000000 0.000000 0.000000 srgb
n 28.070810 16.765000 m 28.670810 16.765000 l 28.970810 17.265000 l 28.670810 17.765000 l 28.070810 17.765000 l 28.370810 17.265000 l cp s
0 slc
0 slj
[] 0 sd
n 28.070810 16.765000 m 28.670810 16.765000 l 28.970810 17.265000 l 28.670810 17.765000 l 28.070810 17.765000 l 28.370810 17.265000 l cp s
0.100000 slw
[] 0 sd
[] 0 sd
0 slc
0 slj
0.100000 slw
0 slc
0 slj
[] 0 sd
n 32.152500 16.780479 m 33.052500 16.780479 l 32.152500 15.830479 l ef
n 32.152500 16.780479 m 33.052500 16.780479 l 32.152500 15.830479 l cp s
0.010000 slw
0 slc
0 slj
[] 0 sd
n 32.152500 16.780479 m 33.052500 16.780479 l 32.152500 15.830479 l cp s
0.100000 slw
[] 0 sd
[] 0 sd
0 slj
0.000000 0.000000 1.000000 srgb
n 24.052500 21.905000 m 24.052500 22.805000 l 24.952500 22.805000 l 24.952500 21.905000 l f
0.000000 0.000000 0.000000 srgb
n 24.052500 21.905000 m 24.052500 22.805000 l 24.952500 22.805000 l 24.952500 21.905000 l cp s
0.100000 slw
[] 0 sd
[] 0 sd
0 slj
0.000000 1.000000 0.000000 srgb
n 20.100000 6.950000 m 20.100000 7.750000 l 36.100000 7.750000 l 36.100000 6.950000 l f
0.000000 0.000000 0.000000 srgb
n 20.100000 6.950000 m 20.100000 7.750000 l 36.100000 7.750000 l 36.100000 6.950000 l cp s
showpage
