\relax 
\citation{browne2012survey}
\citation{kocsis2006bandit}
\citation{kocsis2006bandit}
\citation{auer2002finite}
\newlabel{sec:intro}{{1}{1}}
\newlabel{sec:prelim}{{2}{1}}
\citation{childs2008transpositions}
\citation{mehat2010combining}
\providecommand*\caption@xref[2]{\@setref\relax\@undefined{#1}}
\newlabel{fig:grid}{{1(a)}{2}}
\newlabel{sub@fig:grid}{{(a)}{2}}
\newlabel{fig:grid_wall}{{1(b)}{2}}
\newlabel{sub@fig:grid_wall}{{(b)}{2}}
\newlabel{fig:mani}{{1(c)}{2}}
\newlabel{sub@fig:mani}{{(c)}{2}}
\newlabel{fig:grid_world}{{1}{2}}
\newlabel{sec:nnUCT}{{3}{2}}
\newlabel{sec:decay}{{3.1}{2}}
\citation{ma2012manifold}
\citation{tenenbaum2000global}
\newlabel{sec:expt}{{5}{3}}
\newlabel{fig:grid_bar}{{2(a)}{4}}
\newlabel{sub@fig:grid_bar}{{(a)}{4}}
\newlabel{fig:grid_wall_bar}{{2(b)}{4}}
\newlabel{sub@fig:grid_wall_bar}{{(b)}{4}}
\newlabel{fig:grid_bar_charts}{{2}{4}}
\citation{bentley1975multidimensional}
\citation{childs2008transpositions}
\newlabel{fig:games}{{3}{5}}
\newlabel{fig:perfcomp}{{4}{5}}
\citation{jiang2014improving}
\citation{gelly2011monte}
\citation{couetoux2011continuous}
\citation{mahadevan2007proto}
\bibstyle{aaai}
\bibdata{references}
\bibcite{auer2002finite}{\citeauthoryear {Auer, Cesa-Bianchi, and Fischer}{2002}}
\bibcite{bentley1975multidimensional}{\citeauthoryear {Bentley}{1975}}
\bibcite{browne2012survey}{\citeauthoryear {Browne \bgroup et al\unhbox \voidb@x \hbox {.}\egroup }{2012}}
\bibcite{childs2008transpositions}{\citeauthoryear {Childs, Brodeur, and Kocsis}{2008}}
\bibcite{couetoux2011continuous}{\citeauthoryear {Couetoux \bgroup et al\unhbox \voidb@x \hbox {.}\egroup }{2011}}
\bibcite{gelly2011monte}{\citeauthoryear {Gelly and Silver}{2011}}
\bibcite{jiang2014improving}{\citeauthoryear {Jiang, Singh, and Lewis}{2014}}
\bibcite{kocsis2006bandit}{\citeauthoryear {Kocsis and Szepesv{\'a}ri}{2006}}
\bibcite{ma2012manifold}{\citeauthoryear {Ma and Fu}{2012}}
\newlabel{fig:paramsens}{{5}{6}}
\bibcite{mahadevan2007proto}{\citeauthoryear {Mahadevan and Maggioni}{2007}}
\bibcite{mehat2010combining}{\citeauthoryear {M{\'e}hat and Cazenave}{2010}}
\bibcite{tenenbaum2000global}{\citeauthoryear {Tenenbaum, De\nobreakspace  {}Silva, and Langford}{2000}}
