-30.1831 25.3904
-29.4526 24.5296
-29.3316 24.7447
-28.7139 23.6894
-28.6006 23.8912
-28.4795 24.0982
-28.0887 22.6542
-27.8613 23.0578
-27.7479 23.2519
-27.626 23.45
-27.448 21.6598
-27.2349 22.0361
-27.0079 22.425
-26.8936 22.6108
-26.7702 22.7992
-26.9141 20.4904
-26.5928 21.0542
-26.38 21.4166
-26.1528 21.7905
-26.037 21.967
-25.9109 22.1446
-26.358 19.3812
-26.0567 19.9035
-25.7361 20.4468
-25.5231 20.795
-25.2952 21.1532
-25.1768 21.3194
-25.0467 21.4851
-25.9028 18.1158
-25.4981 18.8112
-25.1975 19.3142
-24.8773 19.8371
-24.6635 20.1704
-24.4339 20.5122
-24.3116 20.6671
-24.1762 20.8196
-25.4191 16.9284
-25.0396 17.5683
-24.6359 18.2384
-24.3357 18.7221
-24.0155 19.2242
-23.8 19.542
-23.5677 19.8667
-23.4401 20.0091
-23.2975 20.1473
-25.0309 15.6019
-24.552 16.4012
-24.1735 17.0175
-23.7708 17.6624
-23.4705 18.1266
-23.1496 18.6074
-22.9314 18.9091
-22.6951 19.2158
-22.5604 19.3448
-22.409 19.4675
-24.6082 14.3694
-24.1591 15.1001
-23.6816 15.87
-23.3039 16.4629
-22.902 17.0827
-22.6009 17.527
-22.2783 17.9862
-22.0562 18.2711
-21.8143 18.5591
-21.671 18.6737
-21.5087 18.7802
-24.2762 13.0132
-23.731 13.8901
-23.2832 14.5936
-22.8072 15.3346
-22.4302 15.904
-22.0284 16.4986
-21.7256 16.9228
-21.4003 17.36
-21.1727 17.6275
-20.9238 17.8962
-20.7698 17.9958
-20.5946 18.0853
-23.904 11.7646
-23.3927 12.561
-22.8494 13.4055
-22.4029 14.0822
-21.9283 14.7946
-21.5513 15.3406
-21.1489 15.91
-20.8434 16.3136
-20.514 16.7286
-20.2794 16.9783
-20.0216 17.2274
-19.8548 17.3114
-19.6646 17.3835
-23.6181 10.4056
-23.0137 11.3362
-22.504 12.1027
-21.9626 12.9154
-21.5174 13.5657
-21.0437 14.2497
-20.6661 14.7723
-20.2621 15.3164
-19.9525 15.6995
-19.6178 16.0921
-19.3743 16.3237
-19.1058 16.553
-18.9242 16.6212
-18.7166 16.6759
-23.2867 9.1656
-22.7197 10.0051
-22.1173 10.901
-21.6095 11.6383
-21.0701 12.4197
-20.6257 13.0438
-20.1524 13.6998
-19.7732 14.1991
-19.3666 14.7181
-19.0515 15.0806
-18.7097 15.4509
-18.4557 15.6644
-18.1744 15.8741
-17.9758 15.9265
-17.7486 15.964
-23.0375 7.82638
-22.3796 8.78913
-21.8146 9.5969
-21.2146 10.459
-20.7086 11.1676
-20.171 11.9184
-19.7268 12.5166
-19.2532 13.1449
-18.8712 13.6211
-18.4607 14.1155
-18.1386 14.4575
-17.7881 14.8059
-17.5215 15.0016
-17.2254 15.1921
-17.0076 15.2292
-16.7584 15.2501
-22.7376 6.61511
-22.1205 7.47762
-21.4651 8.40433
-20.9023 9.1812
-20.3049 10.0102
-19.8005 10.6907
-19.2642 11.4114
-18.8195 11.9843
-18.3445 12.5855
-17.9586 13.0391
-17.5427 13.5092
-17.212 13.8313
-16.8509 14.1584
-16.5698 14.3369
-16.2569 14.5089
-16.0175 14.5315
-15.744 14.5368
-22.5161 5.3136
-21.81 6.28991
-21.1952 7.11971
-20.5427 8.01136
-19.9823 8.75811
-19.3875 9.55492
-18.8842 10.2079
-18.3486 10.8993
-17.9025 11.4474
-17.425 12.0222
-17.0337 12.4538
-16.611 12.9005
-16.2699 13.2035
-15.8964 13.5102
-15.5987 13.6724
-15.2668 13.8271
-15.0037 13.8364
-14.7036 13.8276
-22.2389 4.14678
-21.5767 5.0152
-20.8734 5.95484
-20.2612 6.75288
-19.6119 7.61046
-19.0539 8.32792
-18.4613 9.0934
-17.9585 9.71972
-17.4228 10.3826
-16.9741 10.9068
-16.493 11.4561
-16.0948 11.8666
-15.6637 12.291
-15.3104 12.5759
-14.9227 12.8635
-14.6064 13.0108
-14.2534 13.1498
-13.9644 13.1474
-13.6355 13.1263
-22.0367 2.89662
-21.287 3.87072
-20.6272 4.70613
-19.9273 5.61023
-19.3182 6.37747
-18.6721 7.20204
-18.1161 7.89113
-17.5253 8.62631
-17.0223 9.2269
-16.4855 9.86243
-16.0331 10.3637
-15.5469 10.8888
-15.1403 11.2795
-14.6992 11.6829
-14.3318 11.9512
-13.928 12.2213
-13.591 12.3554
-13.215 12.4806
-12.8978 12.4687
-12.5381 12.4376
-21.774 1.78577
-21.0708 2.64579
-20.3242 3.58329
-19.6676 4.38679
-18.9715 5.25652
-18.3654 5.99402
-17.7225 6.78672
-17.168 7.44851
-16.5783 8.15461
-16.0741 8.73064
-15.5352 9.34013
-15.0777 9.81984
-14.585 10.3222
-14.1685 10.6945
-13.7156 11.0787
-13.3323 11.3323
-12.9105 11.587
-12.551 11.71
-12.15 11.8239
-11.8028 11.8049
-11.4104 11.7668
-21.583 0.596522
-20.7935 1.55544
-20.0931 2.38285
-19.3504 3.285
-18.6974 4.05773
-18.0054 4.89434
-17.4022 5.60326
-16.762 6.3654
-16.2085 7.00116
-15.619 7.67961
-15.1126 8.23248
-14.5704 8.81754
-14.1064 9.2773
-13.6059 9.75874
-13.1778 10.1147
-12.7114 10.4818
-12.3105 10.7227
-11.869 10.9645
-11.4851 11.0791
-11.0572 11.1845
-10.6783 11.1616
-10.2515 11.1198
-21.3269 -0.450776
-20.5864 0.389334
-19.8004 1.31236
-19.1037 2.10836
-18.3654 2.9765
-17.7162 3.71968
-17.0281 4.52456
-16.4275 5.20623
-15.7896 5.93933
-15.2362 6.55054
-14.6462 7.20301
-14.1364 7.73442
-13.5896 8.29695
-13.1178 8.73872
-12.6079 9.20146
-12.1666 9.54323
-11.6852 9.89584
-11.265 10.1268
-10.802 10.3586
-10.3921 10.4679
-9.9359 10.5681
-9.52361 10.5448
-9.06099 10.5033
-21.1393 -1.57324
-20.3135 -0.639764
-19.5763 0.16871
-18.7947 1.05722
-18.1022 1.82307
-17.3687 2.65862
-16.7232 3.37365
-16.039 4.14834
-15.4404 4.8043
-14.8042 5.51008
-14.25 6.09849
-13.6584 6.72694
-13.144 7.2389
-12.5915 7.78114
-12.1105 8.20723
-11.5898 8.65384
-11.1337 8.98414
-10.6357 9.32518
-10.1947 9.54933
-9.70883 9.77454
-9.27135 9.88198
-8.7855 9.98108
-8.33867 9.96147
-7.83921 9.92458
-20.8822 -2.55287
-20.1076 -1.7416
-19.2858 -0.842725
-18.5527 -0.0645938
-17.7763 0.790841
-17.0882 1.52795
-16.3596 2.3325
-15.7178 3.02093
-15.037 3.7672
-14.4399 4.39922
-13.8046 5.07967
-13.2487 5.6473
-12.6545 6.25401
-12.1343 6.74885
-11.5748 7.27341
-11.0831 7.68653
-10.5502 8.11998
-10.0779 8.44192
-9.56206 8.7748
-9.09878 8.99568
-8.58883 9.2182
-8.12267 9.32795
-7.60614 9.4303
-7.1239 9.41907
-6.58697 9.39191
-20.6906 -3.60599
-19.8316 -2.70568
-19.0608 -1.92453
-18.2439 -1.05882
-17.5156 -0.309636
-16.7447 0.514306
-16.0614 1.22424
-15.3376 1.99954
-14.699 2.66315
-14.0212 3.383
-13.4248 3.99312
-12.7896 4.65052
-12.2311 5.19973
-11.6331 5.7873
-11.106 6.26774
-10.5382 6.7776
-10.0346 7.18086
-9.4883 7.60456
-8.9986 7.92171
-8.46367 8.25032
-7.97706 8.47201
-7.44202 8.69625
-6.94634 8.81295
-6.39849 8.92357
-5.88042 8.92598
-5.30588 8.91418
-20.4252 -4.5169
-19.6196 -3.74096
-18.765 -2.87348
-17.9988 -2.1211
-17.1878 -1.287
-16.4648 -0.565236
-15.6997 0.228958
-15.021 0.913469
-14.3019 1.66152
-13.666 2.30232
-12.9906 2.99803
-12.3942 3.58859
-11.7583 4.22554
-11.196 4.75903
-10.5933 5.33044
-10.0581 5.79957
-9.48099 6.29812
-8.96426 6.69507
-8.4035 7.1129
-7.89534 7.42931
-7.34042 7.75804
-6.82966 7.98514
-6.26892 8.21607
-5.74329 8.34493
-5.16395 8.4694
-4.61013 8.49133
-3.9984 8.50116
-20.2226 -5.50091
-19.3331 -4.6392
-18.5315 -3.89142
-17.6825 -3.05528
-16.9219 -2.33018
-16.1172 -1.52599
-15.3998 -0.829929
-14.6407 -0.0635327
-13.9663 0.597543
-13.2516 1.32058
-12.618 1.94089
-11.9444 2.61502
-11.3471 3.18868
-10.7096 3.80813
-10.1426 4.32896
-9.53424 4.88758
-8.98988 5.34892
-8.40246 5.84
-7.8717 6.23466
-7.29562 6.65096
-6.76822 6.97119
-6.19274 7.30495
-5.6574 7.54262
-5.07076 7.78578
-4.51521 7.93259
-3.90473 8.07711
-3.31583 8.12505
-2.66795 8.16342
-19.9421 -6.34464
-19.1078 -5.60836
-18.2231 -4.77729
-17.4269 -4.05627
-16.5844 -3.24983
-15.8299 -2.55037
-15.032 -1.7742
-14.3203 -1.10192
-13.5671 -0.361144
-12.8968 0.278744
-12.1861 0.979285
-11.554 1.58171
-10.8816 2.23716
-10.2827 2.79694
-9.64273 3.40222
-9.07016 3.91385
-8.45528 4.46347
-7.90092 4.92097
-7.30243 5.40889
-6.75692 5.80575
-6.16497 6.22538
-5.61791 6.55453
-5.02166 6.89879
-4.46175 7.15277
-3.84951 7.41427
-3.26463 7.58546
-2.62395 7.75686
-2.00131 7.83793
-1.31904 7.91241
-19.7217 -7.26214
-18.8039 -6.44241
-17.9743 -5.73195
-17.0959 -4.92998
-16.3059 -4.23417
-15.4707 -3.45563
-14.7227 -2.77998
-13.9319 -2.02974
-13.2258 -1.37907
-12.4783 -0.661462
-11.8118 -0.0402252
-11.1045 0.640651
-10.4735 1.22814
-9.80162 1.86817
-9.20029 2.41746
-8.55721 3.01229
-7.9783 3.51861
-7.35622 4.06345
-6.79122 4.52156
-6.18115 5.0111
-5.62051 5.41518
-5.01248 5.84354
-4.44576 6.18726
-3.82899 6.54807
-3.24502 6.82467
-2.60804 7.11127
-1.99505 7.31388
-1.3258 7.51963
-0.671472 7.64164
0.0426208 7.76044
-19.4193 -8.04233
-18.5586 -7.34811
-17.6464 -6.55647
-16.8227 -5.8704
-15.9517 -5.09585
-15.1687 -4.42353
-14.3413 -3.6709
-13.6 -3.01699
-12.8164 -2.29032
-12.1158 -1.65883
-11.3738 -0.96165
-10.7107 -0.356209
-10.0065 0.308168
-9.37593 0.884029
-8.70394 1.51227
-8.09959 2.05488
-7.45281 2.6434
-6.867 3.14877
-6.23728 3.69353
-5.66127 4.15717
-5.03945 4.65364
-4.46364 5.07051
-3.83977 5.51355
-3.25384 5.87807
-2.61734 6.26208
-2.01043 6.56826
-1.35021 6.88731
-0.711016 7.12904
-0.0155838 7.37726
0.667533 7.54867
1.41001 7.72069
-19.1747 -8.89782
-18.2308 -8.12161
-17.3753 -7.45056
-16.4701 -6.68547
-15.6535 -6.02221
-14.7907 -5.27321
-14.0152 -4.62244
-13.1961 -3.89349
-12.4617 -3.259
-11.6853 -2.55328
-10.9899 -1.93822
-10.2533 -1.25842
-9.59306 -0.665573
-8.89154 -0.0141656
-8.26091 0.553765
-7.58841 1.17426
-6.98055 1.71444
-6.32972 2.30124
-5.73669 2.81048
-5.09917 3.36038
-4.51214 3.83501
-3.87878 4.34425
-3.28822 4.78004
-2.64924 5.24431
-2.04513 5.63647
-1.39029 6.05093
-0.76221 6.39428
-0.0809768 6.75381
0.581713 7.04301
1.3001 7.34248
2.00818 7.56581
2.77495 7.78714
-18.8441 -9.61975
-17.9591 -8.96832
-17.0214 -8.21738
-16.1727 -7.56807
-15.2757 -6.82781
-14.467 -6.18557
-13.6131 -5.46004
-12.8455 -4.82864
-12.0349 -4.12089
-11.3075 -3.50322
-10.5382 -2.81552
-9.84799 -2.21382
-9.11638 -1.54799
-8.45874 -0.964169
-7.75955 -0.321811
-7.1285 0.242306
-6.4552 0.859535
-5.84359 1.40198
-5.1886 1.99216
-4.58835 2.5106
-3.94325 3.07136
-3.3456 3.56299
-2.70137 4.09144
-2.09702 4.55285
-1.44422 5.04549
-0.823567 5.47276
-0.152472 5.92559
0.494249 6.31434
1.19347 6.72301
1.87606 7.0623
2.61355 7.40946
3.34286 7.681
4.13027 7.94787
-18.5692 -10.4192
-17.601 -9.68649
-16.7219 -9.05532
-15.792 -8.32812
-14.9513 -7.69893
-14.0635 -6.98159
-13.2634 -6.35836
-12.419 -5.65397
-11.6597 -5.03951
-10.8578 -4.35017
-10.1373 -3.7464
-9.37514 -3.07347
-8.68982 -2.48171
-7.96309 -1.82607
-7.30779 -1.24731
-6.61076 -0.609657
-5.9791 -0.0447931
-5.30497 0.574118
-4.68963 1.12402
-4.0307 1.72317
-3.42362 2.25668
-2.77159 2.8346
-2.16418 3.34981
-1.51031 3.90446
-0.893704 4.39885
-0.229024 4.92763
0.405794 5.39811
1.09031 5.89784
1.75229 6.33472
2.46587 6.78929
3.16486 7.17531
3.91804 7.5667
4.66528 7.88289
5.47013 8.19164
-18.2045 -11.0893
-17.2968 -10.48
-16.3357 -9.76954
-15.4641 -9.15724
-14.5435 -8.45204
-13.7117 -7.84116
-12.834 -7.14459
-12.0431 -6.5381
-11.2086 -5.85226
-10.4577 -5.25198
-9.66468 -4.57798
-8.95114 -3.98486
-8.19609 -3.32308
-7.51559 -2.73746
-6.79367 -2.08783
-6.14063 -1.50972
-5.44578 -0.871992
-4.81361 -0.301345
-4.13888 0.324687
-3.52021 0.887761
-2.85796 1.50201
-2.24488 2.05703
-1.58705 2.65896
-0.97135 3.20493
-0.309652 3.79343
0.316996 4.32874
0.990877 4.90206
1.63669 5.41858
2.3312 5.96227
3.00516 6.44422
3.7299 6.94156
4.44222 7.37106
5.20812 7.80338
5.97039 8.16077
6.78989 8.5079
-17.8934 -11.8396
-16.9027 -11.1491
-16.0017 -10.557
-15.0494 -9.86726
-14.1867 -9.2722
-13.2764 -8.58707
-12.4544 -7.99244
-11.5875 -7.31423
-10.8063 -6.72195
-9.98208 -6.05175
-9.23988 -5.4626
-8.45586 -4.80051
-7.74931 -4.21441
-7.00144 -3.55979
-6.32577 -2.97608
-5.60877 -2.32786
-4.95813 -1.74554
-4.26576 -1.10247
-3.63346 -0.520499
-2.95876 0.118613
-2.33755 0.701119
-1.67308 1.33717
-1.05536 1.92071
-0.393458 2.55411
0.228467 3.13864
0.895469 3.76922
1.52917 4.34835
2.20903 4.96357
2.86275 5.52336
3.56427 6.1082
4.24734 6.63229
4.98049 7.16942
5.70345 7.63929
6.47948 8.10936
7.25426 8.50468
8.08594 8.88683
-17.4891 -12.4653
-16.5603 -11.8961
-15.5776 -11.2247
-14.6852 -10.6484
-13.7431 -9.97767
-12.8905 -9.39803
-11.9915 -8.73079
-11.18 -8.15007
-10.3246 -7.48756
-9.55338 -6.90662
-8.73986 -6.24885
-8.00652 -5.66741
-7.23177 -5.01342
-6.53234 -4.43034
-5.79187 -3.77846
-5.12124 -3.19201
-4.40952 -2.54012
-3.7617 -1.94826
-3.07243 -1.29408
-2.44079 -0.694716
-1.76716 -0.0360184
-1.14469 0.57275
-0.47963 1.23787
0.140772 1.85755
0.804364 2.5305
1.42969 3.15653
2.09896 3.82682
2.73681 4.44729
3.41986 5.10188
4.07881 5.70232
4.78477 6.32563
5.47447 6.88908
6.21362 7.46315
6.94491 7.97043
7.72883 8.47524
8.51393 8.90532
9.35569 9.31927
-17.1363 -13.1739
-16.1247 -12.5233
-15.2036 -11.9681
-14.2307 -11.3143
-13.3482 -10.7522
-12.4177 -10.0985
-11.5762 -9.53221
-10.6895 -8.88041
-9.88914 -8.311
-9.0457 -7.66118
-8.28496 -7.0884
-7.48251 -6.43949
-6.75831 -5.86196
-5.99315 -5.21189
-5.30115 -4.62738
-4.5685 -3.97339
-3.90338 -3.37907
-3.19759 -2.71796
-2.55336 -2.1107
-1.86821 -1.43911
-1.23845 -0.815737
-0.567455 -0.130379
0.0544057 0.51207
0.717813 1.21414
1.33823 1.87292
2.00065 2.5833
2.62665 3.24862
3.29557 3.95638
3.93507 4.61584
4.61891 5.30742
5.2808 5.94601
5.98898 6.60524
6.68318 7.20541
7.4263 7.81371
8.16393 8.3556
8.95382 8.89226
9.74736 9.35411
10.5974 9.79678
-16.6872 -13.7629
-15.7389 -13.231
-14.7363 -12.5961
-13.8248 -12.0536
-12.8633 -11.4157
-11.9921 -10.866
-11.0743 -10.2272
-10.2447 -9.67188
-9.37111 -9.03277
-8.58249 -8.47172
-7.75164 -7.83126
-7.00179 -7.2631
-6.21087 -6.61909
-5.49623 -6.04128
-4.74118 -5.39051
-4.05713 -4.79968
-3.33297 -4.13826
-2.67415 -3.53045
-1.97529 -2.85406
-1.33584 -2.225
-0.656316 -1.52915
-0.0302078 -0.874568
0.636024 -0.154889
1.25476 0.52421
1.9138 1.26135
2.53167 1.95727
3.19045 2.70309
3.8148 3.4056
4.48112 4.1487
5.12016 4.84494
5.80273 5.57124
6.4656 6.24564
7.17415 6.93841
7.87104 7.57278
8.61638 8.21277
9.35866 8.78659
10.1529 9.35237
10.9533 9.84313
11.8099 10.3116
-16.2879 -14.4376
-15.2567 -13.8236
-14.3172 -13.3024
-13.3255 -12.6819
-12.4252 -12.1505
-11.4767 -11.5266
-10.6179 -10.9872
-9.71391 -10.3608
-8.89707 -9.81377
-8.03726 -9.18428
-7.26102 -8.62831
-6.44337 -7.99352
-5.70495 -7.42604
-4.92617 -6.78256
-4.22168 -6.19984
-3.47747 -5.54331
-2.80218 -4.94079
-2.08754 -4.26613
-1.43618 -3.63867
-0.74569 -2.94039
-0.112723 -2.28258
0.55915 -1.55505
1.17922 -0.866303
1.83811 -0.113968
2.45131 0.600032
3.10365 1.37048
3.7168 2.10167
4.36985 2.88104
4.99057 3.61879
5.6524 4.39524
6.28918 5.12618
6.96878 5.8851
7.631 6.5931
8.33832 7.31715
9.0364 7.98339
9.7825 8.65265
10.528 9.25588
11.3252 9.8482
12.131 10.3652
12.993 10.8567
-15.7892 -14.9976
-14.8228 -14.4994
-13.8018 -13.8978
-12.873 -13.3861
-11.8941 -12.7784
-11.0063 -12.2563
-10.072 -11.6442
-9.22675 -11.1127
-8.33757 -10.4959
-7.5343 -9.95417
-6.68912 -9.3309
-5.92592 -8.77635
-5.12221 -8.14316
-4.3959 -7.57199
-3.63006 -6.92427
-2.93658 -6.33154
-2.20423 -5.66369
-1.53886 -5.04361
-0.835146 -4.34936
-0.192871 -3.69558
0.487283 -2.96824
1.1115 -2.27876
1.77327 -1.52103
2.38501 -0.799671
3.03438 -0.0162495
3.63998 0.73101
4.28368 1.53309
4.89027 2.29784
5.53583 3.10901
6.15128 3.88018
6.80706 4.68812
7.44008 5.45183
8.11529 6.2414
8.7755 6.98094
9.48032 7.73417
10.1783 8.43006
10.924 9.12634
11.6715 9.75661
12.4705 10.373
13.2806 10.9136
14.1468 11.4255
-15.3388 -15.6462
-14.2895 -15.0647
-13.333 -14.5739
-12.3243 -13.9834
-11.408 -13.4798
-10.4435 -12.8829
-9.56967 -12.3681
-8.65083 -11.7653
-7.82006 -11.2391
-6.94665 -10.6288
-6.1578 -10.089
-5.32809 -9.46812
-4.57873 -8.91093
-3.78984 -8.27483
-3.07656 -7.69519
-2.32474 -7.03796
-1.64341 -6.42964
-0.924333 -5.74443
-0.27046 -5.10038
0.420449 -4.37967
1.05146 -3.69671
1.71895 -2.94162
2.33225 -2.22186
2.98185 -1.43531
3.58334 -0.6828
4.22133 0.130244
4.81764 0.909239
5.45106 1.74143
6.04957 2.53813
6.68621 3.37948
7.29503 4.18238
7.94348 5.02011
8.57154 5.81479
9.24121 6.63319
9.8983 7.40235
10.5996 8.1828
11.2964 8.90628
12.0407 9.62748
12.7892 10.2825
13.5891 10.9208
14.4025 11.4826
15.2719 12.0125
-14.7862 -16.1848
-13.803 -15.7159
-12.7652 -15.1436
-11.8208 -14.6591
-10.8263 -14.0782
-9.92404 -13.5808
-8.97539 -12.9927
-8.11678 -12.4828
-7.21459 -11.8865
-6.39935 -11.3624
-5.54273 -10.7552
-4.7692 -10.2135
-3.95597 -9.59094
-3.22143 -9.02663
-2.44848 -8.38269
-1.7494 -7.78929
-1.01298 -7.11682
-0.345368 -6.48681
0.358615 -5.77767
0.998903 -5.10689
1.67477 -4.36088
2.29245 -3.64996
2.9453 -2.86837
3.54586 -2.11962
4.18155 -1.30554
4.77119 -0.52322
5.3963 0.3181
5.98191 1.12743
6.60374 1.98831
7.19294 2.8155
7.81951 3.68556
8.42062 4.51863
9.06071 5.38457
9.68284 6.20859
10.3461 7.05413
10.9991 7.85115
11.696 8.65702
12.3909 9.40618
13.1329 10.1503
13.8817 10.8281
14.6816 11.4861
15.4975 12.0669
16.3694 12.6123
-14.2807 -16.8144
-13.2146 -16.261
-12.2427 -15.7964
-11.2187 -15.232
-10.2881 -14.7525
-9.30967 -14.1794
-8.42299 -13.6863
-7.49163 -13.1043
-6.6494 -12.5966
-5.76507 -12.0037
-4.96641 -11.4784
-4.12769 -10.8704
-3.37056 -10.3228
-2.57499 -9.69385
-1.85649 -9.11748
-1.10089 -8.46028
-0.417539 -7.84737
0.301683 -7.1534
0.95357 -6.49904
1.6403 -5.76701
2.26503 -5.0706
2.92396 -4.3004
3.52659 -3.56269
4.16316 -2.75574
4.74949 -1.97918
5.36985 -1.13877
5.94634 -0.327864
6.55735 0.540503
7.13115 1.37889
7.74033 2.26719
8.31925 3.12353
8.93484 4.02095
9.5274 4.88279
10.1583 5.77553
10.7738 6.62737
11.4299 7.49853
12.0782 8.32178
12.77 9.15142
13.4624 9.92448
14.2015 10.6898
14.9499 11.3884
15.7492 12.0641
16.5668 12.6617
17.4405 13.2206
-13.6706 -17.3385
-12.6718 -16.8943
-11.6188 -16.3469
-10.6603 -15.8855
-9.65214 -15.3277
-8.73733 -14.8514
-7.7765 -14.284
-6.90683 -13.7927
-5.99413 -13.2143
-5.16952 -12.7057
-4.30428 -12.1127
-3.52339 -11.5824
-2.70384 -10.9693
-1.96439 -10.4112
-1.18792 -9.77077
-0.486977 -9.17693
0.249504 -8.50057
0.91516 -7.86561
1.6151 -7.15111
2.24936 -6.4734
2.91703 -5.71948
3.52454 -4.99848
4.16498 -4.20512
4.75115 -3.44167
5.3701 -2.61041
5.94098 -1.80714
6.54489 -0.941463
7.10721 -0.103082
7.70316 0.791231
8.26428 1.65754
8.86002 2.57211
9.42793 3.45641
10.0319 4.37999
10.6152 5.26933
11.2365 6.18757
11.8447 7.06588
12.493 7.96128
13.1362 8.80928
13.8225 9.66117
14.5117 10.4565
15.2475 11.2413
15.9949 11.959
16.7931 12.6506
17.612 13.2631
18.4868 13.8335
-13.1064 -17.9558
-12.025 -17.4257
-11.039 -16.9827
-10.0014 -16.4402
-9.05845 -15.9807
-8.06803 -15.4277
-7.17057 -14.9527
-6.229 -14.3885
-5.37773 -13.8965
-4.48511 -13.3184
-3.67941 -12.8055
-2.83465 -12.2085
-2.07287 -11.669
-1.27397 -11.0462
-0.55374 -10.4724
0.201873 -9.81511
0.883322 -9.2014
1.59865 -8.50677
2.24477 -7.85068
2.92367 -7.11655
3.53872 -6.41645
4.18582 -5.64158
4.77479 -4.89695
5.39546 -4.08136
5.96403 -3.29315
6.56432 -2.43853
7.11882 -1.6095
7.7054 -0.719523
8.25278 0.145348
8.83297 1.06463
9.38077 1.95784
9.96248 2.89768
10.5189 3.80887
11.1107 4.75754
11.6844 5.67327
12.2955 6.61588
12.896 7.51944
13.5364 8.43783
14.174 9.30927
14.8544 10.1821
15.5401 10.9983
16.2722 11.8011
17.0182 12.5361
17.815 13.242
18.6346 13.8677
19.5101 14.4477
-12.4357 -18.4716
-11.4227 -18.0472
-10.3559 -17.52
-9.38512 -17.0773
-8.36506 -16.5383
-7.43963 -16.0792
-6.4688 -15.5289
-5.59031 -15.0529
-4.66957 -14.4893
-3.83815 -13.9934
-2.96711 -13.4122
-2.18176 -12.8912
-1.35902 -12.2859
-0.617929 -11.7326
0.158542 -11.0948
0.857659 -10.5033
1.59042 -9.82984
2.25058 -9.19715
2.94304 -8.48509
3.56809 -7.80876
4.2245 -7.05587
4.81905 -6.33426
5.44438 -5.53929
6.01373 -4.77191
6.61365 -3.93494
7.16376 -3.12282
7.74457 -2.24567
8.282 -1.39175
8.85062 -0.478297
9.3825 0.412204
9.94643 1.35561
10.4805 2.27484
11.0478 3.23907
11.5923 4.17624
12.1716 5.14908
12.7354 6.0902
13.3362 7.05619
13.9288 7.98393
14.5609 8.92424
15.1927 9.81792
15.867 10.7104
16.549 11.5462
17.2772 12.3657
18.0215 13.1167
18.8165 13.8354
19.6364 14.4725
20.5122 15.0606
-11.8101 -19.0823
-10.7146 -18.5705
-9.71613 -18.1443
-8.66654 -17.6191
-7.71306 -17.1755
-6.71269 -16.6384
-5.80657 -16.1778
-4.8571 -15.6279
-3.99919 -15.1483
-3.10092 -14.5821
-2.2909 -14.0791
-1.44306 -13.4908
-0.679687 -12.9575
0.119225 -12.3392
0.837739 -11.7699
1.58981 -11.1181
2.26604 -10.5096
2.97425 -9.82079
3.61163 -9.16996
4.27982 -8.44129
4.88255 -7.74555
5.51531 -6.9747
6.08834 -6.23238
6.69096 -5.41808
7.23987 -4.62872
7.8183 -3.77113
8.34931 -2.93585
8.91009 -2.03689
9.42995 -1.15881
9.98019 -0.2226
10.4962 0.692797
11.0436 1.65961
11.5636 2.60412
12.1163 3.592
12.6487 4.55435
13.2155 5.55059
13.7693 6.51626
14.3595 7.50478
14.9442 8.45578
15.5679 9.41708
16.1938 10.332
16.8618 11.2432
17.5399 12.0973
18.264 12.9323
19.0064 13.698
19.7994 14.4282
20.6193 15.0754
21.4952 15.6701
-11.0761 -19.5949
-10.0504 -19.1853
-8.97146 -18.6735
-7.98995 -18.2448
-6.95992 -17.7203
-6.02584 -17.2744
-5.04717 -16.7373
-4.16214 -16.273
-3.23584 -15.7209
-2.40018 -15.2347
-1.52612 -14.6625
-0.739187 -14.1484
0.0836025 -13.5488
0.823096 -13.0013
1.59622 -12.3708
2.29039 -11.7864
3.01639 -11.1213
3.66825 -10.4966
4.35053 -9.79335
4.9639 -9.12516
5.60668 -8.38065
6.18611 -7.66627
6.79431 -6.87817
7.34505 -6.11587
7.92427 -5.28293
8.45217 -4.47226
9.00859 -3.59468
9.52007 -2.73689
10.0605 -1.81673
10.5625 -0.915111
11.0941 0.0432732
11.5941 0.982958
12.1248 1.9726
12.6307 2.94176
13.1687 3.95269
13.689 4.93959
14.2432 5.95858
14.7869 6.9481
15.3667 7.95847
15.9433 8.93195
16.5588 9.91346
17.1786 10.8487
17.8405 11.7777
18.5145 12.6492
19.2345 13.4988
19.9749 14.278
20.7657 15.0186
21.5854 15.6747
22.461 16.2747
-10.3869 -20.2035
-9.27888 -19.705
-8.26948 -19.2909
-7.20975 -18.7783
-6.24754 -18.3461
-5.23932 -17.8209
-4.32665 -17.3708
-3.37165 -16.8315
-2.50953 -16.3611
-1.60825 -15.8037
-0.796629 -15.3075
0.0513307 -14.7254
0.81324 -14.1987
1.609 -13.5885
2.32285 -13.0277
3.0685 -12.3857
3.73686 -11.7872
4.43539 -11.1095
5.06168 -10.4695
5.71691 -9.75244
6.30532 -9.06766
6.9218 -8.30799
7.4772 -7.57566
8.06018 -6.77096
8.58809 -5.98931
9.14342 -5.1383
9.64993 -4.30691
10.184 -3.40987
10.6758 -2.53009
11.1956 -1.58923
11.6796 -0.664569
12.1926 0.315524
12.6765 1.27902
13.1905 2.29103
13.6823 3.28436
14.2058 4.31788
14.714 5.32882
15.2558 6.37007
15.7895 7.38289
16.3589 8.41455
16.9276 9.4099
17.5349 10.411
18.1488 11.3659
18.8045 12.312
19.4746 13.2001
20.1904 14.0633
20.9286 14.8552
21.7172 15.6052
22.5364 16.269
23.4116 16.8733
-9.58798 -20.7169
-8.55089 -20.317
-7.46154 -19.8158
-6.4711 -19.3966
-5.43308 -18.8822
-4.4924 -18.4453
-3.50815 -17.9176
-2.61888 -17.4613
-1.68954 -16.9173
-0.852228 -16.4377
0.0220482 -15.8716
0.807663 -15.3642
1.6275 -14.7731
2.3626 -14.2346
3.12963 -13.6147
3.81635 -13.0414
4.53314 -12.3887
5.17448 -11.7767
5.84443 -11.0873
6.4442 -10.4327
7.0715 -9.70257
7.63422 -9.00187
8.22376 -8.22769
8.75461 -7.47801
9.31192 -6.65727
9.81666 -5.8568
10.3478 -4.98822
10.8328 -4.13658
11.3444 -3.2205
11.8163 -2.31916
12.3155 -1.35797
12.7817 -0.410632
13.276 0.590831
13.744 1.57778
14.2415 2.61184
14.7194 3.62899
15.2285 4.68478
15.7249 5.71938
16.2544 6.78255
16.7783 7.81826
17.3376 8.87082
17.8986 9.88756
18.4978 10.9078
19.1059 11.8818
19.7556 12.8444
20.4218 13.7484
21.1335 14.6247
21.8695 15.4285
22.6558 16.1871
23.4745 16.8578
24.3491 17.4654
-8.8335 -21.3267
-7.71466 -20.8364
-6.69602 -20.4295
-5.62807 -19.9251
-4.65909 -19.5
-3.64517 -18.9826
-2.72819 -18.5392
-1.77007 -18.0069
-0.906216 -17.5421
-0.00461711 -16.9904
0.805849 -16.5006
1.65106 -15.9268
2.40884 -15.4089
3.19882 -14.8096
3.9056 -14.2602
4.64249 -13.6314
5.30085 -13.0465
5.98764 -12.384
6.601 -11.7593
7.24149 -11.0589
7.81402 -10.3904
8.41275 -9.64782
8.94928 -8.93181
9.51145 -8.14367
10.0174 -7.37717
10.5488 -6.54086
11.0302 -5.72201
11.5371 -4.83624
12.0005 -3.96472
12.4897 -3.02992
12.9419 -2.10731
13.4207 -1.12604
13.869 -0.156294
14.345 0.866327
14.7973 1.8765
15.2785 2.93242
15.7428 3.97318
16.2378 5.05105
16.7226 6.10909
17.2402 7.19398
17.7546 8.25231
18.3041 9.32552
18.8575 10.3633
19.449 11.4024
20.0515 12.3951
20.6954 13.3738
21.3578 14.2933
22.0656 15.1822
22.7994 15.9972
23.5835 16.7639
24.4015 17.4407
25.2754 18.0509
-7.96861 -21.8434
-6.92184 -21.4483
-5.82393 -20.953
-4.82648 -20.5388
-3.78258 -20.0303
-2.83743 -19.5983
-1.84995 -19.0762
-0.958828 -18.6245
-0.0290403 -18.0852
0.807277 -17.611
1.679 -17.0526
2.46074 -16.5535
3.2751 -15.9728
4.00349 -15.4455
4.76215 -14.8389
5.43935 -14.2795
6.14492 -13.6427
6.77395 -13.0469
7.42984 -12.3754
8.0145 -11.7388
8.62488 -11.028
9.16967 -10.3462
9.7394 -9.59183
10.2494 -8.86106
10.784 -8.05943
11.265 -7.27655
11.7703 -6.42504
12.2284 -5.58817
12.7112 -4.68549
13.153 -3.79434
13.62 -2.84103
14.0527 -1.89734
14.5113 -0.896139
14.9422 0.095886
15.4001 1.13958
15.837 2.17288
16.3024 3.25061
16.7534 4.31489
17.2347 5.41479
17.7084 6.49618
18.2144 7.60271
18.7197 8.68355
19.2598 9.77732
19.806 10.8361
20.39 11.8938
20.9871 12.905
21.6256 13.8996
22.2843 14.8342
22.9883 15.7353
23.7201 16.5612
24.5019 17.3355
25.3193 18.0179
26.1923 18.6301
-7.14819 -22.456
-6.02033 -21.9692
-4.99433 -21.565
-3.92023 -21.0644
-2.94659 -20.6423
-1.92928 -20.1288
-1.0103 -19.6883
-0.051592 -19.1597
0.811437 -18.6991
1.71067 -18.1539
2.5175 -17.6714
3.35749 -17.1072
4.10888 -16.5998
4.89086 -16.0133
5.58855 -15.4775
6.31469 -14.8645
6.9613 -14.2961
7.63462 -13.6521
8.23357 -13.0463
8.85788 -12.3664
9.41333 -11.7186
9.99316 -10.998
10.5099 -10.3036
11.0504 -9.53786
11.5338 -8.79279
12.0407 -7.97808
12.4967 -7.17917
12.9762 -6.31274
13.4111 -5.45809
13.8698 -4.5387
14.2905 -3.62808
14.7356 -2.65634
15.1491 -1.69166
15.5879 -0.670531
16.0017 0.343754
16.4421 1.40855
16.864 2.46501
17.314 3.56461
17.7522 4.65246
18.2203 5.77447
18.6833 6.87926
19.1782 8.00752
19.6747 9.11089
20.2059 10.2253
20.7452 11.3049
21.3222 12.3813
21.9143 13.4108
22.5475 14.4213
23.2028 15.3709
23.9033 16.2841
24.6331 17.1204
25.4129 17.9021
26.2295 18.5897
27.1018 19.2036
-6.21702 -22.9768
-5.16245 -22.5819
-4.05805 -22.0881
-3.05567 -21.6748
-2.00817 -21.1682
-1.06086 -20.7374
-0.0726312 -20.2174
0.817832 -19.7684
1.74544 -19.2343
2.57832 -18.766
3.44506 -18.216
4.22069 -17.7262
5.02735 -17.1574
5.74702 -16.6429
6.49535 -16.0515
7.16128 -15.5082
7.8539 -14.8898
8.46914 -14.3131
9.1095 -13.6627
9.67783 -13.0477
10.2701 -12.3601
10.796 -11.7018
11.345 -10.972
11.8336 -10.2654
12.3448 -9.48879
12.8016 -8.72981
13.2809 -7.90231
13.7121 -7.08764
14.1659 -6.20649
14.578 -5.33421
15.0131 -4.39817
15.4129 -3.46814
15.8365 -2.47796
16.2313 -1.49225
16.6509 -0.45111
17.0481 0.585534
17.4714 1.6716
17.879 2.75135
18.3141 3.87303
18.7401 4.98461
19.1955 6.12897
19.6482 7.25732
20.1327 8.40752
20.621 9.53357
21.1436 10.6688
21.6766 11.7694
22.247 12.8646
22.8344 13.9125
23.4628 14.9389
24.1149 15.9034
24.8121 16.8286
25.54 17.6754
26.318 18.4643
27.1338 19.1568
28.0053 19.7722
-5.3307 -23.5923
-4.19593 -23.1045
-3.16467 -22.6988
-2.08673 -22.198
-1.11072 -21.7752
-0.0924969 -21.262
0.825994 -20.8226
1.78268 -20.2973
2.64246 -19.841
3.53691 -19.3027
4.33785 -18.8279
5.17039 -18.2742
5.91338 -17.7784
6.68535 -17.206
7.37217 -16.6854
8.0858 -16.0902
8.71913 -15.5404
9.37748 -14.9174
9.96075 -14.3334
10.5677 -13.6774
11.105 -13.0539
11.665 -12.3594
12.1612 -11.691
12.6794 -10.9526
13.1398 -10.2343
13.6218 -9.44711
14.0522 -8.67452
14.5042 -7.83447
14.9109 -7.00421
15.3394 -6.10845
15.729 -5.21859
16.141 -4.2659
16.5205 -3.3164
16.9231 -2.30766
17.2998 -1.30078
17.7006 -0.239418
18.0819 0.819796
18.4888 1.9274
18.8825 3.03071
19.3035 4.17478
19.7178 5.3104
20.1612 6.47743
20.6043 7.62964
21.0788 8.80213
21.5594 9.95115
22.0741 11.1074
22.6011 12.2293
23.1654 13.3436
23.7485 14.4102
24.3725 15.4527
25.0218 16.4321
25.7161 17.3696
26.4423 18.2267
27.2186 19.0229
28.0337 19.7202
28.9045 20.3369
-4.33382 -24.1162
-3.27361 -23.7174
-2.16506 -23.2211
-1.16009 -22.8049
-0.1115 -22.2968
0.835486 -21.865
1.82184 -21.3465
2.7092 -20.8998
3.63216 -20.3707
4.45934 -19.9084
5.31882 -19.3671
6.08627 -18.8872
6.88317 -18.3311
7.59229 -17.8305
8.32845 -17.2557
8.98151 -16.7301
9.65962 -16.1321
10.2597 -15.5768
10.8832 -14.9502
11.4342 -14.3597
12.0073 -13.6988
12.5135 -13.0674
13.0411 -12.3665
13.5076 -11.6887
13.995 -10.942
14.4275 -10.2124
14.8805 -9.41498
15.2849 -8.62902
15.7099 -7.77656
16.0926 -6.93081
16.4963 -6.02043
16.864 -5.11297
17.2533 -4.1435
17.6131 -3.17439
17.9954 -2.14687
18.3546 -1.11858
18.7374 -0.0366846
19.1034 1.04541
19.4946 2.17494
19.8752 3.30219
20.2827 4.46908
20.6859 5.62912
21.118 6.81929
21.5521 7.99578
22.0174 9.19102
22.4908 10.3634
22.9982 11.5413
23.5199 12.6847
24.0787 13.8185
24.6579 14.9039
25.2779 15.9629
25.9246 16.9575
26.6163 17.9074
27.3412 18.7751
28.1159 19.5786
28.9305 20.2807
29.8007 20.8987
-3.38249 -24.7328
-2.24324 -24.2402
-1.20913 -23.8293
-0.129917 -23.3248
0.84592 -22.8989
1.86239 -22.385
2.77789 -21.9457
3.73003 -21.4234
4.58421 -20.9709
5.47151 -20.4394
6.26442 -19.9726
7.08736 -19.4298
7.82 -18.9462
8.58004 -18.3889
9.25429 -17.8847
9.95374 -17.3087
10.5723 -16.7793
11.2143 -16.1795
11.7807 -15.6196
12.3691 -14.9902
12.8874 -14.394
13.4267 -13.729
13.9018 -13.0904
14.397 -12.3837
14.8341 -11.6968
15.2909 -10.9424
15.6957 -10.2017
16.1202 -9.39424
16.4989 -8.59506
16.8975 -7.73026
17.2567 -6.86903
17.6362 -5.94395
17.9826 -5.01877
18.35 -4.03233
18.6908 -3.04337
19.0535 -1.99674
19.3959 -0.946718
19.7615 0.15613
20.1129 1.26153
20.4891 2.41346
20.8574 3.56511
21.2522 4.75536
21.6451 5.94034
22.0667 7.15421
22.4924 8.35549
22.9492 9.57404
23.4161 10.7703
23.9169 11.9702
24.4337 13.1357
24.9875 14.2895
25.5634 15.3942
26.1799 16.4701
26.8245 17.4802
27.514 18.4428
28.2377 19.3212
29.0112 20.1323
29.8253 20.8392
30.695 21.4587
-2.32134 -25.2572
-1.258 -24.8507
-0.147978 -24.3486
0.856958 -23.9269
1.90388 -23.4159
2.84795 -22.9819
3.82978 -22.464
4.71159 -22.0189
5.62743 -21.4943
6.44662 -21.0378
7.29655 -20.5053
8.05375 -20.0356
8.83883 -19.4927
9.53556 -19.0067
10.2577 -18.4497
10.8963 -17.9431
11.5584 -17.3671
12.142 -16.8349
12.7474 -16.2344
13.2799 -15.6708
13.8329 -15.0396
14.3187 -14.4384
14.8241 -13.77
15.2681 -13.1248
15.7313 -12.4126
16.1392 -11.7172
16.5658 -10.9552
16.9435 -10.2038
17.3399 -9.38644
17.6936 -8.57412
18.0663 -7.69697
18.4027 -6.82019
18.7587 -5.88027
19.0845 -4.93716
19.4308 -3.93345
19.7533 -2.92432
20.0973 -1.8582
20.4237 -0.786009
20.7728 0.338287
21.1106 1.46748
21.4727 2.64239
21.8294 3.819
22.2123 5.03324
22.5957 6.24375
23.0075 7.48197
23.4257 8.70864
23.8747 9.95116
24.3358 11.1718
24.8306 12.3945
25.3432 13.5826
25.8926 14.7569
26.4657 15.8814
27.0792 16.9746
27.7221 18.0007
28.4098 18.9764
29.1326 19.8657
29.9052 20.6847
30.7189 21.3966
31.5882 22.0176
-1.30678 -25.871
-0.165864 -25.3702
0.868333 -24.9515
1.94594 -24.4417
2.91887 -24.011
3.93079 -23.4953
4.8407 -23.0551
5.78564 -22.5348
6.63179 -22.0858
7.50947 -21.5607
8.29211 -21.1018
9.10321 -20.5701
9.82348 -20.099
10.5696 -19.5576
11.2295 -19.0705
11.9131 -18.5151
12.5154 -18.0075
13.1396 -17.4326
13.6879 -16.8988
14.2565 -16.2985
14.755 -15.7322
15.2726 -15.0999
15.7259 -14.4945
16.1976 -13.8232
16.611 -13.1719
17.0423 -12.4549
17.4215 -11.7512
17.8185 -10.982
18.1696 -10.22
18.5386 -9.39284
18.8679 -8.56741
19.2156 -7.67783
19.5298 -6.78537
19.8631 -5.83038
20.1692 -4.86908
20.4952 -3.84774
20.8003 -2.81806
21.1264 -1.73195
21.4377 -0.637109
21.7714 0.509209
22.0962 1.66277
22.4451 2.86131
22.7911 4.06351
23.1631 5.30244
23.5378 6.53914
23.9407 7.80244
24.3521 9.05517
24.7941 10.3224
25.2502 11.5682
25.7397 12.8143
26.2488 14.0255
26.7945 15.221
27.3652 16.3659
27.9764 17.477
28.618 18.5194
29.3043 19.5087
30.0265 20.4093
30.7985 21.2364
31.6121 21.9534
32.4811 22.5761
