0.302596 -0.880342 -0.614942 -0.148776 -0.0384506 0.0387365 -0.0199046
1.16271 -0.21852 -0.0426468 -0.0142434 -0.00483794 -0.00848609 -0.110503
-0.383873 -1.30255 0.109584 -0.113204 0.0896945 0.0664968 -0.0556038
