-23.4089 -2.2179 1.76911 -0.372229 1.06019 0.606012 -0.987044
-22.3383 -2.05438 1.23905 -0.176119 1.33815 0.278369 -0.793741
-22.3941 -2.16532 1.70975 -0.377087 1.04138 0.60895 -0.940707
-21.2804 -1.90688 0.798842 -0.0218052 1.53077 0.0844768 -0.65605
-21.332 -2.01641 1.22798 -0.200695 1.29899 0.320116 -0.779367
-21.376 -2.11128 1.65409 -0.383854 1.01973 0.619281 -0.896242
-20.3207 0.541964 -2.79829 0.859294 -0.700826 -1.5679 0.950825
-20.2813 -1.88318 0.832537 -0.0640291 1.48018 0.156674 -0.671483
-20.3219 -1.97722 1.22356 -0.228386 1.25641 0.372133 -0.767873
-20.3513 -2.05735 1.6196 -0.399917 0.991991 0.65746 -0.866012
-19.2427 0.564215 -3.07577 1.01182 -0.0485 -1.49559 0.68949
-19.3324 0.457875 -2.55586 0.777133 -0.663298 -1.42047 0.842441
-19.2777 -1.85859 0.876826 -0.111193 1.42409 0.243217 -0.691484
-19.3046 -1.93838 1.24478 -0.267667 1.20002 0.452294 -0.764904
-19.316 -2.0055 1.63274 -0.437418 0.932894 0.741824 -0.849288
-18.1293 0.673571 -3.73433 1.33394 0.585944 -1.66119 0.640948
-18.2658 0.470793 -2.79629 0.911908 -0.0820808 -1.35289 0.603815
-18.3381 0.376675 -2.30417 0.689792 -0.641763 -1.26278 0.741015
-18.2667 -1.83459 0.951015 -0.172134 1.34413 0.357613 -0.716071
-18.2766 -1.90163 1.31739 -0.33052 1.09452 0.569611 -0.762858
-18.2655 -1.9574 1.72406 -0.510331 0.785764 0.868438 -0.82514
-17.054 0.638418 -3.8826 1.43743 1.39225 -1.27017 0.126676
-17.1698 0.558433 -3.37541 1.19849 0.485089 -1.49255 0.542853
-17.2817 0.380928 -2.50509 0.805517 -0.13874 -1.19936 0.527713
-17.3353 0.296989 -2.02429 0.588563 -0.661639 -1.0883 0.651425
-17.2448 -1.81258 1.07959 -0.258032 1.19561 0.497488 -0.729563
-17.2337 -1.86814 1.46912 -0.428888 0.874441 0.70733 -0.735703
-17.1957 -1.914 1.92107 -0.627676 0.469506 1.00229 -0.768682
-15.9724 0.650696 -4.02147 1.51845 2.25117 -1.05927 0.0309447
-16.1076 0.518798 -3.49669 1.28775 1.18329 -1.14518 0.0854729
-16.2011 0.448723 -3.00482 1.05614 0.350572 -1.31797 0.463857
-16.2881 0.29347 -2.18427 0.684603 -0.250713 -1.03719 0.472211
-16.3208 0.217726 -1.69379 0.463863 -0.774446 -0.909757 0.593289
-16.2084 -1.79352 1.28617 -0.376763 0.910819 0.63512 -0.712205
-16.1722 -1.83885 1.7213 -0.565125 0.462841 0.821951 -0.678046
-16.1027 -1.87601 2.23851 -0.783285 -0.0917509 1.09139 -0.697064
-14.924 0.554846 -3.87691 1.48345 3.01927 -0.370201 -0.354841
-15.0424 0.51681 -3.59327 1.35034 1.93294 -0.94733 -0.0126046
-15.1503 0.405159 -3.0951 1.12965 0.933167 -1.01489 0.0653486
-15.2213 0.343539 -2.60643 0.900161 0.145287 -1.14786 0.418243
-15.2822 0.207475 -1.81476 0.542911 -0.471278 -0.888411 0.452292
-15.2915 0.137863 -1.294 0.313328 -1.04461 -0.762449 0.570461
-15.1541 -1.77822 1.58493 -0.523855 0.422637 0.727347 -0.678706
-15.0886 -1.82173 2.06671 -0.71625 -0.213001 0.874265 -0.637936
-14.9832 -1.85817 2.64333 -0.936402 -0.961331 1.10987 -0.685785
-13.872 0.506323 -3.846 1.42173 3.82831 0.140132 -0.581512
-14.0056 0.422082 -3.44439 1.31184 2.57066 -0.336001 -0.345767
-14.0991 0.390682 -3.14799 1.17324 1.56287 -0.83537 -0.0268039
-14.1804 0.29675 -2.66476 0.95914 0.60397 -0.897499 0.0775084
-14.228 0.241907 -2.16547 0.728803 -0.181413 -1.01111 0.408943
-14.2612 0.122009 -1.38404 0.38385 -0.856613 -0.788875 0.455553
-14.2444 0.0502867 -0.829551 0.155891 -1.53667 -0.679517 0.54179
-14.079 -1.77975 1.94945 -0.664956 -0.329115 0.752024 -0.694607
-13.9802 -1.82865 2.46553 -0.842273 -1.18038 0.860848 -0.689127
-13.8373 -1.86301 3.09653 -1.06138 -2.07618 1.06797 -0.760832
-12.8574 0.386783 -3.47943 1.21869 4.38176 0.738636 -0.730102
-12.9676 0.364248 -3.38463 1.24302 3.25251 0.134116 -0.571188
-13.072 0.29746 -2.99019 1.13043 2.06467 -0.303031 -0.309861
-13.1414 0.271592 -2.67636 0.986787 1.10582 -0.747523 -0.00911617
-13.1961 0.192712 -2.19637 0.77932 0.152272 -0.823209 0.112287
-13.2187 0.13768 -1.68549 0.557707 -0.683433 -0.936234 0.401836
-13.2227 0.0257324 -0.913258 0.236132 -1.45995 -0.758074 0.42607
-13.177 -0.055644 -0.332918 0.0255293 -2.27918 -0.664428 0.442575
-12.9828 -1.80065 2.34814 -0.778501 -1.29698 0.717517 -0.783671
-12.852 -1.84621 2.9138 -0.961535 -2.28426 0.800817 -0.750537
-12.676 -1.86428 3.64728 -1.21984 -3.11129 1.01384 -0.739026
-11.8471 0.433987 -3.15371 0.813776 4.5536 1.13725 -0.361887
-11.9612 0.248313 -3.03177 1.05084 3.67196 0.659304 -0.697856
-12.0455 0.231933 -2.90029 1.0551 2.61169 0.121095 -0.532112
-12.1221 0.180428 -2.51007 0.942903 1.47332 -0.297165 -0.254051
-12.1674 0.154566 -2.18265 0.804189 0.521257 -0.709021 0.0133769
-12.1952 0.0835989 -1.70763 0.614087 -0.465049 -0.809992 0.123508
-12.1916 0.0215762 -1.19343 0.415619 -1.38638 -0.92754 0.341552
-12.1664 -0.083888 -0.428265 0.117958 -2.24354 -0.789815 0.342752
-12.0936 -0.168468 0.194386 -0.0944611 -3.14138 -0.701678 0.342507
-11.8753 -1.81761 2.82555 -0.91992 -2.20203 0.666266 -0.785968
-11.7178 -1.84549 3.48199 -1.14993 -3.07256 0.787533 -0.623915
-11.5152 -1.84964 4.26221 -1.42841 -3.65024 1.02861 -0.482248
-10.8677 0.42621 -2.58221 0.334843 4.56821 1.48372 0.0454145
-10.9603 0.280109 -2.69955 0.66684 3.74607 1.032 -0.387233
-11.0451 0.120024 -2.55783 0.87433 2.8971 0.57217 -0.643605
-11.1049 0.105814 -2.39988 0.869672 1.88237 0.0783588 -0.484751
-11.1548 0.0636495 -2.02024 0.769244 0.767281 -0.335694 -0.215091
-11.1759 0.0318903 -1.69026 0.649813 -0.209399 -0.725682 -0.00532277
-11.1763 -0.0377047 -1.23135 0.491891 -1.24163 -0.849186 0.0673556
-11.1467 -0.10829 -0.710723 0.316166 -2.25022 -0.969321 0.223792
-11.1007 -0.186404 0.109076 -0.0192983 -2.96705 -0.847077 0.343641
-11.0063 -0.262199 0.812953 -0.271817 -3.73262 -0.706587 0.414207
-10.7703 -1.81959 3.35162 -1.10465 -2.68287 0.673574 -0.581583
-10.5937 -1.8348 4.03293 -1.34236 -3.24924 0.841064 -0.309461
-10.3738 -1.81847 4.77627 -1.61726 -3.39761 1.16106 -0.105576
-9.89939 0.432383 -2.06338 -0.120982 4.27778 1.33039 0.51206
-9.98414 0.268236 -2.16032 0.222863 3.65119 1.3357 -0.0143152
-10.0508 0.136101 -2.22358 0.515795 2.8685 0.91502 -0.392725
-10.1088 -0.00306485 -2.07436 0.706196 2.04642 0.460518 -0.595376
-10.1451 -0.0200224 -1.90527 0.707642 1.05772 -0.00168851 -0.466184
-10.1581 -0.0424278 -1.6845 0.703432 -0.0129714 -0.462745 -0.308745
-10.14 0.0782193 -1.92881 0.550081 -1.7166 -0.488242 -0.259827
-10.13 -0.00599785 -1.23236 0.287987 -2.66792 -0.585448 -0.0739299
-10.0917 -0.243095 -0.168931 0.20898 -3.02009 -1.03607 0.170052
-10.0379 -0.271994 0.669893 -0.189142 -3.31724 -0.859954 0.530359
-9.92925 -0.34463 1.40057 -0.448664 -3.79347 -0.656619 0.653488
-9.6849 -1.80645 3.77945 -1.27005 -2.47854 0.786289 -0.27518
-9.49954 -1.80047 4.39765 -1.47698 -2.59301 0.961406 0.00364291
-9.27478 -1.75546 4.9927 -1.70708 -2.24959 1.33254 0.163545
-9.27802 2.49095 0.410155 -1.61756 4.93812 1.00696 1.21766
-9.01886 0.261635 -1.65508 -0.203814 3.28607 1.21567 0.375691
-9.07582 0.12009 -1.71848 0.109579 2.67459 1.17695 -0.0605735
-9.11891 -0.00189058 -1.74818 0.379013 1.93163 0.777519 -0.407274
-9.13007 -0.0875265 -1.85315 0.680275 1.33314 0.237227 -0.701862
-9.12358 0.0369765 -2.34764 0.712769 -0.31662 0.161473 -0.770468
-9.12931 -0.0285038 -1.92005 0.646377 -1.4523 -0.164152 -0.606221
-9.118 -0.0909405 -1.3801 0.474936 -2.49524 -0.570717 -0.36095
-9.09082 -0.151659 -0.642293 0.199013 -3.23542 -0.729505 -0.0444828
-9.03832 -0.342974 0.445338 0.0565229 -3.38618 -1.16266 0.357696
-8.99298 -0.340937 1.12313 -0.335162 -3.0642 -0.783709 0.805468
-8.88025 -0.404082 1.80674 -0.568472 -3.12586 -0.551041 0.889074
-8.63948 -1.76489 3.93337 -1.34374 -1.49272 0.932541 -0.0691599
-8.45902 -1.72656 4.38433 -1.49647 -1.17756 1.06422 0.206856
-8.2293 -1.67579 4.83602 -1.92183 0.0115752 1.1704 0.28913
-8.31944 2.20005 0.840893 -1.64925 4.13471 0.550652 1.33861
-8.37788 2.21318 0.680738 -1.5984 3.81302 0.929946 1.03515
-8.11099 0.10236 -1.2331 -0.284025 2.24843 1.08739 0.255599
-8.10924 0.0366352 -1.61391 0.158069 2.10359 0.913918 -0.24536
-8.11227 0.113482 -2.37642 0.341859 0.677685 0.969315 -0.676301
-8.11661 -0.0846496 -2.21689 0.704848 -0.065315 0.532252 -1.08057
-8.1069 -0.110847 -2.18025 0.8098 -1.3152 0.209915 -1.11213
-8.11271 -0.189895 -1.41739 0.620848 -2.20294 -0.315642 -0.667233
-8.0897 -0.250596 -0.780797 0.403241 -3.04095 -0.784507 -0.325158
-8.05784 -0.271026 -0.0464891 0.0905376 -3.32252 -0.920013 0.205226
-8.00007 -0.418363 0.974216 -0.0947225 -3.16373 -1.26653 0.718513
-7.98429 -0.381929 1.31231 -0.391106 -2.12106 -0.684499 0.986933
-7.88061 -0.42671 1.8602 -0.578185 -1.79111 -0.47082 1.02683
-7.64528 -1.7088 3.74694 -1.52562 0.464622 0.755183 0.0180673
-7.30143 -1.81294 5.06439 -1.7622 -0.635475 0.321109 0.250147
-7.06073 -1.71783 5.37941 -1.89114 0.219699 0.668492 0.336697
-7.37307 1.89395 1.34305 -1.69949 3.31396 0.0618052 1.34601
-7.41578 1.93359 1.09792 -1.6335 2.98607 0.545067 1.11957
-7.40121 2.02339 0.585407 -1.41696 3.34441 0.767061 0.792741
-7.11811 0.341911 -2.0885 -0.438696 1.08666 1.3314 0.198119
-7.11109 0.199175 -2.31832 0.00220434 0.691856 1.25797 -0.412198
-7.0962 0.0443495 -2.643 0.504298 -0.395951 1.27371 -1.18802
-7.1004 -0.205218 -2.25155 0.826338 -1.16352 0.871606 -1.38429
-7.10383 -0.302312 -1.57957 0.7654 -1.96087 0.0556655 -1.08373
-7.09723 -0.340907 -0.801014 0.554482 -2.54991 -0.615573 -0.541647
-7.0663 -0.354506 -0.141764 0.271693 -3.07827 -1.10187 -0.011394
-7.04571 -0.360095 0.409006 -0.000213456 -2.74663 -1.06873 0.553446
-6.99406 -0.459658 1.25448 -0.196819 -2.2396 -1.26665 1.03026
-7.32756 1.70201 2.7815 -2.05925 0.618945 -0.284416 1.4293
-7.08481 1.52664 4.12424 -2.34489 -0.265609 -0.532008 1.41947
-6.54331 -1.75161 4.18658 -1.50457 0.63205 0.307399 0.0677394
-6.37367 -1.64965 4.27129 -1.56146 1.26664 0.450256 0.277587
-6.43935 1.57069 1.7199 -1.67909 2.22901 -0.310987 1.08235
-6.39915 1.73843 1.17669 -1.52871 2.98452 0.0453815 1.1663
-6.48383 2.84621 -0.270832 -1.3414 1.61455 -0.267179 1.20383
-6.4674 2.89011 -0.724321 -1.11226 1.71606 0.023067 0.709239
-6.10937 0.437634 -2.65124 -0.553628 0.0510302 2.07392 -0.363168
-6.10202 0.112577 -2.60846 0.140074 -0.528709 1.75341 -0.913101
-6.08898 -0.172601 -2.45766 0.706053 -1.2585 1.46193 -1.4425
-6.10029 -0.40783 -1.68926 0.870886 -1.73748 0.68799 -1.21123
-6.096 -0.469655 -0.94731 0.725142 -2.25603 -0.317706 -0.926846
-6.0906 -0.442537 -0.215522 0.445136 -2.32804 -0.991812 -0.166604
-6.06089 -0.419631 0.348521 0.122676 -2.50372 -1.33537 0.462135
-5.99837 -0.449875 0.890784 -0.0687288 -2.63835 -1.52039 0.845692
-6.31857 1.49692 2.66958 -1.72514 0.409161 -0.947009 1.40356
-6.25335 1.48279 3.06195 -1.89278 0.824519 -0.767139 1.50669
-5.72272 -1.59105 2.99821 -1.14369 1.84395 0.214286 -0.00374464
-5.43858 -1.97565 4.64663 -1.13448 0.476769 -0.626614 -0.56277
-6.12387 1.45213 3.4089 -2.0149 1.36098 -0.151391 0.94448
-5.43264 1.36091 1.80355 -1.51434 2.10946 -0.878169 0.984459
-5.50324 2.44595 0.480911 -1.42827 1.08988 -0.9996 1.30425
-5.46298 2.57214 -0.0580736 -1.2433 1.69599 -0.575937 1.17401
-5.46589 3.079 -1.09587 -1.92075 0.722103 1.00704 1.02317
-5.44706 2.93985 -1.44754 -1.44262 0.513285 1.22406 0.449789
-5.09477 0.271695 -2.90509 -0.234254 -0.874431 2.5657 -0.838989
-5.0932 -0.0951106 -2.60975 0.40598 -1.38742 2.2159 -1.16749
-5.09958 -0.422469 -1.80844 0.769738 -1.61762 1.29778 -1.31408
-5.10317 -0.586571 -1.03422 0.870021 -1.80535 0.270656 -0.873272
-5.09445 -0.562439 -0.311298 0.606901 -1.99008 -0.816871 -0.500747
-5.06281 -0.53114 0.273324 0.396384 -2.23232 -1.57924 0.122089
-5.42452 2.28772 1.2335 -1.20293 -0.858564 -2.21082 1.29071
-5.38674 2.27223 1.66916 -1.40216 -0.745823 -2.19335 1.58566
-5.25373 1.25252 3.00624 -1.59971 0.573537 -1.4025 1.4289
-4.64777 -1.85079 3.34733 -0.679772 1.92713 -0.644062 -0.389621
-4.91624 1.00018 4.34479 -1.71276 -0.273562 -1.3423 0.492602
-4.49671 2.07953 0.796037 -1.19859 0.851585 -1.97237 0.948669
-4.48895 2.17042 0.692852 -1.28531 1.09564 -1.39815 1.20277
-4.50004 2.89901 -0.245513 -2.37756 0.517027 0.154522 1.25566
-4.45454 2.84989 -0.773624 -1.9674 0.815766 0.742747 1.11628
-4.43223 2.94987 -1.69191 -1.84565 -0.176981 1.98845 0.531598
-4.4186 2.62011 -1.75485 -1.0956 -0.512531 1.87252 0.00718043
-4.09374 -0.0261087 -2.64909 0.115722 -1.40496 2.77368 -1.08598
-4.10403 -0.354668 -1.97363 0.558209 -1.60383 1.93925 -0.925353
-4.10725 -0.608468 -1.13054 0.786603 -1.59442 0.749333 -0.96312
-4.09183 -0.728026 -0.498226 0.922508 -1.72995 -0.426501 -0.604875
-4.05725 -0.668631 -0.0113333 0.70261 -1.96368 -1.39572 -0.435097
-4.08028 -0.531741 0.375116 0.309433 -1.10508 -1.66484 0.478909
-4.37535 1.96364 1.68575 -1.03823 -0.634207 -2.78417 1.36202
-4.32133 1.95194 2.01638 -1.17218 -0.489937 -2.76285 1.59036
-3.57009 -2.07702 3.6124 -0.252414 2.05252 -1.06249 -0.811127
-3.62218 -2.6311 3.85233 0.637021 2.63154 -1.1975 0.736192
-3.96037 0.794107 3.78439 -1.26703 1.19799 -0.913922 0.145645
-3.47378 1.90286 0.650854 -1.0522 0.613673 -2.12895 0.709611
-3.52245 2.76873 0.290299 -2.30398 0.478856 -1.24198 0.542983
-3.48273 2.5501 0.0716629 -2.13673 0.597045 -0.234448 1.2017
-3.47081 3.06956 -1.02579 -2.82745 -0.196356 1.58027 1.22632
-3.42958 2.84039 -1.44078 -2.16231 -0.160559 2.00422 0.953181
-3.39693 2.57268 -1.93215 -1.33919 -0.80647 2.54515 0.0923348
-3.39272 2.20862 -1.74045 -0.65464 -1.05865 2.29425 -0.169954
-3.11173 -0.293733 -1.90385 0.245653 -1.44271 2.33279 -0.730363
-3.10512 -0.55437 -1.35806 0.69592 -1.51035 1.21013 -0.670302
-3.08382 -0.769696 -0.810394 1.00326 -1.52196 0.0991837 -0.949456
-3.09871 -0.76238 -0.151642 0.890395 -0.92553 -0.971182 -0.128294
-3.37975 1.6784 0.896074 -0.390699 -0.626824 -2.46448 0.531643
-3.36481 1.65996 1.55681 -0.663212 -0.646815 -2.87209 1.17928
-3.32538 1.82423 1.93779 -1.30444 -0.512897 -2.58933 1.4228
-2.53638 -2.7446 4.0469 0.943375 2.58861 -1.41694 0.18937
-2.55162 -2.8569 4.04453 0.836497 2.71885 -1.84811 0.175118
-2.88114 0.497208 3.90579 -0.964077 1.22021 -0.967978 -0.198265
-2.65095 3.46917 1.01069 -1.99722 0.742716 -3.11715 -1.62637
-2.64051 3.60887 0.899132 -2.15811 0.767102 -2.59103 -1.30854
-2.49151 2.92035 -0.342684 -2.76719 -0.0215945 0.0955469 0.753744
-2.45468 2.67064 -0.579569 -2.52443 -0.0171147 1.1366 1.21238
-2.42949 2.88566 -1.54896 -2.61271 -0.769561 2.55915 0.82501
-2.39811 2.47771 -1.67605 -1.71266 -0.839571 2.53014 0.596295
-2.37573 2.12428 -1.63667 -0.877059 -1.05793 2.51562 0.111311
-2.37874 1.81913 -1.17058 -0.356176 -1.0392 1.68049 0.171935
-2.0975 -0.501393 -1.52778 0.552878 -1.30151 1.67201 -0.702141
-2.10481 -0.66794 -0.888968 0.810567 -0.96469 0.388126 -0.36884
-2.0844 -0.913127 -0.446935 1.20082 -0.842152 -0.339659 -0.425535
-2.05698 -1.0877 0.00674904 1.48192 -0.785317 -1.29669 -0.187886
-2.36027 1.50761 1.46982 -0.690997 -0.423725 -2.54935 0.801954
-2.31787 1.49686 1.81264 -0.799441 -0.49251 -2.86555 1.23737
-1.47113 -3.21288 4.18252 1.60899 2.79433 -1.49515 0.240553
-1.4752 -3.39761 4.27802 1.37899 3.21793 -2.05516 0.44201
-1.4659 -2.96239 3.8948 1.47521 2.33983 -0.420242 -0.206577
-1.61459 3.18948 1.09601 -2.02226 0.988564 -2.79161 -1.46896
-1.60855 3.53881 0.470965 -2.445 0.354338 -1.90309 -1.18874
-1.59822 3.64142 0.310259 -2.52787 0.287182 -1.22612 -0.978936
-1.4491 2.75798 -0.761783 -2.63098 -0.411513 1.09779 0.570953
-1.41535 2.46654 -0.997759 -2.3955 -0.405722 2.00491 0.882484
-1.38738 2.46708 -1.74746 -2.0391 -1.00418 2.90857 0.488899
-1.36277 2.08173 -1.66392 -1.16464 -1.124 2.54303 0.652577
-1.34784 1.74342 -1.25134 -0.469063 -0.887032 1.93098 0.230393
-1.35428 1.48618 -0.722059 -0.0524592 -0.672947 0.85443 0.262764
-1.09159 -0.68131 -1.12834 0.813256 -0.881474 1.01953 -0.455908
-1.07096 -0.926055 -0.745874 1.29414 -0.808913 0.0621575 -0.528327
-1.09511 -1.3461 -0.124587 2.06134 -0.589948 -0.977717 -0.0330551
-1.0736 -1.68983 0.335308 2.48429 -0.480656 -2.02528 0.480124
-1.3128 1.467 1.20188 -0.813848 -0.814874 -2.14087 1.20184
-1.26928 1.47207 1.49602 -0.951745 -0.935545 -2.2195 1.60051
-0.40242 -3.54199 4.08227 1.87145 2.85641 -0.80752 -0.072621
-0.428619 -3.69404 4.17525 2.16635 2.94699 -1.11357 0.288194
-0.463121 -3.26252 3.71753 1.96066 1.43004 -0.485953 -0.610947
-0.465919 -2.87135 3.32683 1.50462 0.992026 0.660765 -1.15945
-0.580201 3.00803 0.691694 -2.00868 0.669673 -2.21606 -0.942861
-0.567027 3.14232 0.567099 -2.14902 0.545215 -1.73869 -1.11768
-0.555696 3.3417 0.10302 -2.36362 0.0411658 -0.905061 -1.09906
-0.544763 3.38472 -0.0580106 -2.43923 0.0201881 -0.313664 -0.994742
-0.416038 2.66644 -1.20408 -2.80428 -0.780963 1.79751 0.669736
-0.376001 2.10136 -1.21143 -1.99792 -0.688403 2.27511 0.702398
-0.346761 1.99529 -1.6096 -1.37903 -0.921739 2.79494 0.421984
-0.333822 1.67751 -1.2426 -0.675609 -0.848036 1.82893 0.805261
-0.319897 1.40546 -0.870736 -0.123984 -0.576177 1.24773 0.31294
-0.306357 1.12576 -0.61605 0.416269 -0.494091 0.533133 0.0941806
-0.10585 -1.02722 -0.812142 1.51655 -0.590021 0.394202 -0.141329
-0.089108 -1.46185 -0.438598 2.21693 -0.501157 -0.554537 0.0199973
-0.082795 -1.76255 0.34931 2.33203 -0.210651 -1.29535 -0.204719
-0.0611752 -2.15334 0.836626 2.7874 -0.130696 -2.4134 0.407483
-0.264992 1.3093 0.976912 -0.602468 -1.2231 -1.85216 1.67759
-0.218168 1.30794 1.26476 -0.746228 -1.36015 -1.82601 2.04507
0.591712 -3.74644 3.91185 2.34677 1.76096 -0.91465 -0.529545
0.52902 -4.15009 3.81278 2.38188 1.84996 -1.33055 -0.358984
0.590593 -3.39434 3.47828 1.92092 1.32325 0.411507 -1.15431
0.465035 2.6958 0.452322 -1.58512 0.387405 -1.6307 -0.550258
0.471484 2.7998 0.339302 -1.83566 0.286099 -1.37832 -0.875712
0.488772 2.87601 0.302305 -1.98394 0.335182 -1.14398 -1.00573
0.490366 3.2006 -0.262378 -2.54018 -0.232391 -0.206325 -0.807692
0.497976 3.24479 -0.548221 -2.69313 -0.34296 0.426496 -0.795298
0.627521 2.27505 -1.35575 -2.34807 -0.88876 2.13127 0.465144
0.663445 1.67479 -1.08555 -1.39146 -0.658206 2.16466 0.784399
0.686811 1.58464 -1.26333 -0.844699 -0.700881 2.21923 0.594402
0.708598 1.28774 -1.0011 -0.141214 -0.56512 1.33989 0.743615
0.405277 1.45741 0.112358 2.45615 -0.784093 1.91366 -0.22275
0.415651 1.10323 0.173689 3.04249 -0.881054 1.69012 -0.258397
0.899588 -1.42129 -0.288482 1.78068 -0.170671 0.189804 -0.339479
0.915822 -1.90127 0.0954969 2.51744 -0.119699 -0.794206 -0.125901
0.453703 0.818367 0.588051 3.51505 -1.10146 0.56404 -0.482033
0.932479 -2.24186 0.3791 2.74053 -0.0011849 -1.55656 -0.215326
0.954737 -2.6005 0.908342 3.16707 0.0454329 -2.80343 0.475194
0.492715 1.4888 1.55697 1.78362 -2.16867 0.0916991 1.00766
0.540237 1.47642 1.82965 1.64991 -2.35944 0.19473 1.27871
1.53609 -3.66076 3.19789 2.78936 1.36319 -0.94793 -0.555059
1.56904 -4.25816 3.50161 2.17906 1.66439 -0.297126 -1.00841
1.1496 3.24298 1.29851 1.08427 -0.205125 0.567715 0.817433
1.52485 2.38297 0.402349 -1.35496 0.384516 -1.2426 -0.545646
1.52215 2.66445 0.0582472 -1.97922 0.0633934 -0.81126 -0.641255
1.53515 2.75216 -0.0761068 -2.22372 0.0523323 -0.486896 -0.761155
1.50961 3.35417 -0.787862 -3.21863 -0.644765 0.570605 -0.878669
1.53873 2.96467 -0.784527 -2.54952 -0.559277 0.88292 -0.911632
1.67316 1.79823 -1.18244 -1.64172 -0.733257 2.07073 0.578873
1.70121 1.23807 -0.76881 -0.792971 -0.38283 1.76927 0.964029
1.72676 1.11364 -0.950336 -0.211684 -0.37764 1.80586 0.86789
1.40874 1.32514 0.686127 1.86734 -0.530454 1.54769 0.747731
1.4164 1.23008 0.72253 2.07653 -0.648966 1.31955 0.534985
1.9181 -1.49568 -0.316955 1.8337 -0.287787 0.209781 -0.0464145
1.91387 -1.83456 -0.265919 2.17957 0.0410304 0.060418 -0.390181
1.47657 0.749025 0.663524 2.80949 -0.713337 1.26554 -0.689583
1.93003 -2.28999 0.125538 2.91002 0.0305956 -0.994958 -0.136457
1.90197 -2.9501 0.311407 3.15154 0.191482 -2.12468 -0.0849636
1.91658 -3.3455 0.804313 3.31962 0.217291 -3.54199 0.425944
2.59076 -4.92422 3.52575 2.34766 1.94678 -0.985029 -1.41299
2.2307 2.72104 1.39504 1.38763 0.10946 0.449764 1.06067
2.23518 3.0268 1.06384 0.824225 -0.269203 0.737997 0.905969
2.57755 2.26602 0.0878315 -1.55769 0.121674 -0.683436 -0.385937
2.53815 2.89899 -0.337721 -2.61683 -0.287623 -0.264354 -0.947169
2.54481 2.94072 -0.518025 -2.84434 -0.305214 -0.0207664 -1.12757
2.56676 2.84392 -0.846317 -2.67393 -0.618048 0.749325 -0.916378
2.59586 2.41101 -0.613404 -1.80811 -0.436792 0.805463 -0.59601
2.71376 1.29788 -0.775618 -0.974927 -0.361771 1.66648 0.931213
2.7413 0.733627 -0.528874 -0.181011 0.0330505 1.68911 1.134
2.45638 1.13825 0.672812 1.73996 -0.325522 1.71533 0.895756
2.46832 0.868057 0.874182 2.20131 -0.167359 1.19734 0.7903
2.93893 -1.54697 -0.46403 1.68401 -0.302969 0.694606 -0.0563404
2.93541 -1.82704 -0.278757 2.20511 -0.145702 0.0970916 -0.05895
2.88968 -2.42885 -0.358542 2.57281 0.202388 -0.274605 -0.287933
2.89843 -2.92855 -0.0166707 3.10882 0.149619 -1.46129 -0.23438
2.86781 -3.60423 0.155322 3.22633 0.309911 -2.78812 -0.431464
3.45778 -5.56831 3.07562 1.65762 1.55687 -0.347158 -0.39708
3.23846 2.58928 1.32314 2.05198 -0.00939002 0.672209 1.5401
3.31991 2.53145 1.11485 1.08518 -0.00782178 0.693631 1.08446
3.29118 3.15529 0.685978 0.125546 -0.493867 1.00696 0.501258
3.59836 2.42507 -0.270347 -2.09804 -0.184605 -0.292035 -0.759403
3.51121 3.3956 -0.637728 -3.32927 -0.53108 -0.266834 -1.90067
3.58957 2.60971 -0.634357 -2.63834 -0.386137 0.236263 -1.13485
3.62592 2.23968 -0.580235 -1.89194 -0.356918 0.596755 -0.615771
3.65037 1.79157 -0.327341 -1.11312 0.0154112 0.717846 -0.308079
3.51545 1.19978 -0.0403563 1.15637 -0.393476 2.43922 0.570697
3.51464 0.770168 0.745687 1.82059 0.00146162 1.49153 1.10925
3.50883 0.648438 0.777442 2.09356 -0.0236188 1.39021 1.14616
3.92793 -2.07077 -0.523803 2.08395 -0.177972 0.465926 0.110409
3.91488 -2.35544 -0.409619 2.40187 -0.0624731 -0.187241 -0.126256
3.60364 -0.00135873 0.478917 3.04544 -0.515915 1.08727 -0.749893
3.86415 -2.96585 -0.543981 2.66916 0.281326 -0.653368 -0.607856
3.69356 -4.14959 -0.499855 2.61938 0.173111 -2.11012 0.574204
4.42524 -5.67802 2.69567 1.00568 1.43446 0.758036 -0.502626
4.25003 2.23613 1.48873 2.6202 0.0462271 1.12041 1.32448
4.31073 2.65116 1.0275 1.44246 -0.151101 0.826824 1.07258
4.38051 2.57228 0.79868 0.532575 -0.173087 0.838445 0.642359
4.25433 3.93576 0.587611 -0.659266 -0.553156 0.56592 -0.852454
4.5665 2.92172 -0.53007 -2.76484 -0.40366 -0.485854 -1.94235
4.5799 2.77736 -0.610531 -2.70943 -0.401052 -0.208542 -1.85103
4.65352 1.97057 -0.403335 -1.91217 -0.0208677 0.149873 -0.965098
4.67865 1.66606 -0.490223 -1.45933 -0.0476992 0.500501 -0.391253
4.40463 2.30263 0.267448 0.656343 -0.275563 2.02319 1.04947
4.55129 0.656939 0.613042 1.62677 0.0233038 1.42256 1.2971
4.5526 0.572044 0.64236 1.81006 0.0445376 1.36219 1.21372
4.94408 -2.26549 -0.644973 2.12721 -0.212151 0.406995 -0.26756
4.91717 -2.52919 -0.680757 2.20521 -0.14234 0.244375 -0.0808122
4.95912 -1.92499 -0.653006 1.8947 -0.311273 0.705281 -0.281626
4.74184 -3.3915 -0.861195 1.96981 -0.0776505 -0.588052 0.625692
4.61711 -4.19362 -1.06847 2.03141 0.258387 -1.01268 0.500087
5.31978 -6.10706 2.54556 0.285832 1.12062 1.25834 0.834229
5.32213 2.14042 1.20222 2.13767 -0.0293238 1.17726 1.08297
5.33443 2.19764 1.22713 2.13618 -0.0257874 1.13582 0.93372
5.26427 3.50644 1.10998 0.889819 -0.0956535 0.449071 0.509002
5.34474 3.30116 0.744787 -0.162371 -0.192017 0.260683 -0.878479
5.32311 3.71017 0.197853 -1.18629 -0.663146 0.668688 -1.12037
5.62309 2.45208 -0.507046 -2.55358 -0.186596 -0.379286 -1.82476
5.64326 2.12562 -0.546675 -2.25638 -0.115594 -0.309539 -1.60668
5.70264 1.55154 -0.624638 -1.86075 -0.0213245 0.252648 -0.739545
5.47562 1.86868 0.179808 0.473611 -0.15234 1.61455 0.939933
5.46444 1.56227 0.821712 1.30435 0.183379 1.12543 1.66782
5.60498 0.351969 0.474337 1.57528 0.0883642 1.43607 1.35389
5.96737 -2.34388 -0.79315 2.02365 -0.282767 0.567765 -0.532885
5.80322 -3.20461 -1.05743 1.77898 -0.226557 0.155938 0.413173
5.70489 -0.895334 -0.0364925 3.03874 -0.557476 1.11456 -1.21629
5.71199 -3.59081 -1.15474 1.65097 -0.20891 0.0777136 0.997628
5.71795 -0.467423 0.0504934 2.78323 -0.566044 0.965153 -1.58552
5.48939 -4.52019 -1.31705 1.38411 -0.162711 -0.766449 1.8576
6.29884 -6.3123 2.43732 -0.14375 1.03761 2.20986 1.12108
6.41629 1.75378 0.996922 1.9468 0.0354391 1.17545 1.02493
6.26891 3.07833 1.4256 1.82193 0.128981 0.912366 1.43545
6.26366 3.19126 1.44595 1.73868 0.129921 0.736737 1.06656
6.26588 3.95938 0.950313 0.171041 -0.140479 -0.0771885 -0.860979
6.43207 2.92585 0.401795 -0.475397 -0.257507 0.447959 -0.871471
6.42593 3.02108 0.0601934 -1.0163 -0.470434 0.552385 -1.00885
6.68292 1.9652 -0.750271 -2.51156 -0.202315 -0.281297 -1.55463
6.66849 1.83994 -0.832706 -2.50842 -0.173739 -0.192654 -1.63869
6.53375 1.66245 0.0148355 0.0214126 -0.0925243 1.29796 0.570641
6.55003 1.1455 0.69942 1.23647 0.280601 0.902064 1.38897
6.54754 1.04846 0.70388 1.42157 0.284542 1.02415 1.66578
6.85009 -3.09482 -1.18189 1.69626 -0.330848 0.362339 -0.0233829
6.80406 -3.29255 -1.21606 1.56905 -0.346416 0.514003 0.426911
6.76371 -1.1574 -0.242692 2.83299 -0.516815 0.794323 -1.90043
6.59339 -4.22007 -1.49046 1.27573 -0.315509 0.119225 1.51835
6.44434 -4.65835 -1.58343 1.05345 -0.354337 0.11592 2.14228
7.17559 -7.02237 2.29899 -0.631653 1.0275 2.29847 1.45199
7.33044 2.40548 1.32342 2.06435 0.153891 1.07768 1.26579
7.37237 2.62121 1.19896 1.67818 0.189406 0.846447 1.2245
7.26925 3.59864 1.38811 1.27066 0.173242 0.27967 0.0570811
7.263 3.70959 1.3739 1.09141 0.176355 0.051591 -0.442377
7.35896 3.56139 0.613636 -0.196416 -0.177259 -0.0234796 -1.05596
7.53667 2.2767 0.228653 -0.315392 -0.156115 0.389951 -0.698401
7.52838 2.27978 -0.0385874 -0.705068 -0.280174 0.360613 -0.792637
7.71356 1.16583 -0.840287 -2.20083 -0.030992 -0.386752 -1.1506
7.71002 1.10943 -0.861713 -2.10135 0.00920802 -0.212888 -1.16195
7.62563 0.915491 0.499613 0.940064 0.314708 0.745696 0.966722
7.62274 0.839429 0.49109 1.08624 0.287393 0.884443 1.19034
7.71512 -3.87329 -1.59189 1.28463 -0.395288 0.218365 0.616728
7.68097 -4.03148 -1.58547 1.27638 -0.414437 0.409296 0.971758
7.82831 -3.26297 -1.40602 1.57698 -0.384472 -0.0318856 -0.839419
7.58688 -4.23935 -1.6126 1.06165 -0.489635 0.643673 1.4338
7.31113 -5.25272 -1.88565 0.683757 -0.485594 0.226716 2.46627
8.20728 -6.96868 2.43416 -0.827852 0.941713 3.00688 1.12657
8.39734 1.98477 1.12545 1.95644 0.11277 1.23131 0.88702
8.35911 2.81457 1.28512 1.65173 0.228105 0.484152 0.111341
8.3889 3.04415 1.14569 1.2113 0.239592 0.273406 -0.0257092
8.21808 4.23201 1.37773 1.308 0.118388 -0.1556 -0.393644
8.38579 3.1141 1.01543 0.855076 0.169342 0.147915 -0.386706
8.48535 2.78776 0.38728 -0.0141473 -0.0865607 -0.0695086 -0.856848
8.62425 1.33624 0.44655 0.351514 0.332865 0.138232 -0.209003
8.6707 1.64419 -0.873894 -2.0587 -0.129599 -0.535761 -1.20952
8.74676 0.928838 -1.07142 -2.40054 -0.0801654 -0.379825 -1.08484
8.53856 1.3886 0.511681 1.0946 0.30892 0.330438 0.790442
8.69032 -4.19928 -1.80967 1.20754 -0.459135 0.0251241 0.0783062
8.55338 -4.70981 -1.92058 1.02185 -0.529741 0.349148 1.418
8.7342 -3.849 -1.72664 1.29056 -0.423826 -0.227968 -0.520072
8.44886 -4.97634 -1.96761 0.76545 -0.576757 0.571644 1.80593
8.86804 -2.49758 -1.38212 0.793047 -0.341066 -1.07427 -3.31328
8.32083 -5.15123 -1.94835 0.576195 -0.688267 0.883216 2.19584
9.07226 -7.80531 2.28269 -1.17305 0.980252 2.93768 1.35937
9.42538 2.23721 1.02156 1.52496 0.180956 0.662584 -0.101736
9.44713 2.31023 1.05355 1.57754 0.194043 0.666057 -0.155011
9.24396 3.76981 1.59199 2.11973 0.259239 0.256202 0.274095
9.35171 3.55228 1.11326 1.28749 0.189099 -0.107896 -0.403924
9.34916 3.63193 1.00751 1.00923 0.121452 -0.135435 -0.524098
9.43272 3.07004 0.727238 0.332362 0.129377 -0.244099 -1.2233
9.60831 1.80681 0.479963 0.628609 0.309945 -0.142669 -0.373909
9.5997 1.74378 0.438291 0.575653 0.313036 -0.168214 -0.39868
9.69314 0.964829 -1.25991 -2.48663 -0.165571 -0.402344 -0.619642
9.75755 -0.279691 -0.68215 -1.64652 0.651532 -1.28564 -0.71864
9.60966 1.89922 -0.65574 -1.59403 -0.238918 0.00760976 -1.23419
9.5743 1.47468 0.390212 0.871462 0.343234 -0.0305811 0.0691938
9.61021 -4.68349 -2.06304 1.06301 -0.54518 -0.0993949 0.202153
9.49759 -5.12657 -2.20169 0.738471 -0.606725 0.164164 0.815306
9.77575 -3.37558 -1.77637 0.41585 -0.408518 -1.02293 -2.59843
9.32138 -5.6266 -2.28253 0.57417 -0.711826 0.541149 2.15253
9.79879 -2.92091 -1.6463 0.539226 -0.365368 -1.26054 -2.98759
9.18501 -5.85481 -2.27808 0.352936 -0.783198 0.847189 2.44722
9.95034 -8.54882 2.17393 -1.39729 0.964064 2.89722 1.62177
10.517 2.20099 0.753583 1.05323 0.178844 0.298086 -0.97151
10.3515 3.07134 1.26458 1.96344 0.228948 0.421407 0.057986
10.3675 3.11911 1.27801 1.98536 0.236129 0.415418 0.0100009
10.3362 3.6636 1.27875 1.59235 0.247406 -0.169408 -0.639752
10.4393 3.34168 0.770287 0.786936 0.134451 -0.338372 -0.94429
10.422 3.38388 0.645328 0.474816 0.0565479 -0.373153 -1.00288
10.5654 2.04055 0.499602 0.571862 0.30018 -0.18289 -0.576832
10.6486 1.5002 0.140249 0.155882 0.264897 -0.321236 -0.56562
10.7032 0.33776 -0.525403 -1.25741 0.667746 -1.56374 -0.82765
10.6993 -0.441274 -0.87654 -1.75799 0.616538 -1.37919 -0.157275
10.7111 -1.03032 -1.0486 -2.15504 0.619364 -1.15123 0.0446773
10.6357 -4.21867 -2.16128 -0.075569 -0.539383 -0.923379 -2.0883
10.4243 -5.57289 -2.43574 0.65002 -0.707564 0.0520285 0.813434
10.7243 -3.7053 -1.98658 0.270168 -0.476415 -1.16148 -2.50944
10.2779 -5.9853 -2.54058 0.343322 -0.794568 0.369188 1.33877
10.0642 -6.47557 -2.57964 0.23855 -0.929921 0.822578 2.71918
10.9297 -8.94491 2.1347 -1.7139 1.03087 2.66726 0.478175
11.4507 2.87018 0.894172 1.35709 0.226807 0.0100613 -0.769076
11.4646 2.93029 0.934516 1.44154 0.232672 0.0175363 -0.848108
11.2293 3.92583 1.59649 2.61878 0.185214 0.43369 0.0566228
11.3432 3.45304 1.2342 2.21502 0.17167 0.139347 -0.234659
11.4538 3.20917 0.851436 1.12052 0.186295 -0.279846 -0.779801
11.5586 2.42354 0.378149 0.489155 0.169817 -0.17183 -0.232054
11.5403 2.47904 0.261508 0.18549 0.0889906 -0.181539 -0.274773
11.5894 2.27609 0.419869 0.789905 0.258935 -0.373655 -0.504857
11.5828 2.23426 0.385893 0.738414 0.255387 -0.410854 -0.55514
11.6911 1.44438 0.124073 0.260113 0.331573 -0.365119 -0.398899
11.6735 0.215158 -0.626238 -1.10538 0.642604 -1.46775 -0.165406
11.7054 -0.482238 -0.916071 -1.74166 0.649022 -1.41818 -0.111178
11.6748 -1.10069 -1.19376 -2.22882 0.557733 -1.20761 0.419529
11.6223 -1.7128 -1.40044 -2.7955 0.536723 -0.993232 0.611333
11.5947 -4.51011 -2.35778 -0.189055 -0.617711 -1.07508 -2.1809
11.472 -4.98055 -2.50254 -0.521543 -0.701734 -0.807146 -1.82836
11.217 -6.39043 -2.76014 0.321498 -0.900889 0.242188 1.22937
11.0388 -6.78195 -2.82955 0.0449102 -1.00731 0.614664 1.72262
11.8852 -9.41057 2.14187 -1.77844 1.06938 2.49741 0.222637
12.6057 2.19761 0.510755 1.08672 0.258961 -0.0840659 -0.504148
12.359 3.6345 1.17034 1.96721 0.206022 -0.0453559 -0.785473
12.367 3.6708 1.19287 2.01274 0.207005 -0.0462591 -0.852409
12.3347 3.65245 1.24339 2.14032 0.158096 0.0773706 -0.77546
12.3508 3.62033 1.1844 2.03443 0.194138 -0.0427004 -0.642855
12.6229 2.15498 0.432583 0.953699 0.293698 -0.234909 -0.261757
12.709 1.33912 0.0332456 0.516316 0.3022 -0.18646 0.313367
12.6776 0.0701608 -0.711496 -1.17161 0.657399 -1.46681 -0.044087
12.6988 -0.506296 -0.965443 -1.57167 0.60893 -1.2856 0.432969
12.669 -1.19772 -1.28173 -2.36815 0.590031 -1.26051 0.427023
12.6005 -1.7396 -1.52907 -2.89237 0.481187 -1.07229 0.836399
12.5116 -2.2924 -1.70905 -3.41996 0.435852 -0.859841 0.914716
12.4459 -5.22813 -2.68732 -0.593405 -0.779428 -0.999407 -2.07868
12.2915 -5.67298 -2.80668 -0.898013 -0.883043 -0.699514 -1.73858
11.9952 -7.15173 -3.04822 0.0734675 -1.11175 0.444202 1.52687
12.9996 -8.57665 2.35605 -3.25595 1.26691 1.41603 -3.3437
13.5357 2.76921 0.667961 1.53251 0.24333 -0.193155 -0.443362
13.5475 2.81659 0.69868 1.60852 0.245247 -0.189078 -0.518684
13.2151 4.39848 1.51875 2.68392 0.0960641 0.11259 -1.09672
13.219 4.40663 1.52114 2.69882 0.0956532 0.117463 -1.06805
13.3313 3.71605 1.09269 2.23177 0.0776283 -0.0504106 -0.513647
13.4911 2.82859 0.698027 1.47728 0.183764 -0.0292913 -0.115444
13.6587 1.92398 0.237661 1.13016 0.263524 -0.203098 0.240552
13.6473 1.87508 0.197761 1.05971 0.250588 -0.230384 0.230981
13.6653 -0.120069 -0.874075 -1.12879 0.600028 -1.43248 0.365019
13.6911 -0.697445 -1.10091 -1.80451 0.622246 -1.30122 0.540652
13.6365 0.582624 -0.512576 -0.571045 0.649621 -1.48406 -0.227727
13.6777 -1.16406 -1.30504 -2.22177 0.56546 -1.15023 0.855714
13.6106 -1.784 -1.598 -2.99789 0.524055 -1.15719 0.69103
13.5074 -2.26876 -1.82042 -3.52593 0.39752 -0.986482 1.01834
13.3851 -2.78451 -1.98288 -4.00099 0.327755 -0.777481 1.03585
13.2842 -5.87819 -2.98866 -0.941726 -0.952049 -0.953818 -2.12287
13.1006 -6.31444 -3.08649 -1.21496 -1.0748 -0.601627 -1.73897
14.0111 -8.82809 2.41849 -3.37723 1.36626 1.10767 -3.895
14.7311 1.80645 0.224204 1.20211 0.292935 0.0262575 0.357112
14.4361 3.39907 0.926375 2.16662 0.157167 -0.11598 -0.712765
14.4414 3.42522 0.944485 2.20816 0.155896 -0.112656 -0.762794
14.2233 4.45623 1.37479 2.83591 -0.00995131 0.0528793 -0.919973
14.2129 4.42596 1.35806 2.79149 -0.0188596 0.0561732 -0.878681
14.5008 2.67437 0.560389 1.61149 0.0856802 0.163005 0.421761
14.7048 1.71269 0.159499 1.06043 0.27233 0.00771013 0.521276
14.7961 1.08256 -0.158265 0.668733 0.263223 0.0676336 1.01815
14.634 -0.486732 -1.10429 -1.60597 0.593388 -1.4267 0.662913
14.6884 -0.840387 -1.24887 -1.81823 0.580767 -1.3081 0.827739
14.6806 -1.30719 -1.4295 -2.44814 0.586851 -1.20652 0.831753
14.6363 -1.68556 -1.5921 -2.85201 0.524225 -1.09162 1.02283
14.5354 -2.25889 -1.87388 -3.5971 0.461448 -1.13707 0.758362
14.401 -2.70884 -2.08142 -4.12091 0.31356 -0.963057 1.04591
14.2484 -3.21009 -2.23559 -4.54184 0.216568 -0.736562 1.06151
14.1151 -6.48364 -3.27644 -1.24757 -1.13169 -0.929007 -2.20994
15.113 -6.19478 2.52742 -6.55176 1.05665 1.67354 -2.33704
15.6588 2.22988 0.35674 1.64903 0.227154 0.0549592 0.275961
15.6683 2.26823 0.38114 1.7114 0.227226 0.0581525 0.210345
15.3346 4.01658 1.17509 2.78578 0.0695167 -0.0364141 -0.9427
15.333 4.01772 1.17783 2.78806 0.0651983 -0.0328505 -0.954529
15.0794 5.11035 1.64799 3.43663 -0.125812 0.182056 -1.11056
15.0631 5.05847 1.61809 3.35832 -0.136574 0.18464 -1.03549
15.766 1.52907 -0.00195077 1.22351 0.214609 0.146283 0.995639
15.7358 1.40994 -0.0836492 1.02962 0.206005 0.11288 1.14381
15.8206 0.801807 -0.327996 0.322678 0.264839 0.203641 1.36137
15.598 -0.845413 -1.39091 -1.90777 0.528164 -1.47571 1.05631
15.6562 -1.17363 -1.47743 -2.33129 0.575532 -1.34261 1.01361
15.6875 -1.39547 -1.55705 -2.48612 0.568581 -1.27482 1.00233
15.6502 -1.77805 -1.70557 -3.05917 0.561431 -1.21513 0.898683
15.5792 -2.09222 -1.83918 -3.44317 0.49004 -1.1171 1.01251
15.4484 -2.64466 -2.12279 -4.15957 0.402904 -1.18062 0.721015
15.2863 -3.08596 -2.32773 -4.68239 0.228431 -0.981499 1.0415
15.1063 -3.59607 -2.48262 -5.05374 0.10117 -0.715933 1.1075
15.9458 -6.68911 2.51246 -7.09022 1.01237 1.80119 -2.37316
